<?xml version="1.0" encoding="UTF-8" standalone="no"?>
<!-- Created with Inkscape (http://www.inkscape.org/) -->

<svg
   xmlns:dc="http://purl.org/dc/elements/1.1/"
   xmlns:cc="http://creativecommons.org/ns#"
   xmlns:rdf="http://www.w3.org/1999/02/22-rdf-syntax-ns#"
   xmlns:svg="http://www.w3.org/2000/svg"
   xmlns="http://www.w3.org/2000/svg"
   xmlns:xlink="http://www.w3.org/1999/xlink"
   xmlns:sodipodi="http://sodipodi.sourceforge.net/DTD/sodipodi-0.dtd"
   xmlns:inkscape="http://www.inkscape.org/namespaces/inkscape"
   id="svg2"
   version="1.1"
   inkscape:version="0.92.2 (5c3e80d, 2017-08-06)"
   width="2481"
   height="3503"
   sodipodi:docname="E27P02.svg"
   inkscape:export-filename="E:\Users\jamesmichael\Downloads\Compressed\eps\ep27_Coriander-s-Invention_lang-pack\lang\ph\E27P02.png"
   inkscape:export-xdpi="96"
   inkscape:export-ydpi="96"
   enable-background="new">
  <metadata
     id="metadata8">
    <rdf:RDF>
      <cc:Work
         rdf:about="">
        <dc:format>image/svg+xml</dc:format>
        <dc:type
           rdf:resource="http://purl.org/dc/dcmitype/StillImage" />
        <dc:title />
      </cc:Work>
    </rdf:RDF>
  </metadata>
  <defs
     id="defs6">
    <inkscape:perspective
       sodipodi:type="inkscape:persp3d"
       inkscape:vp_x="0 : 1751.5 : 1"
       inkscape:vp_y="0 : 1000 : 0"
       inkscape:vp_z="1970.8472 : 1610.8215 : 1"
       inkscape:persp3d-origin="1240.5 : 1167.6667 : 1"
       id="perspective5318" />
    <filter
       inkscape:collect="always"
       style="color-interpolation-filters:sRGB"
       id="filter5136"
       x="-0.0070933032"
       width="1.0141866"
       y="-0.0046647535"
       height="1.0093295">
      <feGaussianBlur
         inkscape:collect="always"
         stdDeviation="1.0357537"
         id="feGaussianBlur5138" />
    </filter>
    <filter
       inkscape:collect="always"
       style="color-interpolation-filters:sRGB"
       id="filter5140"
       x="-0.0055699238"
       width="1.0111398"
       y="-0.0042170784"
       height="1.0084342">
      <feGaussianBlur
         inkscape:collect="always"
         stdDeviation="1.0357537"
         id="feGaussianBlur5142" />
    </filter>
    <clipPath
       clipPathUnits="userSpaceOnUse"
       id="clipPath5144">
      <path
         sodipodi:nodetypes="ccssccsscsssccccc"
         inkscape:connector-curvature="0"
         id="path5146"
         d="m 635.16585,59.988598 c 3.85357,5.089293 40.18725,0 43.49032,-2.544639 3.30306,-2.544655 28.07601,-22.901781 34.13164,-17.812488 6.05561,5.089278 47.89438,33.080337 55.60152,35.624992 7.70715,2.544638 60.05051,-21.738522 66.65663,-6.47064 -0.10651,69.438327 16.81926,143.751757 16.47042,207.497457 -0.55051,17.8125 -8.25765,139.95534 -12.66173,157.76786 -4.40408,17.8125 -19.81836,76.33928 -24.22245,83.97323 -4.40408,7.63391 -14.31327,27.99104 -19.26786,35.62499 -4.95459,7.63391 -117.25868,15.26785 -131.02145,17.81251 -13.76275,2.54461 -67.16224,-15.26787 -76.52093,-17.81251 -9.35866,-2.54466 -31.37908,5.0893 -45.69234,-20.35716 -14.31328,-25.44642 -24.22246,-119.59819 -28.62654,-137.41073 -4.40408,-17.8125 -12.11122,-94.15178 -11.56071,-122.14285 -4.77782,-109.57201 10.33182,-183.796245 42.8949,-225.952809 13.21225,-12.723209 60.60103,-3.065062 66.65664,-0.520423 8.28896,5.113007 7.41813,0.50765 23.67194,12.72321 z"
         style="opacity:0.125;fill:#ffffff;fill-rule:evenodd;stroke:none;stroke-width:1.44519401px;stroke-linecap:butt;stroke-linejoin:miter;stroke-opacity:1;filter:url(#filter5136)" />
    </clipPath>
    <filter
       inkscape:collect="always"
       style="color-interpolation-filters:sRGB"
       id="filter5386"
       x="-0.0039939922"
       width="1.007988"
       y="-0.0060135684"
       height="1.0120271">
      <feGaussianBlur
         inkscape:collect="always"
         stdDeviation="1.0295392"
         id="feGaussianBlur5388" />
    </filter>
    <clipPath
       clipPathUnits="userSpaceOnUse"
       id="clipPath5390">
      <path
         style="opacity:1;fill:#ffffff;fill-rule:evenodd;stroke:none;stroke-width:1.41550028px;stroke-linecap:butt;stroke-linejoin:miter;stroke-opacity:1"
         d="m 684.35407,2550.8503 c -11.30049,-65.7783 -22.95365,-114.5314 -8.26303,-131.7588 -30.47001,-160.4808 403.18336,-123.1124 465.63016,-120.9342 22.601,28.1906 4.0883,47.179 17.649,76.9359 13.5605,29.7568 -3.4333,91.5008 3.347,100.8976 6.7802,9.3971 4.294,56.1465 -1.3561,82.771 -15.7718,77.4001 -320.97712,68.9679 -422.3848,56.5409 -10.17044,-1.566 -52.36214,-22.1664 -54.62223,-64.4524 z"
         id="path5392"
         inkscape:connector-curvature="0"
         sodipodi:nodetypes="cccccccc" />
    </clipPath>
    <filter
       inkscape:collect="always"
       style="color-interpolation-filters:sRGB"
       id="filter4897">
      <feBlend
         inkscape:collect="always"
         mode="multiply"
         in2="BackgroundImage"
         id="feBlend4899" />
    </filter>
  </defs>
  <sodipodi:namedview
     pagecolor="#ffffff"
     bordercolor="#666666"
     borderopacity="1"
     objecttolerance="10"
     gridtolerance="10"
     guidetolerance="10"
     inkscape:pageopacity="0"
     inkscape:pageshadow="2"
     inkscape:window-width="1920"
     inkscape:window-height="1019"
     id="namedview4"
     showgrid="false"
     inkscape:zoom="0.32343248"
     inkscape:cx="1163.1761"
     inkscape:cy="1200.8869"
     inkscape:window-x="0"
     inkscape:window-y="27"
     inkscape:window-maximized="1"
     inkscape:current-layer="layer1"
     inkscape:snap-global="false" />
  <g
     inkscape:groupmode="layer"
     id="layer2"
     inkscape:label="artwork"
     sodipodi:insensitive="true">
    <image
       sodipodi:absref="E:\Users\jamesmichael\Downloads\Compressed\eps\ep27_Coriander-s-Invention_lang-pack\lang\ph\../gfx_Pepper-and-Carrot_by-David-Revoy_E27P02.png"
       xlink:href="../gfx_Pepper-and-Carrot_by-David-Revoy_E27P02.png"
       width="2481"
       height="3503"
       id="image10"
       x="0"
       y="0" />
  </g>
  <g
     inkscape:groupmode="layer"
     id="layer3"
     inkscape:label="speechbubbles">
    <path
       style="opacity:1;fill:#ffffff;fill-rule:evenodd;stroke:none;stroke-width:1.73852623px;stroke-linecap:butt;stroke-linejoin:miter;stroke-opacity:1;filter:url(#filter5140)"
       d="m 630.91194,46.648168 c 4.90752,5.78321 51.1785,0 55.38496,-2.891582 4.20645,-2.891617 35.75483,-26.024378 43.46668,-20.241167 7.71182,5.783187 60.99354,37.590729 70.80859,40.482346 9.81506,2.891593 76.47438,-24.7025 84.88728,-7.352892 -0.13564,78.906027 21.41934,163.351867 20.97509,235.789087 -0.70107,20.24118 -10.51612,159.03782 -16.12472,179.27902 -5.6086,20.24118 -25.2387,86.7479 -30.84732,95.42271 -5.6086,8.67477 1.86897,26.39683 -4.4407,35.07164 -6.74271,-11.30902 -5.88148,-31.78845 -25.3962,-56.23719 -9.19542,-11.52035 -26.69616,-20.31581 -37.78248,-28.48355 -13.83599,-10.19353 -41.04879,-9.54967 -57.73939,-6.9015 -15.43635,-2.67327 -32.77484,3.06887 -60.41694,10.94463 -20.54395,-2.72198 -33.58362,13.81768 -58.42848,24.23557 -16.10134,7.13157 -13.8385,18.74794 -22.93935,31.07866 -10.54878,14.29251 -12.87305,21.29834 -21.69951,30.77409 -8.35907,8.97398 -39.96129,5.78321 -58.18924,-23.13279 C 494.20223,555.56929 481.58288,448.58022 475.97428,428.33899 470.36568,408.09781 460.55063,321.34991 461.25171,289.54235 455.16715,165.03053 474.40929,80.686053 515.8784,32.781577 c 16.82582,-14.45798 77.17547,-3.482971 84.8873,-0.591389 10.556,5.810153 9.44699,0.576867 30.14624,14.45798 z"
       id="path1323-8"
       inkscape:connector-curvature="0"
       sodipodi:nodetypes="ccssccsscssccccssccccc"
       clip-path="url(#clipPath5144)" />
    <path
       style="fill:#ffffff;fill-rule:evenodd;stroke:none;stroke-width:1.15906525px;stroke-linecap:butt;stroke-linejoin:miter;stroke-opacity:1"
       d="m 350.49841,170.22976 c 6.30924,-42.96571 17.74473,-65.14154 23.65963,-70.685514 5.91491,-5.54396 15.77309,6.929964 21.29367,4.157984 5.52058,-2.77199 26.41992,-27.719814 34.30646,-26.333824 7.88654,1.38598 31.15185,9.70192 38.64406,11.08793 7.49221,1.38599 26.0256,6.92993 32.72916,22.175834 6.70356,15.24589 14.19578,31.87777 15.37876,47.12366 1.18298,15.2459 3.94327,44.3517 1.18298,69.29952 -2.76029,24.94782 -9.46385,67.91353 -18.13905,72.07149 -8.6752,4.15798 -51.65686,19.40388 -61.12071,18.01787 -9.46385,-1.38599 -35.48945,0 -41.79868,0 -6.30924,0 -29.18021,-9.70193 -35.88377,-27.7198 -6.70356,-18.01786 -11.82981,-54.05362 -12.61847,-76.22947 -0.78866,-22.17582 2.36596,-42.96568 2.36596,-42.96568 z"
       id="path1325"
       inkscape:connector-curvature="0" />
    <path
       style="fill:#ffffff;fill-rule:evenodd;stroke:none;stroke-width:1px;stroke-linecap:butt;stroke-linejoin:miter;stroke-opacity:1"
       d="m 544.4243,343.97954 c 6.17962,25.33643 -4.94369,76.0093 4.32573,89.60445 9.26943,13.59516 11.12331,11.74128 19.15682,18.53886 -12.35924,15.44904 -17.92089,33.36993 -16.68497,42.63936 1.23592,9.26942 4.32573,33.36993 35.84178,44.49324 -27.19032,-19.15681 -24.71847,-38.31363 -23.48255,-43.87528 1.23593,-5.56166 6.17962,-34.60586 21.62867,-42.0214 -15.44905,-11.74127 -23.48255,-24.71847 -23.48255,-32.13401 0,-7.41554 8.65146,-82.80688 8.65146,-82.80688 z"
       id="path1327"
       inkscape:connector-curvature="0" />
    <path
       style="fill:#ffffff;fill-rule:evenodd;stroke:none;stroke-width:1.40485656px;stroke-linecap:butt;stroke-linejoin:miter;stroke-opacity:1"
       d="m 1028.778,-86.033055 c -32.42456,33.613056 -62.38624,61.123965 -66.70952,110.423075 -0.46996,160.76532 -10.28886,335.62978 51.57802,481.16642 76.1988,60.68994 344.6373,86.65115 399.9031,-15.6861 43.6893,-131.00824 42.7529,-324.07663 22.6972,-454.896452 -20.5356,-42.576513 -55.1218,-100.839137 -82.1423,-118.766068 -27.0205,-17.92696 -190.2241,-44.81739 -208.598,-47.05826 -18.374,-2.24087 -116.7285,44.817385 -116.7285,44.817385 z"
       id="path1329"
       inkscape:connector-curvature="0"
       sodipodi:nodetypes="cccccssc" />
    <path
       style="fill:#ffffff;fill-rule:evenodd;stroke:none;stroke-width:1px;stroke-linecap:butt;stroke-linejoin:miter;stroke-opacity:1"
       d="m 1315.7274,531.26743 c 0,0 28.946,22.35486 30.4587,30.86804 1.5128,8.51325 15.1067,24.78284 -32.4903,28.74399 71.6196,-1.59175 86.5234,-4.2065 75.9832,-34.17973 -10.5403,-29.97331 -73.9516,-25.4323 -73.9516,-25.4323 z"
       id="path1333"
       inkscape:connector-curvature="0" />
    <path
       style="fill:#ffffff;fill-rule:evenodd;stroke:none;stroke-width:1.28801548px;stroke-linecap:butt;stroke-linejoin:miter;stroke-opacity:1"
       d="m 1858.4154,-127.70505 c 71.4186,12.76621 113.1457,17.1881 138.4141,45.661563 25.2685,28.473449 44.6439,144.297205 46.2824,160.448778 1.6385,16.15157 -7.3844,64.476609 -7.8841,87.331789 -0.4998,22.85518 0.8961,141.20117 0.4846,160.02306 -0.4114,18.82189 -2.0869,95.4539 -6.5101,115.58324 -4.4234,20.12923 -29.8756,91.16137 -48.0609,103.09466 -18.1854,11.93319 -94.6154,46.18468 -144.4249,47.0664 -49.8093,0.88173 -131.39,-2.56608 -162.7201,-27.06177 -31.3302,-24.49569 -69.9197,-81.33165 -81.044,-119.08648 -11.1242,-37.75473 -21.0359,-222.06998 -20.5655,-243.58059 0.4702,-21.51082 -3.5046,-112.986859 7.4212,-157.260202 10.926,-44.27334545 41.8523,-92.394886 70.2287,-114.990835 28.3767,-22.59604 48.9058,-50.643883 102.8447,-58.210603 53.9389,-7.56673 105.5339,0.98099 105.5339,0.98099 z"
       id="path1335"
       inkscape:connector-curvature="0" />
    <path
       style="fill:#ffffff;fill-rule:evenodd;stroke:none;stroke-width:1.09210789px;stroke-linecap:butt;stroke-linejoin:miter;stroke-opacity:1"
       d="m 2332.8613,954.84995 c -33.8679,28.05909 -61.2039,44.80218 -113.0743,4.78564 6.3827,41.47611 -23.0173,40.48471 -59.3857,37.12804 35.8525,52.96107 22.7052,94.98747 -31.9238,107.77077 49.4796,31.4172 42.1958,38.0807 10.9517,70.5931 73.4586,24.6311 28.3785,50.2315 24.409,75.4011 31.2639,-9.102 62.334,3.5957 20.989,51.0733 24.2457,-18.2569 90.2751,-20.7965 102.0632,35.5894 11.7904,-27.4797 23.1859,-66.0111 93.099,-31.6633 3.9578,-67.3346 33.5024,-38.7188 52.0342,-51.4529 l 5.7006,-97.8376 -23.2966,-95.1832 -13.5905,-48.4318 c -28.4982,2.4666 -58.7995,11.4521 -67.9758,-57.77255 z"
       id="path1337"
       inkscape:connector-curvature="0"
       sodipodi:nodetypes="cccccccccccccc" />
    <path
       style="fill:#ffffff;fill-rule:evenodd;stroke:none;stroke-width:1px;stroke-linecap:butt;stroke-linejoin:miter;stroke-opacity:1"
       d="m 2642.7806,2415.3267 c 24.8588,19.4547 57.2834,63.7683 55.1217,92.9504 10.8082,-38.9095 -17.2931,-97.2737 -31.3437,-112.4052 -14.0507,-15.1315 -23.778,19.4548 -23.778,19.4548 z"
       id="path1339"
       inkscape:connector-curvature="0" />
    <path
       style="fill:#ffffff;fill-rule:evenodd;stroke:none;stroke-width:1.18653309px;stroke-linecap:butt;stroke-linejoin:miter;stroke-opacity:1"
       d="m 247.80499,1592.2761 c 9.08893,-58.3463 27.26681,-86.2512 51.9368,-101.4719 24.66998,-15.2207 89.59099,2.5367 106.47029,2.5367 16.8796,0 84.3975,12.684 93.4863,32.9784 9.089,20.2945 31.1622,63.4201 24.67,109.0825 -6.4921,45.6623 -14.2826,91.3247 -49.3399,116.6926 -34.4823,11.1692 -126.302,11.8133 -146.72144,5.0737 -36.35576,-12.6841 -83.09891,-78.6409 -80.50205,-164.892 z"
       id="path1341"
       inkscape:connector-curvature="0"
       sodipodi:nodetypes="ccsccccc" />
    <path
       style="fill:#ffffff;fill-rule:evenodd;stroke:none;stroke-width:1px;stroke-linecap:butt;stroke-linejoin:miter;stroke-opacity:1"
       d="m -71.892184,1686.5879 c -25.1103,-26.3097 -29.374296,-46.7563 -36.939996,-53.2412 -7.5658,-6.4849 -52.768,-40.79 -87.35421,-44.0325 -34.5862,-3.2424 -28.1013,24.8589 -28.1013,24.8589 0,0 36.74791,1.0808 51.87931,5.4041 15.1315,4.3232 48.6369,20.5355 54.041,24.8588 5.4041,4.3233 19.454696,27.0205 46.475196,42.1519 z"
       id="path1343"
       inkscape:connector-curvature="0"
       sodipodi:nodetypes="cccccsc" />
    <path
       style="fill:#ffffff;fill-rule:evenodd;stroke:none;stroke-width:0.80079293px;stroke-linecap:butt;stroke-linejoin:miter;stroke-opacity:1"
       d="m 2083.8692,2102.1598 c 40.0461,-9.021 53.2233,-7.858 48.0748,-36.7315 -5.1484,-28.8733 27.1775,-13.8407 27.1775,-13.8407 0,0 7.3102,22.5234 4.2224,39.8435 -3.0877,17.3203 -30.471,30.391 -79.4747,10.7287 z"
       id="path1345"
       inkscape:connector-curvature="0"
       inkscape:transform-center-x="21.862578"
       inkscape:transform-center-y="37.166383" />
    <path
       style="fill:#ffffff;fill-rule:evenodd;stroke:none;stroke-width:1.43105352px;stroke-linecap:butt;stroke-linejoin:miter;stroke-opacity:1"
       d="m 1991.5022,1579.2844 c 19.8871,-71.2723 68.3618,-96.7266 79.5483,-96.7266 67.1921,-10.9225 130.1843,-6.8519 182.7124,5.0909 18.6442,5.0909 53.4465,0 68.3618,50.9087 14.9153,50.9087 26.1018,162.908 22.373,211.2714 -3.7288,48.3634 4.9718,111.9991 -11.1865,185.8168 -16.1582,73.8177 -22.3729,101.8177 -45.9888,124.7266 -68.8422,13.1009 -189.9686,27.54 -254.8031,-7.6363 -21.13,-12.7273 -54.6894,-55.9997 -49.7177,-109.4538 4.9718,-53.4542 -8.7006,-101.8176 -2.4859,-193.4533 6.2148,-91.6358 11.1865,-170.5444 11.1865,-170.5444 z"
       id="path1349"
       inkscape:connector-curvature="0"
       sodipodi:nodetypes="cccsscccccc" />
    <path
       style="fill:#ffffff;fill-rule:evenodd;stroke:none;stroke-width:1.23306298px;stroke-linecap:butt;stroke-linejoin:miter;stroke-opacity:1"
       d="m 89.068991,2406.5146 c 0,-71.2417 19.779309,-83.1153 32.678849,-83.1153 12.89956,0 55.03807,-9.4991 61.05786,-9.4991 6.01979,0 50.73822,14.2485 58.47795,26.122 7.73973,11.8736 19.7793,21.3725 18.05937,64.1175 -1.71994,42.7452 0,66.4923 -17.1994,78.3659 -17.1994,11.8738 -84.27705,16.6232 -96.31663,14.2485 -12.03957,-2.3747 -30.09893,-21.3727 -38.69863,-35.621 -8.5997,-14.2482 -19.779313,-18.9978 -18.059369,-54.6185 z"
       id="path1351"
       inkscape:connector-curvature="0" />
    <path
       style="fill:#ffffff;fill-rule:evenodd;stroke:none;stroke-width:1.0195663px;stroke-linecap:butt;stroke-linejoin:miter;stroke-opacity:1"
       d="m 358.17303,2303.4836 c 35.92904,-18.6336 61.32977,-14.2133 71.95414,-11.4489 11.1811,2.9092 39.51189,20.0928 48.38191,35.1522 8.87001,15.0593 20.18126,45.5696 19.3749,63.6407 -0.80637,18.0713 5.15863,67.7257 4.35226,91.8206 -0.80636,24.0949 -9.40022,106.9623 -15.04477,141.5988 -5.64456,34.6364 -19.35277,75.2965 -79.83016,82.8262 -60.47739,7.5296 -97.57019,4.5178 -120.95478,-7.5297 -23.38459,-12.0474 -53.22011,-19.577 -61.28376,-76.8024 -8.06365,-57.2255 -10.48274,-121.9805 -8.06365,-149.0872 2.41909,-27.1068 4.83819,-87.344 8.06365,-97.8856 3.22546,-10.5415 12.96825,-51.5933 20.22554,-60.6288 7.25729,-9.0356 112.82472,-11.6559 112.82472,-11.6559 z"
       id="path1353"
       inkscape:connector-curvature="0"
       sodipodi:nodetypes="csssscscsscsc" />
    <path
       sodipodi:nodetypes="ccccccccccc"
       inkscape:connector-curvature="0"
       id="path5380"
       d="m 635.48063,2595.0461 c -14.04912,-81.7777 -28.5367,-142.3891 -10.27286,-163.8067 -37.88127,-199.5148 501.25023,-153.0573 578.88613,-150.3492 28.0982,35.0474 5.0827,58.6544 21.9417,95.6491 16.8589,36.9946 -4.2683,113.7567 4.1611,125.4391 8.4294,11.6827 5.3385,69.8031 -1.6859,102.9035 -8.2188,40.3338 -88.8542,108.627 -172.0934,70.4887 -9.1469,-20.0352 -35.4639,-90.1972 -90.29126,-85.6101 -4.32836,11.7289 -22.53162,-10.3479 -38.58586,-4.5435 -56.09795,-16.9423 -180.23682,-2.6264 -231.88116,85.3205 -12.64421,-1.9469 -57.36867,-22.9202 -60.17849,-75.4914 z"
       style="opacity:1;fill:#ffffff;fill-rule:evenodd;stroke:none;stroke-width:1.75979459px;stroke-linecap:butt;stroke-linejoin:miter;stroke-opacity:1;filter:url(#filter5386)"
       clip-path="url(#clipPath5390)" />
    <path
       style="fill:#ffffff;fill-rule:evenodd;stroke:none;stroke-width:1px;stroke-linecap:butt;stroke-linejoin:miter;stroke-opacity:1"
       d="m 515.83865,2601.5258 c 1.08082,-19.4547 14.05064,-55.1218 33.50539,-61.6067 19.45474,-6.4849 73.49568,-6.4849 84.30387,-3.2424 10.80819,3.2424 28.1013,27.0204 32.42457,36.7478 4.32328,9.7274 16.21229,44.3136 -3.24245,58.3642 -19.45474,14.0507 -38.90949,24.8589 -59.44505,23.778 -20.53556,-1.0808 -61.60668,-8.6465 -71.33405,-21.6163 -9.72737,-12.9699 -16.21228,-32.4246 -16.21228,-32.4246 z"
       id="path1355"
       inkscape:connector-curvature="0" />
    <path
       style="fill:#ffffff;fill-rule:evenodd;stroke:none;stroke-width:1px;stroke-linecap:butt;stroke-linejoin:miter;stroke-opacity:1"
       d="m 371.0335,2696.1612 c 0,0 10.62431,7.3553 12.25882,23.7003 1.63451,16.3451 -0.81725,35.142 -13.89333,54.7561 28.60391,-32.6902 43.31449,-55.5733 34.32469,-83.36 -8.9898,-27.7866 -32.69018,4.9036 -32.69018,4.9036 z"
       id="path1357"
       inkscape:connector-curvature="0" />
    <path
       style="fill:#ffffff;fill-rule:evenodd;stroke:none;stroke-width:1px;stroke-linecap:butt;stroke-linejoin:miter;stroke-opacity:1"
       d="m 640.32858,2628.1383 c 0,0 17.16235,24.5177 9.80706,38.411 -7.35529,13.8933 -8.9898,18.7968 -25.33489,35.1419 26.9694,-17.9796 37.5937,-31.0556 40.86272,-43.3145 3.26902,-12.2588 5.72078,-35.9592 5.72078,-42.4972 0,-6.538 -31.05567,12.2588 -31.05567,12.2588 z"
       id="path1359"
       inkscape:connector-curvature="0" />
    <path
       style="fill:#ffffff;fill-rule:evenodd;stroke:none;stroke-width:1px;stroke-linecap:butt;stroke-linejoin:miter;stroke-opacity:1"
       d="m 1069.0961,2585.275 c 34.486,26.0704 49.068,46.8783 -8.103,61.6728 78.0697,-14.5942 82.0477,-34.8437 59.4039,-66.1263 -22.6442,-31.2825 -51.3009,4.4535 -51.3009,4.4535 z"
       id="path1363"
       inkscape:connector-curvature="0" />
    <path
       style="fill:#ffffff;fill-rule:evenodd;stroke:none;stroke-width:1.38735306px;stroke-linecap:butt;stroke-linejoin:miter;stroke-opacity:1"
       d="m 1610.2863,2619.7499 c 3.0178,-152.7134 21.8788,-199.462 34.7043,-221.2784 94.103,-57.887 142.7912,-17.4394 180.3113,-12.4664 33.9276,28.0999 39.9853,74.7984 42.2486,93.498 2.2633,18.6994 12.0711,68.565 9.0533,124.6639 -3.0177,56.0985 -20.3699,130.8969 -36.9677,158.9461 -45.1665,62.9483 -185.6028,43.0273 -207.471,-9.3496 -10.5621,-34.2825 -21.8788,-134.0136 -21.8788,-134.0136 z"
       id="path1369"
       inkscape:connector-curvature="0"
       sodipodi:nodetypes="cccscccc" />
    <path
       style="fill:#ffffff;fill-rule:evenodd;stroke:none;stroke-width:0.78080732px;stroke-linecap:butt;stroke-linejoin:miter;stroke-opacity:1"
       d="m 2125.9051,2595.683 c 9.5575,24.1512 3.7574,34.5534 -12.4176,35.6671 12.5102,9.9586 28.1259,15.5923 24.8351,47.556 13.8891,-0.375 22.6755,-19.937 44.8411,10.8082 13.1073,-25.3561 26.2147,-13.281 39.3222,-2.1617 6.2867,-11.3113 17.8619,-12.0311 42.0816,-6.4849 -1.8702,-25.0109 13.3287,-36.1565 27.5946,-44.3136 -12.0791,-13.1763 -22.9592,-27.5479 -15.1771,-60.5258 -17.5531,7.2773 -32.314,6.6803 -40.7018,-11.889 -17.4147,4.157 -30.4958,21.8927 -54.4993,5.4041 -12.9259,19.9279 -27.3332,21.2885 -42.0816,18.3739 3.361,17.7643 -0.6065,21.4958 -13.7972,7.5657 z"
       id="path1371"
       inkscape:connector-curvature="0"
       sodipodi:nodetypes="cccccccccccc" />
    <path
       style="fill:#ffffff;fill-rule:evenodd;stroke:none;stroke-width:1px;stroke-linecap:butt;stroke-linejoin:miter;stroke-opacity:1"
       d="m 2251.8605,2713.3189 c 20.3841,-27.2656 26.1638,-59.6391 -2.6441,-62.196 14.2045,-17.1086 15.4891,-27.5378 -2.2453,-25.4216 7.9437,11.8968 -5.6185,23.7911 -24.4772,42.3113 12.4376,4.5103 19.8989,27.597 4.8912,58.5026 -15.0078,30.9057 24.4754,-13.1963 24.4754,-13.1963 z"
       id="path1373"
       inkscape:connector-curvature="0" />
  </g>
  <g
     inkscape:groupmode="layer"
     id="layer1"
     inkscape:label="txt"
     style="filter:url(#filter4897);opacity:0.98">
    <text
       xml:space="preserve"
       style="font-style:normal;font-variant:normal;font-weight:normal;font-stretch:normal;line-height:0%;font-family:Lavi;-inkscape-font-specification:Lavi;text-align:center;letter-spacing:0px;word-spacing:0px;text-anchor:middle;fill:#000000;fill-opacity:1;stroke:none"
       x="2865.3635"
       y="343.88644"
       id="text4246-3-7"><tspan
         sodipodi:role="line"
         style="font-size:45px;line-height:1.20000005"
         x="2865.3635"
         y="343.88644"
         id="tspan841-3">So many young</tspan><tspan
         sodipodi:role="line"
         style="font-size:45px;line-height:1.20000005"
         x="2865.3635"
         y="397.88644"
         id="tspan866">kings and queens were</tspan><tspan
         sodipodi:role="line"
         style="font-size:45px;line-height:1.20000005"
         x="2865.3635"
         y="451.88644"
         id="tspan868">assassinated during</tspan><tspan
         sodipodi:role="line"
         style="font-size:45px;line-height:1.20000005"
         x="2865.3635"
         y="505.88644"
         id="tspan870">their coronation</tspan><tspan
         sodipodi:role="line"
         style="font-size:45px;line-height:1.20000005"
         x="2865.3635"
         y="559.88641"
         id="tspan872">ceremony.</tspan></text>
    <text
       xml:space="preserve"
       style="font-style:normal;font-variant:normal;font-weight:normal;font-stretch:normal;line-height:0%;font-family:Lavi;-inkscape-font-specification:Lavi;text-align:center;letter-spacing:0px;word-spacing:0px;text-anchor:middle;fill:#000000;fill-opacity:1;stroke:none"
       x="2833.9207"
       y="641.48315"
       id="text4246-3-7-7"><tspan
         sodipodi:role="line"
         style="font-size:45px;line-height:1.20000005"
         x="2833.9207"
         y="641.48315"
         id="tspan952">It has become</tspan><tspan
         sodipodi:role="line"
         style="font-size:45px;line-height:1.20000005"
         x="2833.9207"
         y="695.48315"
         id="tspan740">part of my family's</tspan><tspan
         sodipodi:role="line"
         style="font-size:45px;line-height:1.20000005"
         x="2833.9207"
         y="749.48322"
         id="tspan746">history.</tspan></text>
    <text
       xml:space="preserve"
       style="font-style:normal;font-variant:normal;font-weight:normal;font-stretch:normal;line-height:0%;font-family:Lavi;-inkscape-font-specification:Lavi;text-align:center;letter-spacing:0px;word-spacing:0px;text-anchor:middle;fill:#000000;fill-opacity:1;stroke:none"
       x="2974.238"
       y="834.24036"
       id="text4246-3-7-7-6"><tspan
         sodipodi:role="line"
         style="font-size:45px;line-height:1.20000005"
         x="2974.238"
         y="834.24036"
         id="tspan952-8">And now, in a couple of</tspan><tspan
         sodipodi:role="line"
         style="font-size:45px;line-height:1.20000005"
         x="2974.238"
         y="888.24036"
         id="tspan990">hours, we will receive thousands</tspan><tspan
         sodipodi:role="line"
         style="font-size:45px;line-height:1.20000005"
         x="2974.238"
         y="942.24036"
         id="tspan992">of guests from all over the world</tspan><tspan
         sodipodi:role="line"
         style="font-size:45px;line-height:1.20000005"
         x="2974.238"
         y="996.24036"
         id="tspan994">and I'll be at the center</tspan><tspan
         sodipodi:role="line"
         style="font-size:45px;line-height:1.20000005"
         x="2974.238"
         y="1050.2404"
         id="tspan996">of attention.</tspan></text>
    <text
       xml:space="preserve"
       style="font-style:normal;font-variant:normal;font-weight:normal;font-stretch:normal;line-height:0%;font-family:Lavi;-inkscape-font-specification:Lavi;text-align:center;letter-spacing:0px;word-spacing:0px;text-anchor:middle;fill:#000000;fill-opacity:1;stroke:none"
       x="2768.0466"
       y="1322.4956"
       id="text4246-3-7-7-6-7"><tspan
         sodipodi:role="line"
         style="font-size:45px;line-height:1.20000005"
         x="2768.0466"
         y="1322.4956"
         id="tspan1042">Don't worry,</tspan><tspan
         sodipodi:role="line"
         style="font-size:45px;line-height:1.20000005"
         x="2768.0466"
         y="1376.4956"
         id="tspan1067">Coriander.</tspan></text>
    <text
       xml:space="preserve"
       style="font-style:normal;font-variant:normal;font-weight:normal;font-stretch:normal;line-height:0%;font-family:Lavi;-inkscape-font-specification:Lavi;text-align:center;letter-spacing:0px;word-spacing:0px;text-anchor:middle;fill:#000000;fill-opacity:1;stroke:none"
       x="2769.5627"
       y="1148.1172"
       id="text4246-3-7-7-6-7-7"><tspan
         sodipodi:role="line"
         style="font-size:45px;line-height:1.20000005"
         x="2769.5627"
         y="1148.1172"
         id="tspan996-3-5">I'm really,</tspan><tspan
         sodipodi:role="line"
         style="font-size:45px;line-height:1.20000005"
         x="2769.5627"
         y="1202.1172"
         id="tspan1042-9">really afraid!</tspan></text>
    <text
       xml:space="preserve"
       style="font-style:normal;font-variant:normal;font-weight:normal;font-stretch:normal;line-height:0%;font-family:Lavi;-inkscape-font-specification:Lavi;text-align:center;letter-spacing:0px;word-spacing:0px;text-anchor:middle;fill:#000000;fill-opacity:1;stroke:none"
       x="2750.5564"
       y="1546.5945"
       id="text4246-3-7-7-6-7-2"><tspan
         sodipodi:role="line"
         style="font-size:45px;line-height:1.20000005"
         x="2750.5564"
         y="1546.5945"
         id="tspan1067-8">We'll follow</tspan><tspan
         sodipodi:role="line"
         style="font-size:45px;line-height:1.20000005"
         x="2750.5564"
         y="1600.5945"
         id="tspan1092">our plan.</tspan></text>
    <text
       xml:space="preserve"
       style="font-style:normal;font-variant:normal;font-weight:normal;font-stretch:normal;line-height:0%;font-family:Lavi;-inkscape-font-specification:Lavi;text-align:center;letter-spacing:0px;word-spacing:0px;text-anchor:middle;fill:#000000;fill-opacity:1;stroke:none"
       x="2780.4392"
       y="1740.299"
       id="text4246-3-7-7-6-7-2-9"><tspan
         sodipodi:role="line"
         style="font-size:45px;line-height:1.20000005"
         x="2780.4392"
         y="1740.299"
         id="tspan1092-3">Shichimi and I</tspan><tspan
         sodipodi:role="line"
         style="font-size:45px;line-height:1.20000005"
         x="2780.4392"
         y="1794.299"
         id="tspan1117">will be your</tspan><tspan
         sodipodi:role="line"
         style="font-size:45px;line-height:1.20000005"
         x="2780.4392"
         y="1848.299"
         id="tspan1119">bodyguards,</tspan><tspan
         sodipodi:role="line"
         style="font-size:45px;line-height:1.20000005"
         x="2780.4392"
         y="1902.299"
         id="tspan1121">remember?</tspan></text>
    <text
       xml:space="preserve"
       style="font-style:normal;font-variant:normal;font-weight:normal;font-stretch:normal;line-height:0%;font-family:Lavi;-inkscape-font-specification:Lavi;text-align:center;letter-spacing:0px;word-spacing:0px;text-anchor:middle;fill:#000000;fill-opacity:1;stroke:none"
       x="2719.575"
       y="2099.9011"
       id="text4246-3-7-7-6-7-2-9-6"><tspan
         sodipodi:role="line"
         style="font-size:45px;line-height:1.20000005"
         x="2719.575"
         y="2099.9011"
         id="tspan1121-3">Exactly.</tspan></text>
    <text
       xml:space="preserve"
       style="font-style:normal;font-variant:normal;font-weight:normal;font-stretch:normal;line-height:0%;font-family:Lavi;-inkscape-font-specification:Lavi;text-align:center;letter-spacing:0px;word-spacing:0px;text-anchor:middle;fill:#000000;fill-opacity:1;stroke:none"
       x="2796.1277"
       y="2266.8621"
       id="text4246-3-7-7-6-7-2-9-6-1"><tspan
         sodipodi:role="line"
         style="font-size:45px;line-height:1.20000005"
         x="2796.1277"
         y="2266.8621"
         id="tspan1121-3-9">You should just</tspan><tspan
         sodipodi:role="line"
         style="font-size:45px;line-height:1.20000005"
         x="2796.1277"
         y="2320.8621"
         id="tspan1177">take a break</tspan><tspan
         sodipodi:role="line"
         style="font-size:45px;line-height:1.20000005"
         x="2796.1277"
         y="2374.8621"
         id="tspan1179">and think about</tspan><tspan
         sodipodi:role="line"
         style="font-size:45px;line-height:1.20000005"
         x="2796.1277"
         y="2428.8621"
         id="tspan1181">something else</tspan><tspan
         sodipodi:role="line"
         style="font-size:45px;line-height:1.20000005"
         x="2796.1277"
         y="2482.8621"
         id="tspan1183">for now.</tspan></text>
    <text
       xml:space="preserve"
       style="font-style:normal;font-variant:normal;font-weight:normal;font-stretch:normal;line-height:0%;font-family:Lavi;-inkscape-font-specification:Lavi;text-align:center;letter-spacing:0px;word-spacing:0px;text-anchor:middle;fill:#000000;fill-opacity:1;stroke:none"
       x="601.40594"
       y="2612.5063"
       id="text4246-3-7-7-6-7-2-9-6-1-4"><tspan
         sodipodi:role="line"
         style="font-size:45px;line-height:1.20000005"
         x="601.40594"
         y="2612.5063"
         id="tspan1183-0">OK.</tspan></text>
    <text
       xml:space="preserve"
       style="font-style:normal;font-variant:normal;font-weight:normal;font-stretch:normal;line-height:0%;font-family:Lavi;-inkscape-font-specification:Lavi;text-align:center;letter-spacing:0px;word-spacing:0px;text-anchor:middle;fill:#000000;fill-opacity:1;stroke:none"
       x="2801.6428"
       y="2633.1541"
       id="text4246-3-7-7-6-7-2-9-6-1-4-3"><tspan
         sodipodi:role="line"
         style="font-size:45px;line-height:1.20000005"
         x="2801.6428"
         y="2633.1541"
         id="tspan1183-0-6">Hey! Why don't</tspan><tspan
         sodipodi:role="line"
         style="font-size:45px;line-height:1.20000005"
         x="2801.6428"
         y="2687.1541"
         id="tspan1247">I show you my</tspan><tspan
         sodipodi:role="line"
         style="font-size:45px;line-height:1.20000005"
         x="2801.6428"
         y="2741.1541"
         id="tspan1249">latest invention?</tspan></text>
    <text
       xml:space="preserve"
       style="font-style:normal;font-variant:normal;font-weight:normal;font-stretch:normal;font-size:21.56011009px;line-height:0%;font-family:Lavi;-inkscape-font-specification:Lavi;text-align:center;letter-spacing:0px;word-spacing:0px;text-anchor:middle;fill:#ffffff;fill-opacity:1;stroke:none;stroke-width:1.7966758"
       x="1433.1838"
       y="2535.6594"
       id="text4246-3-7-7-6-7-2-9-6-1-4-3-1"><tspan
         sodipodi:role="line"
         style="font-size:80.85041046px;line-height:1.20000005;fill:#ffffff;stroke-width:1.7966758"
         x="1433.1838"
         y="2535.6594"
         id="tspan1249-3">...</tspan></text>
    <text
       xml:space="preserve"
       style="font-style:normal;font-variant:normal;font-weight:normal;font-stretch:normal;line-height:0%;font-family:Lavi;-inkscape-font-specification:Lavi;text-align:center;letter-spacing:0px;word-spacing:0px;text-anchor:middle;fill:#000000;fill-opacity:1;stroke:none"
       x="1748.8669"
       y="2478.2764"
       id="text4246-3-7-7-6-7-2-9-6-1-4-3-1-2"><tspan
         sodipodi:role="line"
         style="font-size:45px;line-height:1.20000005"
         x="1756.7771"
         y="2478.2764"
         id="tspan1249-3-0">Andito </tspan><tspan
         sodipodi:role="line"
         style="font-size:45px;line-height:1.20000005"
         x="1756.7771"
         y="2532.2764"
         id="tspan1298">lang sa </tspan><tspan
         sodipodi:role="line"
         style="font-size:45px;line-height:1.20000005"
         x="1756.7771"
         y="2586.2764"
         id="tspan5305">baba, </tspan><tspan
         sodipodi:role="line"
         style="font-size:45px;line-height:1.20000005"
         x="1756.7771"
         y="2640.2764"
         id="tspan5307">sa may </tspan><tspan
         sodipodi:role="line"
         style="font-size:45px;line-height:1.20000005"
         x="1748.8669"
         y="2694.2764"
         id="tspan5299">workshop.</tspan></text>
    <text
       xml:space="preserve"
       style="font-style:normal;font-variant:normal;font-weight:normal;font-stretch:normal;line-height:0%;font-family:Lavi;-inkscape-font-specification:Lavi;text-align:center;letter-spacing:0px;word-spacing:0px;text-anchor:middle;fill:#000000;fill-opacity:1;stroke:none"
       x="2210.8547"
       y="2640.0938"
       id="text4246-3-7-7-6-7-2-9-6-1-4-3-1-2-6"><tspan
         sodipodi:role="line"
         style="font-size:45px;line-height:1.20000005"
         x="2210.8547"
         y="2640.0938"
         id="tspan1298-5">Tara!</tspan></text>
    <text
       xml:space="preserve"
       style="font-style:normal;font-variant:normal;font-weight:normal;font-stretch:normal;font-size:10.81249046px;line-height:0%;font-family:Lavi;-inkscape-font-specification:Lavi;text-align:center;letter-spacing:0px;word-spacing:0px;text-anchor:middle;fill:#000000;fill-opacity:1;stroke:none;stroke-width:0.90104091"
       x="676.37274"
       y="211.77342"
       id="text4246-3-78"><tspan
         sodipodi:role="line"
         style="font-size:40.54684067px;line-height:1.20000005;fill:#000000;stroke-width:0.90104091"
         x="676.37274"
         y="214.91608"
         id="tspan841-1" /><tspan
         sodipodi:role="line"
         style="font-size:40.54684067px;line-height:1.20000005;fill:#000000;stroke-width:0.90104091"
         x="683.50012"
         y="247.88649"
         id="tspan4852">Kinakabahan </tspan><tspan
         sodipodi:role="line"
         style="font-size:40.54684067px;line-height:1.20000005;fill:#000000;stroke-width:0.90104091"
         x="683.50012"
         y="296.54269"
         id="tspan4874">lang talaga ako </tspan><tspan
         sodipodi:role="line"
         style="font-size:40.54684067px;line-height:1.20000005;fill:#000000;stroke-width:0.90104091"
         x="683.50012"
         y="345.19891"
         id="tspan4872">para sa mamaya </tspan><tspan
         sodipodi:role="line"
         style="font-size:40.54684067px;line-height:1.20000005;fill:#000000;stroke-width:0.90104091"
         x="683.50012"
         y="393.8551"
         id="tspan5102">lalo, na yung </tspan><tspan
         sodipodi:role="line"
         style="font-size:40.54684067px;line-height:1.20000005;fill:#000000;stroke-width:0.90104091"
         x="683.50012"
         y="442.51132"
         id="tspan5106">security... </tspan></text>
    <flowRoot
       xml:space="preserve"
       id="flowRoot4864"
       style="fill:black;fill-opacity:1;stroke:none;font-family:sans-serif;font-style:normal;font-weight:normal;font-size:40px;line-height:1.25;letter-spacing:0px;word-spacing:0px"><flowRegion
         id="flowRegion4866"
         style=""><rect
           id="rect4868"
           width="146.47928"
           height="74.332764"
           x="372.75696"
           y="750.5014"
           style="" /></flowRegion><flowPara
         id="flowPara4870" /></flowRoot>    <flowRoot
       xml:space="preserve"
       id="flowRoot4878"
       style="font-style:normal;font-weight:normal;font-size:40px;line-height:1;font-family:sans-serif;text-align:center;letter-spacing:0px;word-spacing:0px;text-anchor:middle;fill:#000000;fill-opacity:1;stroke:none"
       transform="translate(59.02896,-557.49574)"><flowRegion
         id="flowRegion4880"
         style="line-height:1;text-align:center;text-anchor:middle;fill:#000000;fill-opacity:1"><rect
           id="rect4882"
           width="366.16602"
           height="448.58453"
           x="975.07098"
           y="682.72742"
           style="line-height:1;text-align:center;text-anchor:middle;fill:#000000;fill-opacity:1"
           ry="122.43044" /></flowRegion><flowPara
         id="flowPara4884"
         style="font-style:normal;font-variant:normal;font-weight:normal;font-stretch:normal;line-height:1;font-family:Lavi;-inkscape-font-specification:Lavi;text-align:center;text-anchor:middle;fill:#000000">Marami nang prinsipe't prinsesa ang pinatay sa mismong koronasyon nila</flowPara><flowPara
         style="font-style:normal;font-variant:normal;font-weight:normal;font-stretch:normal;line-height:1;font-family:Lavi;-inkscape-font-specification:Lavi;text-align:center;text-anchor:middle;fill:#000000"
         id="flowPara4886">Lalo pa na sa pamilya </flowPara><flowPara
         style="font-style:normal;font-variant:normal;font-weight:normal;font-stretch:normal;line-height:1;font-family:Lavi;-inkscape-font-specification:Lavi;text-align:center;text-anchor:middle;fill:#000000"
         id="flowPara5157">namin...</flowPara></flowRoot>    <flowRoot
       xml:space="preserve"
       id="flowRoot4945"
       style="font-style:normal;font-weight:normal;font-size:40px;line-height:1.25999999;font-family:sans-serif;letter-spacing:0px;word-spacing:0px;fill:#000000;fill-opacity:1;stroke:none"
       transform="translate(-97.229635,-530.6658)"><flowRegion
         id="flowRegion4947"
         style="line-height:1.25999999;fill:#000000;fill-opacity:1"><rect
           id="rect4949"
           width="374.11191"
           height="507.06091"
           x="1720.6064"
           y="633.77673"
           style="line-height:1.25999999;fill:#000000;fill-opacity:1"
           ry="43.285694" /></flowRegion><flowPara
         style="font-style:normal;font-variant:normal;font-weight:normal;font-stretch:normal;line-height:1.25999999;font-family:Lavi;-inkscape-font-specification:Lavi;text-align:center;text-anchor:middle;fill:#000000;fill-opacity:1"
         id="flowPara4953">Tapos mamaya, andyan na sila lahat</flowPara><flowPara
         style="font-style:normal;font-variant:normal;font-weight:normal;font-stretch:normal;line-height:1.25999999;font-family:Lavi;-inkscape-font-specification:Lavi;text-align:center;text-anchor:middle;fill:#000000;fill-opacity:1"
         id="flowPara5180" /><flowPara
         style="font-style:normal;font-variant:normal;font-weight:normal;font-stretch:normal;line-height:1.25999999;font-family:Lavi;-inkscape-font-specification:Lavi;text-align:center;text-anchor:middle;fill:#000000;fill-opacity:1"
         id="flowPara5182"> galing sa ibat-ibang mundo, lahat sila sakin nakasentro, kasi nga event </flowPara><flowPara
         style="font-style:normal;font-variant:normal;font-weight:normal;font-stretch:normal;line-height:1.25999999;font-family:Lavi;-inkscape-font-specification:Lavi;text-align:center;text-anchor:middle;fill:#000000;fill-opacity:1"
         id="flowPara5184">ko to </flowPara></flowRoot>    <text
       id="text4961"
       y="1567.9385"
       x="389.80841"
       style="font-style:normal;font-variant:normal;font-weight:normal;font-stretch:normal;line-height:0%;font-family:Lavi;-inkscape-font-specification:Lavi;text-align:center;letter-spacing:0px;word-spacing:0px;text-anchor:middle;fill:#000000;fill-opacity:1;stroke:none"
       xml:space="preserve"><tspan
         id="tspan4959"
         y="1567.9385"
         x="397.71857"
         style="font-size:45px;line-height:1.20000005"
         sodipodi:role="line">Ano </tspan><tspan
         y="1621.9385"
         x="389.80841"
         style="font-size:45px;line-height:1.20000005"
         sodipodi:role="line"
         id="tspan5186">ka ba</tspan><tspan
         y="1639.347"
         x="389.80841"
         style="font-size:45px;line-height:1.20000005"
         sodipodi:role="line"
         id="tspan4965" /><tspan
         y="1675.9385"
         x="389.80841"
         style="font-size:45px;line-height:1.20000005"
         sodipodi:role="line"
         id="tspan4967">Coriander!</tspan></text>
    <text
       xml:space="preserve"
       style="font-style:normal;font-variant:normal;font-weight:normal;font-stretch:normal;line-height:0%;font-family:Lavi;-inkscape-font-specification:Lavi;text-align:center;letter-spacing:0px;word-spacing:0px;text-anchor:middle;fill:#000000;fill-opacity:1;stroke:none"
       x="2161.3535"
       y="1614.5168"
       id="text4983"><tspan
         id="tspan4981"
         sodipodi:role="line"
         style="font-size:45px;line-height:1.20000005"
         x="2169.2637"
         y="1614.5168">Wag ka </tspan><tspan
         sodipodi:role="line"
         style="font-size:45px;line-height:1.20000005"
         x="2161.3535"
         y="1668.5168"
         id="tspan5188">magalala</tspan><tspan
         sodipodi:role="line"
         style="font-size:45px;line-height:1.20000005"
         x="2169.2637"
         y="1722.5168"
         id="tspan4990">Sunod tayo </tspan><tspan
         sodipodi:role="line"
         style="font-size:45px;line-height:1.20000005"
         x="2169.2637"
         y="1776.5168"
         id="tspan4992">sa plano. Kami </tspan><tspan
         sodipodi:role="line"
         style="font-size:45px;line-height:1.20000005"
         x="2169.2637"
         y="1830.5168"
         id="tspan5192">ni Shichimi ang </tspan><tspan
         sodipodi:role="line"
         style="font-size:45px;line-height:1.20000005"
         x="2169.2637"
         y="1884.5168"
         id="tspan5196">bodyguards </tspan><tspan
         sodipodi:role="line"
         style="font-size:45px;line-height:1.20000005"
         x="2161.3535"
         y="1938.5168"
         id="tspan5194">mo diba?</tspan></text>
    <text
       id="text4996"
       y="2380.4097"
       x="358.85419"
       style="font-style:normal;font-variant:normal;font-weight:normal;font-stretch:normal;line-height:0%;font-family:Lavi;-inkscape-font-specification:Lavi;text-align:center;letter-spacing:0px;word-spacing:0px;text-anchor:middle;fill:#000000;fill-opacity:1;stroke:none"
       xml:space="preserve"><tspan
         id="tspan4994"
         y="2383.8975"
         x="358.85419"
         style="font-size:45px;line-height:1.20000005"
         sodipodi:role="line" /><tspan
         y="2413.739"
         x="366.76434"
         style="font-size:45px;line-height:0.89999998"
         sodipodi:role="line"
         id="tspan4998">Bakit hindi </tspan><tspan
         y="2454.239"
         x="366.76434"
         style="font-size:45px;line-height:0.89999998"
         sodipodi:role="line"
         id="tspan5207">ka muna </tspan><tspan
         y="2494.739"
         x="366.76434"
         style="font-size:45px;line-height:0.89999998"
         sodipodi:role="line"
         id="tspan5000">magrelax, </tspan><tspan
         y="2535.239"
         x="366.76434"
         style="font-size:45px;line-height:0.89999998"
         sodipodi:role="line"
         id="tspan5002">magisip </tspan><tspan
         y="2575.739"
         x="366.76434"
         style="font-size:45px;line-height:0.89999998"
         sodipodi:role="line"
         id="tspan5004">ka naman </tspan><tspan
         y="2616.239"
         x="366.76434"
         style="font-size:45px;line-height:0.89999998"
         sodipodi:role="line"
         id="tspan5006">ng ibang </tspan><tspan
         y="2656.739"
         x="358.85419"
         style="font-size:45px;line-height:0.89999998"
         sodipodi:role="line"
         id="tspan5247">bagay</tspan></text>
    <text
       id="text5014"
       y="2390.5742"
       x="908.90674"
       style="font-style:normal;font-variant:normal;font-weight:normal;font-stretch:normal;line-height:0%;font-family:Lavi;-inkscape-font-specification:Lavi;text-align:center;letter-spacing:0px;word-spacing:0px;text-anchor:middle;fill:#000000;fill-opacity:1;stroke:none"
       xml:space="preserve"><tspan
         id="tspan5012"
         y="2390.5742"
         x="916.81689"
         style="font-size:45px;line-height:1"
         sodipodi:role="line">Ay oo nga pala! </tspan><tspan
         y="2435.5742"
         x="916.81689"
         style="font-size:45px;line-height:1"
         sodipodi:role="line"
         id="tspan5281">Meron akong </tspan><tspan
         y="2480.5742"
         x="916.81689"
         style="font-size:45px;line-height:1"
         sodipodi:role="line"
         id="tspan5273">naisipang gawing </tspan><tspan
         y="2525.5742"
         x="916.81689"
         style="font-size:45px;line-height:1"
         sodipodi:role="line"
         id="tspan5265">invention eh, gusto </tspan><tspan
         y="2570.5742"
         x="908.90674"
         style="font-size:45px;line-height:1"
         sodipodi:role="line"
         id="tspan5267">nyo makita?</tspan></text>
    <text
       id="text5085"
       y="201.83044"
       x="441.10855"
       style="font-style:normal;font-variant:normal;font-weight:normal;font-stretch:normal;line-height:0%;font-family:Lavi;-inkscape-font-specification:Lavi;text-align:center;letter-spacing:0px;word-spacing:0px;text-anchor:middle;fill:#000000;fill-opacity:1;stroke:none"
       xml:space="preserve"><tspan
         id="tspan5083"
         y="201.83044"
         x="449.01871"
         style="font-size:45px;line-height:1;fill:#000000"
         sodipodi:role="line">Alam </tspan><tspan
         y="246.83044"
         x="449.01871"
         style="font-size:45px;line-height:1;fill:#000000"
         sodipodi:role="line"
         id="tspan5094">ko... </tspan></text>
    <flowRoot
       transform="translate(443.18884,418.26567)"
       style="font-style:normal;font-weight:normal;font-size:40px;line-height:1;font-family:sans-serif;text-align:center;letter-spacing:0px;word-spacing:0px;text-anchor:middle;fill:#000000;fill-opacity:1;stroke:none"
       id="flowRoot5169"
       xml:space="preserve"><flowRegion
         style="line-height:1;text-align:center;text-anchor:middle;fill:#000000;fill-opacity:1"
         id="flowRegion5161"><rect
           ry="43.285694"
           style="line-height:1;text-align:center;text-anchor:middle;fill:#000000;fill-opacity:1"
           y="633.77673"
           x="1720.6064"
           height="181.3085"
           width="240.75009"
           id="rect5159" /></flowRegion><flowPara
         id="flowPara5167"
         style="font-style:normal;font-variant:normal;font-weight:normal;font-stretch:normal;line-height:1;font-family:Lavi;-inkscape-font-specification:Lavi;text-align:center;text-anchor:middle;fill:#000000;fill-opacity:1">Sinong hindi kakabahan diba?</flowPara></flowRoot>    <text
       xml:space="preserve"
       style="font-style:normal;font-variant:normal;font-weight:normal;font-stretch:normal;line-height:0%;font-family:Lavi;-inkscape-font-specification:Lavi;text-align:center;letter-spacing:0px;word-spacing:0px;text-anchor:middle;fill:#000000;fill-opacity:1;stroke:none"
       x="171.79814"
       y="2414.4199"
       id="text5223"><tspan
         sodipodi:role="line"
         style="font-size:45px;line-height:1"
         x="179.7083"
         y="2414.4199"
         id="tspan5209">Oo </tspan><tspan
         sodipodi:role="line"
         style="font-size:45px;line-height:1"
         x="171.79814"
         y="2459.4199"
         id="tspan5245">nga.</tspan><tspan
         id="tspan5221"
         sodipodi:role="line"
         style="font-size:45px;line-height:1"
         x="171.79814"
         y="2472.3284" /></text>
  </g>
</svg>
