<?xml version="1.0" encoding="UTF-8" standalone="no"?>
<!-- Created with Inkscape (http://www.inkscape.org/) -->

<svg
   xmlns:dc="http://purl.org/dc/elements/1.1/"
   xmlns:cc="http://creativecommons.org/ns#"
   xmlns:rdf="http://www.w3.org/1999/02/22-rdf-syntax-ns#"
   xmlns:svg="http://www.w3.org/2000/svg"
   xmlns="http://www.w3.org/2000/svg"
   xmlns:xlink="http://www.w3.org/1999/xlink"
   xmlns:sodipodi="http://sodipodi.sourceforge.net/DTD/sodipodi-0.dtd"
   xmlns:inkscape="http://www.inkscape.org/namespaces/inkscape"
   id="svg2"
   version="1.1"
   inkscape:version="0.92.2 (5c3e80d, 2017-08-06)"
   width="2481"
   height="3503"
   sodipodi:docname="E27P05.svg"
   inkscape:export-filename="E:\Users\jamesmichael\Downloads\Compressed\eps\ep27_Coriander-s-Invention_lang-pack\lang\ph\E27P05.png"
   inkscape:export-xdpi="96"
   inkscape:export-ydpi="96">
  <metadata
     id="metadata8">
    <rdf:RDF>
      <cc:Work
         rdf:about="">
        <dc:format>image/svg+xml</dc:format>
        <dc:type
           rdf:resource="http://purl.org/dc/dcmitype/StillImage" />
        <dc:title />
      </cc:Work>
    </rdf:RDF>
  </metadata>
  <defs
     id="defs6">
    <filter
       style="color-interpolation-filters:sRGB"
       id="filter4375-4-1-1-1-9-7-7-0-3-7"
       inkscape:label="deevad outline effect">
      <feFlood
         id="feFlood4377-7-9-0-8-1-4-8-3-2-4"
         flood-opacity="1"
         flood-color="rgb(0,0,0)"
         result="flood" />
      <feComposite
         id="feComposite4379-3-8-8-2-77-7-8-1-2-6"
         in2="SourceGraphic"
         in="flood"
         operator="in"
         result="composite1" />
      <feMorphology
         id="feMorphology4393-1-0-49-8-9-3-9-0-1-4"
         operator="dilate"
         radius="4"
         result="result3" />
      <feComposite
         id="feComposite4385-9-5-7-0-8-0-0-3-5-9"
         in2="result3"
         in="SourceGraphic"
         operator="over"
         result="composite2" />
    </filter>
    <filter
       style="color-interpolation-filters:sRGB"
       id="filter4375-4-1-1-1-9-7-7-0-1"
       inkscape:label="deevad outline effect">
      <feFlood
         id="feFlood4377-7-9-0-8-1-4-8-3-23"
         flood-opacity="1"
         flood-color="rgb(0,0,0)"
         result="flood" />
      <feComposite
         id="feComposite4379-3-8-8-2-77-7-8-1-1"
         in2="SourceGraphic"
         in="flood"
         operator="in"
         result="composite1" />
      <feMorphology
         id="feMorphology4393-1-0-49-8-9-3-9-0-8"
         operator="dilate"
         radius="4"
         result="result3" />
      <feComposite
         id="feComposite4385-9-5-7-0-8-0-0-3-1"
         in2="result3"
         in="SourceGraphic"
         operator="over"
         result="composite2" />
    </filter>
    <filter
       style="color-interpolation-filters:sRGB"
       id="filter4375-4-1-1-1-9-7-7-3"
       inkscape:label="deevad outline effect">
      <feFlood
         id="feFlood4377-7-9-0-8-1-4-8-8"
         flood-opacity="1"
         flood-color="rgb(0,0,0)"
         result="flood" />
      <feComposite
         id="feComposite4379-3-8-8-2-77-7-8-9"
         in2="SourceGraphic"
         in="flood"
         operator="in"
         result="composite1" />
      <feMorphology
         id="feMorphology4393-1-0-49-8-9-3-9-2"
         operator="dilate"
         radius="4"
         result="result3" />
      <feComposite
         id="feComposite4385-9-5-7-0-8-0-0-4"
         in2="result3"
         in="SourceGraphic"
         operator="over"
         result="composite2" />
    </filter>
    <filter
       style="color-interpolation-filters:sRGB"
       id="filter4375-4-1-1-1-9-7-5"
       inkscape:label="deevad outline effect">
      <feFlood
         id="feFlood4377-7-9-0-8-1-4-1"
         flood-opacity="1"
         flood-color="rgb(0,0,0)"
         result="flood" />
      <feComposite
         id="feComposite4379-3-8-8-2-77-7-0"
         in2="SourceGraphic"
         in="flood"
         operator="in"
         result="composite1" />
      <feMorphology
         id="feMorphology4393-1-0-49-8-9-3-0"
         operator="dilate"
         radius="4"
         result="result3" />
      <feComposite
         id="feComposite4385-9-5-7-0-8-0-1"
         in2="result3"
         in="SourceGraphic"
         operator="over"
         result="composite2" />
    </filter>
    <filter
       style="color-interpolation-filters:sRGB"
       id="filter4375-4-1-1-1-9-3"
       inkscape:label="deevad outline effect">
      <feFlood
         id="feFlood4377-7-9-0-8-1-3"
         flood-opacity="1"
         flood-color="rgb(0,0,0)"
         result="flood" />
      <feComposite
         id="feComposite4379-3-8-8-2-77-0"
         in2="SourceGraphic"
         in="flood"
         operator="in"
         result="composite1" />
      <feMorphology
         id="feMorphology4393-1-0-49-8-9-0"
         operator="dilate"
         radius="3"
         result="result3" />
      <feComposite
         id="feComposite4385-9-5-7-0-8-02"
         in2="result3"
         in="SourceGraphic"
         operator="over"
         result="composite2" />
    </filter>
    <filter
       style="color-interpolation-filters:sRGB"
       id="filter4375-4-1-1-1-9-8"
       inkscape:label="Roughen">
      <feFlood
         id="feFlood4377-7-9-0-8-1-96"
         flood-opacity="1"
         flood-color="rgb(0,0,0)"
         result="flood" />
      <feComposite
         id="feComposite4379-3-8-8-2-77-4"
         in2="SourceGraphic"
         in="flood"
         operator="in"
         result="composite1" />
      <feMorphology
         id="feMorphology4393-1-0-49-8-9-33"
         operator="dilate"
         radius="4"
         result="result3" />
      <feComposite
         id="feComposite4385-9-5-7-0-8-38"
         in2="result3"
         in="SourceGraphic"
         operator="over"
         result="fbSourceGraphic" />
      <feColorMatrix
         result="fbSourceGraphicAlpha"
         in="fbSourceGraphic"
         values="0 0 0 -1 0 0 0 0 -1 0 0 0 0 -1 0 0 0 0 1 0"
         id="feColorMatrix333-6" />
      <feTurbulence
         id="feTurbulence335-0"
         type="fractalNoise"
         numOctaves="5"
         seed="1"
         baseFrequency="0.013 0.013"
         result="turbulence" />
      <feDisplacementMap
         in2="turbulence"
         id="feDisplacementMap337-48"
         in="fbSourceGraphic"
         scale="6.6"
         yChannelSelector="G"
         xChannelSelector="R"
         result="fbSourceGraphic" />
      <feColorMatrix
         result="fbSourceGraphicAlpha"
         in="fbSourceGraphic"
         values="0 0 0 -1 0 0 0 0 -1 0 0 0 0 -1 0 0 0 0 1 0"
         id="feColorMatrix435-8" />
      <feTurbulence
         id="feTurbulence437-8"
         type="fractalNoise"
         numOctaves="5"
         seed="27"
         baseFrequency="0.001 0.4414"
         result="turbulence" />
      <feDisplacementMap
         in2="turbulence"
         id="feDisplacementMap439-9"
         in="fbSourceGraphic"
         scale="4.27461"
         yChannelSelector="G"
         xChannelSelector="R" />
    </filter>
    <filter
       style="color-interpolation-filters:sRGB"
       id="filter4375-4-1-1-1-9-30-7"
       inkscape:label="Roughen">
      <feFlood
         id="feFlood4377-7-9-0-8-1-78-41"
         flood-opacity="1"
         flood-color="rgb(0,0,0)"
         result="flood" />
      <feComposite
         id="feComposite4379-3-8-8-2-77-68-8"
         in2="SourceGraphic"
         in="flood"
         operator="in"
         result="composite1" />
      <feMorphology
         id="feMorphology4393-1-0-49-8-9-8-59"
         operator="dilate"
         radius="4"
         result="result3" />
      <feComposite
         id="feComposite4385-9-5-7-0-8-4-7"
         in2="result3"
         in="SourceGraphic"
         operator="over"
         result="fbSourceGraphic" />
      <feColorMatrix
         result="fbSourceGraphicAlpha"
         in="fbSourceGraphic"
         values="0 0 0 -1 0 0 0 0 -1 0 0 0 0 -1 0 0 0 0 1 0"
         id="feColorMatrix333-3-5" />
      <feTurbulence
         id="feTurbulence335-1-3"
         type="fractalNoise"
         numOctaves="5"
         seed="1"
         baseFrequency="0.013 0.013"
         result="turbulence" />
      <feDisplacementMap
         in2="turbulence"
         id="feDisplacementMap337-4-8"
         in="fbSourceGraphic"
         scale="6.6"
         yChannelSelector="G"
         xChannelSelector="R"
         result="fbSourceGraphic" />
      <feColorMatrix
         result="fbSourceGraphicAlpha"
         in="fbSourceGraphic"
         values="0 0 0 -1 0 0 0 0 -1 0 0 0 0 -1 0 0 0 0 1 0"
         id="feColorMatrix435-92-8" />
      <feTurbulence
         id="feTurbulence437-06-3"
         type="fractalNoise"
         numOctaves="5"
         seed="27"
         baseFrequency="0.001 0.4414"
         result="turbulence" />
      <feDisplacementMap
         in2="turbulence"
         id="feDisplacementMap439-8-1"
         in="fbSourceGraphic"
         scale="4.27461"
         yChannelSelector="G"
         xChannelSelector="R" />
    </filter>
    <filter
       style="color-interpolation-filters:sRGB"
       id="filter4375-4-1-1-1-9-30-2-7-9"
       inkscape:label="Roughen">
      <feFlood
         id="feFlood4377-7-9-0-8-1-78-6-7-8"
         flood-opacity="1"
         flood-color="rgb(0,0,0)"
         result="flood" />
      <feComposite
         id="feComposite4379-3-8-8-2-77-68-1-1-4"
         in2="SourceGraphic"
         in="flood"
         operator="in"
         result="composite1" />
      <feMorphology
         id="feMorphology4393-1-0-49-8-9-8-0-1-8"
         operator="dilate"
         radius="4"
         result="result3" />
      <feComposite
         id="feComposite4385-9-5-7-0-8-4-6-5-1"
         in2="result3"
         in="SourceGraphic"
         operator="over"
         result="fbSourceGraphic" />
      <feColorMatrix
         result="fbSourceGraphicAlpha"
         in="fbSourceGraphic"
         values="0 0 0 -1 0 0 0 0 -1 0 0 0 0 -1 0 0 0 0 1 0"
         id="feColorMatrix333-3-1-9-0" />
      <feTurbulence
         id="feTurbulence335-1-5-7-3"
         type="fractalNoise"
         numOctaves="5"
         seed="1"
         baseFrequency="0.013 0.013"
         result="turbulence" />
      <feDisplacementMap
         in2="turbulence"
         id="feDisplacementMap337-4-9-7-0"
         in="fbSourceGraphic"
         scale="6.6"
         yChannelSelector="G"
         xChannelSelector="R"
         result="fbSourceGraphic" />
      <feColorMatrix
         result="fbSourceGraphicAlpha"
         in="fbSourceGraphic"
         values="0 0 0 -1 0 0 0 0 -1 0 0 0 0 -1 0 0 0 0 1 0"
         id="feColorMatrix435-92-4-6-4" />
      <feTurbulence
         id="feTurbulence437-06-9-7-4"
         type="fractalNoise"
         numOctaves="5"
         seed="27"
         baseFrequency="0.001 0.4414"
         result="turbulence" />
      <feDisplacementMap
         in2="turbulence"
         id="feDisplacementMap439-8-0-3-4"
         in="fbSourceGraphic"
         scale="4.27461"
         yChannelSelector="G"
         xChannelSelector="R" />
    </filter>
    <filter
       style="color-interpolation-filters:sRGB"
       id="filter4375-4-1-1-1-9-30-2-4"
       inkscape:label="Roughen">
      <feFlood
         id="feFlood4377-7-9-0-8-1-78-6-76"
         flood-opacity="1"
         flood-color="rgb(0,0,0)"
         result="flood" />
      <feComposite
         id="feComposite4379-3-8-8-2-77-68-1-3"
         in2="SourceGraphic"
         in="flood"
         operator="in"
         result="composite1" />
      <feMorphology
         id="feMorphology4393-1-0-49-8-9-8-0-17"
         operator="dilate"
         radius="4"
         result="result3" />
      <feComposite
         id="feComposite4385-9-5-7-0-8-4-6-59"
         in2="result3"
         in="SourceGraphic"
         operator="over"
         result="fbSourceGraphic" />
      <feColorMatrix
         result="fbSourceGraphicAlpha"
         in="fbSourceGraphic"
         values="0 0 0 -1 0 0 0 0 -1 0 0 0 0 -1 0 0 0 0 1 0"
         id="feColorMatrix333-3-1-6" />
      <feTurbulence
         id="feTurbulence335-1-5-2"
         type="fractalNoise"
         numOctaves="5"
         seed="1"
         baseFrequency="0.013 0.013"
         result="turbulence" />
      <feDisplacementMap
         in2="turbulence"
         id="feDisplacementMap337-4-9-1"
         in="fbSourceGraphic"
         scale="6.6"
         yChannelSelector="G"
         xChannelSelector="R"
         result="fbSourceGraphic" />
      <feColorMatrix
         result="fbSourceGraphicAlpha"
         in="fbSourceGraphic"
         values="0 0 0 -1 0 0 0 0 -1 0 0 0 0 -1 0 0 0 0 1 0"
         id="feColorMatrix435-92-4-7" />
      <feTurbulence
         id="feTurbulence437-06-9-8"
         type="fractalNoise"
         numOctaves="5"
         seed="27"
         baseFrequency="0.001 0.4414"
         result="turbulence" />
      <feDisplacementMap
         in2="turbulence"
         id="feDisplacementMap439-8-0-5"
         in="fbSourceGraphic"
         scale="4.27461"
         yChannelSelector="G"
         xChannelSelector="R" />
    </filter>
    <filter
       style="color-interpolation-filters:sRGB"
       id="filter4375-4-1-1-1-9-30-2-7-6-5"
       inkscape:label="Roughen">
      <feFlood
         id="feFlood4377-7-9-0-8-1-78-6-7-3-0"
         flood-opacity="1"
         flood-color="rgb(0,0,0)"
         result="flood" />
      <feComposite
         id="feComposite4379-3-8-8-2-77-68-1-1-9-9"
         in2="SourceGraphic"
         in="flood"
         operator="in"
         result="composite1" />
      <feMorphology
         id="feMorphology4393-1-0-49-8-9-8-0-1-4-6"
         operator="dilate"
         radius="4"
         result="result3" />
      <feComposite
         id="feComposite4385-9-5-7-0-8-4-6-5-8-3"
         in2="result3"
         in="SourceGraphic"
         operator="over"
         result="fbSourceGraphic" />
      <feColorMatrix
         result="fbSourceGraphicAlpha"
         in="fbSourceGraphic"
         values="0 0 0 -1 0 0 0 0 -1 0 0 0 0 -1 0 0 0 0 1 0"
         id="feColorMatrix333-3-1-9-1-8" />
      <feTurbulence
         id="feTurbulence335-1-5-7-2-5"
         type="fractalNoise"
         numOctaves="5"
         seed="1"
         baseFrequency="0.013 0.013"
         result="turbulence" />
      <feDisplacementMap
         in2="turbulence"
         id="feDisplacementMap337-4-9-7-9-6"
         in="fbSourceGraphic"
         scale="6.6"
         yChannelSelector="G"
         xChannelSelector="R"
         result="fbSourceGraphic" />
      <feColorMatrix
         result="fbSourceGraphicAlpha"
         in="fbSourceGraphic"
         values="0 0 0 -1 0 0 0 0 -1 0 0 0 0 -1 0 0 0 0 1 0"
         id="feColorMatrix435-92-4-6-3-1" />
      <feTurbulence
         id="feTurbulence437-06-9-7-9-1"
         type="fractalNoise"
         numOctaves="5"
         seed="27"
         baseFrequency="0.001 0.4414"
         result="turbulence" />
      <feDisplacementMap
         in2="turbulence"
         id="feDisplacementMap439-8-0-3-0-5"
         in="fbSourceGraphic"
         scale="4.27461"
         yChannelSelector="G"
         xChannelSelector="R" />
    </filter>
    <clipPath
       clipPathUnits="userSpaceOnUse"
       id="clipPath4967">
      <rect
         style="opacity:0.59299999;fill:#ffffff;fill-opacity:1;fill-rule:nonzero;stroke:none;stroke-width:10.11401558;stroke-linecap:round;stroke-miterlimit:4;stroke-dasharray:none;stroke-opacity:1"
         id="rect4969"
         width="661.38806"
         height="361.87228"
         x="101.20157"
         y="1926.7089"
         rx="0"
         ry="0" />
    </clipPath>
  </defs>
  <sodipodi:namedview
     pagecolor="#ffffff"
     bordercolor="#666666"
     borderopacity="1"
     objecttolerance="10"
     gridtolerance="10"
     guidetolerance="10"
     inkscape:pageopacity="0"
     inkscape:pageshadow="2"
     inkscape:window-width="1920"
     inkscape:window-height="1025"
     id="namedview4"
     showgrid="false"
     inkscape:zoom="0.24456143"
     inkscape:cx="1169.6487"
     inkscape:cy="1491.4158"
     inkscape:window-x="0"
     inkscape:window-y="26"
     inkscape:window-maximized="1"
     inkscape:current-layer="layer3"
     showguides="true"
     inkscape:snap-grids="false"
     inkscape:snap-to-guides="false"
     inkscape:snap-others="false"
     inkscape:snap-nodes="false"
     inkscape:snap-global="false" />
  <g
     inkscape:groupmode="layer"
     id="layer2"
     inkscape:label="artwork"
     sodipodi:insensitive="true">
    <image
       sodipodi:absref="E:\Users\jamesmichael\Downloads\Compressed\eps\ep27_Coriander-s-Invention_lang-pack\lang\ph\../gfx_Pepper-and-Carrot_by-David-Revoy_E27P05.png"
       xlink:href="../gfx_Pepper-and-Carrot_by-David-Revoy_E27P05.png"
       width="2481"
       height="3503"
       id="image10"
       x="0"
       y="0" />
  </g>
  <g
     inkscape:groupmode="layer"
     id="layer3"
     inkscape:label="speechbubbles"
     style="display:inline">
    <path
       style="fill:#ffffff;fill-rule:evenodd;stroke:none;stroke-width:1.26346195px;stroke-linecap:butt;stroke-linejoin:miter;stroke-opacity:1"
       d="m 746.77939,353.45558 c 0,0 9.16419,8.83771 17.10204,15.86866 3.59351,3.42356 -12.42925,-21.47612 -17.02252,-26.57974 l 0.23105,-55.96439 c 0,0 7.02652,2.98427 15.52681,7.6707 -3.7765,-9.91071 -15.15778,-22.74646 -15.15778,-22.74646 L 752.64585,113.101 c 0.76002,-3.42009 9.96906,-6.16082 10.00586,-8.86784 C 762.92675,84.003086 754.84,68.592425 755.53255,66.484222 760.02994,52.793562 830.48904,9.3696715 843.98121,7.0879015 857.47339,4.8061315 936.553,-11.705708 960.53908,-0.29683846 984.52516,11.112042 1077.1524,66.343942 1092.1437,89.161702 c 14.9912,22.817758 -2.8399,212.183468 -2.8399,262.382528 0,50.19907 2.1428,123.37234 -18.845,148.47187 -20.9879,25.09953 -111.57925,34.07021 -140.06272,31.78844 C 901.91261,529.52275 786.85183,530.35888 761.36661,498.41401 735.8814,466.46915 746.77939,353.45558 746.77939,353.45558 Z"
       id="path1076"
       inkscape:connector-curvature="0"
       sodipodi:nodetypes="cccccccsssscscssc" />
    <path
       style="fill:#ffffff;fill-rule:evenodd;stroke:none;stroke-width:0.61941278px;stroke-linecap:butt;stroke-linejoin:miter;stroke-opacity:1"
       d="m 834.01624,498.38315 c 0,0 10.50898,4.30742 18.02661,2.95328 7.51764,-1.35411 11.73969,-2.3531 8.76205,9.39163 -2.97764,11.74472 -14.4455,32.29229 -12.50967,38.2036 1.93582,5.9113 16.79589,9.61383 36.50959,-3.11847 -16.75913,4.39001 -24.74685,-2.63708 -23.36401,-12.30597 1.38284,-9.6689 20.71873,-44.39219 18.91196,-49.90941 -1.80677,-5.51721 -31.44402,-5.72329 -31.44402,-5.72329 z"
       id="path1078"
       inkscape:connector-curvature="0" />
    <path
       style="fill:#ffffff;fill-rule:evenodd;stroke:none;stroke-width:0.70147336px;stroke-linecap:butt;stroke-linejoin:miter;stroke-opacity:1"
       d="m 1267.0117,321.44226 c 10.4769,24.41639 14.7368,30.4489 16.1309,46.59097 1.394,16.14207 -4.6736,34.53667 -2.4326,39.86903 2.241,5.33235 11.045,10.37828 27.3728,1.52029 -25.8704,22.06167 -30.5228,15.60836 -35.4541,5.92675 -4.9312,-9.6817 4.1107,-30.74606 -5.695,-51.51318 -9.8056,-20.7672 -13.6678,-36.62642 -13.6678,-36.62642 z"
       id="path1082"
       inkscape:connector-curvature="0" />
    <path
       style="fill:#ffffff;fill-rule:evenodd;stroke:none;stroke-width:0.94590211px;stroke-linecap:butt;stroke-linejoin:miter;stroke-opacity:1"
       d="m 248.48468,1183.8488 c 5.36355,-31.1718 29.49947,-46.3364 38.08112,-48.8639 8.58166,-2.5274 52.56267,4.2124 65.97151,16.0072 13.40885,11.7947 24.67229,23.5895 26.28135,36.2266 1.60906,12.6372 1.60906,29.4869 -2.14542,39.5966 -3.75447,10.1098 -52.02631,21.9045 -63.82611,24.432 -11.79978,2.5274 -35.9357,-0.8425 -49.34454,-10.9523 -13.40884,-10.1097 -17.69968,-29.4868 -15.01791,-56.4462 z"
       id="path1084"
       inkscape:connector-curvature="0" />
    <path
       style="fill:#ffffff;fill-rule:evenodd;stroke:none;stroke-width:0.93767184px;stroke-linecap:butt;stroke-linejoin:miter;stroke-opacity:1"
       d="m 301.659,1303.8261 c 10.91998,-27.7321 38.21989,-37.5726 55.59256,-38.4672 17.37267,-0.8946 30.27808,-2.6838 41.19806,7.1567 10.91996,9.8405 25.81082,21.4701 24.8181,44.7293 -0.99273,23.2592 0.49636,39.3618 -9.43088,52.7805 -9.92725,13.4189 -42.68715,21.4701 -50.13258,22.3647 -7.44543,0.8946 -19.35811,5.3675 -34.24898,-7.1567 -14.89086,-12.5242 -27.29991,-30.4159 -28.789,-46.5184 -1.48909,-16.1026 0.99272,-34.8889 0.99272,-34.8889 z"
       id="path1086"
       inkscape:connector-curvature="0" />
    <path
       style="fill:#ffffff;fill-rule:evenodd;stroke:none;stroke-width:0.98219913px;stroke-linecap:butt;stroke-linejoin:miter;stroke-opacity:1"
       d="m 380.49104,1432.6805 c 5.30232,-28.4848 19.69107,-42.2635 37.71898,-42.2635 18.02789,0 44.5395,-3.6755 57.26508,10.1075 12.72557,13.7829 19.08836,29.4037 18.55813,45.9432 -0.53023,16.5396 -5.83256,35.8358 -16.96744,45.9433 -11.13487,10.1075 -39.23719,11.9452 -57.26509,9.1887 -18.02789,-2.7567 -36.58723,-21.1382 -39.23718,-35.8358 -1.43731,-12.0709 -0.0724,-33.0834 -0.0724,-33.0834 z"
       id="path1088"
       inkscape:connector-curvature="0"
       sodipodi:nodetypes="cssssccc" />
    <path
       style="fill:#ffffff;fill-rule:evenodd;stroke:none;stroke-width:1px;stroke-linecap:butt;stroke-linejoin:miter;stroke-opacity:1"
       d="m 432.41063,1483.2351 c 15.54189,-3.0428 26.98539,-6.2306 19.27423,20.9739 2.42546,3.5382 6.62096,9.1823 16.9499,5.3208 -23.14998,9.3256 -30.29692,6.0429 -30.26255,-0.931 0.0343,-6.9738 2.52853,-17.3833 -6.09506,-15.082 -24.78739,0.5528 -63.16565,3.7491 0.13348,-10.2817 z"
       id="path1090"
       inkscape:connector-curvature="0"
       sodipodi:nodetypes="cccccc" />
    <path
       style="fill:#ffffff;fill-rule:evenodd;stroke:none;stroke-width:1.25945675px;stroke-linecap:butt;stroke-linejoin:miter;stroke-opacity:1"
       d="m 29.076659,2024.1794 c 33.697698,11.0676 88.918371,47.8576 16.52602,82.0759 23.957247,12.42 96.653141,5.5519 12.394513,72.6572 131.325168,-29.2264 112.864748,25.5367 74.367078,65.9298 137.33049,-74.1059 113.66229,-36.6365 89.2333,7.5383 103.00698,-62.1319 77.69043,0.501 69.14103,20.7173 53.77417,-32.7574 85.05839,-29.9396 88.13876,17.4916 54.33198,-75.7115 81.90321,-26.9508 103.28761,1.3455 -6.80659,-24.2899 16.9836,-93.0458 100.53327,-13.4551 -13.65013,-57.421 25.22402,-54.0723 103.28762,-5.382 -59.81585,-87.4352 42.88232,-47.4276 70.23556,-29.6011 -34.93223,-25.2712 -81.94674,-97.38 49.57806,-47.0928 -52.86283,-28.9171 -74.63698,-54.3629 39.93788,-64.5842 -51.95682,-18.4005 -81.28308,-37.1262 28.92052,-57.8567 -33.54508,-6.2612 -113.82854,12.0008 -26.1662,-57.8567 -58.46819,2.2573 -81.31873,-4.0208 -12.39451,-32.2922 -92.60163,12.4234 -118.50831,1.3886 -30.29769,-49.7837 -147.19113,54.3948 -71.65255,-4.0503 -52.3324,-22.8736 -66.72758,28.9672 -112.61425,44.8202 -38.5607,-14.8006 -129.0631,42.1035 -82.24613,-17.756 -79.87576,-34.9831 -66.05659,76.5321 -71.96438,5.1973 -79.87575,-12.1096 -6.15832,59.8449 -14.25693,20.9051 -28.92052,-2.691 -20.7438,26.4267 -41.80852,50.7213 -74.36708,-1.3454 -20.78464,49.0822 -47.81213,27.0057 -75.74424,-5.3821 2.31928,73.1039 -57.59005,5.6127 -89.51593,1.3455 24.82311,71.3125 -24.58602,36.4268 -64.7269,14.8005 75.14893,89.8368 -41.73893,49.8383 -79.87575,24.2192 83.75075,68.1132 57.36084,84.2866 -13.77168,53.8202 88.24839,51.5472 -13.55047,74.735 -64.726901,25.5646 64.966791,61.6371 30.088251,70.8863 -34.42921,64.5843 z"
       id="path1092"
       inkscape:connector-curvature="0"
       sodipodi:nodetypes="cccccccccccccccccccccccccccccc"
       clip-path="url(#clipPath4967)"
       transform="matrix(1.0161822,0,0,1,-3.7857106,0)" />
    <path
       style="fill:#ffffff;fill-rule:evenodd;stroke:none;stroke-width:0.50129777px;stroke-linecap:butt;stroke-linejoin:miter;stroke-opacity:1"
       d="m 835.6849,1958.9055 c 23.0829,18.1805 18.83277,26.1174 -13.70714,23.4519 51.87871,27.917 30.4626,32.0955 -2.38385,32.572 22.04967,10.1967 46.44736,20.175 -4.17174,37.132 29.33426,2.7493 54.8937,6.6312 4.7677,33.2234 26.00655,-1.0922 52.2248,-2.3219 20.8587,33.8748 42.5705,-16.2578 72.0981,-21.0408 50.0609,19.5432 21.3975,-11.952 56.5757,-42.2421 44.1012,-9.1201 9.8034,-10.578 22.2801,-14.5815 44.6972,5.863 -4.3713,-14.7445 -17.5417,-38.1121 22.05063,-9.7717 -11.96903,-22.1752 -14.35213,-34.1898 25.6264,-1.3028 -5.9556,-16.7203 -31.62953,-33.4405 17.2829,-50.1609 -33.692,-1.6676 -23.2412,-12.9856 -1.7879,-26.709 -40.1185,-7.5845 -20.2688,-16.7677 3.5758,-26.0575 -24.8494,-3.541 -44.0204,-9.5042 -4.7677,-40.3892 -43.20623,12.8217 -30.7026,-8.864 -28.6062,-24.1033 -19.93893,12.1008 -42.48713,31.0945 -44.10133,-5.2116 -26.7472,45.0442 -36.8746,10.607 -51.8487,-0.6514 -15.5746,53.5983 -50.8806,4.2008 -60.78818,0.6514 20.20468,21.9377 23.73238,31.8706 -20.85869,7.1658 z"
       id="path1096"
       inkscape:connector-curvature="0"
       sodipodi:nodetypes="cccccccccccccccccccc" />
    <path
       style="fill:#ffffff;fill-rule:evenodd;stroke:none;stroke-width:1.06912446px;stroke-linecap:butt;stroke-linejoin:miter;stroke-opacity:1"
       d="m 1344.6207,2059.8976 c 43.5884,30.7034 58.2766,-22.8403 68.3713,-89.7744 -1.8744,163.6814 59.6494,93.917 128.7923,-3.9031 -20.5719,119.8638 34.2583,127.7821 102.5128,60.7437 -7.7197,57.8251 19.493,80.7945 92.2177,29.4878 -21.9719,65.2771 -64.1173,125.6789 93.694,47.2657 -46.2052,43.7519 -118.9431,99.039 -18.1193,137.778 -90.7934,17.0774 -114.0067,97.0488 -90.3236,134.9422 -43.2553,-76.692 -80.767,-64.0785 -63.9094,58.2678 -43.5094,-58.0881 -79.1653,-97.3245 -87.4517,-31.2259 -78.4325,-171.4796 -49.4597,-36.3109 -76.7768,52.0483 -22.1767,-165.6506 -48.0402,-104.3143 -99.7164,-7.1611 -0.4807,-63.3842 -17.1747,-108.655 -49.2909,-76.113 z"
       id="path1100"
       inkscape:connector-curvature="0"
       sodipodi:nodetypes="cccccccccccccc" />
    <path
       style="fill:#ffffff;fill-rule:evenodd;stroke:none;stroke-width:1.26346195px;stroke-linecap:butt;stroke-linejoin:miter;stroke-opacity:1"
       d="m 1139.2769,235.96134 c 0,-70.73506 3.5329,-287.341786 8.0303,-301.032446 4.4974,-13.69066 74.9565,-57.114554 88.4487,-59.396324 13.4921,-2.28177 92.5718,-18.79361 116.5578,-7.38474 23.9861,11.40888 116.6134,66.640784 131.6047,89.458544 14.9912,22.817758 -2.8399,212.183466 -2.8399,262.382526 0,50.19907 2.1428,123.37234 -18.845,148.47187 -20.9879,25.09953 -111.5793,34.07021 -140.0628,31.78844 -28.4834,-2.28179 -143.5442,-1.44566 -169.0294,-33.39053 -25.4852,-31.94486 -13.8644,-64.72583 -13.8644,-130.89734 z"
       id="path4945"
       inkscape:connector-curvature="0"
       sodipodi:nodetypes="sssscscsss" />
    <rect
       style="opacity:1;fill:#ffffff;fill-opacity:1;fill-rule:nonzero;stroke:none;stroke-width:10.39418125;stroke-linecap:round;stroke-miterlimit:4;stroke-dasharray:none;stroke-opacity:1"
       id="rect4989"
       width="500.27533"
       height="278.29602"
       x="-2472.0767"
       y="1088.9139"
       ry="133.2892"
       transform="matrix(0.03276664,-0.99946303,0.9994479,0.03322506,0,0)" />
    <path
       sodipodi:nodetypes="cccccccccccccccccccc"
       inkscape:connector-curvature="0"
       id="path4998"
       d="m 830.54841,2070.0247 c 23.0829,18.1805 18.83277,26.1174 -13.70714,23.4519 51.87868,27.917 30.4626,32.0955 -2.38385,32.572 22.04967,10.1967 46.44736,20.175 -4.17174,37.132 29.33426,2.7493 54.8937,6.6312 4.7677,33.2234 26.00655,-1.0922 52.22477,-2.3219 20.8587,33.8748 42.57047,-16.2578 72.09807,-21.0408 50.06087,19.5432 21.3975,-11.952 56.5757,-42.2421 44.1012,-9.1201 9.8034,-10.578 22.2801,-14.5815 44.6972,5.863 -4.3713,-14.7445 -17.5417,-38.1121 22.0506,-9.7717 -11.969,-22.1752 -14.3521,-34.1898 25.62635,-1.3028 -5.9556,-16.7203 -31.62945,-33.4405 17.2829,-50.1609 -33.692,-1.6676 -23.2412,-12.9856 -1.7879,-26.709 -40.11845,-7.5845 -20.2688,-16.7677 3.5758,-26.0575 -24.8494,-3.541 -44.02035,-9.5042 -4.7677,-40.3892 -43.20615,12.8217 -30.7026,-8.864 -28.6062,-24.1033 -19.93885,12.1008 -42.48705,31.0945 -44.10125,-5.2116 -26.7472,45.0442 -36.8746,10.607 -51.8487,-0.6514 -15.5746,53.5983 -50.88057,4.2008 -60.78815,0.6514 20.20465,21.9377 23.73235,31.8706 -20.85869,7.1658 z"
       style="fill:#ffffff;fill-rule:evenodd;stroke:none;stroke-width:0.50129777px;stroke-linecap:butt;stroke-linejoin:miter;stroke-opacity:1" />
  </g>
  <g
     inkscape:groupmode="layer"
     id="layer1"
     inkscape:label="txt">
    <text
       xml:space="preserve"
       style="font-style:normal;font-variant:normal;font-weight:normal;font-stretch:normal;line-height:0%;font-family:Lavi;-inkscape-font-specification:Lavi;text-align:center;letter-spacing:0px;word-spacing:0px;text-anchor:middle;fill:#000000;fill-opacity:1;stroke:none"
       x="922.19525"
       y="181.80223"
       id="text4246"><tspan
         sodipodi:role="line"
         style="font-size:45px;line-height:1.20000005"
         x="922.19525"
         y="185.29004"
         id="tspan825" /><tspan
         sodipodi:role="line"
         style="font-size:45px;line-height:1.20000005"
         x="930.10541"
         y="221.8815"
         id="tspan4947">Nakakatawa? </tspan><tspan
         sodipodi:role="line"
         style="font-size:45px;line-height:1.20000005"
         x="930.10541"
         y="275.8815"
         id="tspan4894">Wala! </tspan><tspan
         sodipodi:role="line"
         style="font-size:45px;line-height:1.20000005"
         x="922.19525"
         y="293.29004"
         id="tspan4955" /><tspan
         sodipodi:role="line"
         style="font-size:45px;line-height:1.20000005"
         x="922.19525"
         y="293.29004"
         id="tspan4957" /><tspan
         sodipodi:role="line"
         style="font-size:45px;line-height:1.20000005"
         x="930.10541"
         y="329.8815"
         id="tspan4951"> </tspan><tspan
         sodipodi:role="line"
         style="font-size:45px;line-height:1.20000005"
         x="922.19525"
         y="347.29004"
         id="tspan4959"></tspan><tspan
         sodipodi:role="line"
         style="font-size:45px;line-height:1.20000005"
         x="922.19525"
         y="347.29004"
         id="tspan4961"></tspan><tspan
         sodipodi:role="line"
         style="font-size:45px;line-height:1.20000005"
         x="922.19525"
         y="383.8815"
         id="tspan4963">Hindi no!</tspan><tspan
         sodipodi:role="line"
         style="font-size:45px;line-height:1.20000005"
         x="922.19525"
         y="437.8815"
         id="tspan4896">Sorry.</tspan><tspan
         sodipodi:role="line"
         style="font-size:45px;line-height:1.20000005"
         x="922.19525"
         y="455.29004"
         id="tspan4898" /></text>
    <text
       xml:space="preserve"
       style="font-style:normal;font-variant:normal;font-weight:normal;font-stretch:normal;line-height:0%;font-family:Lavi;-inkscape-font-specification:Lavi;text-align:center;letter-spacing:0px;word-spacing:0px;text-anchor:middle;fill:#000000;fill-opacity:1;stroke:none"
       x="1318.5005"
       y="184.16115"
       id="text4246-3"><tspan
         sodipodi:role="line"
         style="font-size:45px;line-height:1.20000005"
         x="1326.4106"
         y="184.16115"
         id="tspan858">Oo nga, </tspan><tspan
         sodipodi:role="line"
         style="font-size:45px;line-height:1.20000005"
         x="1326.4106"
         y="238.16115"
         id="tspan4905">Wala naman </tspan><tspan
         sodipodi:role="line"
         style="font-size:45px;line-height:1.20000005"
         x="1326.4106"
         y="292.16113"
         id="tspan4907">nakakatawa </tspan><tspan
         sodipodi:role="line"
         style="font-size:45px;line-height:1.20000005"
         x="1318.5005"
         y="346.16113"
         id="tspan4909">no!</tspan></text>
    <text
       xml:space="preserve"
       style="font-style:normal;font-variant:normal;font-weight:normal;font-stretch:normal;line-height:0%;font-family:Lavi;-inkscape-font-specification:Lavi;text-align:center;letter-spacing:0px;word-spacing:0px;text-anchor:middle;fill:#000000;fill-opacity:1;stroke:none"
       x="320.91922"
       y="1211.6945"
       id="text4246-0"><tspan
         sodipodi:role="line"
         style="font-size:45px;line-height:1.20000005"
         x="320.91922"
         y="1211.6945"
         id="tspan4252-9">Ha...</tspan></text>
    <text
       xml:space="preserve"
       style="font-style:normal;font-variant:normal;font-weight:normal;font-stretch:normal;line-height:0%;font-family:Lavi;-inkscape-font-specification:Lavi;text-align:center;letter-spacing:0px;word-spacing:0px;text-anchor:middle;fill:#000000;fill-opacity:1;stroke:none"
       x="363.42624"
       y="1340.6425"
       id="text4246-0-3"><tspan
         sodipodi:role="line"
         style="font-size:45px;line-height:1.20000005"
         x="363.42624"
         y="1340.6425"
         id="tspan4252-9-6">Ha...</tspan></text>
    <text
       xml:space="preserve"
       style="font-style:normal;font-variant:normal;font-weight:normal;font-stretch:normal;line-height:0%;font-family:Lavi;-inkscape-font-specification:Lavi;text-align:center;letter-spacing:0px;word-spacing:0px;text-anchor:middle;fill:#000000;fill-opacity:1;stroke:none"
       x="439.38766"
       y="1462.8163"
       id="text4246-0-0"><tspan
         sodipodi:role="line"
         style="font-size:45px;line-height:1.20000005"
         x="439.38766"
         y="1462.8163"
         id="tspan4252-9-62">Ha.</tspan></text>
    <flowRoot
       xml:space="preserve"
       id="flowRoot1004"
       style="font-style:normal;font-variant:normal;font-weight:normal;font-stretch:normal;font-size:0.66666669px;line-height:0%;font-family:Lavi;-inkscape-font-specification:Lavi;text-align:center;letter-spacing:4.28999996px;word-spacing:-79.63999939px;writing-mode:lr-tb;text-anchor:middle;fill:#000000;fill-opacity:1;stroke:none;stroke-width:1px;stroke-linecap:butt;stroke-linejoin:miter;stroke-opacity:1"><flowRegion
         id="flowRegion1006"><rect
           id="rect1008"
           width="15.723214"
           height="1.429383"
           x="606.05841"
           y="1290.3149" /></flowRegion><flowPara
         id="flowPara1010" /></flowRoot>    <flowRoot
       xml:space="preserve"
       id="flowRoot1012"
       style="font-style:normal;font-variant:normal;font-weight:normal;font-stretch:normal;font-size:0.66666669px;line-height:0%;font-family:Lavi;-inkscape-font-specification:Lavi;text-align:center;letter-spacing:4.28999996px;word-spacing:-79.63999939px;writing-mode:lr-tb;text-anchor:middle;fill:#000000;fill-opacity:1;stroke:none;stroke-width:1px;stroke-linecap:butt;stroke-linejoin:miter;stroke-opacity:1"><flowRegion
         id="flowRegion1014"><rect
           id="rect1016"
           width="10.005682"
           height="2.8587661"
           x="608.91718"
           y="1290.3149" /></flowRegion><flowPara
         id="flowPara1018" /></flowRoot>    <text
       xml:space="preserve"
       style="font-style:normal;font-variant:normal;font-weight:normal;font-stretch:normal;font-size:19.50984192px;line-height:0%;font-family:Lavi;-inkscape-font-specification:Lavi;text-align:center;letter-spacing:0px;word-spacing:0px;text-anchor:middle;fill:#000000;fill-opacity:1;stroke:none;stroke-width:1.95098436;stroke-miterlimit:4;stroke-dasharray:none"
       x="461.52567"
       y="1955.0248"
       id="text4246-6"
       transform="scale(0.9428475,1.0606169)"><tspan
         sodipodi:role="line"
         style="font-style:normal;font-variant:normal;font-weight:bold;font-stretch:normal;font-size:73.16191101px;line-height:1.20000005;font-family:Lavi;-inkscape-font-specification:'Lavi Bold';stroke:#000000;stroke-width:1.95098436;stroke-miterlimit:4;stroke-dasharray:none;stroke-opacity:1"
         x="461.52567"
         y="1955.0248"
         id="tspan4252-1">NAKU PATAY!</tspan><tspan
         sodipodi:role="line"
         style="font-style:normal;font-variant:normal;font-weight:bold;font-stretch:normal;font-size:73.16191101px;line-height:1.20000005;font-family:Lavi;-inkscape-font-specification:'Lavi Bold';stroke:#000000;stroke-width:1.95098436;stroke-miterlimit:4;stroke-dasharray:none;stroke-opacity:1"
         x="461.52567"
         y="1983.3279"
         id="tspan4911" /></text>
    <text
       xml:space="preserve"
       style="font-style:normal;font-variant:normal;font-weight:normal;font-stretch:normal;line-height:0%;font-family:Lavi;-inkscape-font-specification:Lavi;text-align:center;letter-spacing:0px;word-spacing:0px;text-anchor:middle;fill:#000000;fill-opacity:1;stroke:none"
       x="446.62665"
       y="2117.2817"
       id="text4246-8"><tspan
         sodipodi:role="line"
         style="font-size:45px;line-height:1"
         x="454.5368"
         y="2117.2817"
         id="tspan4920">nasunog na yung isusuot ko! </tspan><tspan
         sodipodi:role="line"
         style="font-size:45px;line-height:1"
         x="454.5368"
         y="2162.2817"
         id="tspan4924">magwawala na yung </tspan><tspan
         sodipodi:role="line"
         style="font-size:45px;line-height:1"
         x="446.62665"
         y="2207.2817"
         id="tspan4926">mudista ko nito!</tspan></text>
    <text
       xml:space="preserve"
       style="font-style:normal;font-variant:normal;font-weight:normal;font-stretch:normal;font-size:15.58635426px;line-height:0%;font-family:Lavi;-inkscape-font-specification:Lavi;text-align:center;letter-spacing:0px;word-spacing:0px;text-anchor:middle;fill:#550000;fill-opacity:1;stroke:none;stroke-width:1.29886293"
       x="1979.4115"
       y="1896.8451"
       id="text4246-9"
       transform="matrix(0.92146908,0,-0.46197291,1.0852236,0,0)"><tspan
         sodipodi:role="line"
         style="font-style:normal;font-variant:normal;font-weight:bold;font-stretch:normal;font-size:58.44882965px;line-height:1;font-family:Lavi;-inkscape-font-specification:'Lavi Bold';fill:#550000;stroke-width:1.29886293"
         x="1989.6857"
         y="1896.8451"
         id="tspan4252-2">Ikaw    </tspan><tspan
         sodipodi:role="line"
         style="font-style:normal;font-variant:normal;font-weight:bold;font-stretch:normal;font-size:58.44882965px;line-height:1;font-family:Lavi;-inkscape-font-specification:'Lavi Bold';fill:#550000;stroke-width:1.29886293"
         x="1989.6857"
         y="1955.2939"
         id="tspan4994">Robot </tspan><tspan
         sodipodi:role="line"
         style="font-style:normal;font-variant:normal;font-weight:bold;font-stretch:normal;font-size:58.44882965px;line-height:1;font-family:Lavi;-inkscape-font-specification:'Lavi Bold';fill:#550000;stroke-width:1.29886293"
         x="1989.6857"
         y="2013.7428"
         id="tspan4996">   Ka! </tspan></text>
    <text
       xml:space="preserve"
       style="font-style:normal;font-variant:normal;font-weight:normal;font-stretch:normal;font-size:13.84969044px;line-height:0%;font-family:Lavi;-inkscape-font-specification:Lavi;text-align:center;letter-spacing:0px;word-spacing:0px;text-anchor:middle;fill:#000000;fill-opacity:1;stroke:none;stroke-width:1.15414095"
       x="1146.4761"
       y="2195.0703"
       id="text4246-02"
       transform="scale(1.0048528,0.99517063)"><tspan
         sodipodi:role="line"
         style="font-size:51.93634033px;line-height:1.20000005;stroke-width:1.15414095"
         x="1155.6055"
         y="2195.0703"
         id="tspan766">teka lang </tspan><tspan
         sodipodi:role="line"
         style="font-size:51.93634033px;line-height:1.20000005;stroke-width:1.15414095"
         x="1155.6055"
         y="2257.394"
         id="tspan4930">at aayusin </tspan><tspan
         sodipodi:role="line"
         style="font-size:51.93634033px;line-height:1.20000005;stroke-width:1.15414095"
         x="1155.6055"
         y="2319.7175"
         id="tspan4932">kita ng </tspan><tspan
         sodipodi:role="line"
         style="font-size:51.93634033px;line-height:1.20000005;stroke-width:1.15414095"
         x="1146.4761"
         y="2382.0413"
         id="tspan4992">pukpok</tspan><tspan
         sodipodi:role="line"
         style="font-size:51.93634033px;line-height:1.20000005;stroke-width:1.15414095"
         x="1146.4761"
         y="2444.3647"
         id="tspan5000">...</tspan></text>
    <text
       xml:space="preserve"
       style="font-style:normal;font-variant:normal;font-weight:normal;font-stretch:normal;font-size:36.71860504px;line-height:0%;font-family:Lavi;-inkscape-font-specification:Lavi;text-align:center;letter-spacing:37.20072937px;word-spacing:0px;text-anchor:middle;fill:#000000;fill-opacity:1;stroke:none;stroke-width:1.2779814"
       x="3402.5334"
       y="1522.2484"
       id="text4246-6-6-3"
       transform="matrix(0.66318472,0,-0.47879572,1.5078755,0,0)"><tspan
         sodipodi:role="line"
         style="font-style:normal;font-variant:normal;font-weight:bold;font-stretch:normal;font-size:137.69477844px;line-height:1.20000005;font-family:Lavi;-inkscape-font-specification:'Lavi Bold';letter-spacing:5.1119256px;stroke-width:1.2779814"
         x="3405.0894"
         y="1522.2484"
         id="tspan4252-00-4-7">WAIT!!!</tspan></text>
    <text
       xml:space="preserve"
       style="font-style:normal;font-variant:normal;font-weight:normal;font-stretch:normal;font-size:40px;line-height:125%;font-family:'Cabin Sketch';-inkscape-font-specification:'Cabin Sketch';letter-spacing:0px;word-spacing:0px;fill:#000000;fill-opacity:1;stroke:none;stroke-width:1px;stroke-linecap:butt;stroke-linejoin:miter;stroke-opacity:1"
       x="1263.3837"
       y="254.65823"
       id="text770"><tspan
         sodipodi:role="line"
         id="tspan768"
         x="1263.3837"
         y="289.47891" /></text>
    <text
       xml:space="preserve"
       style="font-style:normal;font-variant:normal;font-weight:normal;font-stretch:normal;line-height:0%;font-family:Lavi;-inkscape-font-specification:Lavi;letter-spacing:0px;word-spacing:0px;fill:#000000;fill-opacity:1;stroke:#000000;stroke-width:0;stroke-linecap:square;stroke-miterlimit:4;stroke-dasharray:none;stroke-opacity:1;filter:url(#filter4375-4-1-1-1-9-8)"
       x="787.65729"
       y="1584.5073"
       id="text4580-7"
       transform="matrix(2.7819933,-0.1626793,-0.94551619,2.9284614,887.83592,-4228.9016)"><tspan
         sodipodi:role="line"
         id="tspan4582-7"
         x="787.65729"
         y="1584.5073"
         style="font-style:normal;font-variant:normal;font-weight:normal;font-stretch:normal;font-size:70px;line-height:1.25;font-family:ComicSpice;-inkscape-font-specification:ComicSpice;fill:#ffffff;stroke-width:0;stroke-linecap:square;stroke-miterlimit:4;stroke-dasharray:none">B</tspan></text>
    <text
       xml:space="preserve"
       style="font-style:normal;font-variant:normal;font-weight:normal;font-stretch:normal;line-height:0%;font-family:Lavi;-inkscape-font-specification:Lavi;letter-spacing:0px;word-spacing:0px;fill:#000000;fill-opacity:1;stroke:#000000;stroke-width:0;stroke-linecap:square;stroke-miterlimit:4;stroke-dasharray:none;stroke-opacity:1;filter:url(#filter4375-4-1-1-1-9-30-7)"
       x="787.65729"
       y="1584.5073"
       id="text4580-9-6"
       transform="matrix(2.0062568,-0.28085132,-1.1064232,2.8181271,1827.0399,-3899.3548)"><tspan
         sodipodi:role="line"
         id="tspan4582-26-4"
         x="787.65729"
         y="1584.5073"
         style="font-style:normal;font-variant:normal;font-weight:normal;font-stretch:normal;font-size:70px;line-height:1.25;font-family:ComicSpice;-inkscape-font-specification:ComicSpice;fill:#ffffff;stroke-width:0;stroke-linecap:square;stroke-miterlimit:4;stroke-dasharray:none">Z</tspan></text>
    <text
       xml:space="preserve"
       style="font-style:normal;font-variant:normal;font-weight:normal;font-stretch:normal;line-height:0%;font-family:Lavi;-inkscape-font-specification:Lavi;letter-spacing:0px;word-spacing:0px;fill:#000000;fill-opacity:1;stroke:#000000;stroke-width:0;stroke-linecap:square;stroke-miterlimit:4;stroke-dasharray:none;stroke-opacity:1;filter:url(#filter4375-4-1-1-1-9-30-2-4)"
       x="787.65729"
       y="1584.5073"
       id="text4580-9-9-3"
       transform="matrix(1.6478956,-0.12375314,-0.87637078,2.5734869,1811.3927,-3600.7784)"><tspan
         sodipodi:role="line"
         id="tspan4582-26-1-0"
         x="787.65729"
         y="1584.5073"
         style="font-style:normal;font-variant:normal;font-weight:normal;font-stretch:normal;font-size:70px;line-height:1.25;font-family:ComicSpice;-inkscape-font-specification:ComicSpice;fill:#ffffff;stroke-width:0;stroke-linecap:square;stroke-miterlimit:4;stroke-dasharray:none">Z</tspan></text>
    <text
       xml:space="preserve"
       style="font-style:normal;font-variant:normal;font-weight:normal;font-stretch:normal;line-height:0%;font-family:Lavi;-inkscape-font-specification:Lavi;letter-spacing:0px;word-spacing:0px;fill:#000000;fill-opacity:1;stroke:#000000;stroke-width:0;stroke-linecap:square;stroke-miterlimit:4;stroke-dasharray:none;stroke-opacity:1;filter:url(#filter4375-4-1-1-1-9-30-2-7-9)"
       x="787.65729"
       y="1584.5073"
       id="text4580-9-9-6-3"
       transform="matrix(1.7863953,-0.07100102,-0.69940041,2.1802978,1477.4386,-2984.9193)"><tspan
         sodipodi:role="line"
         id="tspan4582-26-1-5-0"
         x="787.65729"
         y="1584.5073"
         style="font-style:normal;font-variant:normal;font-weight:normal;font-stretch:normal;font-size:70px;line-height:1.25;font-family:ComicSpice;-inkscape-font-specification:ComicSpice;fill:#ffffff;stroke-width:0;stroke-linecap:square;stroke-miterlimit:4;stroke-dasharray:none">Z</tspan></text>
    <text
       xml:space="preserve"
       style="font-style:normal;font-variant:normal;font-weight:normal;font-stretch:normal;line-height:0%;font-family:Lavi;-inkscape-font-specification:Lavi;letter-spacing:0px;word-spacing:0px;fill:#000000;fill-opacity:1;stroke:#000000;stroke-width:0;stroke-linecap:square;stroke-miterlimit:4;stroke-dasharray:none;stroke-opacity:1;filter:url(#filter4375-4-1-1-1-9-30-2-7-6-5)"
       x="787.65729"
       y="1584.5073"
       id="text4580-9-9-6-8-9"
       transform="matrix(2.0241923,0.10781681,-1.2082941,2.536771,2181.4743,-3672.0484)"><tspan
         sodipodi:role="line"
         id="tspan4582-26-1-5-8-2"
         x="787.65729"
         y="1584.5073"
         style="font-style:normal;font-variant:normal;font-weight:normal;font-stretch:normal;font-size:70px;line-height:1.25;font-family:ComicSpice;-inkscape-font-specification:ComicSpice;fill:#ffffff;stroke-width:0;stroke-linecap:square;stroke-miterlimit:4;stroke-dasharray:none">!</tspan></text>
  </g>
</svg>
