<?xml version="1.0" encoding="UTF-8" standalone="no"?>
<!-- Created with Inkscape (http://www.inkscape.org/) -->

<svg
   xmlns:dc="http://purl.org/dc/elements/1.1/"
   xmlns:cc="http://creativecommons.org/ns#"
   xmlns:rdf="http://www.w3.org/1999/02/22-rdf-syntax-ns#"
   xmlns:svg="http://www.w3.org/2000/svg"
   xmlns="http://www.w3.org/2000/svg"
   xmlns:xlink="http://www.w3.org/1999/xlink"
   xmlns:sodipodi="http://sodipodi.sourceforge.net/DTD/sodipodi-0.dtd"
   xmlns:inkscape="http://www.inkscape.org/namespaces/inkscape"
   id="svg2"
   version="1.1"
   inkscape:version="0.92.4 (5da689c313, 2019-01-14)"
   width="2481"
   height="663"
   sodipodi:docname="E32P00.svg">
  <metadata
     id="metadata8">
    <rdf:RDF>
      <cc:Work
         rdf:about="">
        <dc:format>image/svg+xml</dc:format>
        <dc:type
           rdf:resource="http://purl.org/dc/dcmitype/StillImage" />
        <dc:title />
      </cc:Work>
    </rdf:RDF>
  </metadata>
  <defs
     id="defs6">
    <linearGradient
       id="linearGradient948"
       inkscape:collect="always">
      <stop
         id="stop942"
         offset="0"
         style="stop-color:#d0d2d6;stop-opacity:1" />
      <stop
         style="stop-color:#84a1b2;stop-opacity:1"
         offset="0.5"
         id="stop944" />
      <stop
         id="stop946"
         offset="1"
         style="stop-color:#6e7d84;stop-opacity:1" />
    </linearGradient>
    <linearGradient
       id="linearGradient901"
       inkscape:collect="always">
      <stop
         id="stop895"
         offset="0"
         style="stop-color:#d0d2d6;stop-opacity:1" />
      <stop
         style="stop-color:#84a1b2;stop-opacity:1"
         offset="0.70678365"
         id="stop897" />
      <stop
         id="stop899"
         offset="1"
         style="stop-color:#6e7d84;stop-opacity:1" />
    </linearGradient>
    <linearGradient
       inkscape:collect="always"
       xlink:href="#linearGradient4290"
       id="linearGradient4327"
       gradientUnits="userSpaceOnUse"
       x1="1243.5789"
       y1="254.0174"
       x2="1240.9818"
       y2="421.95773"
       gradientTransform="translate(80.457847,-440.43455)" />
    <linearGradient
       inkscape:collect="always"
       id="linearGradient4290">
      <stop
         style="stop-color:#d0d2d6;stop-opacity:1"
         offset="0"
         id="stop4292-7" />
      <stop
         id="stop4298"
         offset="0.5"
         style="stop-color:#84a1b2;stop-opacity:1" />
      <stop
         style="stop-color:#6e7d84;stop-opacity:1"
         offset="1"
         id="stop4294" />
    </linearGradient>
    <filter
       inkscape:menu-tooltip="Transparent plastic with deep colors"
       inkscape:menu="Bevels"
       inkscape:label="Pepper-title-style"
       style="color-interpolation-filters:sRGB"
       id="filter4268">
      <feGaussianBlur
         in="SourceGraphic"
         result="result6"
         stdDeviation="1.07656"
         id="feGaussianBlur4270" />
      <feComposite
         in2="SourceGraphic"
         in="result6"
         operator="xor"
         id="feComposite4272" />
      <feGaussianBlur
         result="result2"
         stdDeviation="6.0001843317972341"
         id="feGaussianBlur4274" />
      <feComposite
         in2="SourceGraphic"
         operator="atop"
         result="result91"
         id="feComposite4276"
         stdDeviation="6" />
      <feComposite
         result="result4"
         in="result2"
         operator="xor"
         in2="result91"
         id="feComposite4278"
         stdDeviation="3.7000000000000002" />
      <feGaussianBlur
         in="result4"
         result="result3"
         stdDeviation="3.0319199999999999"
         id="feGaussianBlur4280" />
      <feSpecularLighting
         lighting-color="rgb(127,173,218)"
         in="result3"
         result="result5"
         specularExponent="35"
         specularConstant="3"
         surfaceScale="12"
         id="feSpecularLighting4282"
         stdDeviation="3.0299999999999998">
        <feDistantLight
           elevation="45"
           azimuth="235"
           id="feDistantLight4284" />
      </feSpecularLighting>
      <feComposite
         k4="0"
         k1="0"
         in2="result5"
         in="SourceGraphic"
         k3="0.7"
         k2="0.8"
         operator="arithmetic"
         result="result7"
         id="feComposite4286" />
      <feComposite
         in="result7"
         operator="in"
         in2="SourceGraphic"
         id="feComposite4288" />
    </filter>
    <linearGradient
       gradientTransform="translate(-68.1001,1.7340205)"
       inkscape:collect="always"
       xlink:href="#linearGradient4389"
       id="linearGradient4395"
       x1="1255.1119"
       y1="489.24805"
       x2="1260.4043"
       y2="325.1637"
       gradientUnits="userSpaceOnUse" />
    <linearGradient
       inkscape:collect="always"
       id="linearGradient4389">
      <stop
         style="stop-color:#66261c;stop-opacity:1"
         offset="0"
         id="stop4391" />
      <stop
         style="stop-color:#ff0202;stop-opacity:1"
         offset="1"
         id="stop4393" />
    </linearGradient>
    <filter
       inkscape:menu-tooltip="Transparent plastic with deep colors"
       inkscape:menu="Bevels"
       inkscape:label="Pepper-title-style"
       style="color-interpolation-filters:sRGB"
       id="filter4268-9">
      <feGaussianBlur
         in="SourceGraphic"
         result="result6"
         stdDeviation="0.20000000000000001"
         id="feGaussianBlur4270-7" />
      <feComposite
         in2="SourceGraphic"
         in="result6"
         operator="xor"
         id="feComposite4272-4" />
      <feGaussianBlur
         result="result2"
         stdDeviation="6.0001843317972341"
         id="feGaussianBlur4274-9" />
      <feComposite
         in2="SourceGraphic"
         operator="atop"
         result="result91"
         id="feComposite4276-1"
         stdDeviation="6" />
      <feComposite
         result="result4"
         in="result2"
         operator="xor"
         in2="result91"
         id="feComposite4278-7"
         stdDeviation="3.7000000000000002" />
      <feGaussianBlur
         in="result4"
         result="result3"
         stdDeviation="3.6962672811059902"
         id="feGaussianBlur4280-0" />
      <feSpecularLighting
         lighting-color="#d8bd6d"
         in="result3"
         result="result5"
         specularExponent="35"
         specularConstant="3"
         surfaceScale="12"
         id="feSpecularLighting4282-6">
        <feDistantLight
           elevation="45"
           azimuth="235"
           id="feDistantLight4284-0" />
      </feSpecularLighting>
      <feComposite
         k4="0"
         k1="0"
         in2="result5"
         in="SourceGraphic"
         k3="0.7"
         k2="0.8"
         operator="arithmetic"
         result="result7"
         id="feComposite4286-8" />
      <feComposite
         in="result7"
         operator="in"
         in2="SourceGraphic"
         id="feComposite4288-5" />
    </filter>
    <radialGradient
       inkscape:collect="always"
       xlink:href="#linearGradient901"
       id="radialGradient861"
       cx="868.31659"
       cy="-347.79337"
       fx="868.31659"
       fy="-347.79337"
       r="931.55713"
       gradientTransform="matrix(0.34977957,-0.00202561,0.00157678,0.2722759,844.8677,286.43824)"
       gradientUnits="userSpaceOnUse" />
    <linearGradient
       inkscape:collect="always"
       xlink:href="#linearGradient948"
       id="linearGradient940"
       x1="1282.6195"
       y1="257.91455"
       x2="1281.4075"
       y2="457.93338"
       gradientUnits="userSpaceOnUse" />
  </defs>
  <sodipodi:namedview
     pagecolor="#ffffff"
     bordercolor="#666666"
     borderopacity="1"
     objecttolerance="10"
     gridtolerance="10"
     guidetolerance="10"
     inkscape:pageopacity="0"
     inkscape:pageshadow="2"
     inkscape:window-width="2560"
     inkscape:window-height="1381"
     id="namedview4"
     showgrid="false"
     inkscape:zoom="0.52995012"
     inkscape:cx="865.47113"
     inkscape:cy="474.01308"
     inkscape:window-x="0"
     inkscape:window-y="32"
     inkscape:window-maximized="1"
     inkscape:current-layer="layer1"
     inkscape:snap-global="false" />
  <g
     inkscape:groupmode="layer"
     id="layer2"
     inkscape:label="artwork"
     sodipodi:insensitive="true">
    <image
       sodipodi:absref="/felles/omsetting/pepper-carrot/webcomics/new-ep32_The-Battlefield/lang/nn/../gfx_Pepper-and-Carrot_by-David-Revoy_E32P00.png"
       xlink:href="../gfx_Pepper-and-Carrot_by-David-Revoy_E32P00.png"
       y="0"
       x="0"
       id="image10"
       height="663"
       width="2481" />
  </g>
  <g
     inkscape:groupmode="layer"
     id="layer1"
     inkscape:label="txt"
     style="display:inline">
    <text
       xml:space="preserve"
       style="font-style:normal;font-variant:normal;font-weight:normal;font-stretch:normal;font-size:72.5px;line-height:1.25;font-family:Lavi;-inkscape-font-specification:'Lavi, Normal';font-variant-ligatures:normal;font-variant-caps:normal;font-variant-numeric:normal;font-feature-settings:normal;text-align:center;letter-spacing:0px;word-spacing:0px;writing-mode:lr-tb;text-anchor:middle;display:inline;fill:#0f0f0f;fill-opacity:1;stroke:none"
       x="1239.4258"
       y="582.47577"
       id="text4178"><tspan
         sodipodi:role="line"
         id="tspan4180"
         x="1239.4258"
         y="582.47577">Episode 32: På slagmarka</tspan></text>
    <path
       style="display:inline;fill:url(#linearGradient4395);fill-opacity:1;stroke:#210804;stroke-width:4.19999981;stroke-miterlimit:4;stroke-dasharray:none;stroke-opacity:1;filter:url(#filter4268-9)"
       d="m 1152.8502,474.56703 c -2.7541,-0.982 -7.3015,-2.948 -10.1051,-4.37 l -5.0977,-2.584 -3.1586,-3.598 c -1.7374,-1.978 -4.1606,-5.5 -5.3852,-7.825 l -2.2266,-4.229 -0.032,-7.511 -0.032,-7.512 3.1618,-6.673 3.1618,-6.674 7.7715,-8.134 7.7714,-8.134 -2.8135,-5.887 -2.8132,-5.886 0.6007,-3.004 0.6007,-3.004 -1.4333,-1.19 -1.4333,-1.189 1.5545,-3.006 1.5544,-3.006 -2.2226,-2.366 -2.2228,-2.366 0.6352,-4.633 0.6351,-4.633 1.9948,-4.51 1.9948,-4.51 4.259,-5.087 4.2593,-5.087 4.3965,-2.788 4.3964,-2.788 5.4241,-1.214 5.4239,-1.214 5.2142,1.647 5.2141,1.648 5.7175,3.58 5.7173,3.581 3.6482,6.006 3.6485,6.006 0.5124,3.82 0.5126,3.821 -2.211,7.005 -2.2109,7.005 -3.8479,4.9 c -2.1163,2.695 -5.5023,7.379 -7.5243,10.408 -2.0221,3.03 -5.026,6.706 -6.6752,8.17 l -2.9984,2.661 0.8527,1.455 c 0.4689,0.8 4.9563,5.811 9.9717,11.136 l 9.1192,9.681 1.196,-1.441 1.1962,-1.441 0.2013,-2.842 0.2012,-2.842 -3.7507,-0.311 -3.7504,-0.31 -2.5088,-3.289 -2.509,-3.29 v -2.087 -2.087 l 1.4347,-1.435 1.4347,-1.435 8.3299,-2.589 c 4.5817,-1.425 10.5835,-3.102 13.3376,-3.728 l 5.0075,-1.138 12.018,-0.395 c 6.61,-0.217 14.3841,-0.663 17.276,-0.99 l 5.2579,-0.595 -6e-4,1.323 -4e-4,1.324 -7.1226,6.51 c -3.9171,3.581 -8.5364,7.917 -10.2648,9.637 l -3.1425,3.127 -4.8851,0.709 c -2.6869,0.39 -5.5037,0.947 -6.2594,1.237 l -1.3742,0.527 v 4.863 4.863 l -2.1368,5.711 -2.1369,5.711 2.8777,2.088 c 1.5826,1.148 4.6848,3.479 6.894,5.179 l 4.0163,3.091 -0.1852,1.416 c -0.1026,0.778 -0.8092,3.102 -1.5709,5.163 l -1.3846,3.748 -2.3595,2.512 -2.3594,2.511 h -3.0803 -3.0803 l -3.2792,-1.999 c -1.8036,-1.099 -3.8835,-1.999 -4.6221,-1.999 -0.7386,0 -2.4888,-0.901 -3.8893,-2.003 -1.4007,-1.101 -3.1514,-1.991 -3.8908,-1.977 -0.7394,0.01 -3.8231,1.608 -6.8525,3.542 l -5.5084,3.517 -9.4744,2.967 -9.4744,2.968 -5.0474,-0.07 -5.0473,-0.07 -5.0075,-1.785 z m 24.3013,-24.237 4.4029,-2.131 0.4904,-1.278 0.4903,-1.278 -10.3356,-10.105 -10.3358,-10.105 h -1.2091 -1.2093 l -2.7967,3.687 c -1.5384,2.027 -4.2615,5.04 -6.0518,6.694 l -3.2548,3.007 v 1.355 1.354 l 4.2562,4.343 c 2.3412,2.388 5.1578,4.837 6.2595,5.441 l 2.003,1.099 6.444,0.03 6.4438,0.03 4.4029,-2.132 z m -5.3575,-61.551 7.732,-6.598 1.9312,-3.167 1.9314,-3.167 v -3.178 -3.178 l -2.4834,-2.952 -2.4835,-2.951 -3.008,-1.246 -3.0083,-1.246 -3.4615,0.649 -3.4615,0.65 -2.7161,3.22 c -1.4936,1.772 -3.3234,4.672 -4.0662,6.444 l -1.3512,3.223 v 3.879 3.879 l 1.4184,4.712 c 1.4086,4.681 3.1693,7.624 4.5605,7.624 0.3993,0 4.2055,-2.969 8.4581,-6.597 z"
       id="path4376-3"
       inkscape:connector-curvature="0"
       sodipodi:nodetypes="ccccscccccccccccccccccccccccccccccccccccccscccccccccccccccccccscssccccscscccccccccccccccccscsccccccccccccccccccccccccccccccccccccccccccccccscc" />
    <path
       style="display:inline;opacity:1;fill:url(#linearGradient940);fill-opacity:1;stroke:#131110;stroke-width:4.19999981;stroke-miterlimit:4;stroke-dasharray:none;stroke-opacity:1;filter:url(#filter4268);enable-background:new"
       d="m 741.9147,507.18914 c -5.4351,-5.43514 -5.8108,-6.14566 -5.8108,-10.9887 0,-6.49275 2.0814,-9.54477 7.5053,-11.00528 2.4056,-0.64777 4.7974,-2.15476 5.5638,-3.50558 0.9643,-1.69963 1.4501,-10.85347 1.7186,-32.38251 l 0.3744,-30.01316 -6.2446,-1.36556 c -8.605,-1.88172 -15.3327,-4.95777 -15.3327,-7.01043 0,-0.93361 -0.7218,-1.97444 -1.6038,-2.31291 -0.8821,-0.3385 -1.6038,-1.30748 -1.6038,-2.15331 0,-1.20647 0.864,-1.3655 4.0095,-0.73806 5.8327,1.16345 8.0781,0.87862 14.6954,-1.86411 l 5.9364,-2.46049 -0.3876,-39.62067 c -0.2131,-21.79137 -0.7583,-41.17249 -1.2115,-43.06917 -0.976,-4.08451 -3.7814,-4.92053 -16.8915,-5.03363 -10.3066,-0.0889 -10.7748,-1.5546 -2.6758,-8.37659 6.3713,-5.36677 8.1769,-6.40074 21.911,-12.54723 6.8878,-3.08254 10.6138,-4.20098 12.2958,-3.69084 3.4452,1.04494 7.1761,4.73592 8.8673,8.77247 l 1.4559,3.47489 h 12.2951 c 18.8266,0 32.0343,4.63454 48.4417,16.99793 13.1239,9.88909 17.4239,17.68547 17.4239,31.59108 0,9.18451 -2.0484,16.68621 -7.3151,26.78967 -5.0415,9.67135 -20.191,25.14243 -30.7075,31.35933 -7.66,4.5282 -31.8388,14.08169 -35.6392,14.08169 -5.5372,0 -5.459,-0.34728 -5.459,24.24168 0,13.69152 0.4439,23.77323 1.1009,25.00077 1.2807,2.39299 6.4298,5.28677 9.4071,5.28677 1.1333,0 2.6379,0.69564 3.3435,1.54586 0.9203,1.10884 1.9858,1.27861 3.7693,0.60054 1.461,-0.55547 5.4318,-0.5282 9.6285,0.0661 5.901,0.83567 7.7853,0.7062 10.8438,-0.74516 2.6951,-1.27892 5.3166,-1.58995 9.6394,-1.14379 3.2657,0.33705 7.1599,0.14809 8.6538,-0.41989 3.3298,-1.26598 4.0063,-0.72979 2.5387,2.0123 -1.1814,2.20752 -6.5342,3.90016 -6.5342,2.06624 0,-0.58697 -2.3851,1.16372 -5.3002,3.89049 -2.9151,2.72673 -6.0081,4.9577 -6.8734,4.9577 -0.8653,0 -2.3125,0.73921 -3.216,1.64268 -2.1046,2.10473 -7.651,4.41585 -14.0254,5.84441 -2.76,0.61854 -6.5459,2.28978 -8.4129,3.71385 -3.988,3.04181 -12.1386,6.11285 -22.5819,8.50868 -4.1165,0.94435 -7.6448,2.18855 -7.8408,2.76489 -0.196,0.57635 -2.5128,1.04791 -5.1485,1.04791 -4.3759,0 -5.2965,-0.50455 -10.6029,-5.81087 z m 46.3952,-112.31912 c 17.5471,-8.40919 34.8229,-24.0231 41.4771,-37.48712 3.4568,-6.99442 3.8311,-8.54718 3.3777,-14.0144 -0.4722,-5.69362 -0.8763,-6.48019 -5.4632,-10.633 -6.132,-5.55161 -12.6532,-7.39802 -25.8418,-7.31673 -10.3664,0.0639 -22.1843,2.62018 -25.3475,5.48283 -1.7612,1.59384 -1.9171,4.31252 -1.9171,33.43141 0,32.57926 0.209,34.26255 4.2535,34.26255 0.9281,0 5.1857,-1.67651 9.4613,-3.72554 z m 581.8299,54.37586 c -9.5485,-1.88997 -19.6816,-5.42247 -25.7259,-8.96829 -17.1512,-10.0616 -28.9049,-21.84934 -36.231,-36.33603 -4.721,-9.33529 -6.4681,-15.02201 -10.0438,-32.69362 -2.467,-12.19106 -2.5336,-13.44701 -1.1908,-22.45322 3.4298,-23.00466 11.4516,-52.07341 18.5819,-67.33629 8.897,-19.04463 27.9524,-46.47887 42.3137,-60.91977 11.3108,-11.37334 19.3023,-17.34234 31.2528,-23.3433 l 9.8688,-4.95559 11.5153,0.006 c 10.8769,0.005 12.1248,0.24269 22.5108,4.2768 14.7893,5.7443 14.8193,5.74022 15.733,-2.13176 0.4493,-3.87219 1.5968,-7.4882 2.9036,-9.14942 2.0151,-2.56165 2.5668,-2.69722 8.1829,-2.01098 7.0194,0.85766 17.3642,5.67583 22.3277,10.39901 2.9497,2.80695 3.4679,4.04255 3.4283,8.17565 -0.087,9.06789 -1.6139,13.91213 -5.7074,18.10427 -4.4674,4.5751 -5.0475,7.60245 -1.463,7.63788 1.3231,0.0131 3.5588,0.91044 4.9684,1.99414 l 2.5626,1.97038 -1.7645,19.13729 c -3.13,33.94717 -13.938,80.58687 -18.6745,80.58687 -1.2899,0 -2.3285,-5.32126 -2.3285,-11.92919 0,-2.88568 -0.6753,-6.86266 -1.5004,-8.83771 -0.8429,-2.01707 -1.8435,-9.85168 -2.2831,-17.87479 -0.7135,-13.01843 -1.203,-15.51291 -5.5275,-28.15962 -9.1456,-26.74551 -19.1828,-42.27122 -27.3121,-42.24675 -8.5767,0.0259 -23.1274,9.59398 -37.8651,24.89914 -8.4814,8.80785 -11.3471,11.1648 -13.0374,10.72276 -1.4279,-0.37344 -3.0985,0.36528 -4.8999,2.16675 -2.9339,2.93391 -3.3581,5.01138 -1.6679,8.16936 1.4368,2.68475 0.3285,5.15618 -2.4923,5.55801 -1.7489,0.24913 -2.3479,1.11447 -2.4487,3.53741 -0.073,1.76418 -4.1099,11.62755 -8.9702,21.91862 -11.1093,23.52205 -19.8195,49.36257 -20.9034,62.01366 -0.6162,7.1907 -1.3182,9.79747 -3.3626,12.48539 -2.4367,3.20361 -2.4909,3.57714 -0.9509,6.55516 0.8982,1.73686 3.0179,4.32315 4.7103,5.74729 1.6925,1.42413 4.4318,4.9697 6.0873,7.87905 4.1913,7.36607 11.8586,15.12538 18.1111,18.32839 5.0176,2.57048 5.9483,2.68049 18.711,2.21215 12.2995,-0.45132 14.4665,-0.85795 25.7266,-4.82739 6.7627,-2.38401 14.0847,-5.10315 16.271,-6.04251 2.1863,-0.93935 5.2908,-1.70792 6.8988,-1.70792 1.7252,0 4.2598,-1.23704 6.1824,-3.01754 1.7921,-1.65966 6.6907,-4.32648 10.8859,-5.92632 4.1949,-1.5998 8.524,-3.89971 9.6201,-5.11092 1.0962,-1.21116 3.2747,-2.86499 4.8414,-3.67507 3.3372,-1.72575 3.1065,-4.25204 -0.7707,-8.43552 -2.358,-2.54414 -3.1338,-2.70305 -13.1996,-2.70305 -8.9651,0 -11.8693,-0.45187 -17.9602,-2.79438 -17.9055,-6.88641 -21.2903,-7.84295 -27.8478,-7.87001 -3.6754,-0.0151 -6.6659,-0.38848 -6.6454,-0.82954 0.02,-0.44103 4.6045,-3.85944 10.1873,-7.59647 5.9261,-3.96691 12.6643,-9.64021 16.1909,-13.63231 3.3222,-3.76074 6.6241,-6.83773 7.3374,-6.83773 0.7132,0 5.7909,2.95101 11.2838,6.55778 l 9.9869,6.55775 9.1085,-0.69921 c 5.0096,-0.38458 12.1722,-1.36314 15.9165,-2.17461 6.4265,-1.3927 7.2169,-1.33629 14.1062,1.007 4.0144,1.3653 8.2824,2.22511 9.4846,1.91072 3.211,-0.8397 3.7656,1.93733 1.6556,8.28988 -1.4865,4.47585 -2.4931,5.77049 -5.445,7.00389 -4.1133,1.71868 -4.3366,2.9259 -1.8406,9.95367 l 1.7807,5.01404 -5.9819,10.65795 c -8.2396,14.68048 -21.3672,27.1804 -28.5454,27.1804 -1.6098,0 -2.9852,1.59474 -5.1082,5.92347 -2.6994,5.50412 -3.7609,6.44984 -14.9929,13.35771 -8.357,5.1397 -15.6244,8.62186 -23.5459,11.28212 -10.4901,3.52273 -12.6779,3.87875 -25.8924,4.21301 -7.9389,0.2008 -15.6371,0.12701 -17.1072,-0.16399 z M 482.31546,430.25289 c -8.0812,-3.03407 -14.1738,-11.33068 -15.2993,-20.83388 -0.5099,-4.30516 -0.2163,-5.51473 1.9501,-8.03327 2.076,-2.41351 3.7965,-3.11191 9.2501,-3.75496 9.453,-1.11457 10.2866,-2.24566 10.7378,-14.56959 0.359,-9.80596 0.4422,-10.09744 2.7198,-9.5258 1.5741,0.39508 3.0249,-0.15669 4.3961,-1.67188 2.4373,-2.69316 1.4757,-4.88592 -3.3042,-7.53448 l -3.1128,-1.72482 -0.2824,-32.57844 -0.2825,-32.57843 3.6256,0.42326 c 2.8698,0.33504 3.9942,-0.0993 5.3941,-2.08402 1.6563,-2.34825 1.646,-2.60904 -0.162,-4.11111 -1.0618,-0.88208 -3.5569,-3.87952 -5.5447,-6.66096 l -3.6143,-5.05717 0.9039,-17.39608 c 0.4971,-9.56784 0.9325,-21.80876 0.9677,-27.20204 0.058,-8.87537 -0.1752,-10.06021 -2.4546,-12.48466 -1.3851,-1.47329 -5.2342,-3.75208 -8.5536,-5.06402 -3.3194,-1.31193 -7.0789,-3.31913 -8.3545,-4.46044 -3.6694,-3.28307 -6.8528,-11.92362 -7.0529,-19.14345 -0.1671,-6.02849 0.057,-6.69391 3.1985,-9.50087 7.3078,-6.52955 41.0827,-14.42255 66.9786,-15.6525 14.3011,-0.67925 32.5435,0.70359 46.1152,3.49569 9.9499,2.04702 27.3625,10.76822 34.8838,17.47184 9.7758,8.71301 22.0834,28.10191 28.2674,44.5312 12.2144,32.45081 -2.6485,64.70298 -41.8882,90.89597 -14.2836,9.53448 -47.7106,24.15625 -64.6116,28.26264 -12.4124,3.01581 -14.8472,4.11626 -15.5816,7.04222 -1.0099,4.02399 0.013,29.07239 1.2374,30.29601 0.6123,0.61196 3.3962,1.53915 6.1864,2.06045 2.7903,0.52127 5.9357,1.72834 6.99,2.6824 1.3279,1.20179 3.9242,1.73466 8.4519,1.73466 3.5944,0 6.7687,0.37765 7.054,0.83926 0.6486,1.04949 32.9567,0.89082 34.6736,-0.17029 0.6919,-0.42759 2.9446,-0.31172 5.0061,0.25748 2.1504,0.59378 3.9973,0.63181 4.3326,0.0892 0.509,-0.82353 6.7196,-0.2587 7.871,0.71582 1.1441,0.96828 -2.6939,3.64188 -6.1404,4.27743 -2.1461,0.39579 -5.5429,1.59207 -7.5484,2.65843 -2.0055,1.06637 -4.0171,1.70972 -4.4702,1.42968 -0.4531,-0.28004 -2.0213,0.60066 -3.485,1.95706 -1.5278,1.41595 -6.4542,3.50608 -11.5678,4.90784 -4.8986,1.3429 -10.4867,3.12779 -12.4178,3.96643 -1.9312,0.83864 -4.9898,1.52481 -6.797,1.52481 -1.8071,0 -6.2414,1.38977 -9.8538,3.08838 -13.685,6.43487 -49.2405,10.7786 -58.8121,7.18493 z m 72.0243,-116.09148 c 2.6462,-0.72919 7.8623,-2.70855 11.5912,-4.39855 6.1157,-2.77172 7.0585,-2.93048 9.6229,-1.62059 5.272,2.69301 9.6671,-1.10808 8.1715,-7.06713 -0.9341,-3.72177 3.0133,-7.17248 6.0416,-5.28131 3.1504,1.96748 5.5914,-0.30216 4.7656,-4.43115 -0.5343,-2.6714 0.2153,-4.02507 5.3615,-9.68268 7.2375,-7.95668 14.8485,-20.54908 17.1396,-28.35748 2.3556,-8.02849 1.589,-18.30072 -1.9351,-25.92745 -8.4364,-18.25811 -26.0117,-25.49827 -53.3292,-21.96897 -12.2829,1.58691 -15.9833,1.16632 -15.9833,-1.81667 0,-0.76204 -1.2545,-2.05691 -2.7878,-2.87752 -2.57,-1.37545 -2.9528,-1.28827 -4.8994,1.11568 -1.3288,1.64099 -1.9521,3.69401 -1.6815,5.53815 0.3487,2.37557 -0.117,3.15713 -2.4594,4.12736 -4.627,1.9166 -8.6664,6.90344 -9.6617,11.92793 -1.1602,5.85721 -2.6216,88.19511 -1.6351,92.12556 0.4046,1.61232 1.7245,3.29725 2.933,3.74429 2.0532,0.75955 17.0529,-1.92747 28.7456,-5.14947 z m 108.5238,113.62593 c -15.7017,-2.08256 -21.5361,-7.22071 -28.3116,-24.9332 -4.5474,-11.88798 -4.7106,-12.73432 -5.1427,-26.66987 -0.8315,-26.81866 4.5018,-45.00575 18.8247,-64.19397 9.4394,-12.64593 15.1735,-17.7664 25.3801,-22.66385 15.5723,-7.4721 20.78514,-6.88091 33.77044,3.82993 7.6803,6.33506 12.7405,14.5827 14.7035,23.96524 1.4975,7.15761 1.5354,31.5223 0.057,36.84491 -1.4551,5.23969 -4.1107,6.84034 -13.8426,8.34375 -11.3525,1.75375 -53.54364,12.7628 -56.14494,14.65007 -2.604,1.88923 -3.2569,7.09228 -1.5049,11.99323 2.7096,7.57953 3.367,8.86562 6.0997,11.93255 6.4187,7.20391 15.3422,6.87505 31.5186,-1.16154 16.59724,-8.24574 21.98004,-11.26795 24.81904,-13.93509 1.5693,-1.47423 3.2772,-2.16962 4.3335,-1.76431 2.0737,0.79577 1.4833,4.76286 -1.8939,12.72587 -1.6706,3.93885 -2.5931,4.96955 -4.0377,4.51106 -2.3243,-0.73769 -7.7519,5.33071 -7.0478,7.87986 0.2657,0.96217 0.7957,2.83631 1.1777,4.16482 0.6282,2.18449 -0.2582,2.87523 -9.2706,7.22446 -13.17684,6.3588 -23.45754,8.58641 -33.48774,7.25608 z m 8.019,-78.42152 c 18.9703,-4.23953 27.43414,-7.08967 29.40364,-9.90158 1.2082,-1.72502 1.5906,-5.32546 1.5519,-14.61415 -0.062,-14.87599 -1.7022,-19.6144 -6.9681,-20.12967 -7.88794,-0.77184 -28.13754,18.00286 -37.06714,34.3672 -2.7833,5.10085 -5.3802,10.54754 -5.7708,12.10378 -0.6491,2.58626 -0.4898,2.76807 1.8531,2.11487 1.4097,-0.39306 9.0586,-2.16627 16.9974,-3.94045 z m 269.43864,76.29453 c -3.1573,-1.20837 -5.3728,-3.94782 -6.4609,-7.98898 -0.6083,-2.25885 -1.7034,-4.10701 -2.4336,-4.10701 -0.7304,0 -5.403,1.71935 -10.3836,3.82081 -37.5538,15.84471 -63.8074,6.99495 -61.7158,-20.80376 1.0149,-13.4889 9.1333,-26.90549 21.0907,-34.85477 10.4448,-6.94365 27.9551,-15.00923 38.2222,-17.60579 4.8352,-1.22283 10.0686,-2.70897 11.6298,-3.30254 l 2.8385,-1.07919 -0.7215,-8.79571 c -0.8469,-10.32313 -3.135,-19.1861 -5.449,-21.10655 -0.9039,-0.75019 -2.9536,-1.33047 -4.5549,-1.28947 -1.6012,0.041 -5.23,0.12759 -8.064,0.19247 -6.5338,0.14952 -18.0255,5.62416 -28.4051,13.53218 -4.1554,3.16594 -8.0028,5.75626 -8.5498,5.75626 -0.547,0 -2.7801,2.48547 -4.9626,5.52329 -3.405,4.73957 -4.1145,5.26162 -5.0001,3.67912 -1.1811,-2.11048 2.5458,-12.42274 7.8659,-21.76477 6.333,-11.1208 23.4014,-22.69201 36.6539,-24.84892 14.2311,-2.31617 29.0002,4.81798 35.3352,17.06859 3.9018,7.54498 6.8791,32.20464 6.9423,57.49742 0.022,8.7776 0.6919,10.27483 3.2296,7.21713 0.732,-0.88211 2.0553,-1.6038 2.9405,-1.6038 2.4232,0 0.9189,7.74915 -2.9609,15.25172 -2.8786,5.56689 -4.1922,11.47828 -2.5504,11.47828 0.3504,0 1.914,-0.89941 3.4749,-1.99868 1.5609,-1.09926 5.7249,-3.297 9.2533,-4.88387 3.5283,-1.58685 7.6923,-3.5743 9.2531,-4.41653 1.5609,-0.84222 3.1246,-1.53132 3.475,-1.53132 1.6316,0 0.2799,3.59483 -3.489,9.2799 -4.5202,6.81831 -5.7034,9.77702 -6.0262,15.06902 -0.2879,4.72045 -3.6006,7.95105 -12.6929,12.37859 -7.6021,3.70183 -14.7397,5.40224 -17.7846,4.23688 z m -37.6443,-24.45608 c 13.767,-2.78654 27.4145,-10.16558 30.7575,-16.63022 3.6318,-7.02316 0.3551,-16.9853 -5.5868,-16.9853 -1.7963,0 -2.882,-0.71338 -3.2547,-2.13842 -0.6732,-2.57454 -2.1718,-2.71995 -4.6759,-0.45375 -1.0238,0.92655 -2.5051,1.7988 -3.2918,1.93834 -6.0464,1.0725 -13.7249,4.26019 -15.914,6.60657 -1.4429,1.54663 -5.3916,4.75989 -8.7748,7.14061 -7.7831,5.47669 -12.9515,12.89019 -12.0789,17.32569 0.3414,1.73497 1.2148,3.53186 1.941,3.99313 2.1534,1.3678 12.0506,0.99013 20.8784,-0.79665 z m 612.7473,23.18697 c -2.7161,-0.95627 -7.0465,-3.48547 -9.6228,-5.62047 -3.8052,-3.15339 -5.0355,-5.10081 -6.5554,-10.3784 -2.2686,-7.87695 -2.3812,-13.99062 -0.3472,-18.8586 0.838,-2.00593 2.0747,-7.40329 2.7479,-11.99417 0.6731,-4.59087 1.8832,-12.43676 2.6892,-17.43529 1.4175,-8.79269 1.962,-14.9635 3.3747,-38.25675 0.3669,-6.04568 1.068,-11.24018 1.5586,-11.54334 0.4906,-0.30318 1.8874,-0.0184 3.1042,0.63275 1.8636,0.99733 2.8009,0.66715 5.9463,-2.09462 3.2852,-2.88447 4.275,-3.20292 8.2345,-2.64918 2.4754,0.34619 5.102,0.81476 5.837,1.04131 2.2652,0.6981 1.5194,9.20579 -1.7874,20.38749 -1.7182,5.81005 -3.4524,14.65342 -3.8539,19.65194 -0.4013,4.99852 -1.8656,14.62132 -3.2538,21.384 -2.9609,14.42344 -4.2089,25.49829 -3.2875,29.16992 1.8556,7.39351 23.0874,5.71188 40.5095,-3.20858 5.1416,-2.63261 10.4801,-6.13151 11.8633,-7.77534 2.5646,-3.0478 4.1547,-10.34257 5.6542,-25.9377 0.3814,-3.9694 1.1086,-7.2171 1.6155,-7.2171 1.3693,0 1.1165,-6.16839 -0.2883,-7.0366 -1.5124,-0.93472 -0.5901,-30.12104 1.1327,-35.84168 l 1.16,-3.85249 11.3717,-0.73521 c 10.7904,-0.6976 11.5007,-0.61411 13.8927,1.63315 3.0698,2.88379 3.2142,6.17211 0.4269,9.71564 -1.7114,2.17578 -2.2075,4.98699 -2.7128,15.3803 -0.3402,6.99485 -1.0436,15.60473 -1.5632,19.13309 -0.5196,3.52836 -1.2749,11.70774 -1.6782,18.17643 -0.4555,7.30595 -1.5,13.78632 -2.7572,17.10722 -2.4526,6.47869 -2.5266,8.01899 -0.3856,8.01899 1.8791,0 11.4238,-4.65328 15.633,-7.62152 1.561,-1.1007 4.0871,-2.00127 5.6133,-2.00127 3.8557,0 3.6558,3.25186 -0.6078,9.89617 -1.8606,2.89962 -3.7505,7.59685 -4.1998,10.4383 -0.449,2.84145 -1.6244,6.39929 -2.612,7.90634 -3.5586,5.43124 -18.9024,12.35222 -27.4401,12.37724 -3.2352,0.01 -4.4513,-0.63911 -6.6825,-3.56428 -1.5,-1.96669 -2.7274,-4.31348 -2.7274,-5.21507 0,-3.8708 -2.6833,-4.13435 -10.2705,-1.00876 -14.7741,6.08628 -24.1248,8.52662 -34.6358,9.03933 -7.66,0.37366 -11.3718,0.068 -15.096,-1.24319 z m -530.0127,-3.2807 c -2.4025,-2.4756 -4.6864,-5.54711 -5.0755,-6.82555 -0.3891,-1.27844 -1.3076,-3.04616 -2.0411,-3.92823 -2.2705,-2.73032 -2.8426,-7.1791 -1.1419,-8.87977 1.2118,-1.21196 3.6336,-1.43121 11.1037,-1.00528 l 9.5539,0.54473 0.4078,-22.55772 c 0.2891,-15.99324 0.7918,-22.94181 1.7275,-23.87751 0.9349,-0.93499 1.3198,-6.22132 1.3198,-18.13109 0,-16.19212 -0.095,-16.92385 -2.5698,-19.86537 -1.783,-2.11889 -2.4069,-3.90622 -2.0377,-5.83729 0.7029,-3.67731 -1.2476,-4.71608 -4.6588,-2.48099 -2.1017,1.37708 -3.2979,1.54375 -5.0318,0.70125 -1.251,-0.60789 -4.0789,-1.65721 -6.2841,-2.33186 -4.7173,-1.44317 -5.007,-2.97934 -1.2664,-6.7198 3.1554,-3.15534 19.0267,-9.22234 26.1253,-9.98668 9.9222,-1.0684 16.0333,5.40305 16.0364,16.9822 8e-4,3.38136 0.3974,6.14791 0.881,6.14791 0.4836,0 3.6383,-3.12312 7.0104,-6.94024 7.5443,-8.54009 13.9087,-12.47253 20.3431,-12.56979 6.6633,-0.10072 11.2449,1.95322 10.5221,4.71716 -0.4872,1.86297 -0.1175,2.10828 2.7274,1.80988 4.7037,-0.49341 8.0644,3.12606 13.673,14.72601 5.2747,10.90948 5.368,11.41322 3.116,16.80308 -0.8821,2.11114 -1.6038,5.77846 -1.6038,8.14957 0,3.18073 -0.4345,4.31114 -1.6569,4.31114 -2.3703,0 -8.0453,3.02679 -11.2035,5.9754 -2.4858,2.32084 -3.0444,2.42191 -6.9498,1.25732 -2.3357,-0.6965 -4.4874,-1.52621 -4.7813,-1.84385 -0.2941,-0.3176 -1.497,-1.10583 -2.6731,-1.7516 -3.1634,-1.737 -4.9089,-5.73408 -3.5845,-8.20868 0.9962,-1.8614 1.2396,-1.73142 2.8711,1.53295 1.8888,3.77937 4.0325,4.71404 8.3348,3.63424 2.8827,-0.72351 6.8129,-8.25192 6.8129,-13.05051 0,-3.73153 -2.0041,-7.0712 -3.8243,-6.37275 -0.9864,0.37856 -1.5218,-0.12911 -1.5218,-1.44327 0,-3.3973 -5.0243,-6.46107 -10.5689,-6.44465 -2.714,0.009 -6.0404,0.31084 -7.3922,0.67292 -2.6533,0.71069 -6.2367,6.91498 -10.388,17.98561 -3.0761,8.20334 -8.0097,37.42747 -8.1195,48.09465 -0.1007,9.79665 1.4194,12.70032 8.225,15.7107 3.2579,1.44115 4.7212,2.7357 4.7212,4.17679 0,2.50721 2.406,2.73878 4.3328,0.417 1.2581,-1.51565 1.4744,-1.51565 2.3225,0 1.1658,2.083 4.4322,2.16769 6.1,0.1582 1.5058,-1.81446 7.389,-0.51889 9.2813,2.04389 0.6528,0.88424 2.2165,1.6077 3.4749,1.6077 2.7098,0 3.0019,2.35308 0.5451,4.39204 -2.263,1.87811 -12.9117,5.19478 -16.7436,5.21502 -1.6406,0.009 -5.0086,1.06631 -7.4845,2.35033 -3.4705,1.7999 -7.3175,2.51146 -16.7973,3.10684 -6.7627,0.42477 -16.6844,1.12255 -22.0482,1.55066 l -9.7526,0.77836 z m 717.6483,2.3186 c -3.6011,-2.92234 -8.952,-11.032 -8.952,-13.56737 0,-3.34558 5.2002,-7.77133 10.1575,-8.64497 8.442,-1.48774 8.019,0.79934 8.019,-43.36397 0,-24.15585 -0.4462,-41.4223 -1.156,-44.7312 -1.2987,-6.05664 -4.1395,-8.94327 -10.7501,-10.92384 -4.2095,-1.26123 -5.1941,-2.99304 -2.7954,-4.91765 1.3339,-1.07044 19.8459,-4.53546 24.2308,-4.53546 3.473,0 10.8156,7.38045 11.7143,11.77478 1.141,5.57835 3.3942,5.06149 8.7261,-2.00157 3.6421,-4.82458 6.3549,-7.11269 11.4015,-9.61619 6.4677,-3.20857 6.7422,-3.24953 11.7696,-1.75654 6.5337,1.9403 13.2629,6.86515 15.7887,11.55504 1.8633,3.46012 1.8807,4.36669 0.3437,17.96098 -1.6088,14.22793 -1.652,14.37009 -6.9599,22.87053 -2.9376,4.7045 -6.011,8.5536 -6.8297,8.5536 -1.1352,0 -1.6246,-2.54084 -2.0594,-10.69201 -0.6594,-12.36021 -2.2632,-16.2637 -8.0972,-19.70584 -6.3922,-3.77146 -7.9648,-2.86458 -11.8443,6.83011 -5.5241,13.80528 -11.9228,54.55581 -9.5666,60.92589 2.7679,7.48297 2.3118,7.2973 14.6607,5.96866 6.1276,-0.6593 12.9563,-1.59225 15.175,-2.07329 2.4474,-0.53052 4.2865,-0.4665 4.6753,0.1628 0.3527,0.57055 -2.7459,4.47608 -6.8861,8.67894 -4.1396,4.20286 -8.2332,9.37248 -9.0965,11.48806 -2.735,6.70272 -6.4648,8.06385 -25.872,9.44205 -9.409,0.6682 -18.5506,1.42849 -20.3148,1.6896 -2.0383,0.30166 -4.0367,-0.19811 -5.4822,-1.37114 z m 262.6249,0.82691 c -14.6737,-1.25709 -23.6401,-10.23027 -27.1416,-27.16281 -1.3436,-6.49627 -1.7267,-14.82989 -1.7267,-37.55044 0,-16.06066 -0.2921,-29.96227 -0.6491,-30.89245 -0.5145,-1.34128 -2.367,-1.69126 -8.952,-1.69126 h -8.303 l -4.5002,-4.88214 c -2.7403,-2.9729 -4.2599,-5.50819 -3.886,-6.48294 0.3379,-0.88042 -0.1005,-2.98323 -0.9744,-4.67292 -0.8736,-1.68967 -1.3399,-3.72007 -1.0361,-4.51201 0.8229,-2.14429 15.3112,-9.1278 20.6623,-9.95928 8.6821,-1.34914 8.7999,-1.71971 8.6652,-27.23195 -0.071,-13.54753 -0.5882,-23.62744 -1.309,-25.53731 -1.3386,-3.54595 0.2197,-6.56458 3.3534,-6.4966 2.7307,0.0592 14.7711,7.80254 17.472,11.2363 2.2284,2.83279 2.4947,4.55881 3.0838,19.97665 0.5416,14.17701 0.9533,17.21699 2.574,19.00809 2.4737,2.73328 4.1355,2.67239 10.7175,-0.39267 3.4767,-1.61896 8.5665,-2.78211 14.4017,-3.29111 4.9634,-0.43299 10.2422,-1.40481 11.7301,-2.15961 1.488,-0.75478 5.734,-1.65878 9.4354,-2.00884 5.6048,-0.53011 6.8408,-0.34656 7.3952,1.09797 0.4578,1.1929 -0.6377,2.76758 -3.5087,5.04312 -2.2957,1.81974 -9.7305,8.16716 -16.5217,14.10537 -9.1275,7.98153 -13.9461,11.39501 -18.4797,13.09119 -3.3728,1.26194 -8.4558,3.47187 -11.2957,4.91091 l -5.1634,2.61646 -0.7027,31.33718 c -0.7933,35.36954 -0.2118,42.4553 3.8139,46.48103 2.5517,2.55155 2.869,2.61202 5.7822,1.10134 1.6954,-0.87916 9.4735,-7.66057 17.2849,-15.06974 15.0227,-14.2491 19.2425,-16.61306 17.8433,-9.99634 -1.7125,8.10009 -4.7271,14.68334 -8.1063,17.70259 -3.1389,2.8047 -3.4101,3.46501 -2.3652,5.75881 1.9105,4.19261 -2.6737,12.45641 -10.5695,19.05403 -8.9092,7.44437 -10.7731,8.1762 -19.0239,7.46938 z m -138.7074,-1.63518 c -5.5037,-1.73288 -14.5282,-8.08257 -19.7097,-13.86791 -4.8581,-5.42412 -10.9588,-17.56288 -12.5203,-24.91153 -1.6294,-7.669 -1.4562,-26.75476 0.332,-36.56752 1.4254,-7.82052 6.303,-22.31722 9.7559,-28.99449 4.1603,-8.04475 15.3689,-17.45262 28.8033,-24.17566 15.5985,-7.80596 41.4855,-3.46488 50.9339,8.54124 1.551,1.97079 4.2549,6.44342 6.0087,9.93918 9.9301,19.79294 12.2364,38.72761 7.3504,60.35056 -1.823,8.06738 -3.389,12.6635 -4.5538,13.36502 -0.9766,0.58804 -2.9032,2.03147 -4.281,3.2076 -2.3981,2.04667 -2.4339,2.28276 -0.834,5.50561 1.6006,3.22396 1.5489,3.56159 -1.2129,7.93666 -4.4655,7.07355 -12.001,14.59376 -18.1474,18.1104 -5.5454,3.17281 -5.7037,3.19556 -21.4945,3.09061 -9.9814,-0.0663 -17.5927,-0.63622 -20.4306,-1.52977 z m 30.9369,-23.10069 c 9.8381,-2.17996 17.1124,-13.96492 18.5737,-30.09029 0.3983,-4.39467 0.3497,-16.83098 -0.108,-27.63625 l -0.8321,-19.64595 -8.9185,-6.68249 c -9.926,-7.43761 -11.9023,-7.88878 -21.8374,-4.98538 -9.5528,2.7917 -19.2141,14.05933 -21.8771,25.51425 -0.8083,3.47771 -3.0313,8.00038 -5.7236,11.64491 -4.9679,6.72468 -5.243,8.14476 -2.3714,12.24133 1.1169,1.59335 2.296,5.41451 2.6204,8.49146 0.7434,7.05226 9.6641,25.58614 13.7045,28.47221 6.415,4.58258 14.5128,5.39214 26.7695,2.6762 z m -223.6733,19.3992 c -2.3307,-2.52461 -4.5459,-5.60428 -4.9225,-6.84371 -0.3767,-1.23945 -1.285,-2.97524 -2.0186,-3.85731 -2.3799,-2.86207 -2.8398,-7.18199 -0.9638,-9.05789 1.3133,-1.31326 2.8365,-1.56193 6.3452,-1.03578 l 4.6169,0.69235 1.2671,-4.65485 c 0.6968,-2.56017 1.1857,-8.60131 1.0863,-13.42476 -0.1274,-6.19825 0.315,-9.72832 1.5095,-12.0382 1.3101,-2.53323 1.4223,-3.76858 0.4993,-5.49315 -1.6284,-3.04262 -1.482,-9.21497 0.5108,-21.53397 0.9263,-5.72725 1.6842,-12.40641 1.6842,-14.8426 0,-2.67064 0.9158,-5.91099 2.3062,-8.16076 2.019,-3.26664 2.1469,-4.17112 1.0292,-7.26274 -1.4623,-4.04373 -0.1394,-17.96706 2.5489,-26.82838 0.8673,-2.85888 1.5821,-7.76697 1.5885,-10.90689 0.01,-3.13994 1.4093,-11.80051 3.1173,-19.24566 1.7081,-7.44517 3.1422,-15.94239 3.1871,-18.88269 0.045,-2.9403 0.4569,-10.23685 0.9153,-16.21456 l 0.8338,-10.86857 -2.8816,1.70217 c -2.0814,1.22952 -3.2721,1.38706 -4.2882,0.56732 -0.7736,-0.62416 -2.937,-1.4619 -4.8076,-1.86164 -10.2473,-2.18986 -4.7257,-8.8483 11.913,-14.36567 9.0143,-2.98903 11.5274,-3.41586 16.5609,-2.81262 7.6407,0.91573 17.475,3.70361 18.4726,5.23675 1.1547,1.77436 -0.1497,5.03393 -3.5946,8.98371 -1.685,1.93165 -3.0636,4.23217 -3.0636,5.11226 0,0.88008 -0.8418,1.9161 -1.8709,2.30223 -4.36,1.63595 -5.9759,7.63788 -2.955,10.97582 1.7416,1.9244 1.7727,1.65541 -3.2144,27.81542 -1.4013,7.35076 -3.078,18.17647 -3.7258,24.05706 -2.6845,24.36655 -5.5879,45.7558 -8.0603,59.37866 -1.8003,9.91837 -2.6267,18.34912 -2.6267,26.79297 0,9.17794 -0.4003,12.85014 -1.5697,14.39618 -2.2325,2.95155 -2.2124,15.77109 0.029,17.63012 0.9161,0.76027 2.3187,2.94561 3.1169,4.85628 1.9057,4.56056 5.2885,6.4107 8.7978,4.81171 3.4784,-1.58489 4.5961,-0.70318 4.5961,3.62596 0,2.98727 -0.9208,4.40178 -5.4392,8.35423 -5.9251,5.18316 -6.7552,5.39492 -26.7021,6.81078 l -9.5882,0.68059 z m -566.9522,-6.16534 c -2.1816,-0.48465 -2.2438,-0.77235 -0.7642,-3.53678 1.0514,-1.96459 5.2511,-2.83819 6.6964,-1.39294 0.9004,0.90045 -0.9758,4.29966 -2.6949,4.88232 -0.7514,0.25469 -2.2081,0.27601 -3.2373,0.0474 z"
       id="path8305"
       inkscape:connector-curvature="0"
       sodipodi:nodetypes="cscsccsscscccccccccccscsccsscscccccccscscscccsccccccscssccccccsccccccccccccccsssccccccccccccccccccscscccccscccccsccccccccccsscsccccccccccccccccccccccccccscscssccccscccccccscccscccccccccccccsccccccccccccscsccsccccccscccccsccscccsccscccscccccccscccscccscscccsccccccscccccccccccccccccccccccccccscccccccsscscscccccsscccsccccccsccscccccscsccccsscccccccscscccccsccccsccccccccscscccscccccccsccccccccccccccscscccccccccccccccccccccccccccccccccccccccccccccccccccccccsccccccccccccccscccccccccccccccscccccsccccscsccccccc" />
  </g>
</svg>
