<?xml version="1.0" encoding="UTF-8" standalone="no"?>
<!-- Created with Inkscape (http://www.inkscape.org/) -->

<svg
   xmlns:dc="http://purl.org/dc/elements/1.1/"
   xmlns:cc="http://creativecommons.org/ns#"
   xmlns:rdf="http://www.w3.org/1999/02/22-rdf-syntax-ns#"
   xmlns:svg="http://www.w3.org/2000/svg"
   xmlns="http://www.w3.org/2000/svg"
   xmlns:xlink="http://www.w3.org/1999/xlink"
   xmlns:sodipodi="http://sodipodi.sourceforge.net/DTD/sodipodi-0.dtd"
   xmlns:inkscape="http://www.inkscape.org/namespaces/inkscape"
   id="svg2"
   version="1.1"
   inkscape:version="0.92.2 (5c3e80d, 2017-08-06)"
   width="2481"
   height="3503"
   sodipodi:docname="Pepper-and-Carrot_by-David-Revoy_E16P03.svg"
   enable-background="new"
   inkscape:export-filename="E:\Users\jamesmichael\Downloads\Compressed\eps\peppercarrot_ep16_translation-master\peppercarrot_ep16_translation-master\ph\Pepper-and-Carrot_by-David-Revoy_E16P03.png"
   inkscape:export-xdpi="98.181801"
   inkscape:export-ydpi="98.181801">
  <metadata
     id="metadata8">
    <rdf:RDF>
      <cc:Work
         rdf:about="">
        <dc:format>image/svg+xml</dc:format>
        <dc:type
           rdf:resource="http://purl.org/dc/dcmitype/StillImage" />
        <dc:title />
      </cc:Work>
    </rdf:RDF>
  </metadata>
  <defs
     id="defs6">
    <filter
       style="color-interpolation-filters:sRGB"
       id="filter4375-4-1-1-1"
       inkscape:label="deevad outline effect">
      <feFlood
         id="feFlood4377-7-9-0-8"
         flood-opacity="1"
         flood-color="rgb(0,0,0)"
         result="flood" />
      <feComposite
         id="feComposite4379-3-8-8-2"
         in2="SourceGraphic"
         in="flood"
         operator="in"
         result="composite1" />
      <feMorphology
         id="feMorphology4393-1-0-49-8"
         operator="dilate"
         radius="4"
         result="result3" />
      <feComposite
         id="feComposite4385-9-5-7-0"
         in2="result3"
         in="SourceGraphic"
         operator="over"
         result="composite2" />
    </filter>
    <filter
       style="color-interpolation-filters:sRGB"
       id="filter4375-4-1-1-1-8"
       inkscape:label="deevad outline effect">
      <feFlood
         id="feFlood4377-7-9-0-8-4"
         flood-opacity="1"
         flood-color="rgb(0,0,0)"
         result="flood" />
      <feComposite
         id="feComposite4379-3-8-8-2-5"
         in2="SourceGraphic"
         in="flood"
         operator="in"
         result="composite1" />
      <feMorphology
         id="feMorphology4393-1-0-49-8-1"
         operator="dilate"
         radius="4"
         result="result3" />
      <feComposite
         id="feComposite4385-9-5-7-0-7"
         in2="result3"
         in="SourceGraphic"
         operator="over"
         result="composite2" />
    </filter>
    <filter
       inkscape:collect="always"
       style="color-interpolation-filters:sRGB"
       id="filter1173"
       x="-0.0021589195"
       width="1.0043178"
       y="-0.0027016902"
       height="1.0054034">
      <feGaussianBlur
         inkscape:collect="always"
         stdDeviation="0.80782315"
         id="feGaussianBlur1175" />
    </filter>
    <mask
       maskUnits="userSpaceOnUse"
       id="mask1178">
      <path
         style="fill:#ffffff;fill-opacity:1;stroke:none;stroke-width:1px;stroke-linecap:butt;stroke-linejoin:miter;stroke-opacity:1;filter:url(#filter1173)"
         d="m 1493.9663,1823.2161 -412.489,-10.1507 -37.6155,166.7689 36.2167,219.5379 c 15.2058,4.7271 75.7181,25.0908 89.3626,39.3623 20.2146,20.2145 41.4906,38.9891 13.4915,60.3116 -30.3217,16.677 -37.2742,22.4147 -56.478,23.4254 -19.2038,1.0107 -46.9988,9.6019 -46.9988,9.6019 7.4572,1.2521 16.7571,13.3802 -7.5603,48.9187 -4.8548,14.9723 -25.1869,16.6709 -36.4063,22.8429 l 126.8462,126.8462 329.4968,-2.0215 3.0068,-6.6818 c -2.3395,-1.9901 -3.2292,-1.2264 -5.799,-6.8149 l -0.7453,-10.5715 c 0.7133,-9.9779 9.5007,-11.4659 13.1394,-12.8233 l -4.5482,-5.559 -0.7095,-16.141 c 1.4787,-3.0634 1.6942,-4.3954 7.0138,-8.7391 l 8.8565,-2.4095 3.5376,-0.5054 24.6147,-6.8403 19.3519,-9.3313 c 17.2378,-0.03 14.5275,5.3795 21.7306,8.0858 l 6.9779,-3.2363 c 11.5253,-4.1537 18.6097,16.5611 27.8922,24.9669 l 12.6341,3.5376 c 3.5643,5.3905 7.1118,10.7811 5.5589,16.1716 -0.3623,1.6329 -2.4871,1.414 4.2163,4.931 1.8932,-1.8862 18.6594,1.5525 26.5855,0.097 l 11.6488,6.0898 c 7.412,0 25.1841,4.7092 22.2359,0 l 0.5054,-6.5697 c 3.3602,-3.1563 3.6863,-5.3238 13.8796,-8.0246 30.3181,12.9133 64.8136,23.7379 99.8271,34.3035 l 120.2765,5.0536 c -19.2426,-30.1252 -51.1191,-64.9491 -66.708,-101.578 -4.9511,-20.9436 -8.8596,-60.6886 -10.1073,-56.6007 -3.0469,2.1667 -0.4061,9.2917 -2.7795,20.2145 -6.4704,-3.9737 -10.1915,-8.4227 -12.3814,-14.4028 -3.2677,-14.2567 -1.2516,-41.7501 5.5591,-46.2408 1.3281,-15.7508 1.3226,-14.7941 8.5911,-27.2896 3.4533,-1.0892 6.2752,-1.9109 13.8975,0.5054 l -3.2848,-6.0644 c -15.6833,-6.1561 -33.6577,-11.0563 -56.6008,-10.6126 -30.1959,7.6692 -48.5473,34.3531 -74.7937,40.9344 -17.7202,4.2553 -28.6047,-0.7178 -32.8486,-14.6555 1.9165,-6.9701 2.8299,-12.9371 -4.5483,-10.6126 -26.8356,-0.3686 -16.7411,-18.9776 -7.5804,-23.2467 -4.6397,-6.9676 -1.7759,-8.9329 1.5161,-10.6127 -5.0565,-0.8896 -11.5024,-1.3822 -12.1287,-3.5375 -11.8383,5.6932 -10.776,-2.4821 -12.1287,-6.0643 -38.6172,21.4148 -71.2033,43.1037 -95.0083,65.1918 -10.3575,1.526 -18.8312,10.587 -34.8701,-10.6126 -12.8041,-25.0309 -0.805,-39.0335 6.0644,-49.0203 24.6681,-27.1489 47.1363,-53.4896 79.342,-71.2562 l 7.0751,-15.6662 c -6.4251,-3.3691 -3.8108,-6.7382 -1.0107,-10.1073 -11.6178,0.2726 -11.6364,-5.7816 -16.677,-9.0966 -18.7468,3.2629 -29.7412,-12.3203 -39.4184,-24.2574 -2.9165,-20.1431 3.9213,-28.581 7.0751,-41.4398 -13.3344,-3.7812 -12.1196,-3.5882 -13.6448,-15.1609 -1.362,4.1031 -2.0807,10.0397 -2.0214,18.1931 -9.7563,-2.9206 -12.1727,-10.7467 -13.6448,-19.2038 -7.822,20.5042 -27.8334,19.011 -34.8701,16.1716 -11.5721,-4.5289 -13.989,-15.1184 -11.6234,-25.7735 2.5089,6.5757 5.6068,17.0822 11.3708,16.1716 11.8979,-4.1302 1.7702,-14.9685 3.2848,-19.7091 0.508,-4.8771 5.0963,-10.9057 9.0965,-11.3707 -5.4693,-7.0849 -13.1848,-12.0485 -7.0751,-30.0691 0.8126,-1.7293 -8.5888,-9.4528 6.8224,-19.7092 -6.6076,-14.7978 8.1614,-26.9001 23.3466,-26.0262 1.7243,-1.2429 2.0827,2.2474 2.9335,-5.1095 -3.6966,0.4937 -4.8071,-3.5866 -2.4408,-9.5281 -13.9336,-10.702 -38.2817,-29.2672 -54.5004,-50.5722 -31.6869,-41.6241 -41.6477,-75.3368 -43.6093,-85.5036 z"
         id="path1180"
         inkscape:connector-curvature="0"
         sodipodi:nodetypes="ccccccscccccccccccccccccccccccccccccccccccccccccccccccccccccccccccccccccccscc"
         mask="none" />
    </mask>
    <filter
       inkscape:collect="always"
       style="color-interpolation-filters:sRGB"
       id="filter1214"
       x="-0.0098877857"
       width="1.0197756"
       y="-0.0073013827"
       height="1.0146028">
      <feGaussianBlur
         inkscape:collect="always"
         stdDeviation="2.1824584"
         id="feGaussianBlur1216" />
    </filter>
    <filter
       inkscape:collect="always"
       style="color-interpolation-filters:sRGB"
       id="filter1224">
      <feBlend
         inkscape:collect="always"
         mode="overlay"
         in2="BackgroundImage"
         id="feBlend1226" />
    </filter>
  </defs>
  <sodipodi:namedview
     pagecolor="#ffffff"
     bordercolor="#666666"
     borderopacity="1"
     objecttolerance="10"
     gridtolerance="10"
     guidetolerance="10"
     inkscape:pageopacity="0"
     inkscape:pageshadow="2"
     inkscape:window-width="1366"
     inkscape:window-height="705"
     id="namedview4"
     showgrid="false"
     inkscape:zoom="0.34980128"
     inkscape:cx="1302.0906"
     inkscape:cy="401.50282"
     inkscape:window-x="-8"
     inkscape:window-y="-8"
     inkscape:window-maximized="1"
     inkscape:current-layer="layer1" />
  <g
     inkscape:groupmode="layer"
     id="layer2"
     inkscape:label="artwork"
     sodipodi:insensitive="true">
    <image
       sodipodi:absref="E:\Users\jamesmichael\Downloads\Compressed\eps\peppercarrot_ep16_translation-master\peppercarrot_ep16_translation-master\ph\../gfx_Pepper-and-Carrot_by-David-Revoy_E16P03.png"
       xlink:href="../gfx_Pepper-and-Carrot_by-David-Revoy_E16P03.png"
       width="2481"
       height="3503"
       id="image10"
       x="0"
       y="0" />
  </g>
  <g
     inkscape:groupmode="layer"
     id="layer3"
     inkscape:label="speechbubbles">
    <path
       inkscape:connector-curvature="0"
       style="fill:#ffffff;fill-rule:evenodd;stroke:none;stroke-width:1.44724047;opacity:0.898"
       d="m 1909.657,1551.1368 c 0.6431,15.1706 8.2933,59.5788 29.315,87.4443 l -3.3157,14.1851 8.0636,-8.0079 c 0.9065,1.1623 1.8162,2.3228 2.7353,3.4802 l -22.5441,45.6552 35.6057,-29.8872 c 10.5092,12.1724 21.3132,23.4921 31.3753,32.7001 60.8179,3.9196 98.3135,5.4671 129.9876,-3.9195 l 19.569,11.9234 5.1595,-22.0854 c 0.2174,-0.1152 0.4348,-0.2385 0.6522,-0.3562 l 21.3114,19.1773 -6.0271,-28.6491 c 0.071,-0.051 0.1398,-0.093 0.2122,-0.1448 l 49.7428,42.8913 -9.7308,-39.9626 43.259,52.475 -39.6261,-93.8558 c 1.1198,-1.1422 2.2221,-2.2514 3.3625,-3.4312 0.6509,-0.6735 1.2984,-1.3962 1.9436,-2.1457 l 15.6118,3.3434 -4.16,-21.0365 c 12.8801,-25.6056 27.3438,-56.5281 25.8128,-128.343 l 35.376,-41.0753 -28.6296,2.2101 48.3599,-52.6129 -58.841,18.7968 22.6752,-28.7343 -22.1502,7.8177 14.0074,-30.612 -18.1348,-0.1293 c -20.6365,-118.2615 -118.3229,-105.1336 -190.9121,-106.4086 -10.8315,-0.1432 -30.6047,6.8272 -49.7082,16.4647 l -19.0045,-19.5418 5.7445,26.7271 c -13.2511,7.7366 -24.9556,16.3371 -31.4235,24.1155 -50.876,70.2117 -65.1887,164.5803 -45.6746,251.5334 z"
       id="path4212"
       sodipodi:nodetypes="cccccccccccccccccccccccccccccccccccccc" />
    <path
       style="fill:#000000;fill-rule:evenodd;stroke:none;stroke-width:1.23175657px;stroke-linecap:butt;stroke-linejoin:miter;stroke-opacity:1;fill-opacity:1;opacity:0.615"
       d="m 208.78315,2714.7333 2e-5,0 c 2.30443,-9.2585 10.60778,-15.8959 18.45543,-20.6568 23.58554,-12.7966 51.29038,-12.8889 77.25173,-16.6394 34.53579,-1.1844 65.87568,18.9657 89.12583,42.9329 9.16072,7.0638 10.76699,18.907 13.67879,29.3739 9.24944,42.9675 8.20201,87.3206 6.23557,130.9713 -2.00394,22.1078 -2.52381,46.9298 -17.57355,64.754 -23.04715,24.2394 -58.49638,27.326 -90.02306,28.8952 -17.28858,-1.7644 -34.54371,-5.9617 -51.31598,-10.7546 -20.06448,-5.8981 -42.68872,-18.7244 -45.90228,-41.421 -13.28663,-68.0618 -20.86908,-140.0864 0.0675,-207.4555 z"
       id="path4408"
       inkscape:connector-curvature="0" />
    <path
       style="fill:#000000;fill-rule:evenodd;stroke:none;stroke-width:1.22709453px;stroke-linecap:butt;stroke-linejoin:miter;stroke-opacity:1;opacity:0.541"
       d="m 2039.8967,2874.8272 c 3.1306,64.9396 -11.2904,134.2416 5.2445,197.3501 36.9566,48.7889 114.4718,61.3342 170.6314,46.0818 77.5866,-32.5389 49.0306,-126.8271 55.8333,-192.2171 6.1982,-61.4154 -9.8785,-153.048 -91.8787,-140.9358 -57.7496,-1.9546 -151.5048,7.4423 -139.8305,89.721 z"
       id="path4410"
       inkscape:connector-curvature="0" />
    <g
       id="g1262">
      <path
         sodipodi:nodetypes="cccccccccccc"
         inkscape:connector-curvature="0"
         id="path4032"
         d="m 1565.198,569.30296 c -23.5422,-36.05488 -54.1129,-66.2817 -69.4889,-109.108 l -9.2637,47.90525 c -14.5297,-8.83764 -19.1139,-28.56125 -27.0752,-44.58858 l -11.338,41.51537 c -33.8829,-21.44426 -74.8115,-58.17958 -98.9326,-87.47159 l -58.8695,16.11177 c 28.9026,24.97665 134.8788,68.37615 157.7121,101.55003 L 1460.589,505.693 c 9.8817,9.56392 19.2558,19.74649 26.3633,32.69204 l 13.1193,-37.48982 z"
         style="color:#000000;display:inline;overflow:visible;visibility:visible;fill:#ffffff;fill-opacity:1;fill-rule:nonzero;stroke:none;stroke-width:1px;marker:none;enable-background:accumulate" />
      <path
         sodipodi:nodetypes="cccccccccccccccccccccccccccccccccscccccccccsccccccccccccccccccccccccccccccccccccccccccccccccccccccccccccccccccccccccccccc"
         inkscape:connector-curvature="0"
         id="path4024"
         d="m 1238.9664,149.15109 c 0,0 -9.8932,51.05188 -20.9792,114.34902 l -5.9565,-19.19398 -7.4246,17.74853 -7.5017,-22.94005 -11.2959,27.41175 c -8.9315,-20.88351 -14.1328,-33.67795 -17.6358,-54.56149 1.7276,19.57226 2.9828,32.71959 0.4628,54.27354 -32.9706,-32.99969 -31.9819,-35.94184 -44.3207,-54.27354 -3.381,23.56226 8.5011,45.68321 6.5881,63.78991 l -24.4576,-17.30798 2.167,28.29283 c -14.565,1.53527 -22.1529,-7.34409 -32.4873,-12.12508 l 16.2424,36.37815 -2.7071,10.10376 c 2.6373,5.90838 6.6175,9.93839 7.5813,18.18907 -7.3576,5.14158 -12.6476,5.13787 -18.7325,7.11209 5.7254,6.83304 10.4912,14.73931 13.8583,24.21275 l -19.4919,16.16776 17.8672,14.14641 c -13.4391,23.25927 -30.3319,37.92699 -46.025,55.57789 l 44.6702,-6.47285 5.0021,11.20081 -2.5625,5.37869 c 2.5242,2.45803 3.7292,3.40014 4.5969,4.05993 l -1.8898,7.0545 c 0.7067,1.58326 1.5082,3.03221 2.3238,4.46303 -3.3587,6.94954 -9.1283,15.74055 -12.4145,20.52427 -0.3543,0.10423 -0.7038,0.19731 -1.063,0.31386 0.1551,0.18522 0.3018,0.38043 0.4555,0.56723 -0.8322,1.197 -1.471,2.0951 -1.7091,2.40717 0.439,-0.19784 1.5573,-0.51893 2.9313,-0.88686 3.0776,3.92495 5.8421,8.19987 8.2224,12.90541 -3.1223,5.96545 -5.6345,11.24112 -4.703,11.24112 0.8904,0 4.5498,-1.26406 8.4153,-2.67207 0.08,0.21967 0.1697,0.42937 0.2483,0.65075 l -19.4943,16.16774 17.8672,14.14354 c -13.4391,23.25927 -30.3296,37.92988 -46.0226,55.58078 l 55.7709,-8.08531 -8.6635,18.18907 c 5.7392,5.58885 5.1248,3.78303 7.5811,7.07465 36.6124,24.00321 57.0906,64.82901 53.026,68.24726 -8.5178,9.33554 -38.0659,-17.27282 -41.2604,-13.4216 -4.4731,5.3927 -6.365,11.10369 -8.516,20.95976 l 17.2524,-13.84409 -4.3872,48.67891 c 6.1414,-1.99574 13.2324,-4.65971 16.1869,-2.70088 -2.0573,13.70094 -4.4835,18.82001 -9.6832,40.63964 9.8686,-9.47159 32.1039,-27.39446 32.1039,-27.39446 l 3.2134,44.55561 21.659,-35.3675 3.7917,24.25306 16.2425,-30.31705 v 31.32772 c 8.3912,-6.05794 13.2064,-25.13895 21.1167,-36.37815 l 1.6247,117.21691 28.264,-110.13362 5.6503,57.294 13.7354,-43.15623 1.6248,32.3355 15.16,-43.45281 11.3707,39.41016 10.8307,-36.37816 c 17.4964,36.8872 27.2487,70.26504 40.6085,99.02782 -2.2855,-40.79171 -4.1909,-80.40594 -3.247,-111.1529 6.1365,-3.20407 12.2728,3.20363 18.4095,12.12508 l -3.2494,-27.28217 22.7413,18.18908 -10.2884,-42.44215 c 34.7143,-1.35979 27.7453,5.92252 35.7368,10.10376 l -6.4965,-27.28217 23.8237,21.22107 c -6.5086,-22.57776 -15.0562,-47.05937 -19.4919,-67.70299 l 24.9061,5.05333 c -9.7603,-18.16354 -22.0237,-31.65812 -28.8522,-55.29284 l 21.8133,-2.3064 -20.5743,-30.31417 11.0332,-11.67014 6.294,5.60616 c -0.888,-3.08024 -1.8191,-6.19842 -2.7673,-9.33497 l 1.6826,-1.77945 -2.4588,-0.76591 c -1.4015,-4.59783 -2.8196,-9.21085 -4.2499,-13.83546 l 15.3722,-25.81945 -23.7151,-2.50506 c -0.6033,-2.24867 -1.1998,-4.48934 -1.738,-6.67729 l 3.1723,-6.01216 20.1162,4.08009 c -3.7437,-6.96681 -7.8543,-13.25213 -11.8865,-19.68059 l 20.0077,-37.91863 -33.7046,11.9005 c -1.1834,-3.02391 -2.2867,-6.19468 -3.2687,-9.59412 l 21.8132,-2.30638 -20.5767,-30.31417 16.2449,-17.17842 -12.9954,-4.04264 21.6591,-36.37817 -28.698,-3.0291 34.6544,-65.68455 -40.0709,14.14931 3.2494,-47.49259 -22.1989,34.35396 22.1989,-119.23536 c -18.0914,42.11875 -34.8853,66.06403 -56.0771,107.53928 l -7.8198,-11.97535 -8.6589,6.20219 2.1647,-34.06313 -31.9449,41.4286 3.2494,-19.19975 -9.7483,18.18908 2.1672,-25.26085 -16.7848,30.31417 1.5451,-26.4126 -8.0441,17.31663 -2.4756,-16.5939 -9.4374,10.53279 c -9.079,-40.61519 -17.4646,-112.3277 -17.4646,-112.3277 z m -156.8391,356.84798 c -0.01,0.005 -0.04,0.0132 -0.048,0.0172 -0.1616,0.24544 -0.1017,0.17907 0.048,-0.0172 z"
         style="color:#000000;display:inline;overflow:visible;visibility:visible;opacity:1;fill:#ffffff;fill-opacity:1;fill-rule:nonzero;stroke:none;stroke-width:1.01448536px;marker:none;enable-background:accumulate" />
    </g>
    <g
       id="g1258"
       style="opacity:0.895">
      <path
         inkscape:connector-curvature="0"
         style="fill:#ffffff;fill-rule:evenodd;stroke:none;stroke-width:1.04490197"
         d="m 500.72412,1274.3893 c -0.47522,-10.7012 -6.12866,-42.0263 -21.66351,-61.6824 l 2.45025,-10.0061 -5.95893,5.6487 c -0.66988,-0.8198 -1.34217,-1.6384 -2.02139,-2.4549 l 16.65996,-32.2048 -26.31234,21.0822 c -7.76622,-8.5863 -15.75027,-16.5711 -23.18617,-23.0663 -44.94381,-2.7649 -72.65282,-3.8565 -96.05968,2.7647 l -14.46138,-8.4106 -3.81285,15.5788 c -0.16061,0.081 -0.32132,0.1683 -0.48193,0.2513 l -15.74895,-13.5275 4.45395,20.2088 c -0.0527,0.036 -0.10326,0.066 -0.15675,0.1021 l -36.75962,-30.2551 7.19104,28.1893 -31.96808,-37.0154 29.2834,66.2051 c -0.82752,0.8056 -1.64207,1.5881 -2.48486,2.4203 -0.48104,0.475 -0.95956,0.9849 -1.43631,1.5136 l -11.53701,-2.3584 3.07421,14.8389 c -9.51825,18.062 -20.20686,39.8745 -19.07549,90.532 l -26.14251,28.9742 21.15697,-1.559 -35.73754,37.1126 43.483,-13.2591 -16.75674,20.2689 16.36885,-5.5144 -10.35137,21.5934 13.40142,0.091 c 15.25023,83.4206 87.43969,74.1603 141.08248,75.0596 8.00449,0.1011 22.61669,-4.8158 36.73402,-11.614 l 14.04416,13.7846 -4.24513,-18.853 c 9.79244,-5.4574 18.44198,-11.5241 23.22176,-17.0109 37.5969,-49.5267 48.17391,-116.0935 33.75307,-177.4295 z"
         id="path975"
         sodipodi:nodetypes="cccccccccccccccccccccccccccccccccccccc" />
      <path
         sodipodi:nodetypes="cccccccccccccccccccccccccccccccccccccc"
         id="path977"
         d="m 479.65889,1415.6026 c 4.21015,-12.7929 21.82826,-48.8365 47.77192,-67.5023 l 0.34153,-12.916 5.49029,8.7994 c 1.10932,-0.7713 2.22125,-1.5404 3.34102,-2.3044 l -9.79795,-44.4621 25.54886,34.1839 c 12.55027,-7.8307 25.16766,-14.862 36.60033,-20.2711 56.75627,11.4668 91.54059,19.2783 118.37252,35.0051 l 20.80637,-5.4116 -0.53425,20.1088 c 0.17198,0.1512 0.34215,0.3094 0.51359,0.4629 l 24.13642,-11.1792 -12.36797,22.9869 c 0.0531,0.06 0.1059,0.1144 0.16016,0.1753 l 55.89056,-24.4967 -18.46704,31.7419 52.22617,-34.2564 -58.76584,70.4638 c 0.75526,1.2479 1.50225,2.4631 2.26748,3.748 0.43678,0.7334 0.85866,1.5079 1.27193,2.3049 l 15.12696,0.9485 -8.83783,16.9434 c 5.71196,24.994 11.60884,54.9121 -6.93242,115.8405 l 22.66829,43.6778 -25.74995,-8.8595 31.83243,56.6888 -49.52142,-30.3762 13.95573,30.0501 -18.465,-12.068 5.55211,29.5421 -16.67563,-4.3066 c -47.15996,95.9217 -133.688,60.9234 -200.61751,44.3321 -9.97589,-2.5159 -26.46125,-13.2817 -41.69557,-26.161 l -22.10604,12.0521 11.64999,-21.4151 c -10.31631,-9.8313 -19.00699,-20.0234 -23.08752,-28.2384 -29.94248,-72.3239 -20.56157,-156.3628 18.09764,-225.8329 z"
         style="fill:#ffffff;fill-rule:evenodd;stroke:none;stroke-width:1.32766771"
         inkscape:connector-curvature="0" />
    </g>
    <path
       inkscape:connector-curvature="0"
       id="path1163"
       d="m 1267.5898,1816.7852 -70.248,14.2109 -54.6387,37.3008 -27.6738,42.6289 -9.2246,21.3144 7.8066,19.5391 h -10.6445 l 2.8379,33.748 -26.2539,3.5528 24.8359,26.6426 -19.1601,3.5527 19.1601,26.6426 -1.4199,14.2109 -7.8047,15.9863 7.8047,63.9434 26.2539,31.9726 -11.3516,12.4336 21.2871,1.7754 3.2012,8.4825 -10.2539,47.9961 8.2754,22.1367 -18.6191,25.8242 16.5507,7.3789 -9.6543,12.9121 c 0,0 12.4119,16.6016 15.17,16.6016 2.7584,0 -7.584,16.6015 -7.584,16.6015 l 2.0683,59.0274 17.9278,3.6894 -18.4766,25.7754 22.6153,-5.4844 -18.4766,27.6192 24.6816,-16.5508 -19.166,33.1523 34.8008,-26.0781 17.4648,13.2168 24.1348,7.377 -3.4473,40.582 13.7911,-20.291 -9.6543,47.9609 15.1718,-9.2226 49.6485,-31.3594 18.6172,1.8437 -4.1368,16.6016 19.3086,-22.1348 24.8243,7.3789 73.7832,7.3789 46.2011,-1.8457 28.9629,20.2911 -13.1035,-27.67 29.6523,14.7579 -16.5488,-23.9805 18.6172,-7.3789 24.1348,-18.4453 11.7226,-33.2032 20.6875,-1.8457 -11.0332,-12.9121 25.5137,-33.2031 7.5859,-66.4062 -7.5859,-16.6016 -1.3789,-14.7559 18.6191,-27.6699 -18.6191,-3.6894 24.1348,-27.67 -25.5137,-3.6875 2.7578,-35.0488 h -10.3438 l 7.586,-20.291 -8.9649,-22.1348 -9.2226,-15.1836 0.7402,-19.7715 c 0,0 -10.6431,-15.9863 -7.8047,-15.9863 2.8382,0 15.6094,-15.9863 15.6094,-15.9863 l -9.9336,-12.4336 17.0313,-7.1035 -19.1602,-24.8672 8.5156,-21.3164 -11.3535,-49.7344 -2.8379,-37.3008 -15.6113,-23.0898 -24.8359,-55.0625 -18.4493,-12.4336 z"
       style="filter:url(#filter1214);opacity:0.845;fill:#ffffff;fill-rule:evenodd;stroke:none;stroke-width:0.99326628"
       mask="url(#mask1178)" />
  </g>
  <g
     inkscape:groupmode="layer"
     id="layer4"
     inkscape:label="speechbubbles 1"
     style="filter:url(#filter1224)" />
  <g
     inkscape:groupmode="layer"
     id="layer1"
     inkscape:label="txt">
    <text
       xml:space="preserve"
       style="font-style:normal;font-variant:normal;font-weight:normal;font-stretch:normal;line-height:0%;font-family:Lavi;-inkscape-font-specification:Lavi;text-align:center;letter-spacing:0px;word-spacing:0px;text-anchor:middle;fill:#000000;fill-opacity:1;stroke:#000000;stroke-width:1;stroke-miterlimit:4;stroke-dasharray:none;stroke-opacity:1"
       x="665.48602"
       y="1256.1682"
       id="text4246-9"
       transform="skewX(-12.057455)"><tspan
         sodipodi:role="line"
         style="font-size:45px;line-height:1.25;fill:#000000;fill-opacity:1;stroke:#000000;stroke-width:1;stroke-miterlimit:4;stroke-dasharray:none;stroke-opacity:1"
         x="665.48602"
         y="1259.656"
         id="tspan3544" /><tspan
         sodipodi:role="line"
         style="font-size:45px;line-height:1.25;fill:#000000;fill-opacity:1;stroke:#000000;stroke-width:1;stroke-miterlimit:4;stroke-dasharray:none;stroke-opacity:1"
         x="673.39618"
         y="1297.3724"
         id="tspan924">Ang NIPIS  </tspan><tspan
         sodipodi:role="line"
         style="font-size:45px;line-height:1.25;fill:#000000;fill-opacity:1;stroke:#000000;stroke-width:1;stroke-miterlimit:4;stroke-dasharray:none;stroke-opacity:1"
         x="673.39618"
         y="1353.6224"
         id="tspan979">ng Mukha </tspan><tspan
         sodipodi:role="line"
         style="font-size:45px;line-height:1.25;fill:#000000;fill-opacity:1;stroke:#000000;stroke-width:1;stroke-miterlimit:4;stroke-dasharray:none;stroke-opacity:1"
         x="665.48602"
         y="1409.8724"
         id="tspan981">  mo!?</tspan><tspan
         sodipodi:role="line"
         style="font-size:45px;line-height:1.25;fill:#000000;fill-opacity:1;stroke:#000000;stroke-width:1;stroke-miterlimit:4;stroke-dasharray:none;stroke-opacity:1"
         x="665.48602"
         y="1428.406"
         id="tspan928" /><tspan
         sodipodi:role="line"
         style="font-size:45px;line-height:1.25;fill:#000000;fill-opacity:1;stroke:#000000;stroke-width:1;stroke-miterlimit:4;stroke-dasharray:none;stroke-opacity:1"
         x="665.48602"
         y="1428.406"
         id="tspan930" /><tspan
         sodipodi:role="line"
         style="font-size:45px;line-height:1.25;fill:#000000;fill-opacity:1;stroke:#000000;stroke-width:1;stroke-miterlimit:4;stroke-dasharray:none;stroke-opacity:1"
         x="665.48602"
         y="1428.406"
         id="tspan922" /></text>
    <text
       xml:space="preserve"
       style="font-style:normal;font-variant:normal;font-weight:normal;font-stretch:normal;line-height:0%;font-family:Lavi;-inkscape-font-specification:Lavi;text-align:center;letter-spacing:0px;word-spacing:0px;text-anchor:middle;fill:#000000;fill-opacity:1;stroke:none"
       x="1331.7299"
       y="1888.0387"
       id="text4246-9-6"><tspan
         sodipodi:role="line"
         style="font-size:45px;line-height:1.25"
         x="1339.64"
         y="1888.0387"
         id="tspan4292">Kung hindi </tspan><tspan
         sodipodi:role="line"
         style="font-size:45px;line-height:1.25"
         x="1339.64"
         y="1944.2887"
         id="tspan999">lang masakit ang </tspan><tspan
         sodipodi:role="line"
         style="font-size:45px;line-height:1.25"
         x="1331.7299"
         y="2000.5387"
         id="tspan1026">buto-buto ko...</tspan><tspan
         sodipodi:role="line"
         style="font-size:45px;line-height:1.25"
         x="1339.64"
         y="2056.7886"
         id="tspan993">bibigwasan </tspan><tspan
         sodipodi:role="line"
         style="font-size:45px;line-height:1.25"
         x="1339.64"
         y="2113.0386"
         id="tspan1030">kita jan! </tspan><tspan
         sodipodi:role="line"
         style="font-size:45px;line-height:1.25"
         x="1339.64"
         y="2169.2886"
         id="tspan1009">Hindi lang </tspan><tspan
         sodipodi:role="line"
         style="font-size:45px;line-height:1.25"
         x="1339.64"
         y="2225.5386"
         id="tspan1020">magic ang </tspan><tspan
         sodipodi:role="line"
         style="font-size:45px;line-height:1.25"
         x="1339.64"
         y="2281.7886"
         id="tspan1048">    matututunan </tspan><tspan
         sodipodi:role="line"
         style="font-size:45px;line-height:1.25"
         x="1339.64"
         y="2338.0386"
         id="tspan3557">      mo sakin </tspan><tspan
         sodipodi:role="line"
         style="font-size:45px;line-height:1.25"
         x="1339.64"
         y="2394.2886"
         id="tspan1022">sinasabi </tspan><tspan
         sodipodi:role="line"
         style="font-size:45px;line-height:1.25"
         x="1331.7299"
         y="2450.5386"
         id="tspan1050">ko sayo!</tspan></text>
    <text
       xml:space="preserve"
       style="font-style:normal;font-variant:normal;font-weight:normal;font-stretch:normal;line-height:0%;font-family:Lavi;-inkscape-font-specification:Lavi;text-align:center;letter-spacing:0px;word-spacing:0px;text-anchor:middle;fill:#ffffff;fill-opacity:1;stroke:none;"
       x="308.60904"
       y="2794.7661"
       id="text4246-9-6-3"><tspan
         sodipodi:role="line"
         style="font-size:45px;line-height:1.25;fill:#ffffff;"
         x="308.60904"
         y="2794.7661"
         id="tspan4292-8">Thyme,</tspan><tspan
         sodipodi:role="line"
         style="font-size:45px;line-height:1.25;fill:#ffffff;"
         x="316.5192"
         y="2851.0161"
         id="tspan4349">kumalma </tspan><tspan
         sodipodi:role="line"
         style="font-size:45px;line-height:1.25;fill:#ffffff;"
         x="308.60904"
         y="2907.2661"
         id="tspan900">ka</tspan></text>
    <text
       xml:space="preserve"
       style="font-style:normal;font-variant:normal;font-weight:normal;font-stretch:normal;line-height:0%;font-family:Lavi;-inkscape-font-specification:Lavi;text-align:center;letter-spacing:0px;word-spacing:0px;text-anchor:middle;fill:#ffffff;fill-opacity:1;stroke:none"
       x="2153.1948"
       y="2930.8037"
       id="text4246-9-6-9"><tspan
         sodipodi:role="line"
         style="font-size:45px;line-height:1.25;fill:#ffffff"
         x="2161.105"
         y="2930.8037"
         id="tspan898">Tama ang </tspan><tspan
         sodipodi:role="line"
         style="font-size:45px;line-height:1.25;fill:#ffffff"
         x="2153.1948"
         y="2987.0537"
         id="tspan902">sinasabi</tspan><tspan
         sodipodi:role="line"
         style="font-size:45px;line-height:1.25;fill:#ffffff"
         x="2153.1948"
         y="3043.3037"
         id="tspan904"> nila...</tspan></text>
    <text
       xml:space="preserve"
       style="font-style:normal;font-variant:normal;font-weight:normal;font-stretch:normal;line-height:0%;font-family:Lavi;-inkscape-font-specification:Lavi;text-align:center;letter-spacing:0px;word-spacing:0px;text-anchor:middle;fill:#ffffff;fill-opacity:1;stroke:#ffffff;stroke-width:0.41015577;stroke-miterlimit:4;stroke-dasharray:none;stroke-opacity:1"
       x="764.05621"
       y="923.35193"
       id="text4246-8"
       transform="matrix(0.89618362,-0.24886542,0.02679547,1.1084018,0,0)"><tspan
         sodipodi:role="line"
         style="font-size:30.7616806px;line-height:1.25;fill:#ffffff;stroke:#ffffff;stroke-width:0.41015577;stroke-miterlimit:4;stroke-dasharray:none;stroke-opacity:1"
         x="764.05621"
         y="923.35193"
         id="tspan4150-8">cheep</tspan></text>
    <text
       xml:space="preserve"
       style="font-style:normal;font-variant:normal;font-weight:normal;font-stretch:normal;line-height:0%;font-family:Lavi;-inkscape-font-specification:Lavi;text-align:center;letter-spacing:0px;word-spacing:0px;text-anchor:middle;fill:#ffffff;fill-opacity:1;stroke:#ffffff;stroke-width:0.41015577;stroke-miterlimit:4;stroke-dasharray:none;stroke-opacity:1"
       x="543.87469"
       y="837.68304"
       id="text4246-8-4"
       transform="matrix(0.89618362,-0.24886542,0.02679547,1.1084018,0,0)"><tspan
         sodipodi:role="line"
         style="font-size:30.7616806px;line-height:1.25;fill:#ffffff;stroke:#ffffff;stroke-width:0.41015577;stroke-miterlimit:4;stroke-dasharray:none;stroke-opacity:1"
         x="543.87469"
         y="837.68304"
         id="tspan4150-8-7">cheep</tspan></text>
    <text
       xml:space="preserve"
       style="font-style:normal;font-variant:normal;font-weight:normal;font-stretch:normal;line-height:0%;font-family:Lavi;-inkscape-font-specification:Lavi;text-align:center;letter-spacing:0px;word-spacing:0px;text-anchor:middle;fill:#ffffff;fill-opacity:1;stroke:#ffffff;stroke-width:0.41015577;stroke-miterlimit:4;stroke-dasharray:none;stroke-opacity:1"
       x="334.54736"
       y="936.29169"
       id="text4246-8-5"
       transform="matrix(0.89618362,-0.24886542,0.02679547,1.1084018,0,0)"><tspan
         sodipodi:role="line"
         style="font-size:30.7616806px;line-height:1.25;fill:#ffffff;stroke:#ffffff;stroke-width:0.41015577;stroke-miterlimit:4;stroke-dasharray:none;stroke-opacity:1"
         x="334.54736"
         y="936.29169"
         id="tspan4150-8-71">cheep</tspan></text>
    <text
       xml:space="preserve"
       style="font-style:normal;font-variant:normal;font-weight:normal;font-stretch:normal;line-height:0%;font-family:Lavi;-inkscape-font-specification:Lavi;text-align:center;letter-spacing:0px;word-spacing:0px;text-anchor:middle;fill:#ffffff;fill-opacity:1;stroke:#ffffff;stroke-width:0.41015577;stroke-miterlimit:4;stroke-dasharray:none;stroke-opacity:1"
       x="87.779213"
       y="987.71484"
       id="text4246-8-7"
       transform="matrix(0.73686042,-0.56755246,0.44156597,1.0170015,0,0)"><tspan
         sodipodi:role="line"
         style="font-size:30.7616806px;line-height:1.25;fill:#ffffff;stroke:#ffffff;stroke-width:0.41015577;stroke-miterlimit:4;stroke-dasharray:none;stroke-opacity:1"
         x="87.779213"
         y="987.71484"
         id="tspan4150-8-79">cheep</tspan></text>
    <text
       xml:space="preserve"
       style="font-style:normal;font-variant:normal;font-weight:normal;font-stretch:normal;line-height:0%;font-family:Lavi;-inkscape-font-specification:Lavi;text-align:center;letter-spacing:0px;word-spacing:0px;text-anchor:middle;fill:#ffffff;fill-opacity:1;stroke:#ffffff;stroke-width:0.41015577;stroke-miterlimit:4;stroke-dasharray:none;stroke-opacity:1"
       x="336.62546"
       y="1084.5326"
       id="text4246-8-9"
       transform="matrix(0.89618362,-0.24886542,0.02679547,1.1084018,0,0)"><tspan
         sodipodi:role="line"
         style="font-size:30.7616806px;line-height:1.25;fill:#ffffff;stroke:#ffffff;stroke-width:0.41015577;stroke-miterlimit:4;stroke-dasharray:none;stroke-opacity:1"
         x="336.62546"
         y="1084.5326"
         id="tspan4150-8-2">cheep</tspan></text>
    <text
       xml:space="preserve"
       style="font-style:normal;font-variant:normal;font-weight:normal;font-stretch:normal;line-height:0%;font-family:Lavi;-inkscape-font-specification:Lavi;text-align:center;letter-spacing:0px;word-spacing:0px;text-anchor:middle;fill:#ffffff;fill-opacity:1;stroke:#ffffff;stroke-width:0.41015577;stroke-miterlimit:4;stroke-dasharray:none;stroke-opacity:1"
       x="552.94135"
       y="1012.8113"
       id="text4246-8-7-5"
       transform="matrix(0.89774281,-0.24318074,0.01977029,1.1085494,0,0)"><tspan
         sodipodi:role="line"
         style="font-size:30.7616806px;line-height:1.25;fill:#ffffff;stroke:#ffffff;stroke-width:0.41015577;stroke-miterlimit:4;stroke-dasharray:none;stroke-opacity:1"
         x="552.94135"
         y="1012.8113"
         id="tspan4150-8-79-8">cheep</tspan></text>
    <text
       xml:space="preserve"
       style="font-style:normal;font-variant:normal;font-weight:normal;font-stretch:normal;line-height:0%;font-family:Lavi;-inkscape-font-specification:Lavi;text-align:center;letter-spacing:0px;word-spacing:0px;text-anchor:middle;fill:#ffffff;fill-opacity:1;stroke:#ffffff;stroke-width:0.41015577;stroke-miterlimit:4;stroke-dasharray:none;stroke-opacity:1"
       x="156.05554"
       y="847.95422"
       id="text4246-8-7-4"
       transform="matrix(0.73686042,-0.56755246,0.44156597,1.0170015,0,0)"><tspan
         sodipodi:role="line"
         style="font-size:30.7616806px;line-height:1.25;fill:#ffffff;stroke:#ffffff;stroke-width:0.41015577;stroke-miterlimit:4;stroke-dasharray:none;stroke-opacity:1"
         x="156.05554"
         y="847.95422"
         id="tspan4150-8-79-5">cheep</tspan></text>
    <text
       xml:space="preserve"
       style="font-style:normal;font-variant:normal;font-weight:normal;font-stretch:normal;line-height:0%;font-family:Lavi;-inkscape-font-specification:Lavi;text-align:center;letter-spacing:0px;word-spacing:0px;text-anchor:middle;fill:#ffffff;fill-opacity:1;stroke:#ffffff;stroke-width:0.41015577;stroke-miterlimit:4;stroke-dasharray:none;stroke-opacity:1"
       x="358.29056"
       y="983.72534"
       id="text4246-8-7-6"
       transform="matrix(0.73686042,-0.56755246,0.44156597,1.0170015,0,0)"><tspan
         sodipodi:role="line"
         style="font-size:30.7616806px;line-height:1.25;fill:#ffffff;stroke:#ffffff;stroke-width:0.41015577;stroke-miterlimit:4;stroke-dasharray:none;stroke-opacity:1"
         x="358.29056"
         y="983.72534"
         id="tspan4150-8-79-86">cheep</tspan></text>
    <text
       xml:space="preserve"
       style="font-style:normal;font-variant:normal;font-weight:normal;font-stretch:normal;line-height:0%;font-family:Lavi;-inkscape-font-specification:Lavi;text-align:center;letter-spacing:0px;word-spacing:0px;text-anchor:middle;fill:#ffffff;fill-opacity:1;stroke:#ffffff;stroke-width:0.41015577;stroke-miterlimit:4;stroke-dasharray:none;stroke-opacity:1"
       x="-93.625549"
       y="854.11603"
       id="text4246-8-7-3"
       transform="matrix(0.73686042,-0.56755246,0.44156597,1.0170015,0,0)"><tspan
         sodipodi:role="line"
         style="font-size:30.7616806px;line-height:1.25;fill:#ffffff;stroke:#ffffff;stroke-width:0.41015577;stroke-miterlimit:4;stroke-dasharray:none;stroke-opacity:1"
         x="-93.625549"
         y="854.11603"
         id="tspan4150-8-79-2">cheep</tspan></text>
    <text
       xml:space="preserve"
       style="font-style:normal;font-variant:normal;font-weight:normal;font-stretch:normal;line-height:0%;font-family:Lavi;-inkscape-font-specification:Lavi;text-align:center;letter-spacing:0px;word-spacing:0px;text-anchor:middle;fill:#ffffff;fill-opacity:1;stroke:#ffffff;stroke-width:0.41015577;stroke-miterlimit:4;stroke-dasharray:none;stroke-opacity:1"
       x="-161.61777"
       y="976.23895"
       id="text4246-8-7-3-4"
       transform="matrix(0.73686042,-0.56755246,0.44156597,1.0170015,0,0)"><tspan
         sodipodi:role="line"
         style="font-size:30.7616806px;line-height:1.25;fill:#ffffff;stroke:#ffffff;stroke-width:0.41015577;stroke-miterlimit:4;stroke-dasharray:none;stroke-opacity:1"
         x="-161.61777"
         y="976.23895"
         id="tspan4150-8-79-2-4">cheep</tspan></text>
    <text
       xml:space="preserve"
       style="font-style:normal;font-variant:normal;font-weight:normal;font-stretch:normal;line-height:0%;font-family:Lavi;-inkscape-font-specification:Lavi;letter-spacing:0px;word-spacing:0px;fill:#000000;fill-opacity:1;stroke:#000000;stroke-width:0.99236238;stroke-miterlimit:4;stroke-dasharray:none;stroke-opacity:1;filter:url(#filter4375-4-1-1-1)"
       x="787.65729"
       y="1584.5073"
       id="text4580"
       transform="matrix(1.031805,-0.51321442,-0.19048641,1.3599228,744.55089,-116.50742)"><tspan
         sodipodi:role="line"
         id="tspan4582"
         x="787.65729"
         y="1584.5073"
         style="font-size:70px;line-height:1.25;fill:#ffffff"><tspan
           style="font-size:80.40014648px"
           id="tspan4617">BAM!</tspan></tspan></text>
    <flowRoot
       xml:space="preserve"
       id="flowRoot873"
       style="font-style:normal;font-variant:normal;font-weight:normal;font-stretch:normal;font-size:40px;line-height:1.10000002;font-family:Lavi;-inkscape-font-specification:Lavi;text-align:center;letter-spacing:0px;word-spacing:0px;text-anchor:middle;fill:#000000;fill-opacity:1;stroke:none"
       transform="matrix(1.1374266,0,-0.17784617,1.1374266,443.76211,76.520554)"><flowRegion
         id="flowRegion875"
         style="font-style:normal;font-variant:normal;font-weight:normal;font-stretch:normal;line-height:1.10000002;font-family:Lavi;-inkscape-font-specification:Lavi;text-align:center;text-anchor:middle"><rect
           id="rect877"
           width="227.41344"
           height="347.68985"
           x="671.12238"
           y="244.41797"
           style="font-style:normal;font-variant:normal;font-weight:normal;font-stretch:normal;line-height:1.10000002;font-family:Lavi;-inkscape-font-specification:Lavi;text-align:center;text-anchor:middle" /></flowRegion><flowPara
         id="flowPara879">Anong     </flowPara><flowPara
         id="flowPara883">sinasabi     mong   </flowPara><flowPara
         id="flowPara881">wala kang   natutu-   tunan?!</flowPara></flowRoot>    <text
       id="text946"
       y="1400.4185"
       x="2320.1763"
       style="font-style:normal;font-variant:normal;font-weight:normal;font-stretch:normal;font-size:15.28391552px;line-height:0%;font-family:Lavi;-inkscape-font-specification:Lavi;text-align:center;letter-spacing:0px;word-spacing:0px;text-anchor:middle;fill:#1a1a1a;fill-opacity:1;stroke:none;stroke-width:1.27365971"
       xml:space="preserve"
       transform="skewX(-9.2070938)"><tspan
         id="tspan940"
         y="1404.8607"
         x="2320.1763"
         style="font-size:57.31468582px;line-height:1.25;fill:#1a1a1a;fill-opacity:1;stroke-width:1.27365971"
         sodipodi:role="line" /><tspan
         id="tspan942"
         y="1452.8987"
         x="2330.2512"
         style="font-size:57.31468582px;line-height:1.25;fill:#1a1a1a;fill-opacity:1;stroke-width:1.27365971"
         sodipodi:role="line">Anu ka? </tspan><tspan
         y="1524.542"
         x="2320.1763"
         style="font-size:57.31468582px;line-height:1.25;fill:#1a1a1a;fill-opacity:1;stroke-width:1.27365971"
         sodipodi:role="line"
         id="tspan973">baby girl!?</tspan><tspan
         id="tspan944"
         y="1548.1475"
         x="2320.1763"
         style="font-size:57.31468582px;line-height:1.25;fill:#1a1a1a;fill-opacity:1;stroke-width:1.27365971"
         sodipodi:role="line" /></text>
    <text
       id="text967"
       y="1388.8237"
       x="617.66406"
       style="font-style:normal;font-variant:normal;font-weight:normal;font-stretch:normal;line-height:0%;font-family:Lavi;-inkscape-font-specification:Lavi;text-align:center;letter-spacing:0px;word-spacing:0px;text-anchor:middle;fill:#1a1a1a;fill-opacity:1;stroke:none"
       xml:space="preserve"><tspan
         id="tspan955"
         y="1388.8237"
         x="625.57422"
         style="font-size:45px;line-height:1.25;fill:#1a1a1a;fill-opacity:1"
         sodipodi:role="line" /><tspan
         id="tspan959"
         y="1445.0737"
         x="617.66406"
         style="font-size:45px;line-height:1.25;fill:#1a1a1a;fill-opacity:1"
         sodipodi:role="line">Nagpa</tspan><tspan
         y="1501.3237"
         x="625.57422"
         style="font-size:45px;line-height:1.25;fill:#1a1a1a;fill-opacity:1"
         sodipodi:role="line"
         id="tspan989">sama ka pa </tspan><tspan
         id="tspan961"
         y="1557.5737"
         x="625.57422"
         style="font-size:45px;line-height:1.25;fill:#1a1a1a;fill-opacity:1"
         sodipodi:role="line">talaga na </tspan><tspan
         y="1613.8237"
         x="625.57422"
         style="font-size:45px;line-height:1.25;fill:#1a1a1a;fill-opacity:1"
         sodipodi:role="line"
         id="tspan1236">parang </tspan><tspan
         y="1670.0737"
         x="617.66406"
         style="font-size:45px;line-height:1.25;fill:#1a1a1a;fill-opacity:1"
         sodipodi:role="line"
         id="tspan991">bata!</tspan><tspan
         id="tspan963"
         y="1688.6073"
         x="617.66406"
         style="font-size:45px;line-height:1.25;fill:#1a1a1a;fill-opacity:1"
         sodipodi:role="line" /><tspan
         id="tspan965"
         y="1688.6073"
         x="617.66406"
         style="font-size:45px;line-height:1.25;fill:#1a1a1a;fill-opacity:1"
         sodipodi:role="line" /></text>
  </g>
</svg>
