<?xml version="1.0" encoding="UTF-8" standalone="no"?>
<!-- Created with Inkscape (http://www.inkscape.org/) -->

<svg
   xmlns:dc="http://purl.org/dc/elements/1.1/"
   xmlns:cc="http://creativecommons.org/ns#"
   xmlns:rdf="http://www.w3.org/1999/02/22-rdf-syntax-ns#"
   xmlns:svg="http://www.w3.org/2000/svg"
   xmlns="http://www.w3.org/2000/svg"
   xmlns:xlink="http://www.w3.org/1999/xlink"
   xmlns:sodipodi="http://sodipodi.sourceforge.net/DTD/sodipodi-0.dtd"
   xmlns:inkscape="http://www.inkscape.org/namespaces/inkscape"
   id="svg2"
   version="1.1"
   inkscape:version="0.92.4 5da689c313, 2019-01-14"
   width="2481"
   height="3503"
   sodipodi:docname="E28P05.svg">
  <metadata
     id="metadata8">
    <rdf:RDF>
      <cc:Work
         rdf:about="">
        <dc:format>image/svg+xml</dc:format>
        <dc:type
           rdf:resource="http://purl.org/dc/dcmitype/StillImage" />
        <dc:title />
      </cc:Work>
    </rdf:RDF>
  </metadata>
  <defs
     id="defs6" />
  <sodipodi:namedview
     pagecolor="#ffffff"
     bordercolor="#666666"
     borderopacity="1"
     objecttolerance="10"
     gridtolerance="10"
     guidetolerance="10"
     inkscape:pageopacity="0"
     inkscape:pageshadow="2"
     inkscape:window-width="1920"
     inkscape:window-height="1019"
     id="namedview4"
     showgrid="false"
     inkscape:zoom="0.51498715"
     inkscape:cx="1168.632"
     inkscape:cy="3149.5931"
     inkscape:window-x="0"
     inkscape:window-y="27"
     inkscape:window-maximized="1"
     inkscape:current-layer="layer3" />
  <g
     inkscape:groupmode="layer"
     id="layer2"
     inkscape:label="artwork"
     sodipodi:insensitive="true">
    <image
       sodipodi:absref="/home/midgard/git/peppercarrot/comics/new-ep28_The-Festivities/lang/de/../gfx_Pepper-and-Carrot_by-David-Revoy_E28P05.png"
       xlink:href="../gfx_Pepper-and-Carrot_by-David-Revoy_E28P05.png"
       y="0"
       x="0"
       id="image10"
       height="3503"
       width="2481" />
  </g>
  <g
     inkscape:groupmode="layer"
     id="layer3"
     inkscape:label="speechbubbles">
    <path
       style="fill:#ffffff;fill-rule:evenodd;stroke:none;stroke-width:0.92832726px;stroke-linecap:butt;stroke-linejoin:miter;stroke-opacity:1"
       d="m 153.64083,189.58826 c 24.20553,-22.60357 64.08901,-28.31059 99.20964,-35.65139 32.86157,-6.99363 67.10176,-7.16061 100.81265,-5.64238 42.74906,2.00269 86.04868,4.46845 127.27554,14.37517 12.60467,2.89674 37.09479,11.09749 44.93227,19.73006 33.18909,29.23158 44.60676,64.38114 43.79559,104.67286 -3.33899,59.21215 -10.83473,118.49898 -15.58259,177.65551 -1.44125,19.47925 -7.06886,40.02142 -24.78355,54.33944 -20.34309,17.20762 -47.31577,28.82043 -76.05847,33.97592 -45.73102,8.71098 -87.18564,11.7853 -134.11096,11.12161 -18.34055,-1.59617 -36.67219,-3.72512 -54.95913,-5.84626 -39.18493,-5.41839 -62.84311,-13.72432 -90.92218,-38.06719 -22.33437,-19.36256 -34.66728,-45.55056 -36.96184,-71.68838 0.17359,-54.96672 -13.68244,-109.85458 -10.65178,-164.75173 1.08057,-14.81887 -1.70828,-38.70021 4.86243,-52.86116 5.9832,-15.50499 11.80928,-27.85323 23.14238,-41.36208 z"
       id="path1006"
       inkscape:connector-curvature="0"
       sodipodi:nodetypes="cccccccccccscccc" />
    <path
       style="fill:#ffffff;fill-rule:evenodd;stroke:none;stroke-width:1px;stroke-linecap:butt;stroke-linejoin:miter;stroke-opacity:1"
       d="M 333.27358,346.17986 C 395.90659,299.25879 684.65819,123.37673 1012.4941,266.75583 759.55842,143.42811 491.69794,181.66189 330.00219,300.24071 Z"
       id="path1008"
       inkscape:connector-curvature="0"
       sodipodi:nodetypes="cccc" />
    <path
       style="fill:#ffffff;fill-rule:evenodd;stroke:none;stroke-width:1px;stroke-linecap:butt;stroke-linejoin:miter;stroke-opacity:1"
       d="m 1819.6761,521.16397 c 116.7092,-13.15033 182.4608,-4.93138 226.8431,52.60129 44.3824,57.53267 34.5196,90.40848 23.0131,80.54574 -11.5065,-9.86274 -23.0131,-151.22873 -249.8562,-133.14703 z"
       id="path1011"
       inkscape:connector-curvature="0" />
    <path
       style="fill:#ffffff;fill-rule:evenodd;stroke:none;stroke-width:1px;stroke-linecap:butt;stroke-linejoin:miter;stroke-opacity:1"
       d="m 2110.627,552.39599 c 87.1209,1.64379 133.1471,13.15032 151.2288,29.58823 18.0817,16.4379 42.7385,60.82025 34.5196,87.12089 -8.219,26.30065 -39.451,69.03921 -129.8595,65.75163 -90.4085,-3.28759 -156.1601,-19.72549 -177.5294,-52.6013 -21.3692,-32.87581 8.219,-101.91501 42.7386,-113.42155 34.5196,-11.50653 39.451,-14.79411 78.9019,-16.4379 z"
       id="path1013"
       inkscape:connector-curvature="0" />
    <path
       style="fill:#ffffff;fill-rule:evenodd;stroke:none;stroke-width:1px;stroke-linecap:butt;stroke-linejoin:miter;stroke-opacity:1"
       d="m 1970.1063,743.22216 c 65.3466,-46.30713 144.7065,-43.21999 165.9442,-40.13285 21.2375,3.08715 74.491,7.79314 114.2579,10.80501 18.388,1.39266 104.2201,32.78852 109.0555,83.63266 2.9288,30.79534 -18.4159,59.91944 -64.1585,72.268 -45.7425,12.34857 -113.0183,12.34857 -170.1966,10.80499 -57.1782,-1.54357 -140.6452,-3.64681 -174.9521,-31.43109 -34.307,-27.78427 -25.693,-62.72673 20.0496,-105.94672 z"
       id="path1015"
       inkscape:connector-curvature="0"
       sodipodi:nodetypes="cssssssc" />
    <path
       style="fill:#ffffff;fill-rule:evenodd;stroke:none;stroke-width:1px;stroke-linecap:butt;stroke-linejoin:miter;stroke-opacity:1"
       d="m 308.74674,1071.6194 c 90.05114,1.4294 161.52029,1.4294 181.53165,15.7232 20.01137,14.2939 58.60471,47.1697 60.03409,78.6161 1.42939,31.4464 -1.42938,77.1867 -28.58766,98.6274 -27.15828,21.4408 -75.7573,38.5934 -124.35633,45.7403 -48.59902,7.1469 -145.79707,7.1469 -178.67288,0 -32.87581,-7.1469 -90.05113,-31.4464 -97.19805,-55.7459 -7.14691,-24.2996 -10.00568,-84.3336 -1.42938,-108.6332 8.5763,-24.2995 50.02841,-54.3165 91.48051,-62.8928 41.45211,-8.5763 97.19805,-11.4351 97.19805,-11.4351 z"
       id="path1017"
       inkscape:connector-curvature="0" />
    <path
       style="fill:#ffffff;fill-rule:evenodd;stroke:none;stroke-width:1px;stroke-linecap:butt;stroke-linejoin:miter;stroke-opacity:1"
       d="m 464.5495,1496.1462 c 57.17532,-75.7573 57.17532,-148.6559 4.28815,-244.4245 -52.88717,-95.7687 -80.04545,-97.1981 -80.04545,-97.1981 l -4.28815,52.8872 c 0,0 168.6672,128.6445 80.04545,288.7354 z"
       id="path1019"
       inkscape:connector-curvature="0" />
    <path
       style="fill:#ffffff;fill-rule:evenodd;stroke:none;stroke-width:1.00006592px;stroke-linecap:butt;stroke-linejoin:miter;stroke-opacity:1"
       d="m 1953.4542,1178.8703 c -3.0035,-54.1268 75.1095,-99.5753 177.7143,-99.9637 102.6046,-0.3882 191.8261,22.2488 191.2629,78.152 -0.5632,55.9032 -18.1039,103.0846 -150.0367,103.3563 -131.9329,0.2718 -213.4027,-14.7742 -218.9405,-81.5446 z"
       id="path1021"
       inkscape:connector-curvature="0" />
    <path
       style="fill:#ffffff;fill-rule:evenodd;stroke:none;stroke-width:1px;stroke-linecap:butt;stroke-linejoin:miter;stroke-opacity:1"
       d="m 2223.4008,1243.0202 c 9.6724,22.1135 -3.7615,81.471 -16.6581,91.9459 -8.9785,11.3235 4.9225,16.0942 9.6724,15.1304 4.2989,-2.9097 37.6151,-18.04 42.9887,-9.3111 5.3736,8.7291 -48.8996,51.2105 -42.9887,57.0298 5.911,5.8194 27.9427,-8.1471 30.6294,-3.4916 2.6868,4.6554 -4.2988,17.4581 -16.6581,25.6052 20.957,-6.9833 30.0921,-18.6219 25.7932,-26.769 -4.2988,-8.1471 -12.3592,-6.9833 -17.7328,-5.8194 10.2098,-8.7291 49.9875,-38.2659 39.7777,-53.9782 -10.2098,-15.7122 -36.0426,-12.0787 -41.9536,-9.169 14.5087,-12.8026 28.0737,-53.8649 21.6254,-85.8713 -6.4483,-32.0065 -34.4955,4.6983 -34.4955,4.6983 z"
       id="path1023"
       inkscape:connector-curvature="0"
       sodipodi:nodetypes="ccccsccccccsc" />
    <path
       style="fill:#ffffff;fill-rule:evenodd;stroke:none;stroke-width:1px;stroke-linecap:butt;stroke-linejoin:miter;stroke-opacity:1"
       d="m 826.50706,2344.762 c 9.78488,-40.2573 52.11355,-55.2416 84.72982,-52.849 32.61627,2.3928 81.25075,23.5682 76.17711,56.2586 -5.07364,32.6904 -43.85076,50.2768 -71.17595,51.6227 -27.32519,1.3458 -89.15114,-3.9181 -89.73098,-55.0323 z"
       id="path1025"
       inkscape:connector-curvature="0" />
    <path
       style="fill:#ffffff;fill-rule:evenodd;stroke:none;stroke-width:1px;stroke-linecap:butt;stroke-linejoin:miter;stroke-opacity:1"
       d="m 891.05439,2384.5928 c 8.97846,20.1058 2.08504,29.2013 -7.53169,42.2988 -9.61674,13.0974 -3.91478,26.6928 6.89341,31.8628 10.80819,5.1701 22.50997,25.1418 21.87169,42.5477 -2.42546,-50.8389 -20.08451,-46.2816 -21.10575,-59.2259 -1.02125,-12.9442 20.21215,-24.3759 22.42485,-32.7054 2.2127,-8.3295 0.51063,-29.1055 -5.14877,-40.9009 -5.65941,-11.7954 -17.40374,16.1229 -17.40374,16.1229 z"
       id="path1027"
       inkscape:connector-curvature="0"
       sodipodi:nodetypes="cccccssc" />
  </g>
  <g
     inkscape:groupmode="layer"
     id="layer1"
     inkscape:label="txt">
    <text
       xml:space="preserve"
       style="font-style:normal;font-variant:normal;font-weight:normal;font-stretch:normal;line-height:0%;font-family:Lavi;-inkscape-font-specification:Lavi;text-align:center;letter-spacing:0px;word-spacing:0px;text-anchor:middle;fill:#000000;fill-opacity:1;stroke:none"
       x="343.16214"
       y="239.86371"
       id="text4246"><tspan
         sodipodi:role="line"
         style="font-size:45px;line-height:1.20000005"
         x="343.16214"
         y="239.86371"
         id="tspan833">Alle meine Freunde</tspan><tspan
         sodipodi:role="line"
         style="font-size:45px;line-height:1.20000005"
         x="343.16214"
         y="293.86371"
         id="tspan63">sind so erfolgreich</tspan><tspan
         sodipodi:role="line"
         style="font-size:45px;line-height:1.20000005"
         x="343.16214"
         y="347.86371"
         id="tspan65">und manchmal</tspan><tspan
         sodipodi:role="line"
         style="font-size:45px;line-height:1.20000005"
         x="343.16214"
         y="401.86371"
         id="tspan67">wünschte ich, ich</tspan><tspan
         sodipodi:role="line"
         style="font-size:45px;line-height:1.20000005"
         x="343.16214"
         y="455.86371"
         id="tspan69">wäre auch ein</tspan><tspan
         sodipodi:role="line"
         style="font-size:45px;line-height:1.20000005"
         x="343.16214"
         y="509.86371"
         id="tspan71">wenig wie sie.</tspan></text>
    <text
       xml:space="preserve"
       style="font-style:normal;font-variant:normal;font-weight:normal;font-stretch:normal;line-height:0%;font-family:Lavi;-inkscape-font-specification:Lavi;text-align:center;letter-spacing:0px;word-spacing:0px;text-anchor:middle;fill:#000000;fill-opacity:1;stroke:none"
       x="2141.3313"
       y="628.23462"
       id="text4246-3"><tspan
         sodipodi:role="line"
         style="font-size:45px;line-height:1.20000005"
         x="2141.3313"
         y="628.23462"
         id="tspan833-2">Coriander</tspan><tspan
         sodipodi:role="line"
         style="font-size:45px;line-height:1.20000005"
         x="2141.3313"
         y="682.23462"
         id="tspan898">ist Königin.</tspan></text>
    <text
       xml:space="preserve"
       style="font-style:normal;font-variant:normal;font-weight:normal;font-stretch:normal;line-height:0%;font-family:Lavi;-inkscape-font-specification:Lavi;text-align:center;letter-spacing:0px;word-spacing:0px;text-anchor:middle;fill:#000000;fill-opacity:1;stroke:none"
       x="2146.4858"
       y="776.11542"
       id="text4246-3-9"><tspan
         sodipodi:role="line"
         style="font-size:45px;line-height:1.20000005"
         x="2146.4858"
         y="776.11542"
         id="tspan898-2">Saffron ein</tspan><tspan
         sodipodi:role="line"
         style="font-size:45px;line-height:1.20000005"
         x="2146.4858"
         y="830.11542"
         id="tspan923">reicher Superstar.</tspan></text>
    <text
       xml:space="preserve"
       style="font-style:normal;font-variant:normal;font-weight:normal;font-stretch:normal;line-height:0%;font-family:Lavi;-inkscape-font-specification:Lavi;text-align:center;letter-spacing:0px;word-spacing:0px;text-anchor:middle;fill:#000000;fill-opacity:1;stroke:none"
       x="327.58185"
       y="1151.152"
       id="text4246-3-9-7"><tspan
         sodipodi:role="line"
         style="font-size:45px;line-height:1.20000005"
         x="327.58185"
         y="1151.152"
         id="tspan923-9">Sogar Shichimi</tspan><tspan
         sodipodi:role="line"
         style="font-size:45px;line-height:1.20000005"
         x="327.58185"
         y="1205.152"
         id="tspan950">sieht so perfekt aus</tspan><tspan
         sodipodi:role="line"
         style="font-size:45px;line-height:1.20000005"
         x="327.58185"
         y="1259.152"
         id="tspan75">mit ihrer Schule.</tspan></text>
    <text
       xml:space="preserve"
       style="font-style:normal;font-variant:normal;font-weight:normal;font-stretch:normal;line-height:0%;font-family:Lavi;-inkscape-font-specification:Lavi;text-align:center;letter-spacing:0px;word-spacing:0px;text-anchor:middle;fill:#000000;fill-opacity:1;stroke:none"
       x="2140.5269"
       y="1155.4224"
       id="text4246-3-9-7-3"><tspan
         sodipodi:role="line"
         style="font-size:45px;line-height:1.20000005"
         x="2140.5269"
         y="1155.4224"
         id="tspan950-6">Und ich?</tspan><tspan
         sodipodi:role="line"
         style="font-size:45px;line-height:1.20000005"
         x="2140.5269"
         y="1209.4224"
         id="tspan981">Was habe ich?</tspan></text>
    <text
       xml:space="preserve"
       style="font-style:normal;font-variant:normal;font-weight:normal;font-stretch:normal;line-height:0%;font-family:Lavi;-inkscape-font-specification:Lavi;text-align:center;letter-spacing:0px;word-spacing:0px;text-anchor:middle;fill:#000000;fill-opacity:1;stroke:none"
       x="910.00488"
       y="2360.6299"
       id="text4246-3-9-7-3-2"><tspan
         sodipodi:role="line"
         style="font-size:45px;line-height:1.20000005"
         x="910.00488"
         y="2360.6299"
         id="tspan981-1">Das.</tspan></text>
  </g>
</svg>
