<?xml version="1.0" encoding="UTF-8" standalone="no"?>
<!-- Created with Inkscape (http://www.inkscape.org/) -->

<svg
   xmlns:dc="http://purl.org/dc/elements/1.1/"
   xmlns:cc="http://creativecommons.org/ns#"
   xmlns:rdf="http://www.w3.org/1999/02/22-rdf-syntax-ns#"
   xmlns:svg="http://www.w3.org/2000/svg"
   xmlns="http://www.w3.org/2000/svg"
   xmlns:xlink="http://www.w3.org/1999/xlink"
   xmlns:sodipodi="http://sodipodi.sourceforge.net/DTD/sodipodi-0.dtd"
   xmlns:inkscape="http://www.inkscape.org/namespaces/inkscape"
   id="svg2"
   version="1.1"
   inkscape:version="0.92.2 (5c3e80d, 2017-08-06)"
   width="2481"
   height="3503"
   sodipodi:docname="Pepper-and-Carrot_by-David-Revoy_E19P01.svg"
   inkscape:export-filename="E:\Users\jamesmichael\Downloads\Compressed\eps\peppercarrot_ep19_translation-master\peppercarrot_ep19_translation-master\ph\Pepper-and-Carrot_by-David-Revoy_E19P01.png"
   inkscape:export-xdpi="98.181801"
   inkscape:export-ydpi="98.181801">
  <metadata
     id="metadata8">
    <rdf:RDF>
      <cc:Work
         rdf:about="">
        <dc:format>image/svg+xml</dc:format>
        <dc:type
           rdf:resource="http://purl.org/dc/dcmitype/StillImage" />
        <dc:title />
      </cc:Work>
    </rdf:RDF>
  </metadata>
  <defs
     id="defs6" />
  <sodipodi:namedview
     pagecolor="#ffffff"
     bordercolor="#666666"
     borderopacity="1"
     objecttolerance="10"
     gridtolerance="10"
     guidetolerance="10"
     inkscape:pageopacity="0"
     inkscape:pageshadow="2"
     inkscape:window-width="1366"
     inkscape:window-height="705"
     id="namedview4"
     showgrid="false"
     inkscape:zoom="0.31941594"
     inkscape:cx="1259.2465"
     inkscape:cy="982.52347"
     inkscape:window-x="-8"
     inkscape:window-y="-8"
     inkscape:window-maximized="1"
     inkscape:current-layer="layer3"
     showguides="false" />
  <g
     inkscape:groupmode="layer"
     id="layer2"
     inkscape:label="artwork"
     sodipodi:insensitive="true">
    <image
       sodipodi:absref="E:\Users\jamesmichael\Downloads\Compressed\eps\peppercarrot_ep19_translation-master\peppercarrot_ep19_translation-master\ph\../gfx_Pepper-and-Carrot_by-David-Revoy_E19P01.png"
       xlink:href="../gfx_Pepper-and-Carrot_by-David-Revoy_E19P01.png"
       width="2481"
       height="3503"
       id="image10"
       x="0"
       y="0" />
  </g>
  <g
     inkscape:groupmode="layer"
     id="layer3"
     inkscape:label="speechbubbles">
    <path
       style="color:#000000;display:inline;overflow:visible;visibility:visible;fill:#ffffff;fill-opacity:1;fill-rule:nonzero;stroke:none;stroke-width:1.4149276px;marker:none;enable-background:accumulate"
       d="m 961.14499,1945.7017 c -3.19135,-75.1466 21.80915,-165.8052 112.32031,-145.768 90.5114,20.0375 108.3169,55.3412 110.9902,151.7794 1.1083,39.9818 -22.9986,102.19 -36.3528,112.2088 -13.3542,10.0185 -68.7151,11.5178 -90.9721,3.5031 -22.2567,-8.0149 -70.01923,-25.5442 -83.37338,-61.6116 -13.35424,-36.0669 -11.12837,-52.0968 -12.61223,-60.1117 z"
       id="path3365"
       inkscape:connector-curvature="0"
       sodipodi:nodetypes="csssssc" />
    <path
       style="color:#000000;display:inline;overflow:visible;visibility:visible;fill:#ffffff;fill-opacity:1;fill-rule:nonzero;stroke:none;stroke-width:1.19496179px;marker:none;enable-background:accumulate"
       d="m 1392.3645,2042.9566 c -6.8992,99.4993 -38.1218,143.9803 -64.0313,170.9618 -48.3545,42.736 -99.0263,21.2859 -147.7438,-1.7794 -25.2759,-16.3962 -51.3119,-87.0828 -48.6691,-182.5276 2.5541,-85.5548 27.0578,-141.3084 50.6757,-149.2559 34.6231,-27.7371 70.7318,-41.2487 105.9355,-17.6516 30.2284,13.4726 62.602,17.1247 89.5254,70.3373 8.9974,28.1165 12.4543,70.2154 14.3076,109.9154 z"
       id="path3365-3"
       inkscape:connector-curvature="0" />
    <path
       style="fill:#ffffff;stroke:none;stroke-width:1.06998777"
       d="m 1072.2844,2330.7847 c 3.851,-106.298 33.9326,-163.8175 78.0867,-178.6234 54.1319,-31.5948 104.5873,-46.0698 158.6064,-15.7968 35.3243,25.0417 64.3555,27.8846 91.7997,99.7635 18.199,52.7174 24.7517,252.2196 -4.7253,303.9251 -30.6859,75.5935 -112.9112,92.3406 -154.5129,90.2744 -59.8788,3.1111 -112.3566,-10.6548 -141.9276,-73.6163 -27.6505,-60.4067 -31.0932,-147.2372 -27.327,-225.9265 z"
       id="path3065"
       inkscape:connector-curvature="0"
       sodipodi:nodetypes="cccccccc" />
    <path
       style="display:inline;fill:#ffffff;stroke:none;stroke-width:0.92483974"
       d="m 1458.4365,2249.7939 c 1.434,47.0684 -25.508,38.2469 -45.8919,41.2364 -27.8926,4.0906 -18.8514,-28.7736 -18.8514,-28.7736 l -3.276,51.4283 10.693,32.5013 c 0,0 57.4983,18.188 57.3263,-96.3924 z"
       id="path3063-1"
       inkscape:connector-curvature="0"
       sodipodi:nodetypes="cscccc" />
    <path
       style="color:#000000;display:inline;overflow:visible;visibility:visible;fill:#ffffff;fill-opacity:1;fill-rule:nonzero;stroke:none;stroke-width:0.87318093px;marker:none;enable-background:accumulate"
       d="m 2291.8013,2044.63 c -12.8125,-19.4412 -63.2648,-36.142 -113.6541,-34.1026 -50.3894,2.0394 -98.6841,12.717 -128.2072,60.6659 -43.4974,70.6444 -23.6852,232.1656 -1.1565,259.3455 16.3275,19.6984 65.1947,37.3723 111.9992,39.3598 46.8044,1.9879 91.5462,-11.7108 113.4056,-29.5116 18.8654,-15.3628 46.3516,-57.1697 48.5958,-158.2808 0.916,-41.2678 -5.3584,-98.5932 -30.9828,-137.4762 z"
       id="path4040"
       inkscape:connector-curvature="0"
       sodipodi:nodetypes="ssssssss" />
    <path
       style="color:#000000;display:inline;overflow:visible;visibility:visible;fill:#ffffff;fill-opacity:1;fill-rule:nonzero;stroke:none;stroke-width:1px;marker:none;enable-background:accumulate"
       d="m 2073.8369,2463.8401 c -33.6245,19.0278 -60.7293,26.2938 -55.676,-13.4782 -18.546,69.7899 35.3617,59.5871 53.2726,53.3899 17.9109,-6.1974 2.4034,-39.9117 2.4034,-39.9117 z"
       id="path5010"
       inkscape:connector-curvature="0"
       inkscape:transform-center-x="13.282495"
       inkscape:transform-center-y="6.6412474" />
    <path
       style="color:#000000;display:inline;overflow:visible;visibility:visible;fill:#ffffff;fill-opacity:1;fill-rule:nonzero;stroke:none;stroke-width:1.24607027px;marker:none;enable-background:accumulate"
       d="m 650.14908,2726.5549 c -0.82781,-47.11 8.31584,-80.8673 43.08195,-111.6331 34.76628,-30.7656 84.10639,-16.0917 97.05222,-15.0766 60.75147,4.7635 81.10748,20.6716 93.52394,55.2833 12.41653,34.6113 15.58865,27.0062 15.14984,86.9537 -0.39286,53.6694 -3.90243,78.8915 -18.80221,90.4285 -14.89987,11.5372 -129.36465,24.754 -146.98743,24.24 -17.25404,-0.5034 -39.22219,-6.2733 -56.32864,-25.1716 -16.14891,-17.8403 -25.86192,-57.9141 -26.68967,-105.0242 z"
       id="path3373"
       inkscape:connector-curvature="0"
       sodipodi:nodetypes="zsssssssz" />
    <path
       style="color:#000000;display:inline;overflow:visible;visibility:visible;opacity:1;fill:#ffffff;fill-opacity:1;fill-rule:nonzero;stroke:none;stroke-width:1.02181077px;marker:none;enable-background:accumulate"
       d="m 860.97866,2858.4183 c 5.91876,-124.9119 50.95858,-168.3439 179.52384,-175.8054 33.6253,-1.9514 90.2686,12.9971 116.6744,42.1229 26.4059,29.1259 41.4414,129.3809 37.4956,220.9114 -7.8916,183.0608 -90.3505,152.5489 -113.0391,154.7027 -15.3141,1.4537 -88.9492,4.1424 -144.22318,-18.2422 -2.40829,-0.9753 15.33113,-21.1602 12.85857,-28.5253 -7.23795,3.133 -20.40113,-8.7012 -38.00757,15.0049 -3.11738,-2.1824 -8.6891,-2.6662 -8.67203,-6.3914 0.0823,-17.9613 7.82832,-34.1728 4.44135,-34.7829 -4.24635,-0.7649 -9.57763,-1.2724 -23.58759,9.1031 -3.1272,2.316 -9.24182,-14.3042 -10.29872,-18.227 -21.46553,-79.6715 -14.15202,-121.1047 -13.16557,-159.8708 z"
       id="path4546"
       inkscape:connector-curvature="0"
       sodipodi:nodetypes="csssssccssssc" />
    <path
       style="color:#000000;display:inline;overflow:visible;visibility:visible;fill:#ffffff;fill-opacity:1;fill-rule:nonzero;stroke:none;stroke-width:1.09210038px;marker:none;enable-background:accumulate"
       d="m 950.11767,3126.3269 c 23.96643,-68.9683 154.32213,-63.0807 197.69383,-33.2002 43.3717,29.88 62.1215,37.9999 61.5272,99.6008 -0.5563,57.6711 -14.543,111.5644 -36.7332,128.1646 -22.1901,16.6002 -74.2174,16.2565 -96.4076,16.2565 -22.19,0 -93.02584,-10.5659 -110.95076,-34.8604 -17.14693,-23.2401 -39.09601,-106.9934 -15.12947,-175.9613 z"
       id="path3330"
       inkscape:connector-curvature="0"
       sodipodi:nodetypes="zsssssz" />
    <path
       style="color:#000000;display:inline;overflow:visible;visibility:visible;fill:#ffffff;fill-opacity:1;fill-rule:nonzero;stroke:none;stroke-width:1px;marker:none;enable-background:accumulate"
       d="m 973.93751,3364.3638 c 39.78509,-10.9584 53.20159,-17.1208 58.43429,-65.1641 5.2327,-48.0433 23.1618,-44.6696 23.1618,-44.6696 l 14.7504,30.3838 c 0,0 -18.3423,101.2684 -96.34649,79.4499 z"
       id="path3072"
       inkscape:connector-curvature="0" />
    <path
       style="fill:#ffffff;fill-rule:evenodd;stroke:none;stroke-width:1.36023164px;stroke-linecap:butt;stroke-linejoin:miter;stroke-opacity:1"
       d="m 1944.3632,3163.8816 c 25.5723,4.1097 58.8764,-16.3483 38.2022,-78.2236 37.2085,49.5793 72.4559,58.8661 109.5632,4.5884 -5.4244,54.795 55.2491,59.0225 76.0387,22.7646 -6.3432,57.1018 22.8247,59.3045 47.198,61.1175 -51.5594,69.8097 -24.485,92.0112 -4.1689,118.3046 -50.6705,-19.4535 -38.4157,19.9628 -44.4678,42.2517 -43.4676,-50.5011 -75.0788,-38.5156 -100.0525,8.4503 -13.0615,-25.5413 -17.1613,-78.3307 -65.3119,2.8168 17.7061,-70.0536 -5.5026,-62.7006 -43.0782,-28.1676 8.645,-16.1031 45.0314,-59.1254 -13.9228,-55.3156 9.206,-5.6709 16.5931,-11.8445 21.7994,-18.621 5.2063,-6.7766 -28.2711,-24.8681 -27.7886,-32.9504 0.4827,-8.0822 34.9254,-6.1548 29.9605,-15.743 -4.965,-9.5879 -12.8348,-19.9787 -23.9713,-31.2727 z"
       id="path4584"
       inkscape:connector-curvature="0"
       sodipodi:nodetypes="cccccccccccsssc" />
    <path
       style="color:#000000;display:inline;overflow:visible;visibility:visible;fill:#ffffff;fill-opacity:1;fill-rule:nonzero;stroke:none;stroke-width:1.552701px;marker:none;enable-background:accumulate"
       d="m 2032.0191,3271.5565 c -26.7744,0.4663 -96.6935,-29.0779 -103.8888,-31.3771 6.0705,-13.1082 10.1298,-26.2622 13.4021,-36.4434 -13.7156,-2.2332 -59.5001,-6.2586 -79.7676,3.8514 50.7453,-27.539 73.8083,-30.4776 95.8809,-23.7821 -2.9601,14.4604 -5.8701,22.7266 -7.3188,30.385 18.7307,16.1722 117.9634,21.2999 106.078,3.3909 z"
       id="path5066"
       inkscape:connector-curvature="0"
       sodipodi:nodetypes="cccccccc" />
    <path
       style="color:#000000;display:inline;overflow:visible;visibility:visible;fill:#ffffff;fill-opacity:1;fill-rule:nonzero;stroke:none;stroke-width:0.70466554px;marker:none;enable-background:accumulate"
       d="m 2062.6117,2537.8758 c 12.0529,13.4592 59.5143,25.0213 106.9164,23.6094 47.4022,-1.4119 92.8339,-8.804 120.6068,-41.9994 40.9188,-48.9075 22.2811,-160.7296 1.088,-179.5464 -15.3596,-13.6373 -61.3299,-25.8731 -105.3597,-27.249 -44.0297,-1.3763 -86.1191,8.1074 -106.6827,20.431 -17.747,10.6358 -43.6038,39.579 -45.7149,109.5788 -0.8617,28.57 5.0407,68.2567 29.1461,95.1756 z"
       id="path4040-5"
       inkscape:connector-curvature="0"
       sodipodi:nodetypes="ssssssss" />
  </g>
  <g
     inkscape:groupmode="layer"
     id="layer1"
     inkscape:label="txt"
     style="display:inline">
    <text
       xml:space="preserve"
       style="font-style:normal;font-variant:normal;font-weight:normal;font-stretch:normal;line-height:1;font-family:Lavi;-inkscape-font-specification:Lavi;text-align:center;letter-spacing:0px;word-spacing:0px;text-anchor:middle;fill:#000000;fill-opacity:1;stroke:none"
       x="1265.9598"
       y="1980.7911"
       id="text4246-3-9"><tspan
         sodipodi:role="line"
         style="font-size:45px;line-height:1"
         x="1273.87"
         y="1980.7911"
         id="tspan4877">bilisan </tspan><tspan
         sodipodi:role="line"
         style="font-size:45px;line-height:1"
         x="1265.9598"
         y="2025.7911"
         id="tspan4895">mo jan,</tspan><tspan
         sodipodi:role="line"
         style="font-size:45px;line-height:1"
         x="1273.87"
         y="2070.791"
         id="tspan4893">hindi ka na </tspan><tspan
         sodipodi:role="line"
         style="font-size:45px;line-height:1"
         x="1273.87"
         y="2115.791"
         id="tspan4885">bantaying </tspan><tspan
         sodipodi:role="line"
         style="font-size:45px;line-height:1"
         x="1265.9598"
         y="2160.791"
         id="tspan4883">bata</tspan></text>
    <text
       xml:space="preserve"
       style="font-style:normal;font-variant:normal;font-weight:normal;font-stretch:normal;line-height:0.89999998;font-family:Lavi;-inkscape-font-specification:Lavi;text-align:center;letter-spacing:0px;word-spacing:0px;text-anchor:middle;fill:#000000;fill-opacity:1;stroke:none"
       x="1235.2499"
       y="2258.3765"
       id="text4246-3-7"><tspan
         sodipodi:role="line"
         style="font-size:45px;line-height:0.89999998"
         x="1243.16"
         y="2258.3765"
         id="tspan4222">Ibaon </tspan><tspan
         sodipodi:role="line"
         style="font-size:45px;line-height:0.89999998"
         x="1243.16"
         y="2298.8765"
         id="tspan4815">mo na </tspan><tspan
         sodipodi:role="line"
         style="font-size:45px;line-height:0.89999998"
         x="1243.16"
         y="2339.3765"
         id="tspan4817">ang mga </tspan><tspan
         sodipodi:role="line"
         style="font-size:45px;line-height:0.89999998"
         x="1243.16"
         y="2379.8765"
         id="tspan4819">kapalpakan </tspan><tspan
         sodipodi:role="line"
         style="font-size:45px;line-height:0.89999998"
         x="1243.16"
         y="2420.3765"
         id="tspan3968">na yan at </tspan><tspan
         sodipodi:role="line"
         style="font-size:45px;line-height:0.89999998"
         x="1243.16"
         y="2460.8765"
         id="tspan4823">pumasok </tspan><tspan
         sodipodi:role="line"
         style="font-size:45px;line-height:0.89999998"
         x="1243.16"
         y="2501.3765"
         id="tspan4827">ka na rin </tspan></text>
    <text
       xml:space="preserve"
       style="font-style:normal;font-variant:normal;font-weight:normal;font-stretch:normal;line-height:0.89999998;font-family:Lavi;-inkscape-font-specification:Lavi;text-align:center;letter-spacing:0px;word-spacing:0px;text-anchor:middle;fill:#000000;fill-opacity:1;stroke:none"
       x="2170.303"
       y="2082.7937"
       id="text4246-3-7-6"><tspan
         sodipodi:role="line"
         style="font-size:45px;line-height:0.89999998"
         x="2170.303"
         y="2091.6814"
         id="tspan3983" /><tspan
         sodipodi:role="line"
         style="font-size:45px;line-height:0.89999998"
         x="2178.2131"
         y="2126.9229"
         id="tspan5024">Himala na </tspan><tspan
         sodipodi:role="line"
         style="font-size:45px;line-height:0.89999998"
         x="2178.2131"
         y="2167.4229"
         id="tspan5041">nga lang </tspan><tspan
         sodipodi:role="line"
         style="font-size:45px;line-height:0.89999998"
         x="2178.2131"
         y="2207.9229"
         id="tspan5030">sigurong </tspan><tspan
         sodipodi:role="line"
         style="font-size:45px;line-height:0.89999998"
         x="2178.2131"
         y="2248.4229"
         id="tspan5043">pumasa </tspan><tspan
         sodipodi:role="line"
         style="font-size:45px;line-height:0.89999998"
         x="2170.303"
         y="2288.9229"
         id="tspan5045">ka bukas,</tspan><tspan
         sodipodi:role="line"
         style="font-size:45px;line-height:0.89999998"
         x="2170.303"
         y="2304.9814"
         id="tspan5055" /><tspan
         sodipodi:role="line"
         style="font-size:45px;line-height:0.89999998"
         x="2170.303"
         y="2315.7815"
         id="tspan5057" /><tspan
         sodipodi:role="line"
         style="font-size:45px;line-height:0.89999998"
         x="2170.303"
         y="2326.5815"
         id="tspan5059" /><tspan
         sodipodi:role="line"
         style="font-size:45px;line-height:0.89999998"
         x="2170.303"
         y="2337.3816"
         id="tspan5061" /><tspan
         sodipodi:role="line"
         style="font-size:45px;line-height:0.89999998"
         x="2170.303"
         y="2348.1814"
         id="tspan5078" /><tspan
         sodipodi:role="line"
         style="font-size:45px;line-height:0.89999998"
         x="2170.303"
         y="2358.9814"
         id="tspan5080" /><tspan
         sodipodi:role="line"
         style="font-size:45px;line-height:0.89999998"
         x="2170.303"
         y="2369.7815"
         id="tspan5082" /><tspan
         sodipodi:role="line"
         style="font-size:45px;line-height:0.89999998"
         x="2178.2131"
         y="2405.0229"
         id="tspan5028">Pero </tspan><tspan
         sodipodi:role="line"
         style="font-size:45px;line-height:0.89999998"
         x="2178.2131"
         y="2445.5229"
         id="tspan5047">ano bang </tspan><tspan
         sodipodi:role="line"
         style="font-size:45px;line-height:0.89999998"
         x="2170.303"
         y="2486.0229"
         id="tspan5053">malay ko</tspan></text>
    <text
       xml:space="preserve"
       style="font-style:normal;font-variant:normal;font-weight:normal;font-stretch:normal;line-height:1;font-family:Lavi;-inkscape-font-specification:Lavi;text-align:center;letter-spacing:0px;word-spacing:0px;text-anchor:middle;fill:#000000;fill-opacity:1;stroke:none"
       x="784.30542"
       y="2705.2185"
       id="text4246-3-7-6-7"><tspan
         sodipodi:role="line"
         style="font-size:45px;line-height:1"
         x="792.21558"
         y="2705.2185"
         id="tspan4515">Oo na! </tspan><tspan
         sodipodi:role="line"
         style="font-size:45px;line-height:1"
         x="792.21558"
         y="2750.2185"
         id="tspan4897">bibilisan </tspan><tspan
         sodipodi:role="line"
         style="font-size:45px;line-height:1"
         x="792.21558"
         y="2795.2185"
         id="tspan3987">ko na! </tspan></text>
    <text
       xml:space="preserve"
       style="font-style:normal;font-variant:normal;font-weight:normal;font-stretch:normal;line-height:0%;font-family:Lavi;-inkscape-font-specification:Lavi;text-align:center;letter-spacing:0px;word-spacing:0px;text-anchor:middle;fill:#000000;fill-opacity:1;stroke:none"
       x="1020.2939"
       y="2767.1646"
       id="text4246-3-7-6-7-0"><tspan
         sodipodi:role="line"
         style="font-size:45px;line-height:1.25"
         x="1028.2041"
         y="2767.1646"
         id="tspan4778">pero, </tspan><tspan
         sodipodi:role="line"
         style="font-size:45px;line-height:1.25"
         x="1028.2041"
         y="2823.4146"
         id="tspan4968">teka nga </tspan><tspan
         sodipodi:role="line"
         style="font-size:45px;line-height:1.25"
         x="1028.2041"
         y="2879.6646"
         id="tspan4952">bakit ba </tspan><tspan
         sodipodi:role="line"
         style="font-size:45px;line-height:1.25"
         x="1028.2041"
         y="2935.9146"
         id="tspan4970">kailangan </tspan><tspan
         sodipodi:role="line"
         style="font-size:45px;line-height:1.25"
         x="1028.2041"
         y="2992.1646"
         id="tspan4954">ibaon tong </tspan><tspan
         sodipodi:role="line"
         style="font-size:45px;line-height:1.25"
         x="1020.2939"
         y="3048.4146"
         id="tspan4972">mga to?</tspan><tspan
         sodipodi:role="line"
         style="font-size:45px;line-height:1.25"
         x="1020.2939"
         y="3066.948"
         id="tspan4946" /><tspan
         sodipodi:role="line"
         style="font-size:45px;line-height:1.25"
         x="1028.2041"
         y="3104.6646"
         id="tspan4770" /></text>
    <text
       xml:space="preserve"
       style="font-style:normal;font-variant:normal;font-weight:normal;font-stretch:normal;line-height:1;font-family:Lavi;-inkscape-font-specification:Lavi;text-align:center;letter-spacing:0px;word-spacing:0px;text-anchor:middle;fill:#000000;fill-opacity:1;stroke:none"
       x="1070.8192"
       y="3171.1179"
       id="text4246-3-7-6-7-0-9"><tspan
         sodipodi:role="line"
         style="font-size:45px;line-height:1"
         x="1078.7294"
         y="3171.1179"
         id="tspan4782">'Di ba? </tspan><tspan
         sodipodi:role="line"
         style="font-size:45px;line-height:1"
         x="1078.7294"
         y="3216.1179"
         id="tspan4974">pwede </tspan><tspan
         sodipodi:role="line"
         style="font-size:45px;line-height:1"
         x="1070.8192"
         y="3261.1179"
         id="tspan4976">namang...</tspan></text>
    <text
       xml:space="preserve"
       style="font-style:normal;font-variant:normal;font-weight:normal;font-stretch:normal;line-height:1;font-family:Lavi;-inkscape-font-specification:Lavi;text-align:center;letter-spacing:0px;word-spacing:0px;text-anchor:middle;fill:#000000;fill-opacity:1;stroke:none"
       x="2072.9531"
       y="3188.3115"
       id="text4246-3-7-6-7-0-9-3"><tspan
         sodipodi:role="line"
         style="font-size:45px;line-height:1"
         x="2080.8633"
         y="3188.3115"
         id="tspan4464-5">pwede </tspan><tspan
         sodipodi:role="line"
         style="font-size:45px;line-height:1"
         x="2080.8633"
         y="3233.3115"
         id="tspan4962">namang </tspan><tspan
         sodipodi:role="line"
         style="font-size:45px;line-height:1"
         x="2072.9531"
         y="3278.3115"
         id="tspan4889"><tspan
   style="line-height:1;stroke:#000000;stroke-width:2.5999999;stroke-miterlimit:4;stroke-dasharray:none;stroke-opacity:1"
   id="tspan4891">ANO!</tspan>?</tspan></text>
    <flowRoot
       xml:space="preserve"
       id="flowRoot4796"
       style="fill:black;fill-opacity:1;stroke:none;font-family:sans-serif;font-style:normal;font-weight:normal;font-size:40px;line-height:1.25;letter-spacing:0px;word-spacing:0px"><flowRegion
         id="flowRegion4798"><rect
           id="rect4800"
           width="201.93106"
           height="73.571777"
           x="1072.2695"
           y="2058.1755" /></flowRegion><flowPara
         id="flowPara4802" /></flowRoot>    <text
       xml:space="preserve"
       style="font-style:normal;font-variant:normal;font-weight:normal;font-stretch:normal;line-height:1;font-family:Lavi;-inkscape-font-specification:Lavi;text-align:center;letter-spacing:0px;word-spacing:0px;text-anchor:middle;display:inline;fill:#000000;fill-opacity:1;stroke:none"
       x="1083.292"
       y="1935.2974"
       id="text4246-3-9-8"><tspan
         sodipodi:role="line"
         style="font-size:45px;line-height:1"
         x="1091.2021"
         y="1935.2974"
         id="tspan4183-8-2">Papasok </tspan><tspan
         sodipodi:role="line"
         style="font-size:45px;line-height:1"
         x="1091.2021"
         y="1980.2974"
         id="tspan4794-2">na ko. </tspan></text>
    <text
       xml:space="preserve"
       style="font-style:normal;font-weight:normal;font-size:40px;line-height:1.25;font-family:sans-serif;letter-spacing:0px;word-spacing:0px;fill:#000000;fill-opacity:1;stroke:none"
       x="1492.0669"
       y="2940.7078"
       id="text5016"><tspan
         sodipodi:role="line"
         id="tspan5014"
         x="1492.0669"
         y="2940.7078" /></text>
    <text
       xml:space="preserve"
       style="font-style:normal;font-weight:normal;font-size:40px;line-height:1.25;font-family:sans-serif;letter-spacing:0px;word-spacing:0px;fill:#000000;fill-opacity:1;stroke:none"
       x="1937.912"
       y="2657.7073"
       id="text5020"><tspan
         sodipodi:role="line"
         id="tspan5018"
         x="1937.912"
         y="2657.7073" /></text>
  </g>
</svg>
