<?xml version="1.0" encoding="UTF-8" standalone="no"?>
<!-- Created with Inkscape (http://www.inkscape.org/) -->

<svg
   xmlns:dc="http://purl.org/dc/elements/1.1/"
   xmlns:cc="http://creativecommons.org/ns#"
   xmlns:rdf="http://www.w3.org/1999/02/22-rdf-syntax-ns#"
   xmlns:svg="http://www.w3.org/2000/svg"
   xmlns="http://www.w3.org/2000/svg"
   xmlns:xlink="http://www.w3.org/1999/xlink"
   xmlns:sodipodi="http://sodipodi.sourceforge.net/DTD/sodipodi-0.dtd"
   xmlns:inkscape="http://www.inkscape.org/namespaces/inkscape"
   id="svg2"
   version="1.1"
   inkscape:version="0.92.2 (5c3e80d, 2017-08-06)"
   width="2481"
   height="3503"
   sodipodi:docname="Pepper-and-Carrot_by-David-Revoy_E19P02.svg"
   inkscape:export-filename="E:\Users\jamesmichael\Downloads\Compressed\eps\peppercarrot_ep19_translation-master\peppercarrot_ep19_translation-master\ph\Pepper-and-Carrot_by-David-Revoy_E19P02.png"
   inkscape:export-xdpi="98.181801"
   inkscape:export-ydpi="98.181801">
  <metadata
     id="metadata8">
    <rdf:RDF>
      <cc:Work
         rdf:about="">
        <dc:format>image/svg+xml</dc:format>
        <dc:type
           rdf:resource="http://purl.org/dc/dcmitype/StillImage" />
        <dc:title />
      </cc:Work>
    </rdf:RDF>
  </metadata>
  <defs
     id="defs6">
    <filter
       inkscape:collect="always"
       style="color-interpolation-filters:sRGB"
       id="filter5236-4-16-3"
       x="-0.0089085409"
       width="1.0178171"
       y="-0.027928527"
       height="1.0558571">
      <feGaussianBlur
         inkscape:collect="always"
         stdDeviation="0.49168068"
         id="feGaussianBlur5238-0-4-6" />
    </filter>
    <filter
       inkscape:collect="always"
       style="color-interpolation-filters:sRGB"
       id="filter5236-4-16"
       x="-0.0089085409"
       width="1.0178171"
       y="-0.027928527"
       height="1.0558571">
      <feGaussianBlur
         inkscape:collect="always"
         stdDeviation="0.49168068"
         id="feGaussianBlur5238-0-4" />
    </filter>
    <filter
       inkscape:collect="always"
       style="color-interpolation-filters:sRGB"
       id="filter8728"
       x="-0.0053820003"
       width="1.010764"
       y="-0.0043315894"
       height="1.0086632">
      <feGaussianBlur
         inkscape:collect="always"
         stdDeviation="0.74946247"
         id="feGaussianBlur8730" />
    </filter>
    <filter
       inkscape:collect="always"
       style="color-interpolation-filters:sRGB"
       id="filter8804"
       x="-0.0035287888"
       width="1.0070576"
       y="-0.0036741444"
       height="1.0073483">
      <feGaussianBlur
         inkscape:collect="always"
         stdDeviation="0.90068189"
         id="feGaussianBlur8806" />
    </filter>
    <mask
       maskUnits="userSpaceOnUse"
       id="mask8812">
      <path
         sodipodi:nodetypes="cccssssccssscccscccccccccccccccccccccsscscccccccccccccc"
         inkscape:connector-curvature="0"
         id="path8814"
         d="m 1183.6348,711.98918 45.57,68.65082 c 13.9179,22.55935 24.4688,28.43297 36.1008,42.61085 0.6541,0.65406 8.6084,0.32301 13.6118,-1.77545 5.5657,-2.33431 14.4995,-7.98953 18.6422,-16.86679 4.1427,-8.87727 14.5054,-8.20878 18.6423,-7.98954 3.9342,0.2085 17.5035,5.28147 15.0913,14.49952 -2.7504,10.51045 9.1732,23.08089 13.3159,26.03997 4.1427,2.95909 25.7441,5.62226 30.4786,3.84681 4.7346,-1.77545 14.0609,-11.58683 24.5604,-3.84681 4.8409,3.56857 8.8388,5.27918 5.9287,10.63264 -1.5124,2.78237 -7.4826,5.90082 -10.6632,12.15233 -8.5813,16.8668 2.6631,25.74405 2.6631,25.74405 8.6667,6.88341 36.61,16.83377 49.6436,-2.75963 -2.852,-0.75336 -3.1356,-14.14838 12.4973,-20.61715 -1.484,2.79127 -27.9896,-17.39989 7.9895,-35.50904 19.7067,-9.91885 25.9929,-14.04218 26.04,-14.20362 0,0 -4.1427,-8.28544 -1.7755,-12.42817 2.3673,-4.14272 -12.4281,-5.32635 -2.959,-26.63178 9.469,-21.30542 -5.6223,-26.33587 -5.6223,-26.33587 1.8403,-6.61065 -0.017,-11.90063 12.1322,-22.19315 -0.7637,-1.09093 -16.2843,0.41994 -25.4481,20.12179 -11.3761,13.26864 -20.4316,2.07306 -20.1218,2.36727 0,0 -16.5709,6.80589 -8.2854,-29.29497 -8.2089,-18.30578 13.1134,-38.31763 13.6118,-36.98858 v 0 c 4.7112,-11.77812 -13.3112,-22.20491 11.8363,-41.42722 15.3873,-10.06089 39.06,-7.10181 39.06,-7.10181 0,0 7.6935,0 10.3568,-13.01999 2.3673,-10.6527 9.765,-15.38724 9.765,-15.38724 -6.5255,3.61808 -11.8208,1.90519 -15.9791,-4.73454 -5.6249,-5.38218 -8.7966,-4.6314 -13.02,-6.50999 -1.322,-8.72507 6.7215,0.20094 17.7545,-13.6118 4.5289,2.57476 6.1848,-1.91282 12.1323,3.5509 l 11.2445,2.07136 c 2.0856,-13.00671 1.8822,-23.05192 -5.3264,-28.70315 0.2669,-13.0689 6.9233,-13.4905 11.5405,-19.82587 3.8841,6.34717 22.6672,14.01346 20.5256,25.91002 -2.1774,12.09532 -1.8629,25.07403 2.1276,21.53981 7.8774,-6.97651 1.5281,-86.29069 -39.2241,-76.15298 -14.2216,-0.61131 -26.0791,8.89499 -34.4827,14.82663 -2.5568,1.80465 -5.0801,-2.52726 -8.4241,-1.21483 l 3.4966,-5.93447 c 0.1246,-4.85709 13.1494,-55.72783 40.8898,-53.83909 2.6853,-4.06723 -3.2422,-7.65597 12.1322,-12.42815 2.9492,-18.709 22.7722,-10.15502 26.9277,-7.69363 l 34.6213,1.77544 81.6708,2.95909 -259.6276,-140.19001 -195.2072,45.50326 -99.179,87.26939 -58.558,45.35192 14.343,107.73365 51.9814,58.5088 c 23.1484,17.79776 35.9615,39.04064 44.9781,61.549 z"
         style="fill:#ffffff;fill-opacity:1;stroke:none;stroke-width:1px;stroke-linecap:butt;stroke-linejoin:miter;stroke-opacity:1;filter:url(#filter8804)" />
    </mask>
    <mask
       maskUnits="userSpaceOnUse"
       id="mask9039">
      <rect
         style="opacity:1;fill:#f9f9f9;fill-opacity:1;fill-rule:nonzero;stroke:none;stroke-width:10.11401558;stroke-linecap:round;stroke-miterlimit:4;stroke-dasharray:none;stroke-opacity:1"
         id="rect9041"
         width="650.99915"
         height="262.76691"
         x="1517.4197"
         y="2567.9285" />
    </mask>
  </defs>
  <sodipodi:namedview
     pagecolor="#ffffff"
     bordercolor="#666666"
     borderopacity="1"
     objecttolerance="10"
     gridtolerance="10"
     guidetolerance="10"
     inkscape:pageopacity="0"
     inkscape:pageshadow="2"
     inkscape:window-width="1366"
     inkscape:window-height="705"
     id="namedview4"
     showgrid="false"
     inkscape:zoom="0.29870142"
     inkscape:cx="1354.7715"
     inkscape:cy="581.05654"
     inkscape:window-x="-8"
     inkscape:window-y="-8"
     inkscape:window-maximized="1"
     inkscape:current-layer="layer1"
     showguides="false" />
  <g
     inkscape:groupmode="layer"
     id="layer2"
     inkscape:label="artwork"
     sodipodi:insensitive="true">
    <image
       sodipodi:absref="E:\Users\jamesmichael\Downloads\Compressed\eps\peppercarrot_ep19_translation-master\peppercarrot_ep19_translation-master\ph\../gfx_Pepper-and-Carrot_by-David-Revoy_E19P02.png"
       xlink:href="../gfx_Pepper-and-Carrot_by-David-Revoy_E19P02.png"
       y="0"
       x="0"
       id="image10"
       height="3503"
       width="2481" />
  </g>
  <g
     inkscape:groupmode="layer"
     id="layer4"
     inkscape:label="translatornotes"
     sodipodi:insensitive="true">
    <path
       inkscape:connector-curvature="0"
       id="path3446"
       d="m 2763.8482,1498.4924 0,-189.0352 -203.8301,0 0,90.9805 -10,0 0,-15.6308 -30.9824,26.9824 30.9824,26.9804 0,-16.6171 10,0 0,76.3398 203.8301,0 z"
       style="color:#000000;clip-rule:nonzero;display:inline;overflow:visible;visibility:visible;opacity:0.481;isolation:auto;mix-blend-mode:normal;color-interpolation:sRGB;color-interpolation-filters:linearRGB;solid-color:#000000;solid-opacity:1;fill:#ffe680;fill-opacity:1;fill-rule:nonzero;stroke:#565656;stroke-width:1.20000005;stroke-linecap:butt;stroke-linejoin:miter;stroke-miterlimit:4;stroke-dasharray:none;stroke-dashoffset:0;stroke-opacity:1;marker:none;color-rendering:auto;image-rendering:auto;shape-rendering:auto;text-rendering:auto;enable-background:accumulate" />
    <flowRoot
       transform="translate(2793.4167,295.2096)"
       style="font-style:normal;font-variant:normal;font-weight:normal;font-stretch:normal;line-height:0.01%;font-family:Lavi;-inkscape-font-specification:'Lavi, Normal';text-align:center;letter-spacing:0px;word-spacing:0px;writing-mode:lr-tb;text-anchor:middle;display:inline;opacity:0.481;fill:#000000;fill-opacity:1;stroke:none;stroke-width:1px;stroke-linecap:butt;stroke-linejoin:miter;stroke-opacity:1"
       id="flowRoot3448"
       xml:space="preserve"><flowRegion
         id="flowRegion3450"><rect
           y="1061.6674"
           x="-275.14545"
           height="247.52747"
           width="291.95547"
           id="rect3452" /></flowRegion><flowPara
         id="flowPara3473"
         style="font-size:25.3241539px;line-height:1.25">labels</flowPara><flowPara
         id="flowPara4255"
         style="font-size:25.3241539px;line-height:1.25">in the </flowPara><flowPara
         id="flowPara4257"
         style="font-size:25.3241539px;line-height:1.25">garden :-)</flowPara></flowRoot>  </g>
  <g
     inkscape:groupmode="layer"
     id="layer3"
     inkscape:label="speechbubbles"
     style="display:inline">
    <path
       style="color:#000000;display:inline;overflow:visible;visibility:visible;fill:#ffffff;fill-opacity:1;fill-rule:nonzero;stroke:none;stroke-width:1.20716512px;marker:none;enable-background:accumulate"
       d="m 1400.3523,1867.0343 c 5.1353,-134.3062 33.3001,-182.8379 95.2146,-189.8813 30.7404,-3.4972 142.0777,-15.6239 187.2088,8.6753 45.131,24.2993 83.763,98.7205 80.3396,197.1348 -3.4235,98.4141 -7.4729,174.6445 -56.7608,202.5023 -49.2878,27.8577 -143.814,7.3426 -153.6567,8.5005 -19.685,2.3156 -121.6371,-30.3521 -138.6515,-99.5722 -10.6505,-43.3298 -14.5498,-85.6778 -13.694,-127.3594 z"
       id="path4546-6-3"
       inkscape:connector-curvature="0"
       sodipodi:nodetypes="cssssssc" />
    <path
       style="color:#000000;display:inline;overflow:visible;visibility:visible;fill:#ffffff;fill-opacity:1;fill-rule:nonzero;stroke:none;stroke-width:0.85871667px;marker:none;enable-background:accumulate"
       d="m 1795.6986,1825.233 c -1.4856,-15.1068 14.8025,-78.6951 105.4231,-68.6239 90.6207,10.0712 100.0858,22.7503 104.2207,76.9699 1.5282,20.0385 -12.574,49.2329 -25.9443,54.2685 -13.3703,5.0355 -52.4625,19.2507 -74.7462,15.2224 -22.2838,-4.0286 -55.1778,-3.0729 -87.964,-24.1954 -19.7882,-12.7486 -19.5037,-49.6131 -20.9893,-53.6415 z"
       id="path3365"
       inkscape:connector-curvature="0"
       sodipodi:nodetypes="csssssc" />
    <path
       style="fill:#ffffff;fill-opacity:1;stroke:none;stroke-width:1.14900875"
       d="m 1830.866,2160.6895 c -8.3026,-226.3749 50.8191,-304.901 208.2787,-304.5798 157.4595,0.3208 221.1722,64.7665 227.7884,199.5481 14.7942,301.384 -81.8524,376.5524 -133.6478,395.2598 -103.4597,37.3676 -252.9766,-32.9447 -274.1023,-96.0649 -21.1257,-63.1203 -26.4943,-134.9751 -28.317,-194.1632 z"
       id="path3238"
       inkscape:connector-curvature="0"
       sodipodi:nodetypes="cssssc" />
    <path
       style="color:#000000;display:inline;overflow:visible;visibility:visible;fill:#ffffff;fill-opacity:1;fill-rule:nonzero;stroke:none;stroke-width:0.61376065px;marker:none;enable-background:accumulate"
       d="m 1854.1128,2345.9817 c -11.5435,31.442 -34.5899,48.9817 -64.5518,-15.2953 29.0259,36.9878 46.6967,-14.9506 54.6274,-7.1268 21.0752,20.7911 12.6157,-40.1856 12.6157,-40.1856 z"
       id="path4440"
       inkscape:connector-curvature="0"
       sodipodi:nodetypes="ccscc" />
    <path
       style="color:#000000;display:inline;overflow:visible;visibility:visible;fill:#ffffff;fill-opacity:1;fill-rule:nonzero;stroke:none;stroke-width:1.01591611px;marker:none;enable-background:accumulate"
       d="m 125.14425,2804.486 c 19.08412,-15.5483 28.12959,-26.3248 0.33336,-48.6959 5.7072,-0.1699 37.55641,-3.0419 7.10556,-46.7266 10.03944,5.6391 26.09369,20.6122 8.02214,-51.9055 10.86595,11.5614 25.93794,48.5292 12.71702,-19.9668 14.31729,23.1499 33.17992,8.5139 29.31859,-3.6472 11.52261,14.7617 34.15177,13.5411 32.21338,1.0149 8.47176,13.6652 31.42199,17.6715 29.62096,-5.2322 7.0393,15.7436 28.88583,14.1217 26.74412,0.7452 53.68703,16.9196 12.61052,24.2647 61.10765,-12.3148 0.46119,22.5298 11.45702,30.1639 24.89364,13.5838 4.79827,9.2478 3.51761,14.627 22.37376,-7.266 -0.90019,15.0552 2.45612,28.9446 15.59381,14.5319 2.28861,9.3135 -6.08634,33.4527 27.11981,-1.8166 0.21951,13.1656 -7.5751,39.019 21.01777,7.2659 -23.19511,78.2222 -10.33949,69.8501 5.42392,54.4935 -12.27366,46.1439 -28.10381,103.3773 3.08826,101.2734 -24.42368,10.66 -23.99671,26.5109 -20.71606,51.3085 -30.61077,-49.9349 -34.20741,-11.986 -47.45959,-5.4493 -13.99019,-8.3072 -26.87871,-38.7492 -43.39148,3.633 -25.29674,-17.4409 -30.31208,-1.4437 -38.64569,9.0824 -58.85158,-17.5468 11.44693,-50.0062 -55.65605,-3.4317 9.28672,-21.2075 -13.58263,-40.1397 -35.33155,5.8502 10.80007,-38.8614 -6.91963,-51.9635 -40.00161,-1.9142 15.54608,-46.0476 -5.9543,-38.7088 -30.03066,-9.1999 23.56358,-44.7465 -1.33631,-48.5822 -15.46106,-45.216 z"
       id="path3557"
       inkscape:connector-curvature="0"
       sodipodi:nodetypes="cccccccccccccccccccccccccc" />
    <path
       style="color:#000000;display:inline;overflow:visible;visibility:visible;opacity:1;fill:#ffffff;fill-opacity:1;fill-rule:nonzero;stroke:none;stroke-width:1.05209494px;marker:none;enable-background:accumulate"
       d="m 285.21808,3115.9383 c 4.69605,-145.9006 51.98004,-251.8963 173.09335,-222.3648 64.87482,15.8186 138.58384,26.7258 132.4581,240.4728 -0.54756,19.1061 -1.89307,36.4459 -3.90517,52.186 -10.68474,-0.7868 -31.51866,6.1102 -22.0685,38.9669 1.43206,4.979 3.37501,7.4077 12.68073,9.2464 -5.30368,39.1969 -23.43363,24.8995 -28.43286,42.2855 -3.201,11.1323 5.5734,12.0378 3.6959,14.8828 -34.59435,52.422 -82.13887,50.5706 -96.0108,53.4984 -21.91976,4.6264 -135.78613,-19.7429 -155.27631,-92.82 -12.20041,-45.7447 -16.86958,-91.1539 -16.23444,-136.354 z"
       id="path4546"
       inkscape:connector-curvature="0"
       sodipodi:nodetypes="csscscscssc" />
    <path
       style="fill:#ffffff;stroke:none;stroke-width:1.39958465"
       d="m 1830.3271,2413.0243 c 115.4375,5.1814 162.3853,36.4322 177.7071,50.6124 15.3216,14.1799 34.9764,73.709 31.5934,112.5948 -3.3828,38.8859 -8.329,138.6305 -13.8785,154.8421 -5.5493,16.2115 -25.1321,56.1128 -178.2657,55.6488 -74.4593,-0.4638 -123.371,-9.1356 -166.8429,-32.7645 -43.4722,-23.6291 -51.9029,-164.5975 -47.0083,-173.2827 4.8945,-8.6855 43.957,-124.675 57.0035,-131.915 13.0465,-7.2398 48.7098,-36.5814 139.6914,-35.7359 z"
       id="path3278"
       inkscape:connector-curvature="0"
       mask="url(#mask9039)"
       transform="translate(-42.106142,39.767738)"
       sodipodi:nodetypes="cccccsccc" />
    <path
       style="color:#000000;display:inline;overflow:visible;visibility:visible;fill:#ffffff;fill-opacity:1;fill-rule:nonzero;stroke:none;stroke-width:1.14223754px;marker:none;enable-background:accumulate"
       d="m 1980.9027,2692.904 c 29.707,-82.6798 314.1773,-189.023 368.5984,-2.038 45.7262,157.1101 20.3949,386.7461 -15.8928,439.9057 -46.7519,68.4889 -199.3821,136.3087 -267.2876,80.546 -67.9054,-55.7627 -120.7996,-139.117 -124.2527,-309.7926 -1.4093,-69.6595 9.128,-125.9409 38.8347,-208.6211 z"
       id="path4040"
       inkscape:connector-curvature="0"
       sodipodi:nodetypes="zssssz" />
    <path
       style="display:inline;fill:#ffffff;fill-rule:evenodd;stroke:none;stroke-width:1.07618773px;stroke-linecap:butt;stroke-linejoin:miter;stroke-opacity:1"
       d="m 2347.3691,3109.5335 c -48.1261,33.0413 -75.5394,19.6048 -74.7133,-57.1988 -22.9607,82.9955 -38.8942,101.5577 -48.344,60.6654 -30.3984,35.1485 -49.3847,25.2892 -64.4586,0 -5.6184,32.5235 -17.6672,19.3992 -28.0947,17.7837 -3.4344,7.3582 8.3613,25.6393 -39.2938,1.2825 -3.0868,9.7394 -7.2451,18.1266 -35.1591,-3.4666 -7.2317,39.5311 -30.4341,-2.1909 -54.204,-46.799 14.8094,54.8419 8.6685,62.5878 -10.2547,41.599 8.6516,22.5843 13.8261,40.067 -19.0445,1.7333 11.2532,41.6861 -18.2696,13.073 -65.9236,-46.7988 23.8372,44.2569 87.0482,118.8483 45.4139,112.664 5.8062,13.047 26.5164,24.4146 -35.1591,45.0656 11.514,8.8533 46.6658,-4.0841 17.3429,33.4016 -3.9288,4.3819 9.2235,7.0577 -15.878,18.5971 14.8178,-0.7851 23.9051,2.0194 10.2549,19.0663 27.0478,-0.9218 16.9276,17.003 -2.93,39.8656 39.169,-29.3262 41.3245,-18.6678 42.4842,-6.9331 49.0902,-39.9816 51.9717,-27.3936 58.5985,-19.0663 23.9278,0.312 47.8557,-4.723 71.7836,39.8657 6.2663,-27.7329 18.8296,-49.08 71.7833,-29.4659 -23.2507,-35.2811 9.8264,-12.8034 35.1593,1.7333 -13.8728,-44.075 21.3342,-15.1487 65.9235,27.7326 -24.9698,-48.671 3.39,-31.0899 45.4141,3.4667 -15.8781,-47.8146 9.9807,-70.9382 71.7833,-72.7984 -29.5806,-17.2473 -46.8304,-38.9524 -16.1147,-77.9981 -34.6253,11.4971 -44.9535,0.8179 -20.5095,-41.599 -37.767,34.8154 -20.5958,-15.6826 -5.8599,-62.3984 z"
       id="path4508"
       inkscape:connector-curvature="0"
       sodipodi:nodetypes="cccccccccccccccccccccccccccc" />
    <path
       style="color:#000000;display:inline;overflow:visible;visibility:visible;fill:#ffffff;fill-opacity:1;fill-rule:nonzero;stroke:none;stroke-width:1.00673425px;marker:none;enable-background:accumulate"
       d="m 1510.9203,2884.3473 c 21.9573,-34.6469 51.7461,-66.1189 64.6044,-104.4548 l 13.4156,36.9576 c 14.5833,-10.4535 17.8819,-27.5499 25.0123,-42.391 l 13.1058,22.396 c 33.9439,-25.0577 46.8716,-58.2614 69.9571,-87.5278 l 19.0006,39.9435 c -28.4402,26.821 -63.1093,48.9121 -84.5436,81.053 L 1615.9167,2809.1 c -9.6449,10.0046 -18.709,20.3997 -25.1795,32.5386 l -16.6649,-27.6082 z"
       id="path4032"
       inkscape:connector-curvature="0"
       sodipodi:nodetypes="cccccccccccc" />
    <path
       style="color:#000000;display:inline;overflow:visible;visibility:visible;fill:#ffffff;fill-opacity:1;fill-rule:nonzero;stroke:none;stroke-width:1.01591611px;marker:none;enable-background:accumulate"
       d="m 128.2325,2905.7594 c 19.08413,-15.5483 28.12959,-26.3248 0.33337,-48.6959 5.70719,-0.1699 37.55641,-3.0419 7.10556,-46.7266 10.03944,5.6391 26.09368,20.6122 8.02213,-51.9055 10.86596,11.5614 25.93794,48.5292 12.71703,-19.9668 14.31728,23.1499 33.17991,8.5139 29.31858,-3.6472 11.52261,14.7617 34.15177,13.5411 32.21338,1.0149 8.47176,13.6652 31.42199,17.6715 29.62097,-5.2322 7.03929,15.7436 28.88583,14.1217 26.74412,0.7452 53.68703,16.9196 12.61052,24.2647 61.10765,-12.3148 0.46118,22.5298 11.45701,30.1639 24.89363,13.5838 4.79827,9.2478 3.51762,14.627 22.37377,-7.266 -0.90019,15.0552 2.45612,28.9446 15.5938,14.5319 2.28862,9.3135 -6.08634,33.4527 27.11981,-1.8166 0.21952,13.1656 -7.57509,39.019 21.01778,7.2659 -23.19511,78.2222 -10.3395,69.8501 5.42392,54.4935 -12.27367,46.1439 -28.10382,103.3773 3.08825,101.2734 -24.42367,10.66 -23.99671,26.5109 -20.71605,51.3085 -30.61077,-49.9349 -34.20742,-11.986 -47.45959,-5.4493 -13.99019,-8.3072 -26.87872,-38.7492 -43.39149,3.633 -25.29673,-17.4409 -30.31208,-1.4437 -38.64568,9.0824 -58.85159,-17.5468 11.44693,-50.0062 -55.65606,-3.4317 9.28672,-21.2075 -13.58263,-40.1397 -35.33155,5.8502 10.80007,-38.8614 -6.91963,-51.9635 -40.00161,-1.9142 15.54608,-46.0476 -5.95429,-38.7088 -30.03066,-9.1999 23.56358,-44.7465 -1.33631,-48.5822 -15.46106,-45.216 z"
       id="path3557-6"
       inkscape:connector-curvature="0"
       sodipodi:nodetypes="cccccccccccccccccccccccccc" />
    <path
       style="display:inline;fill:#ffffff;fill-rule:evenodd;stroke:none;stroke-width:1.07618773px;stroke-linecap:butt;stroke-linejoin:miter;stroke-opacity:1"
       d="m 1960.6177,3418.0593 c 48.1261,-33.0413 75.5394,-19.6048 74.7133,57.1988 22.9607,-82.9955 38.8942,-101.5577 48.344,-60.6654 30.3984,-35.1485 49.3847,-25.2892 64.4586,0 5.6184,-32.5235 17.6672,-19.3992 28.0947,-17.7837 3.4344,-7.3582 -8.3613,-25.6393 39.2938,-1.2825 3.0868,-9.7394 7.2451,-18.1266 35.1591,3.4666 7.2317,-39.5311 30.4341,2.1909 54.204,46.799 -14.8094,-54.8419 -8.6685,-62.5878 10.2547,-41.599 -8.6516,-22.5843 -13.8261,-40.067 19.0445,-1.7333 -11.2532,-41.6861 18.2696,-13.073 65.9236,46.7988 -23.8372,-44.2569 -87.0482,-118.8483 -45.4139,-112.664 -5.8062,-13.047 -26.5164,-24.4146 35.1591,-45.0656 -11.514,-8.8533 -46.6658,4.0841 -17.3429,-33.4016 3.9288,-4.3819 -9.2235,-7.0577 15.878,-18.5971 -14.8178,0.7851 -23.9051,-2.0194 -10.2549,-19.0663 -27.0478,0.9218 -16.9276,-17.003 2.93,-39.8656 -39.169,29.3262 -41.3245,18.6678 -42.4842,6.9331 -49.0902,39.9816 -51.9717,27.3936 -58.5985,19.0663 -23.9278,-0.312 -47.8557,4.723 -71.7836,-39.8657 -6.2663,27.7329 -18.8296,49.08 -71.7833,29.4659 23.2507,35.2811 -9.8264,12.8034 -35.1593,-1.7333 13.8728,44.075 -21.3342,15.1487 -65.9235,-27.7326 24.9698,48.671 -3.39,31.0899 -45.4141,-3.4667 15.8781,47.8146 -9.9807,70.9382 -71.7833,72.7984 29.5806,17.2473 46.8304,38.9524 16.1147,77.9981 34.6253,-11.4971 44.9535,-0.8179 20.5095,41.599 37.767,-34.8154 20.5958,15.6826 5.8599,62.3984 z"
       id="path4508-0"
       inkscape:connector-curvature="0"
       sodipodi:nodetypes="cccccccccccccccccccccccccccc" />
  </g>
  <g
     inkscape:groupmode="layer"
     id="layer1"
     inkscape:label="txt">
    <text
       id="text4178-6-5-9-0-7-0-4"
       style="font-style:normal;font-variant:normal;font-weight:normal;font-stretch:normal;line-height:0%;font-family:Lavi;-inkscape-font-specification:Lavi;text-align:center;letter-spacing:0px;word-spacing:0px;text-anchor:middle;opacity:0.63300003;fill:#ffffff;fill-opacity:1;stroke:none;filter:url(#filter5236-4-16)"
       xml:space="preserve"
       y="3129.8394"
       x="1318.7137"
       transform="matrix(0.6851492,-0.06612027,-0.09994133,0.78144216,149.5816,-965.35698)"><tspan
         y="3129.8394"
         x="1318.7137"
         style="font-style:normal;font-variant:normal;font-weight:normal;font-stretch:normal;font-size:40.67671585px;line-height:1.25;font-family:Fondamento;-inkscape-font-specification:Fondamento;fill:#ffffff;fill-opacity:1"
         sodipodi:role="line"
         id="tspan4293-1-6-3-5-0-2">Tomatoes</tspan></text>
    <text
       id="text4178-6-5-9-0-7-0-4-7"
       style="font-style:normal;font-variant:normal;font-weight:normal;font-stretch:normal;line-height:0%;font-family:Lavi;-inkscape-font-specification:Lavi;text-align:center;letter-spacing:0px;word-spacing:0px;text-anchor:middle;opacity:0.63300003;fill:#ffffff;fill-opacity:1;stroke:none;filter:url(#filter5236-4-16-3)"
       xml:space="preserve"
       y="3129.8394"
       x="1318.7137"
       transform="matrix(0.58543203,0.08325699,-0.38986142,0.70644422,2171.8616,-965.83592)"><tspan
         y="3129.8394"
         x="1318.7137"
         style="font-style:normal;font-variant:normal;font-weight:normal;font-stretch:normal;font-size:40.67671585px;line-height:1.25;font-family:Fondamento;-inkscape-font-specification:Fondamento;fill:#ffffff;fill-opacity:1"
         sodipodi:role="line"
         id="tspan4293-1-6-3-5-0-2-5">Aubergines</tspan></text>
    <text
       xml:space="preserve"
       style="font-style:normal;font-variant:normal;font-weight:normal;font-stretch:normal;line-height:0%;font-family:Lavi;-inkscape-font-specification:Lavi;text-align:center;letter-spacing:0px;word-spacing:0px;text-anchor:middle;fill:#000000;fill-opacity:1;stroke:none"
       x="1587.2894"
       y="1795.3295"
       id="text4246-3-2"><tspan
         sodipodi:role="line"
         style="font-size:45px;line-height:1.25"
         x="1595.1996"
         y="1795.3295"
         id="tspan8898">Yung mga </tspan><tspan
         sodipodi:role="line"
         style="font-size:45px;line-height:1.25"
         x="1587.2894"
         y="1851.5795"
         id="tspan9075">langgam,</tspan><tspan
         sodipodi:role="line"
         style="font-size:45px;line-height:1.25"
         x="1595.1996"
         y="1907.8295"
         id="tspan3858">kung anu-ano </tspan><tspan
         sodipodi:role="line"
         style="font-size:45px;line-height:1.25"
         x="1595.1996"
         y="1964.0795"
         id="tspan8878">na rin ang </tspan><tspan
         sodipodi:role="line"
         style="font-size:45px;line-height:1.25"
         x="1587.2894"
         y="2020.3295"
         id="tspan9079">naiisip.</tspan></text>
    <text
       xml:space="preserve"
       style="font-style:normal;font-variant:normal;font-weight:normal;font-stretch:normal;line-height:0%;font-family:Lavi;-inkscape-font-specification:Lavi;text-align:center;letter-spacing:0px;word-spacing:0px;text-anchor:middle;fill:#000000;fill-opacity:1;stroke:none"
       x="1888.3112"
       y="1847.9221"
       id="text4246-3-2-9"><tspan
         sodipodi:role="line"
         style="font-size:45px;line-height:1.25"
         x="1888.3112"
         y="1847.9221"
         id="tspan4259-0">So...</tspan></text>
    <text
       xml:space="preserve"
       style="font-style:normal;font-variant:normal;font-weight:normal;font-stretch:normal;line-height:0%;font-family:Lavi;-inkscape-font-specification:Lavi;text-align:center;letter-spacing:0px;word-spacing:0px;text-anchor:middle;fill:#000000;fill-opacity:1;stroke:none"
       x="2048.4514"
       y="1971.9214"
       id="text4246-3-2-9-6"><tspan
         sodipodi:role="line"
         style="font-size:45px;line-height:1.25"
         x="2048.4514"
         y="1975.4092"
         id="tspan3888" /><tspan
         sodipodi:role="line"
         style="font-size:45px;line-height:1.25"
         x="2048.4514"
         y="2013.1256"
         id="tspan9085">baka hindi tayo</tspan><tspan
         sodipodi:role="line"
         style="font-size:45px;line-height:1.25"
         x="2056.3616"
         y="2069.3757"
         id="tspan9089">dapat basta-basta </tspan><tspan
         sodipodi:role="line"
         style="font-size:45px;line-height:1.25"
         x="2056.3616"
         y="2125.6257"
         id="tspan9115">baon ng baon </tspan><tspan
         sodipodi:role="line"
         style="font-size:45px;line-height:1.25"
         x="2048.4514"
         y="2181.8757"
         id="tspan9117">ng basura natin</tspan><tspan
         sodipodi:role="line"
         style="font-size:45px;line-height:1.25"
         x="2048.4514"
         y="2238.1257"
         id="tspan8933"> at nagkaka-</tspan><tspan
         sodipodi:role="line"
         style="font-size:45px;line-height:1.25"
         x="2056.3616"
         y="2294.3757"
         id="tspan9119">problema tayo </tspan><tspan
         sodipodi:role="line"
         style="font-size:45px;line-height:1.25"
         x="2048.4514"
         y="2350.6257"
         id="tspan8921">sa polusyon</tspan><tspan
         sodipodi:role="line"
         style="font-size:45px;line-height:1.25"
         x="2048.4514"
         y="2406.8757"
         id="tspan9125">diba?</tspan></text>
    <text
       xml:space="preserve"
       style="font-style:normal;font-variant:normal;font-weight:normal;font-stretch:normal;line-height:0%;font-family:Lavi;-inkscape-font-specification:Lavi;text-align:center;letter-spacing:0px;word-spacing:0px;text-anchor:middle;fill:#000000;fill-opacity:1;stroke:none;stroke-width:2.79999995;stroke-miterlimit:4;stroke-dasharray:none"
       x="284.7373"
       y="2677.4761"
       id="text4246-3-2-9-6-6"><tspan
         sodipodi:role="line"
         style="font-size:45px;line-height:1.25;stroke-width:2.79999995;stroke-miterlimit:4;stroke-dasharray:none"
         x="292.64746"
         y="2677.4761"
         id="tspan8947">Hoy, </tspan><tspan
         sodipodi:role="line"
         style="font-size:45px;line-height:1.25;stroke-width:2.79999995;stroke-miterlimit:4;stroke-dasharray:none"
         x="284.7373"
         y="2733.7261"
         id="tspan8992">Little Miss</tspan><tspan
         sodipodi:role="line"
         style="font-size:45px;line-height:1.25;stroke-width:2.79999995;stroke-miterlimit:4;stroke-dasharray:none"
         x="284.7373"
         y="2789.9761"
         id="tspan8939"><tspan
           style="stroke:#000000;stroke-width:2.79999995;stroke-miterlimit:4;stroke-dasharray:none;stroke-opacity:1"
           id="tspan4217">&quot;Madiwarang</tspan></tspan><tspan
         sodipodi:role="line"
         style="font-size:45px;line-height:1.25;stroke-width:2.79999995;stroke-miterlimit:4;stroke-dasharray:none"
         x="284.7373"
         y="2846.2261"
         id="tspan8984"><tspan
           style="stroke:#000000;stroke-width:2.79999995;stroke-miterlimit:4;stroke-dasharray:none;stroke-opacity:1"
           id="tspan8986">- Palpak -</tspan></tspan><tspan
         sodipodi:role="line"
         style="font-size:45px;line-height:1.25;stroke-width:2.79999995;stroke-miterlimit:4;stroke-dasharray:none"
         x="284.7373"
         y="2902.4761"
         id="tspan8988"><tspan
   style="stroke:#000000;stroke-opacity:1"
   id="tspan9013">POTIONS</tspan>&quot;,</tspan><tspan
         sodipodi:role="line"
         style="font-size:45px;line-height:1.25;stroke-width:2.79999995;stroke-miterlimit:4;stroke-dasharray:none"
         x="292.64746"
         y="2958.7261"
         id="tspan4378"> </tspan></text>
    <text
       xml:space="preserve"
       style="font-style:normal;font-variant:normal;font-weight:normal;font-stretch:normal;line-height:0%;font-family:Lavi;-inkscape-font-specification:Lavi;text-align:center;letter-spacing:0px;word-spacing:0px;text-anchor:middle;fill:#000000;fill-opacity:1;stroke:none"
       x="429.17557"
       y="2982.0571"
       id="text4246-3-2-9-6-6-7"><tspan
         sodipodi:role="line"
         style="font-size:45px;line-height:1.25"
         x="429.17557"
         y="2982.0571"
         id="tspan4574">naka-</tspan><tspan
         sodipodi:role="line"
         style="font-size:45px;line-height:1.25"
         x="437.08572"
         y="3038.3071"
         id="tspan9015">Hippiah </tspan><tspan
         sodipodi:role="line"
         style="font-size:45px;line-height:1.25"
         x="437.08572"
         y="3094.5571"
         id="tspan8994">costume </tspan><tspan
         sodipodi:role="line"
         style="font-size:45px;line-height:1.25"
         x="429.17557"
         y="3150.8071"
         id="tspan8956">ka lang</tspan><tspan
         sodipodi:role="line"
         style="font-size:45px;line-height:1.25"
         x="437.08572"
         y="3207.0571"
         id="tspan4378-5">Wala ka </tspan><tspan
         sodipodi:role="line"
         style="font-size:45px;line-height:1.25"
         x="437.08572"
         y="3263.3071"
         id="tspan8996">sa Hippiah </tspan></text>
    <text
       xml:space="preserve"
       style="font-style:normal;font-variant:normal;font-weight:normal;font-stretch:normal;line-height:1;font-family:Lavi;-inkscape-font-specification:Lavi;text-align:center;letter-spacing:0px;word-spacing:0px;text-anchor:middle;fill:#000000;fill-opacity:1;stroke:none"
       x="1786.2966"
       y="2650.4556"
       id="text4246-3-2-9-6-6-0"><tspan
         sodipodi:role="line"
         style="font-size:45px;line-height:1"
         x="1786.2966"
         y="2650.4556"
         id="tspan4414">Sa Chaosah,</tspan><tspan
         sodipodi:role="line"
         style="font-size:45px;line-height:1"
         x="1786.2966"
         y="2669.364"
         id="tspan3913" /><tspan
         sodipodi:role="line"
         style="font-size:45px;line-height:1"
         x="1786.2966"
         y="2707.4556"
         id="tspan8960">ang mga palpak</tspan><tspan
         sodipodi:role="line"
         style="font-size:45px;line-height:1"
         x="1794.2068"
         y="2752.4556"
         id="tspan4378-7">dapat ibinabaon! </tspan></text>
    <text
       xml:space="preserve"
       style="font-style:normal;font-variant:normal;font-weight:normal;font-stretch:normal;line-height:1;font-family:Lavi;-inkscape-font-specification:Lavi;text-align:center;letter-spacing:0px;word-spacing:0px;text-anchor:middle;fill:#000000;fill-opacity:1;stroke:none;stroke-width:2.79999995;stroke-miterlimit:4;stroke-dasharray:none"
       x="2156.2756"
       y="2707.0388"
       id="text4246-3-2-9-6-6-0-5"><tspan
         sodipodi:role="line"
         style="font-size:45px;line-height:1;stroke-width:2.79999995;stroke-miterlimit:4;stroke-dasharray:none"
         x="2164.1858"
         y="2707.0388"
         id="tspan4414-3">tradition na yan </tspan><tspan
         sodipodi:role="line"
         style="font-size:45px;line-height:1;stroke-width:2.79999995;stroke-miterlimit:4;stroke-dasharray:none"
         x="2164.1858"
         y="2752.0388"
         id="tspan8964">sa simula pa lang </tspan><tspan
         sodipodi:role="line"
         style="font-size:45px;line-height:1;stroke-width:2.79999995;stroke-miterlimit:4;stroke-dasharray:none"
         x="2156.2756"
         y="2797.0388"
         id="tspan8980">ng unang panahon!</tspan><tspan
         sodipodi:role="line"
         style="font-size:45px;line-height:1;stroke-width:2.79999995;stroke-miterlimit:4;stroke-dasharray:none"
         x="2156.2756"
         y="2815.9473"
         id="tspan8962" /><tspan
         sodipodi:role="line"
         style="font-size:45px;line-height:1;stroke-width:2.79999995;stroke-miterlimit:4;stroke-dasharray:none"
         x="2156.2756"
         y="2827.9473"
         id="tspan3929" /><tspan
         sodipodi:role="line"
         style="font-size:45px;line-height:1;stroke-width:2.79999995;stroke-miterlimit:4;stroke-dasharray:none"
         x="2164.1858"
         y="2866.0388"
         id="tspan3931">Wala akong </tspan><tspan
         sodipodi:role="line"
         style="font-size:45px;line-height:1;stroke-width:2.79999995;stroke-miterlimit:4;stroke-dasharray:none"
         x="2164.1858"
         y="2911.0388"
         id="tspan9021">paki sa kung </tspan><tspan
         sodipodi:role="line"
         style="font-size:45px;line-height:1;stroke-width:2.79999995;stroke-miterlimit:4;stroke-dasharray:none"
         x="2164.1858"
         y="2956.0388"
         id="tspan8966">anumang </tspan><tspan
         sodipodi:role="line"
         style="font-size:45px;line-height:1;stroke-width:2.79999995;stroke-miterlimit:4;stroke-dasharray:none"
         x="2156.2756"
         y="3001.0388"
         id="tspan9031">kuro ng</tspan><tspan
         sodipodi:role="line"
         style="font-size:45px;line-height:1;fill:#333333;stroke:#333333;stroke-width:2.79999995;stroke-miterlimit:4;stroke-dasharray:none;stroke-opacity:1"
         x="2164.1858"
         y="3046.0388"
         id="tspan9023">Lelang na </tspan><tspan
         sodipodi:role="line"
         style="font-size:45px;line-height:1;fill:#333333;stroke-width:2.79999995;stroke-miterlimit:4;stroke-dasharray:none"
         x="2164.1858"
         y="3091.0388"
         id="tspan9027"><tspan
           style="fill:#333333;stroke:#333333;stroke-opacity:1"
           id="tspan9043">Kalikasan</tspan></tspan><tspan
         sodipodi:role="line"
         style="font-size:45px;line-height:1;stroke-width:2.79999995;stroke-miterlimit:4;stroke-dasharray:none"
         x="2156.2756"
         y="3136.0388"
         id="tspan9029">na yan!</tspan><tspan
         sodipodi:role="line"
         style="font-size:45px;line-height:1;stroke-width:2.79999995;stroke-miterlimit:4;stroke-dasharray:none"
         x="2164.1858"
         y="3181.0388"
         id="tspan4378-7-6"> </tspan></text>
    <text
       xml:space="preserve"
       style="font-style:normal;font-variant:normal;font-weight:normal;font-stretch:normal;line-height:1;font-family:Lavi;-inkscape-font-specification:Lavi;text-align:center;letter-spacing:0px;word-spacing:0px;text-anchor:middle;fill:#000000;fill-opacity:1;stroke:none;stroke-width:2.79999995;stroke-miterlimit:4;stroke-dasharray:none"
       x="2443.9746"
       y="3216.6956"
       id="text4246-3-2-9-6-6-0-5-1"
       transform="skewX(-5.0891813)"><tspan
         sodipodi:role="line"
         style="font-size:45px;line-height:1;stroke-width:2.79999995;stroke-miterlimit:4;stroke-dasharray:none"
         x="2451.8848"
         y="3216.6956"
         id="tspan3939">Kaya </tspan><tspan
         sodipodi:role="line"
         style="font-size:45px;line-height:1;stroke-width:2.79999995;stroke-miterlimit:4;stroke-dasharray:none"
         x="2451.8848"
         y="3261.6956"
         id="tspan9057">mag-<tspan
   style="line-height:1;stroke:#000000;stroke-opacity:1"
   id="tspan9049">HUKAY</tspan></tspan><tspan
         sodipodi:role="line"
         style="font-size:45px;line-height:1;stroke-width:2.79999995;stroke-miterlimit:4;stroke-dasharray:none"
         x="2451.8848"
         y="3306.6956"
         id="tspan9047">KA NA LANG </tspan><tspan
         sodipodi:role="line"
         style="font-size:45px;line-height:1;stroke-width:2.79999995;stroke-miterlimit:4;stroke-dasharray:none"
         x="2451.8848"
         y="3351.6956"
         id="tspan9055">JAN!! </tspan><tspan
         sodipodi:role="line"
         style="font-size:45px;line-height:1;stroke-width:2.79999995;stroke-miterlimit:4;stroke-dasharray:none"
         x="2451.8848"
         y="3396.6956"
         id="tspan4378-7-6-4"> </tspan></text>
    <path
       style="color:#000000;display:inline;overflow:visible;visibility:visible;opacity:1;fill:#ffffff;fill-opacity:1;fill-rule:nonzero;stroke:none;stroke-width:0.93031126px;marker:none;enable-background:accumulate"
       d="m 207.81912,181.91591 c 17.7166,-38.18587 186.8308,-60.00694 240.2706,1.31758 44.6054,51.18669 50.10044,162.37062 16.9629,192.74994 -4.91254,4.50364 -18.20918,14.48488 -20.61564,11.64263 -6.17178,-7.28941 -38.21573,-9.22929 -43.16234,-0.83762 4.43772,1.48631 14.76452,5.01235 14.65257,8.67162 -53.28087,10.24666 -130.68226,8.47848 -168.18989,-0.39637 -50.66251,-11.98749 -56.584,-43.23308 -65.74052,-121.26709 -3.73723,-31.84871 8.10552,-53.69472 25.82232,-91.88069 z"
       id="path4040-4-8"
       inkscape:connector-curvature="0"
       sodipodi:nodetypes="zsssccssz" />
    <path
       style="color:#000000;display:inline;overflow:visible;visibility:visible;fill:#ffffff;fill-opacity:1;fill-rule:nonzero;stroke:none;stroke-width:1.11206853px;marker:none;enable-background:accumulate"
       d="m 976.3742,336.54718 c 5.1707,-131.86197 56.8485,-225.71242 189.1315,-193.60694 70.8578,17.1973 151.3667,30.34085 144.6153,223.55443 -6.7514,193.21337 -122.5273,181.89652 -146.4713,185.1122 -23.9441,3.21587 -148.3128,-23.89568 -169.5812,-90.91066 -13.3136,-41.9496 -18.4008,-83.26166 -17.6943,-124.14903 z"
       id="path4546-6-2"
       inkscape:connector-curvature="0"
       sodipodi:nodetypes="cssssc" />
    <path
       style="color:#000000;display:inline;overflow:visible;visibility:visible;fill:#ffffff;fill-opacity:1;fill-rule:nonzero;stroke:none;stroke-width:1.11206853px;marker:none;filter:url(#filter8728);enable-background:accumulate"
       d="m 1181.727,605.2234 c 5.1707,-131.86198 56.8485,-225.71243 189.1315,-193.60695 70.8578,17.1973 151.3667,30.34085 144.6153,223.55444 -6.7514,193.21337 -122.5273,181.89652 -146.4713,185.1122 -23.9441,3.21587 -148.3128,-23.89568 -169.5812,-90.91066 -13.3136,-41.9496 -18.4008,-83.26166 -17.6943,-124.14903 z"
       id="path4546-6-2-5"
       inkscape:connector-curvature="0"
       sodipodi:nodetypes="cssssc"
       clip-path="none"
       mask="url(#mask8812)" />
    <path
       style="color:#000000;display:inline;overflow:visible;visibility:visible;fill:#ffffff;fill-opacity:1;fill-rule:nonzero;stroke:none;stroke-width:1.92186224px;marker:none;enable-background:accumulate"
       d="m 1382.4511,678.37174 c 17.2572,9.71064 23.7353,28.04477 15.6688,36.39095 -17.0489,17.6403 -25.8993,56.22446 0.1867,75.9647 15.2676,11.55394 56.3946,42.41628 17.9784,61.24449 68.1159,-10.80879 -3.0455,-67.64611 -10.2045,-85.17529 -19.8756,-33.6194 30.583,-27.4695 32.0918,-71.76393 0.5708,-16.7552 -15.9774,-51.14738 -36.1283,-58.11275 88.8074,17.15755 -81.8202,-29.01906 -19.5919,41.45183 z"
       id="path5058-8"
       inkscape:connector-curvature="0"
       sodipodi:nodetypes="cssccscc" />
    <text
       xml:space="preserve"
       style="font-style:normal;font-variant:normal;font-weight:normal;font-stretch:normal;line-height:0%;font-family:Lavi;-inkscape-font-specification:Lavi;text-align:center;letter-spacing:0px;word-spacing:0px;text-anchor:middle;fill:#000000;fill-opacity:1;stroke:none"
       x="314.75464"
       y="208.88799"
       id="text4246-6"><tspan
         sodipodi:role="line"
         style="font-size:45px;line-height:1.25"
         x="314.75464"
         y="208.88799"
         id="tspan4252-1">Uhm...</tspan></text>
    <text
       xml:space="preserve"
       style="font-style:normal;font-variant:normal;font-weight:normal;font-stretch:normal;line-height:1;font-family:Lavi;-inkscape-font-specification:Lavi;text-align:center;letter-spacing:0px;word-spacing:0px;text-anchor:middle;fill:#000000;fill-opacity:1;stroke:none"
       x="331.65137"
       y="277.64432"
       id="text4246-3-3"><tspan
         sodipodi:role="line"
         style="font-size:45px;line-height:1"
         x="339.56152"
         y="277.64432"
         id="tspan4164-9">hindi </tspan><tspan
         sodipodi:role="line"
         style="font-size:45px;line-height:1"
         x="331.65137"
         y="322.64432"
         id="tspan4919">naman ako,</tspan><tspan
         sodipodi:role="line"
         style="font-size:45px;line-height:1"
         x="331.65137"
         y="367.64432"
         id="tspan3831-4">expert...</tspan></text>
    <text
       xml:space="preserve"
       style="font-style:normal;font-variant:normal;font-weight:normal;font-stretch:normal;line-height:1;font-family:Lavi;-inkscape-font-specification:Lavi;text-align:center;letter-spacing:0px;word-spacing:0px;text-anchor:middle;fill:#000000;fill-opacity:1;stroke:none"
       x="1146.3591"
       y="231.63055"
       id="text4246-3-7-61"><tspan
         sodipodi:role="line"
         style="font-size:45px;line-height:1"
         x="1154.2693"
         y="231.63055"
         id="tspan3840-0">pero naman </tspan><tspan
         sodipodi:role="line"
         style="font-size:45px;line-height:1"
         x="1154.2693"
         y="276.63055"
         id="tspan4900">this year, </tspan><tspan
         sodipodi:role="line"
         style="font-size:45px;line-height:1"
         x="1154.2693"
         y="321.63055"
         id="tspan4915">ang wi-weirdo </tspan><tspan
         sodipodi:role="line"
         style="font-size:45px;line-height:1"
         x="1146.3591"
         y="366.63055"
         id="tspan4902">na talaga ng</tspan><tspan
         sodipodi:role="line"
         style="font-size:45px;line-height:1"
         x="1154.2693"
         y="411.63055"
         id="tspan4885">nangyayari </tspan><tspan
         sodipodi:role="line"
         style="font-size:45px;line-height:1"
         x="1146.3591"
         y="456.63055"
         id="tspan4917">sa mga tanim</tspan><tspan
         sodipodi:role="line"
         style="font-size:45px;line-height:1"
         x="1146.3591"
         y="501.63055"
         id="tspan4923"> natin</tspan></text>
    <text
       xml:space="preserve"
       style="font-style:normal;font-variant:normal;font-weight:normal;font-stretch:normal;line-height:1;font-family:Lavi;-inkscape-font-specification:Lavi;text-align:center;letter-spacing:0px;word-spacing:0px;text-anchor:middle;opacity:1;fill:#000000;fill-opacity:1;stroke:none"
       x="1345.8804"
       y="518.01666"
       id="text4246-3-7-6-8"><tspan
         sodipodi:role="line"
         style="font-size:45px;line-height:1"
         x="1353.7905"
         y="518.01666"
         id="tspan3849-1">pati </tspan><tspan
         sodipodi:role="line"
         style="font-size:45px;line-height:1"
         x="1353.7905"
         y="563.01666"
         id="tspan8892">nga din </tspan><tspan
         sodipodi:role="line"
         style="font-size:45px;line-height:1"
         x="1353.7905"
         y="608.01666"
         id="tspan4909">yung mga </tspan><tspan
         sodipodi:role="line"
         style="font-size:45px;line-height:1"
         x="1353.7905"
         y="653.01666"
         id="tspan4911">halaman </tspan><tspan
         sodipodi:role="line"
         style="font-size:45px;line-height:1"
         x="1353.7905"
         y="698.01666"
         id="tspan4921">natin sa </tspan><tspan
         sodipodi:role="line"
         style="font-size:45px;line-height:1"
         x="1345.8804"
         y="743.01666"
         id="tspan4913">bahay.</tspan></text>
    <flowRoot
       xml:space="preserve"
       id="flowRoot8880"
       style="fill:black;fill-opacity:1;stroke:none;font-family:sans-serif;font-style:normal;font-weight:normal;font-size:40px;line-height:1.25;letter-spacing:0px;word-spacing:0px"><flowRegion
         id="flowRegion8882"><rect
           id="rect8884"
           width="301.30423"
           height="187.47818"
           x="3133.564"
           y="2579.0005" /></flowRegion><flowPara
         id="flowPara8886" /></flowRoot>    <text
       xml:space="preserve"
       style="font-style:normal;font-weight:normal;font-size:40px;line-height:1.25;font-family:sans-serif;letter-spacing:0px;word-spacing:0px;fill:#000000;fill-opacity:1;stroke:none"
       x="3079.9988"
       y="3255.261"
       id="text8890"><tspan
         sodipodi:role="line"
         id="tspan8888"
         x="3079.9988"
         y="3255.261" /></text>
    <text
       xml:space="preserve"
       style="font-style:normal;font-weight:normal;font-size:40px;line-height:1.25;font-family:sans-serif;letter-spacing:0px;word-spacing:0px;fill:#000000;fill-opacity:1;stroke:none"
       x="501.86115"
       y="3150.2769"
       id="text9019"><tspan
         sodipodi:role="line"
         id="tspan9017"
         x="501.86115"
         y="3150.2769">,</tspan></text>
    <flowRoot
       xml:space="preserve"
       id="flowRoot9091"
       style="fill:black;fill-opacity:1;stroke:none;font-family:sans-serif;font-style:normal;font-weight:normal;font-size:40px;line-height:1.25;letter-spacing:0px;word-spacing:0px"><flowRegion
         id="flowRegion9093"><rect
           id="rect9095"
           width="312.47958"
           height="130.19983"
           x="1931.692"
           y="2165.4927" /></flowRegion><flowPara
         id="flowPara9097" /></flowRoot>    <flowRoot
       xml:space="preserve"
       id="flowRoot9127"
       style="fill:black;fill-opacity:1;stroke:none;font-family:sans-serif;font-style:normal;font-weight:normal;font-size:40px;line-height:1.25;letter-spacing:0px;word-spacing:0px"><flowRegion
         id="flowRegion9129"><rect
           id="rect9131"
           width="1312.3473"
           height="950.78223"
           x="2269.8252"
           y="1634.9138" /></flowRegion><flowPara
         id="flowPara9133" /></flowRoot>  </g>
</svg>
