<?xml version="1.0" encoding="UTF-8" standalone="no"?>
<!-- Created with Inkscape (http://www.inkscape.org/) -->

<svg
   xmlns:dc="http://purl.org/dc/elements/1.1/"
   xmlns:cc="http://creativecommons.org/ns#"
   xmlns:rdf="http://www.w3.org/1999/02/22-rdf-syntax-ns#"
   xmlns:svg="http://www.w3.org/2000/svg"
   xmlns="http://www.w3.org/2000/svg"
   xmlns:xlink="http://www.w3.org/1999/xlink"
   xmlns:sodipodi="http://sodipodi.sourceforge.net/DTD/sodipodi-0.dtd"
   xmlns:inkscape="http://www.inkscape.org/namespaces/inkscape"
   id="svg2"
   version="1.1"
   inkscape:version="0.92.2 (5c3e80d, 2017-08-06)"
   width="2481"
   height="3503"
   sodipodi:docname="Pepper-and-Carrot_by-David-Revoy_E19P04.svg"
   inkscape:export-filename="E:\Users\jamesmichael\Downloads\Compressed\eps\peppercarrot_ep19_translation-master\peppercarrot_ep19_translation-master\ph\Pepper-and-Carrot_by-David-Revoy_E19P04.png"
   inkscape:export-xdpi="98.181801"
   inkscape:export-ydpi="98.181801">
  <metadata
     id="metadata8">
    <rdf:RDF>
      <cc:Work
         rdf:about="">
        <dc:format>image/svg+xml</dc:format>
        <dc:type
           rdf:resource="http://purl.org/dc/dcmitype/StillImage" />
        <dc:title />
      </cc:Work>
    </rdf:RDF>
  </metadata>
  <defs
     id="defs6">
    <linearGradient
       id="linearGradient3019-7-6"
       y2="333.89001"
       gradientUnits="userSpaceOnUse"
       x2="490.53"
       gradientTransform="matrix(0.13978359,0.01480673,8.840959e-4,0.14197857,538.43345,1280.1197)"
       y1="489.14001"
       x1="382.34">
      <stop
         id="stop3015-5-2"
         style="stop-color:#000000;stop-opacity:.82639"
         offset="0" />
      <stop
         id="stop3017-3-9"
         style="stop-color:#000000"
         offset="1" />
    </linearGradient>
    <linearGradient
       id="linearGradient3019-7-6-9"
       y2="333.89001"
       gradientUnits="userSpaceOnUse"
       x2="490.53"
       gradientTransform="matrix(0.13978359,0.01480673,8.840959e-4,0.14197857,1315.408,1199.8091)"
       y1="489.14001"
       x1="382.34">
      <stop
         id="stop3015-5-2-3"
         style="stop-color:#000000;stop-opacity:.82639"
         offset="0" />
      <stop
         id="stop3017-3-9-6"
         style="stop-color:#000000"
         offset="1" />
    </linearGradient>
    <linearGradient
       inkscape:collect="always"
       xlink:href="#linearGradient3019-0"
       id="linearGradient4292"
       gradientUnits="userSpaceOnUse"
       gradientTransform="matrix(0.16056651,0.03689458,-0.02716161,0.15798833,351.74321,1524.3102)"
       x1="382.34"
       y1="489.14001"
       x2="490.53"
       y2="333.89001" />
    <linearGradient
       id="linearGradient3019-0"
       y2="333.89001"
       gradientUnits="userSpaceOnUse"
       x2="490.53"
       gradientTransform="matrix(2.0779,0,0,2.0779,-518.08,-281.8)"
       y1="489.14001"
       x1="382.34">
      <stop
         id="stop3015-93"
         style="stop-color:#000000;stop-opacity:.82639"
         offset="0" />
      <stop
         id="stop3017-6"
         style="stop-color:#000000"
         offset="1" />
    </linearGradient>
    <linearGradient
       inkscape:collect="always"
       xlink:href="#linearGradient3019-0"
       id="linearGradient4292-6"
       gradientUnits="userSpaceOnUse"
       gradientTransform="matrix(0.16056651,0.03689458,-0.02716161,0.15798833,1400.1385,1535.2641)"
       x1="382.34"
       y1="489.14001"
       x2="490.53"
       y2="333.89001" />
    <linearGradient
       inkscape:collect="always"
       xlink:href="#linearGradient3019-0"
       id="linearGradient4292-6-8"
       gradientUnits="userSpaceOnUse"
       gradientTransform="matrix(0.1032401,0.02706187,-0.05394312,0.11588314,393.53169,1903.1914)"
       x1="382.34"
       y1="489.14001"
       x2="490.53"
       y2="333.89001" />
    <linearGradient
       id="linearGradient3793"
       y2="490.82999"
       gradientUnits="userSpaceOnUse"
       y1="490.82999"
       gradientTransform="matrix(0.13502768,0.05920791,-0.08244705,0.1059956,450.30002,2227.6516)"
       x2="881.5"
       x1="598.60999"
       inkscape:collect="always">
      <stop
         id="stop3015-9"
         style="stop-color:#000000;stop-opacity:.82639"
         offset="0" />
      <stop
         id="stop3017-0"
         style="stop-color:#000000"
         offset="1" />
    </linearGradient>
    <linearGradient
       id="linearGradient3793-0"
       y2="490.82999"
       gradientUnits="userSpaceOnUse"
       y1="490.82999"
       gradientTransform="matrix(0.15048837,0.01355843,-0.01046019,0.12660137,57.313747,1312.3246)"
       x2="881.5"
       x1="598.60999"
       inkscape:collect="always">
      <stop
         id="stop3015-9-2"
         style="stop-color:#000000;stop-opacity:.82639"
         offset="0" />
      <stop
         id="stop3017-0-3"
         style="stop-color:#000000"
         offset="1" />
    </linearGradient>
    <filter
       inkscape:collect="always"
       style="color-interpolation-filters:sRGB"
       id="filter4253"
       x="-0.015664652"
       width="1.0313293"
       y="-0.023059671"
       height="1.0461193">
      <feGaussianBlur
         inkscape:collect="always"
         stdDeviation="1.3609032"
         id="feGaussianBlur4255" />
    </filter>
  </defs>
  <sodipodi:namedview
     pagecolor="#ffffff"
     bordercolor="#666666"
     borderopacity="1"
     objecttolerance="10"
     gridtolerance="10"
     guidetolerance="10"
     inkscape:pageopacity="0"
     inkscape:pageshadow="2"
     inkscape:window-width="1360"
     inkscape:window-height="705"
     id="namedview4"
     showgrid="false"
     inkscape:zoom="0.39"
     inkscape:cx="1313.8929"
     inkscape:cy="1725.6462"
     inkscape:window-x="-8"
     inkscape:window-y="-8"
     inkscape:window-maximized="1"
     inkscape:current-layer="layer4" />
  <g
     inkscape:groupmode="layer"
     id="layer2"
     inkscape:label="artwork"
     sodipodi:insensitive="true">
    <image
       sodipodi:absref="E:\Users\jamesmichael\Downloads\Compressed\eps\peppercarrot_ep19_translation-master\peppercarrot_ep19_translation-master\ph\../gfx_Pepper-and-Carrot_by-David-Revoy_E19P04.png"
       xlink:href="../gfx_Pepper-and-Carrot_by-David-Revoy_E19P04.png"
       width="2481"
       height="3503"
       id="image10"
       x="0"
       y="0" />
  </g>
  <g
     inkscape:groupmode="layer"
     id="layer4"
     inkscape:label="translatornotes">
    <path
       style="color:#000000;clip-rule:nonzero;display:inline;overflow:visible;visibility:visible;opacity:0.481;isolation:auto;mix-blend-mode:normal;color-interpolation:sRGB;color-interpolation-filters:linearRGB;solid-color:#000000;solid-opacity:1;fill:#ffe680;fill-opacity:1;fill-rule:nonzero;stroke:#565656;stroke-width:1.20000005;stroke-linecap:butt;stroke-linejoin:miter;stroke-miterlimit:4;stroke-dasharray:none;stroke-dashoffset:0;stroke-opacity:1;marker:none;color-rendering:auto;image-rendering:auto;shape-rendering:auto;text-rendering:auto;enable-background:accumulate"
       d="m 2772.5631,2906.2132 0,-189.0352 -203.8301,0 0,90.9805 -10,0 0,-15.6308 -30.9824,26.9824 30.9824,26.9804 0,-16.6171 10,0 0,76.3398 203.8301,0 z"
       id="rect4191-6"
       inkscape:connector-curvature="0" />
    <flowRoot
       xml:space="preserve"
       id="flowRoot4212-7"
       style="font-style:normal;font-variant:normal;font-weight:normal;font-stretch:normal;line-height:0.01%;font-family:Lavi;-inkscape-font-specification:'Lavi, Normal';text-align:center;letter-spacing:0px;word-spacing:0px;writing-mode:lr-tb;text-anchor:middle;display:inline;opacity:0.481;fill:#000000;fill-opacity:1;stroke:none;stroke-width:1px;stroke-linecap:butt;stroke-linejoin:miter;stroke-opacity:1"
       transform="translate(2794.2686,1707.8752)"><flowRegion
         id="flowRegion4214-5"><rect
           id="rect4216-3"
           width="291.95547"
           height="247.52747"
           x="-275.14545"
           y="1061.6674" /></flowRegion><flowPara
         id="flowPara4204"
         style="font-size:25.3241539px;line-height:1.25">Diary label</flowPara><flowPara
         id="flowPara4206"
         style="font-size:25.3241539px;line-height:1.25">on</flowPara><flowPara
         id="flowPara4211"
         style="font-size:25.3241539px;line-height:1.25">book</flowPara></flowRoot>    <text
       id="text4178-6-5-9-0-7-0-4"
       style="font-style:normal;font-variant:normal;font-weight:normal;font-stretch:normal;line-height:0%;font-family:Lavi;-inkscape-font-specification:Lavi;text-align:center;letter-spacing:0px;word-spacing:0px;text-anchor:middle;opacity:1;fill:#ffffff;fill-opacity:1;stroke:none;filter:url(#filter4253);"
       xml:space="preserve"
       y="3129.8394"
       x="1318.7137"
       transform="matrix(0.38838783,0.02692291,-0.13738591,0.51317258,1065.7515,1109.4317)"><tspan
         y="3129.8394"
         x="1318.7137"
         style="font-style:normal;font-variant:normal;font-weight:normal;font-stretch:normal;font-size:40.67671585px;line-height:1.25;font-family:Fondamento;-inkscape-font-specification:Fondamento;fill:#ffffff;fill-opacity:1;"
         sodipodi:role="line"
         id="tspan4293-1-6-3-5-0-2">Cayenne's</tspan><tspan
         y="3180.6853"
         x="1318.7137"
         style="font-style:normal;font-variant:normal;font-weight:normal;font-stretch:normal;font-size:40.67671585px;line-height:1.25;font-family:Fondamento;-inkscape-font-specification:Fondamento;fill:#ffffff;fill-opacity:1;"
         sodipodi:role="line"
         id="tspan3817">Private</tspan><tspan
         y="3231.5312"
         x="1318.7137"
         style="font-style:normal;font-variant:normal;font-weight:normal;font-stretch:normal;font-size:40.67671585px;line-height:1.25;font-family:Fondamento;-inkscape-font-specification:Fondamento;fill:#ffffff;fill-opacity:1;"
         sodipodi:role="line"
         id="tspan3807">Journal</tspan><tspan
         y="3282.377"
         x="1323.6792"
         style="font-style:normal;font-variant:normal;font-weight:normal;font-stretch:normal;font-size:40.67671585px;line-height:1.25;font-family:Fondamento;-inkscape-font-specification:Fondamento;fill:#ffffff;fill-opacity:1;"
         sodipodi:role="line"
         id="tspan4229"> </tspan></text>
  </g>
  <g
     inkscape:groupmode="layer"
     id="layer3"
     inkscape:label="speechbubbles">
    <path
       style="color:#000000;display:inline;overflow:visible;visibility:visible;fill:#ffffff;fill-opacity:1;fill-rule:nonzero;stroke:none;stroke-width:1.25428498px;marker:none;enable-background:accumulate"
       d="m 123.09823,1431.9163 c 0.16434,-190.2102 59.49209,-255.2356 217.19693,-242.8665 80.83005,6.3397 162.33861,4.6707 154.226,268.8916 -7.33352,238.847 -154.17665,200.0535 -181.63265,204.5169 -27.456,4.4635 -145.49167,4.6002 -169.7448,-77.675 -15.18189,-51.5017 -20.93433,-102.3869 -20.04548,-152.867 z"
       id="path4546-6"
       inkscape:connector-curvature="0"
       sodipodi:nodetypes="cssssc" />
    <path
       style="color:#000000;display:inline;overflow:visible;visibility:visible;fill:#ffffff;fill-opacity:1;fill-rule:nonzero;stroke:none;stroke-width:1.4693085px;marker:none;enable-background:accumulate"
       d="m 1301.8964,1499.6522 c -9.3924,-167.536 17.3819,-271.7805 23.8216,-282.9499 6.4397,-11.1688 234.8017,-63.2909 264.3423,7.446 29.5403,70.7379 37.9642,119.1365 38.135,182.4284 0.1709,63.2916 -5.7617,198.9318 -31.1309,235.3699 -34.4993,49.5524 -149.5578,50.803 -192.2349,41.4813 -47.4564,-10.3656 -99.6592,-38.5779 -102.9331,-183.7757 z"
       id="path3517"
       inkscape:connector-curvature="0"
       sodipodi:nodetypes="ccscssc" />
    <path
       style="color:#000000;display:inline;overflow:visible;visibility:visible;fill:#ffffff;fill-opacity:1;fill-rule:nonzero;stroke:none;stroke-width:1.16313124px;marker:none;enable-background:accumulate"
       d="m 263.84953,2130.1989 c 6.37492,-163.1001 59.84484,-276.835 194.43563,-230.5896 72.09407,24.7715 154.0609,44.9928 145.56103,284.0192 -8.49995,239.0256 -126.43618,219.3412 -150.87347,222.1535 -24.43729,2.812 -151.00152,-36.8593 -172.1233,-120.9194 -13.22174,-52.6192 -18.06236,-104.0462 -16.99989,-154.6637 z"
       id="path4546"
       inkscape:connector-curvature="0"
       sodipodi:nodetypes="cssssc" />
    <path
       style="color:#000000;display:inline;overflow:visible;visibility:visible;fill:#ffffff;fill-opacity:1;fill-rule:nonzero;stroke:none;stroke-width:1.26077783px;marker:none;enable-background:accumulate"
       d="m 645.89907,2112.5651 c 20.7509,-58.5871 195.912,-122.1797 257.4748,-1.4443 61.5628,120.7357 24.2215,265.6184 -11.1015,311.7173 -35.3229,46.0991 -139.2733,96.5885 -186.7069,57.075 -47.4336,-39.5133 -84.38144,-98.5784 -86.79342,-219.5192 -0.98445,-49.3608 6.37608,-89.2417 27.12702,-147.8288 z"
       id="path4040"
       inkscape:connector-curvature="0"
       sodipodi:nodetypes="zssssz" />
    <path
       style="color:#000000;display:inline;overflow:visible;visibility:visible;fill:#ffffff;fill-opacity:1;fill-rule:nonzero;stroke:none;stroke-width:1.1084975px;marker:none;enable-background:accumulate"
       d="m 1564.2295,3013.5647 c -21.8414,91.9852 -69.8718,148.4041 -187.5975,132.9191 -117.7259,-15.485 -139.4103,-34.5269 -154.9558,-60.9577 -15.5453,-26.4306 -37.1685,-172.2041 -23.8597,-270.0636 13.3089,-97.8595 62.9266,-197.8526 178.3544,-179.9266 115.428,17.9265 115.6205,21.5548 133.255,43.2346 33.5037,41.1893 76.6448,242.8091 54.8036,334.7942 z"
       id="path4530"
       inkscape:connector-curvature="0"
       sodipodi:nodetypes="zsssssz" />
    <path
       style="fill:#ffffff;stroke:none"
       d="m 1111.5645,2961.8485 c 14.3263,28.0754 24.1088,28.0705 35.2675,27.1393 11.1588,-0.931 21.2089,-3.0258 26.595,1.8373 5.386,4.8629 9.0868,13.8837 10.9398,20.965 1.8531,7.0813 10.1539,2.5775 17.7934,3.484 7.6396,0.9066 44.6458,20.171 44.6458,20.171 0,0 -29.7203,10.2917 -39.7014,10.4833 -9.981,0.1918 -13.6298,0.313 -17.6205,-0.7147 -3.9908,-1.0279 -13.4366,-5.0156 -17.2202,-11.7527 -3.7836,-6.737 -4.0618,-14.9312 -5.7715,-20.6766 -1.7096,-5.7455 -10.5032,-6.255 -19.0942,-7.37 -8.591,-1.1149 -14.6482,-3.3294 -23.6641,-14.8496 -7.7284,-9.8749 -12.1696,-28.7163 -12.1696,-28.7163 z"
       id="path3023-2"
       inkscape:connector-curvature="0"
       sodipodi:nodetypes="csssscssssssc" />
  </g>
  <g
     inkscape:groupmode="layer"
     id="layer1"
     inkscape:label="txt">
    <text
       xml:space="preserve"
       style="font-style:normal;font-variant:normal;font-weight:normal;font-stretch:normal;line-height:1;font-family:Lavi;-inkscape-font-specification:Lavi;text-align:center;letter-spacing:0px;word-spacing:0px;text-anchor:middle;fill:#4d4d4d;fill-opacity:1;stroke:none;"
       x="509.95682"
       y="1324.995"
       id="text4246"
       transform="skewX(-9.608776)"><tspan
         sodipodi:role="line"
         style="font-size:45px;line-height:1;fill:#4d4d4d;"
         x="517.86694"
         y="1324.995"
         id="tspan4146">&quot; Oh,          </tspan><tspan
         sodipodi:role="line"
         style="font-size:45px;line-height:1;fill:#4d4d4d;"
         x="509.95682"
         y="1369.995"
         id="tspan4819">   sundalong</tspan><tspan
         sodipodi:role="line"
         style="font-size:45px;line-height:1;fill:#4d4d4d;"
         x="509.95682"
         y="1414.995"
         id="tspan3759">       makisig...</tspan><tspan
         sodipodi:role="line"
         style="font-size:45px;line-height:1;fill:#4d4d4d;"
         x="509.95682"
         y="1433.9036"
         id="tspan5029" /><tspan
         sodipodi:role="line"
         style="font-size:45px;line-height:1;fill:#4d4d4d;"
         x="517.86694"
         y="1471.995"
         id="tspan4823">may </tspan><tspan
         sodipodi:role="line"
         style="font-size:45px;line-height:1;fill:#4d4d4d;"
         x="517.86694"
         y="1516.995"
         id="tspan4815">      ginintuang </tspan><tspan
         sodipodi:role="line"
         style="font-size:45px;line-height:1;fill:#4d4d4d;"
         x="517.86694"
         y="1561.995"
         id="tspan4817">          buhok!  &quot; </tspan></text>
    <path
       id="path11-7"
       style="clip-rule:evenodd;display:inline;fill:url(#linearGradient3793-0);fill-rule:evenodd;stroke:#000000;stroke-width:0.13854191"
       inkscape:connector-curvature="0"
       d="m 146.24273,1423.0278 c -0.24907,3.0146 3.55,6.8416 6.67603,7.6302 0,0 3.32846,1.0159 6.1628,0.6985 0.49571,0.1404 9.05357,-0.4013 10.00916,-9.9083 l -0.82475,-11.7491 c 1.20175,-0.063 5.20684,-1.2863 6.45241,-1.7754 3.41783,-1.343 5.04947,-3.5801 6.47283,-5.2155 1.65314,-2.5001 2.6462,-4.2189 2.88268,-7.0813 0.59819,-7.2397 -5.8907,-13.7365 -14.49248,-14.5115 -1.23982,-0.1116 -2.45462,-0.097 -3.63104,0.03 l -0.76892,-9.4389 c 6.27135,-4.9201 12.72542,-11.0809 15.21375,-17.0351 2.61213,-7.926 2.13507,-13.4817 -2.8239,-16.2906 -4.65379,-1.35 -10.84514,3.569 -14.87436,11.1165 -2.54263,3.9947 -0.40662,12.2566 0.57848,15.6584 -9.87622,6.6332 -19.53035,11.1581 -21.55683,24.0142 -0.83737,10.1347 8.2467,19.2292 20.28816,20.3141 1.15052,0.1041 3.0493,0.2975 5.23098,0.2566 l 0.0609,11.6645 c 0,0 -0.30915,8.5 -8.06168,8.957 -3.07686,0.181 -6.05163,0.4441 -5.06844,-1.1724 2.45416,-0.8245 5.34954,-2.2299 5.5738,-4.9443 0.27912,-3.3782 -2.51713,-6.3892 -6.24384,-6.7251 -3.7282,-0.3358 -6.97703,2.1306 -7.25615,5.5087 z m 17.97036,-50.5641 0.71627,8.8184 c -6.4902,1.0805 -11.51914,5.6488 -12.00574,11.5382 -0.55073,6.6655 8.66494,10.6274 8.53893,9.0223 -3.58225,-1.6733 -4.82618,-3.3028 -4.52885,-6.9015 0.33608,-4.0676 3.92278,-7.1863 8.47499,-7.7571 l 1.7015,20.9951 c -0.78152,0.1055 -1.62152,0.179 -2.52818,0.2161 -12.96137,-1.3883 -18.58217,-7.7493 -17.74486,-17.8835 0.46941,-5.6776 8.95734,-11.5107 17.37515,-18.0469 z m 3.91492,35.5509 -1.69817,-20.9146 c 0.52597,-0.021 1.06455,-0.012 1.60867,0.038 5.73361,0.5165 10.05954,4.8481 9.66087,9.6731 -0.4356,3.8725 -1.13313,9.6341 -9.57134,11.202 z m -3.64763,-44.0391 c -1.79106,-6.8521 0.5975,-9.9715 2.18097,-12.3919 3.74165,-5.7152 6.77718,-7.6423 9.84573,-9.3302 3.67777,1.5883 1.23639,10.3286 0.66875,10.2774 -2.21395,5.0869 -8.94609,8.6827 -12.69554,11.4447 z" />
    <path
       inkscape:connector-curvature="0"
       id="path3-5"
       style="display:inline;fill:url(#linearGradient3019-7-6);fill-rule:evenodd;stroke:#000000;stroke-width:0.40150777;stroke-linecap:round;stroke-linejoin:round"
       d="m 601.6496,1321.8546 c 0.9723,1.5462 1.47845,3.3473 2.72759,4.7261 1.43363,2.0524 3.26052,3.8203 4.68135,5.8941 1.02799,1.4528 2.15456,3.0005 2.45456,4.7228 0.79302,2.2524 0.46971,4.6527 -0.34864,6.6888 -0.93109,1.0462 -1.58171,-0.5044 -1.32558,-1.3944 0.032,-1.2623 0.006,-2.5273 -0.47972,-3.7742 -0.43531,-1.8389 -1.22144,-3.6187 -2.52812,-5.0726 -1.13456,-1.1239 -2.42925,-3.473 -4.14455,-2.8931 -1.13138,0.6065 -0.62734,2.128 -0.74254,3.2474 -0.0241,6.9589 0.0148,13.9272 -0.0515,20.8803 -0.0656,2.9162 -2.54247,4.6149 -4.86448,5.6239 -2.06768,1.0488 -4.54835,1.4961 -6.96121,0.6755 -2.24187,-0.4708 -4.56985,-2.3777 -4.63212,-4.8406 -0.16711,-2.8658 1.84289,-5.3051 4.33056,-6.1663 2.44014,-1.1584 5.53439,-1.1376 8.17785,0.1607 1.29123,0.5503 1.64204,-0.6264 1.79559,-1.7776 0.0936,-8.8511 0.15752,-17.7054 0.13276,-26.5705 0.0191,-0.8838 1.43916,-0.9495 1.77806,-0.1298 z" />
    <path
       style="display:inline;fill:url(#linearGradient4292);fill-rule:evenodd;stroke:#000000;stroke-width:0.46296775;stroke-linecap:round;stroke-linejoin:round"
       d="m 443.52439,1575.9486 c -0.34729,-0.063 -0.74315,-0.01 -1.02436,0.1657 l -25.63358,3.1311 c -0.58399,-0.1964 -1.44764,-0.025 -1.57241,0.5923 -1.73156,9.8604 -3.56481,19.696 -5.43207,29.5235 -0.40827,1.2575 -1.05194,2.5139 -2.45305,1.7134 -2.83422,-1.8301 -6.44985,-2.3049 -9.53415,-1.3738 -3.08093,0.5941 -5.91605,3.012 -6.2897,6.2228 -0.41633,2.7476 1.92804,5.208 4.45689,6.0591 2.65938,1.2652 5.64999,1.1303 8.27689,0.2663 2.91644,-0.7823 6.1505,-2.3086 6.80637,-5.5414 2.11591,-11.2846 4.06775,-21.6876 5.69315,-32.7 l 24.405,-2.2217 c -1.45512,8.1214 -2.96755,16.2292 -4.50682,24.3303 -0.40824,1.2575 -1.05193,2.514 -2.45304,1.7135 -2.83422,-1.8301 -6.44986,-2.305 -9.53414,-1.3738 -3.08092,0.5939 -5.91605,3.0119 -6.2897,6.2227 -0.41633,2.7475 1.92803,5.2081 4.45687,6.0593 2.65939,1.265 5.64999,1.1301 8.2769,0.2663 2.91645,-0.7825 6.1505,-2.3088 6.80639,-5.5416 2.37392,-12.6607 4.54387,-24.2057 6.27494,-36.754 l -6.3e-4,-2e-4 c 0.0655,-0.4173 -0.29075,-0.6793 -0.72969,-0.7597 z"
       id="path3-6"
       inkscape:connector-curvature="0" />
    <text
       xml:space="preserve"
       style="font-style:normal;font-variant:normal;font-weight:normal;font-stretch:normal;line-height:1;font-family:Lavi;-inkscape-font-specification:Lavi;text-align:center;letter-spacing:0px;word-spacing:0px;text-anchor:middle;fill:#4d4d4d;fill-opacity:1;stroke:none;"
       x="1788.2383"
       y="1357.7954"
       id="text4246-3"
       transform="skewX(-14.085735)"><tspan
         sodipodi:role="line"
         style="font-size:45px;line-height:1;fill:#4d4d4d;"
         x="1796.1484"
         y="1357.7954"
         id="tspan3765">&quot; ...ikaw na </tspan><tspan
         sodipodi:role="line"
         style="font-size:45px;line-height:1;fill:#4d4d4d;"
         x="1788.2383"
         y="1402.7954"
         id="tspan4829">       multo</tspan><tspan
         sodipodi:role="line"
         style="font-size:45px;line-height:1;fill:#4d4d4d;"
         x="1796.1484"
         y="1447.7954"
         id="tspan5031" /><tspan
         sodipodi:role="line"
         style="font-size:45px;line-height:1;fill:#4d4d4d;"
         x="1796.1484"
         y="1492.7954"
         id="tspan4827">      ng aking </tspan><tspan
         sodipodi:role="line"
         style="font-size:45px;line-height:1;fill:#4d4d4d;"
         x="1796.1484"
         y="1537.7954"
         id="tspan4831">        kadarangan </tspan><tspan
         sodipodi:role="line"
         style="font-size:45px;line-height:1;fill:#4d4d4d;"
         x="1796.1484"
         y="1582.7954"
         id="tspan5035">                   &quot; </tspan></text>
    <path
       inkscape:connector-curvature="0"
       id="path3-5-0"
       style="display:inline;fill:url(#linearGradient3019-7-6-9);fill-rule:evenodd;stroke:#000000;stroke-width:0.40150777;stroke-linecap:round;stroke-linejoin:round"
       d="m 1378.6241,1241.544 c 0.9723,1.5462 1.4785,3.3473 2.7276,4.7261 1.4337,2.0524 3.2605,3.8203 4.6814,5.8941 1.028,1.4528 2.1545,3.0005 2.4545,4.7228 0.7931,2.2524 0.4697,4.6527 -0.3486,6.6888 -0.9311,1.0462 -1.5817,-0.5044 -1.3256,-1.3944 0.032,-1.2623 0.01,-2.5273 -0.4797,-3.7742 -0.4353,-1.8389 -1.2214,-3.6187 -2.5281,-5.0726 -1.1346,-1.1239 -2.4293,-3.473 -4.1446,-2.8931 -1.1314,0.6065 -0.6273,2.128 -0.7425,3.2474 -0.024,6.9589 0.015,13.9272 -0.052,20.8803 -0.066,2.9162 -2.5425,4.6149 -4.8645,5.6239 -2.0677,1.0488 -4.5483,1.4961 -6.9612,0.6755 -2.2419,-0.4708 -4.5699,-2.3777 -4.6321,-4.8406 -0.1671,-2.8658 1.8429,-5.3051 4.3305,-6.1663 2.4402,-1.1584 5.5344,-1.1376 8.1779,0.1607 1.2912,0.5503 1.642,-0.6264 1.7956,-1.7776 0.094,-8.8511 0.1575,-17.7054 0.1327,-26.5705 0.019,-0.8838 1.4392,-0.9495 1.7781,-0.1298 z" />
    <path
       style="display:inline;fill:url(#linearGradient4292-6);fill-rule:evenodd;stroke:#000000;stroke-width:0.46296775;stroke-linecap:round;stroke-linejoin:round"
       d="m 1491.9196,1586.9025 c -0.3473,-0.063 -0.7431,-0.01 -1.0243,0.1657 l -25.6336,3.1311 c -0.584,-0.1964 -1.4476,-0.025 -1.5724,0.5923 -1.7316,9.8604 -3.5648,19.696 -5.4321,29.5235 -0.4083,1.2575 -1.0519,2.5139 -2.453,1.7134 -2.8343,-1.8301 -6.4499,-2.3049 -9.5342,-1.3738 -3.0809,0.5941 -5.916,3.012 -6.2897,6.2228 -0.4163,2.7476 1.9281,5.208 4.4569,6.0591 2.6594,1.2652 5.65,1.1303 8.2769,0.2663 2.9164,-0.7823 6.1505,-2.3086 6.8064,-5.5414 2.1159,-11.2846 4.0677,-21.6876 5.6931,-32.7 l 24.405,-2.2217 c -1.4551,8.1214 -2.9675,16.2292 -4.5068,24.3303 -0.4082,1.2575 -1.0519,2.514 -2.453,1.7135 -2.8343,-1.8301 -6.4499,-2.305 -9.5342,-1.3738 -3.0809,0.5939 -5.916,3.0119 -6.2897,6.2227 -0.4163,2.7475 1.928,5.2081 4.4569,6.0593 2.6594,1.265 5.65,1.1301 8.2769,0.2663 2.9164,-0.7825 6.1505,-2.3088 6.8064,-5.5416 2.3739,-12.6607 4.5438,-24.2057 6.2749,-36.754 l -6e-4,-2e-4 c 0.066,-0.4173 -0.2908,-0.6793 -0.7297,-0.7597 z"
       id="path3-6-1"
       inkscape:connector-curvature="0" />
    <text
       xml:space="preserve"
       style="font-style:normal;font-variant:normal;font-weight:normal;font-stretch:normal;line-height:0%;font-family:Lavi;-inkscape-font-specification:Lavi;text-align:center;letter-spacing:0px;word-spacing:0px;text-anchor:middle;fill:#4d4d4d;fill-opacity:1;stroke:none"
       x="979.47626"
       y="2055.9126"
       id="text4246-3-3"
       transform="skewX(-15.134412)"><tspan
         sodipodi:role="line"
         style="font-size:45px;line-height:1.25;fill:#4d4d4d"
         x="987.38641"
         y="2055.9126"
         id="tspan4859">&quot; ...ikaw lubos </tspan><tspan
         sodipodi:role="line"
         style="font-size:45px;line-height:1.25;fill:#4d4d4d"
         x="987.38641"
         y="2112.1626"
         id="tspan4848">   hiwaga, </tspan><tspan
         sodipodi:role="line"
         style="font-size:45px;line-height:1.25;fill:#4d4d4d"
         x="987.38641"
         y="2168.4126"
         id="tspan4835">    ng aking </tspan><tspan
         sodipodi:role="line"
         style="font-size:45px;line-height:1.25;fill:#4d4d4d"
         x="979.47626"
         y="2224.6626"
         id="tspan4863">          kalangitan...&quot;</tspan></text>
    <path
       style="display:inline;fill:url(#linearGradient4292-6-8);fill-rule:evenodd;stroke:#000000;stroke-width:0.33031785;stroke-linecap:round;stroke-linejoin:round"
       d="m 445.75893,1941.0678 c -0.22704,-0.046 -0.5135,-0.01 -0.74768,0.1215 l -18.48553,2.2967 c -0.36168,-0.1441 -0.9991,-0.018 -1.22283,0.4344 -3.39195,7.2325 -6.84892,14.4469 -10.32775,21.6552 -0.56268,0.9224 -1.28843,1.844 -2.083,1.2568 -1.56053,-1.3424 -3.96434,-1.6906 -6.3117,-1.0077 -2.27015,0.4358 -4.77481,2.2093 -5.74735,4.5644 -0.89922,2.0154 0.18131,3.82 1.74728,4.4443 1.56463,0.928 3.67012,0.8291 5.68513,0.1953 2.19778,-0.5738 4.78131,-1.6933 5.95459,-4.0645 3.97502,-8.2772 7.64032,-15.9077 11.21446,-23.9852 l 17.43087,-1.6296 c -2.8138,5.957 -5.66435,11.904 -8.53207,17.8461 -0.56261,0.9223 -1.28844,1.844 -2.08301,1.2568 -1.56054,-1.3424 -3.96432,-1.6907 -6.31171,-1.0077 -2.2701,0.4357 -4.77479,2.2092 -5.74733,4.5643 -0.89919,2.0153 0.18123,3.8201 1.74725,4.4445 1.56467,0.9278 3.67015,0.8289 5.68512,0.1953 2.19783,-0.5739 4.78136,-1.6935 5.95464,-4.0647 4.45973,-9.2865 8.53006,-17.7547 12.51872,-26.9588 l -3.8e-4,-10e-5 c 0.1385,-0.3061 -0.0509,-0.4983 -0.33767,-0.5572 z"
       id="path3-6-1-2"
       inkscape:connector-curvature="0" />
    <path
       id="path11"
       style="clip-rule:evenodd;display:inline;fill:url(#linearGradient3793);fill-rule:evenodd;stroke:#000000;stroke-width:0.13854191"
       inkscape:connector-curvature="0"
       d="m 471.26774,2351.2948 c -1.9632,2.524 -0.5506,7.0271 1.96387,8.6947 0,0 2.57635,1.9277 5.44759,2.5483 0.38994,0.2777 8.82057,2.5114 15.17325,-5.3945 l 5.94771,-10.4036 c 1.17639,0.325 5.67746,0.5331 7.13953,0.504 4.01241,-0.081 6.84211,-1.4969 9.12951,-2.4594 3.00076,-1.6366 4.92764,-2.807 6.79172,-5.2035 4.71475,-6.0614 2.27921,-13.7185 -5.43885,-17.1027 -1.1125,-0.4877 -2.27355,-0.8586 -3.46258,-1.1203 l 4.67733,-8.3915 c 8.76912,-2.268 18.42233,-5.5495 24.19422,-9.9044 7.01886,-6.0181 9.74869,-10.9651 6.65229,-14.9554 -3.64253,-2.6345 -12.33511,-0.3421 -20.4818,4.9019 -4.70093,2.6461 -7.40684,10.453 -8.42078,13.7008 -13.17101,2.6091 -24.92357,3.4681 -34.21087,13.9274 -6.60006,8.4851 -3.19006,19.2041 7.61428,23.9416 1.03207,0.4531 2.72299,1.2194 4.81655,1.8728 l -6.62404,10.0894 c 0,0 -5.16244,7.2406 -12.7804,5.188 -3.02323,-0.815 -5.99662,-1.5268 -4.13771,-2.612 2.80099,0.063 6.35339,-0.2365 8.12109,-2.5091 2.2,-2.8284 1.27152,-6.3105 -2.07224,-7.7769 -3.34523,-1.4667 -7.8408,-0.3629 -10.04074,2.4654 z m 46.01647,-37.9805 -4.37184,7.8392 c -6.77732,-1.1158 -14.16603,1.2407 -18.0014,6.1715 -4.34081,5.5806 2.13419,11.91 2.93408,10.4845 -2.44058,-2.5754 -2.68748,-4.3748 -0.34389,-7.3878 2.64896,-3.4055 7.83878,-4.9658 12.48523,-4.0216 l -10.41222,18.6625 c -0.80199,-0.1556 -1.64115,-0.3573 -2.52271,-0.6114 -11.50343,-5.2899 -13.19306,-12.5558 -6.59333,-21.0405 3.69773,-4.7534 15.0931,-7.11 26.8247,-10.0957 z m -16.65002,31.9276 10.36926,-18.592 c 0.51111,0.1479 1.01699,0.3256 1.50466,0.5406 5.1446,2.2557 6.76806,7.3608 3.62585,11.4005 -2.63163,3.2057 -6.59394,7.9596 -15.49889,6.6496 z m 21.76598,-39.1712 c 2.22563,-6.4809 6.27898,-8.42 9.16798,-10.0097 6.82421,-3.753 10.80846,-4.4585 14.68701,-4.9471 2.5799,2.5321 -4.7434,9.3071 -5.2527,9.0838 -5.0147,3.6927 -13.46245,4.672 -18.60237,5.873 z"
       inkscape:transform-center-x="-1.9145244"
       inkscape:transform-center-y="-11.739752" />
    <text
       xml:space="preserve"
       style="font-style:normal;font-variant:normal;font-weight:normal;font-stretch:normal;line-height:0%;font-family:Lavi;-inkscape-font-specification:Lavi;text-align:center;letter-spacing:0px;word-spacing:0px;text-anchor:middle;fill:#000000;fill-opacity:1;stroke:none"
       x="1381.2405"
       y="2769.5076"
       id="text4246-3-2"><tspan
         sodipodi:role="line"
         style="font-size:45px;line-height:1.25;fill:#ff0000"
         x="1389.1506"
         y="2769.5076"
         id="tspan4274">Nakaka-<tspan
   style="stroke:#ff2a2a"
   id="tspan4996">LOKA</tspan>! </tspan><tspan
         sodipodi:role="line"
         style="font-size:45px;line-height:1.25"
         x="1389.1506"
         y="2825.7576"
         id="tspan4962">mandami ka </tspan><tspan
         sodipodi:role="line"
         style="font-size:45px;line-height:1.25"
         x="1389.1506"
         y="2882.0076"
         id="tspan4988">talagang </tspan><tspan
         sodipodi:role="line"
         style="font-size:45px;line-height:1.25"
         x="1389.1506"
         y="2938.2576"
         id="tspan4992">mahuhukay </tspan><tspan
         sodipodi:role="line"
         style="font-size:45px;line-height:1.25"
         x="1389.1506"
         y="2994.5076"
         id="tspan3805">sa banga ng </tspan><tspan
         sodipodi:role="line"
         style="font-size:45px;line-height:1.25"
         x="1389.1506"
         y="3050.7576"
         id="tspan4994">mga lola!  </tspan></text>
    <g
       id="g4933"
       transform="translate(37.971548,35.440112)">
      <text
         id="text4246-3-3-2"
         y="2137.8665"
         x="742.54382"
         style="font-style:normal;font-variant:normal;font-weight:normal;font-stretch:normal;line-height:1;font-family:Lavi;-inkscape-font-specification:Lavi;text-align:center;letter-spacing:0px;word-spacing:0px;text-anchor:middle;fill:#000000;fill-opacity:1;stroke:none"
         xml:space="preserve"><tspan
           id="tspan4212-0"
           y="2137.8665"
           x="750.45398"
           style="font-size:45px;line-height:1"
           sodipodi:role="line">Nice </tspan><tspan
           id="tspan4869"
           y="2182.8665"
           x="750.45398"
           style="font-size:45px;line-height:1"
           sodipodi:role="line">poetry, </tspan><tspan
           id="tspan4913"
           y="2201.7749"
           x="742.54382"
           style="font-size:45px;line-height:1"
           sodipodi:role="line" /></text>
      <text
         transform="skewX(-18.299408)"
         id="text4877"
         y="2246.4241"
         x="1381.6412"
         style="font-style:normal;font-variant:normal;font-weight:normal;font-stretch:normal;font-size:46.04946136px;line-height:0.89999998;font-family:Lavi;-inkscape-font-specification:Lavi;letter-spacing:0px;word-spacing:0px;fill:#ff2a2a;fill-opacity:1;stroke:none;stroke-width:1.04657876"
         xml:space="preserve"><tspan
           style="line-height:0.89999998;stroke-width:1.04657876"
           y="2246.4241"
           x="1381.6412"
           id="tspan4875"
           sodipodi:role="line">Mistress </tspan><tspan
           style="line-height:0.89999998;stroke-width:1.04657876"
           id="tspan4879"
           y="2287.8687"
           x="1381.6412"
           sodipodi:role="line"><tspan
             style="fill:#4d4d4d"
             id="tspan4972">Cayenne! </tspan></tspan></text>
      <text
         id="text4246-3-3-2-8"
         y="2311.5137"
         x="738.45435"
         style="font-style:normal;font-variant:normal;font-weight:normal;font-stretch:normal;line-height:0%;font-family:Lavi;-inkscape-font-specification:Lavi;text-align:center;letter-spacing:0px;word-spacing:0px;text-anchor:middle;fill:#000000;fill-opacity:1;stroke:none"
         xml:space="preserve"><tspan
           id="tspan4869-2"
           y="2315.0015"
           x="738.45435"
           style="font-size:45px;line-height:1.25"
           sodipodi:role="line" /><tspan
           id="tspan4272-8"
           y="2315.0015"
           x="738.45435"
           style="font-size:45px;line-height:1.25"
           sodipodi:role="line" /><tspan
           id="tspan4873-6"
           y="2315.0015"
           x="738.45435"
           style="font-size:45px;line-height:1.25"
           sodipodi:role="line" /><tspan
           id="tspan4867-1"
           y="2352.718"
           x="738.45435"
           style="font-size:45px;line-height:1.25"
           sodipodi:role="line">hahahaha</tspan></text>
      <text
         id="text4246-3-3-2-8-0"
         y="194.3607"
         x="1219.311"
         style="font-style:normal;font-variant:normal;font-weight:normal;font-stretch:normal;font-size:28.66909027px;line-height:0%;font-family:Lavi;-inkscape-font-specification:Lavi;text-align:center;letter-spacing:0px;word-spacing:0px;text-anchor:middle;fill:#000000;fill-opacity:1;stroke:none;stroke-width:2.38909101"
         xml:space="preserve"
         transform="matrix(0.66443201,0,-0.16715009,1.5050449,0,0)"><tspan
           id="tspan4869-2-8"
           y="202.69339"
           x="1219.311"
           style="font-size:107.50909424px;line-height:1.25;stroke-width:2.38909101"
           sodipodi:role="line" /><tspan
           id="tspan4272-8-5"
           y="202.69339"
           x="1219.311"
           style="font-size:107.50909424px;line-height:1.25;stroke-width:2.38909101"
           sodipodi:role="line" /><tspan
           id="tspan4873-6-6"
           y="202.69339"
           x="1219.311"
           style="font-size:107.50909424px;line-height:1.25;stroke-width:2.38909101"
           sodipodi:role="line" /><tspan
           id="tspan4867-1-1"
           y="292.80145"
           x="1219.311"
           style="font-size:107.50909424px;line-height:1.25;stroke-width:2.38909101"
           sodipodi:role="line">hahahaha!!!</tspan></text>
    </g>
    <text
       xml:space="preserve"
       style="font-style:normal;font-weight:normal;font-size:40px;line-height:1.25;font-family:sans-serif;letter-spacing:0px;word-spacing:0px;fill:#000000;fill-opacity:1;stroke:none"
       x="567.04181"
       y="2270.1904"
       id="text5000"><tspan
         sodipodi:role="line"
         id="tspan4998"
         x="567.04181"
         y="2270.1904" /></text>
    <text
       xml:space="preserve"
       style="font-style:normal;font-weight:normal;font-size:40px;line-height:1.25;font-family:sans-serif;letter-spacing:0px;word-spacing:0px;fill:#000000;fill-opacity:1;stroke:none"
       x="1374.7169"
       y="1473.1447"
       id="text5041"><tspan
         sodipodi:role="line"
         id="tspan5039"
         x="1374.7169"
         y="1473.1447" /></text>
  </g>
</svg>
