<?xml version="1.0" encoding="UTF-8" standalone="no"?>
<!-- Created with Inkscape (http://www.inkscape.org/) -->

<svg
   xmlns:dc="http://purl.org/dc/elements/1.1/"
   xmlns:cc="http://creativecommons.org/ns#"
   xmlns:rdf="http://www.w3.org/1999/02/22-rdf-syntax-ns#"
   xmlns:svg="http://www.w3.org/2000/svg"
   xmlns="http://www.w3.org/2000/svg"
   xmlns:xlink="http://www.w3.org/1999/xlink"
   xmlns:sodipodi="http://sodipodi.sourceforge.net/DTD/sodipodi-0.dtd"
   xmlns:inkscape="http://www.inkscape.org/namespaces/inkscape"
   id="svg2"
   version="1.1"
   inkscape:version="0.92.2 5c3e80d, 2017-08-06"
   width="2481"
   height="3503"
   sodipodi:docname="E27P05.svg">
  <metadata
     id="metadata8">
    <rdf:RDF>
      <cc:Work
         rdf:about="">
        <dc:format>image/svg+xml</dc:format>
        <dc:type
           rdf:resource="http://purl.org/dc/dcmitype/StillImage" />
        <dc:title />
      </cc:Work>
    </rdf:RDF>
  </metadata>
  <defs
     id="defs6">
    <filter
       style="color-interpolation-filters:sRGB"
       id="filter4375-4-1-1-1-9-7-7-0-3-7"
       inkscape:label="deevad outline effect">
      <feFlood
         id="feFlood4377-7-9-0-8-1-4-8-3-2-4"
         flood-opacity="1"
         flood-color="rgb(0,0,0)"
         result="flood" />
      <feComposite
         id="feComposite4379-3-8-8-2-77-7-8-1-2-6"
         in2="SourceGraphic"
         in="flood"
         operator="in"
         result="composite1" />
      <feMorphology
         id="feMorphology4393-1-0-49-8-9-3-9-0-1-4"
         operator="dilate"
         radius="4"
         result="result3" />
      <feComposite
         id="feComposite4385-9-5-7-0-8-0-0-3-5-9"
         in2="result3"
         in="SourceGraphic"
         operator="over"
         result="composite2" />
    </filter>
    <filter
       style="color-interpolation-filters:sRGB"
       id="filter4375-4-1-1-1-9-7-7-0-1"
       inkscape:label="deevad outline effect">
      <feFlood
         id="feFlood4377-7-9-0-8-1-4-8-3-23"
         flood-opacity="1"
         flood-color="rgb(0,0,0)"
         result="flood" />
      <feComposite
         id="feComposite4379-3-8-8-2-77-7-8-1-1"
         in2="SourceGraphic"
         in="flood"
         operator="in"
         result="composite1" />
      <feMorphology
         id="feMorphology4393-1-0-49-8-9-3-9-0-8"
         operator="dilate"
         radius="4"
         result="result3" />
      <feComposite
         id="feComposite4385-9-5-7-0-8-0-0-3-1"
         in2="result3"
         in="SourceGraphic"
         operator="over"
         result="composite2" />
    </filter>
    <filter
       style="color-interpolation-filters:sRGB"
       id="filter4375-4-1-1-1-9-7-7-3"
       inkscape:label="deevad outline effect">
      <feFlood
         id="feFlood4377-7-9-0-8-1-4-8-8"
         flood-opacity="1"
         flood-color="rgb(0,0,0)"
         result="flood" />
      <feComposite
         id="feComposite4379-3-8-8-2-77-7-8-9"
         in2="SourceGraphic"
         in="flood"
         operator="in"
         result="composite1" />
      <feMorphology
         id="feMorphology4393-1-0-49-8-9-3-9-2"
         operator="dilate"
         radius="4"
         result="result3" />
      <feComposite
         id="feComposite4385-9-5-7-0-8-0-0-4"
         in2="result3"
         in="SourceGraphic"
         operator="over"
         result="composite2" />
    </filter>
    <filter
       style="color-interpolation-filters:sRGB"
       id="filter4375-4-1-1-1-9-7-5"
       inkscape:label="deevad outline effect">
      <feFlood
         id="feFlood4377-7-9-0-8-1-4-1"
         flood-opacity="1"
         flood-color="rgb(0,0,0)"
         result="flood" />
      <feComposite
         id="feComposite4379-3-8-8-2-77-7-0"
         in2="SourceGraphic"
         in="flood"
         operator="in"
         result="composite1" />
      <feMorphology
         id="feMorphology4393-1-0-49-8-9-3-0"
         operator="dilate"
         radius="4"
         result="result3" />
      <feComposite
         id="feComposite4385-9-5-7-0-8-0-1"
         in2="result3"
         in="SourceGraphic"
         operator="over"
         result="composite2" />
    </filter>
    <filter
       style="color-interpolation-filters:sRGB"
       id="filter4375-4-1-1-1-9-3"
       inkscape:label="deevad outline effect">
      <feFlood
         id="feFlood4377-7-9-0-8-1-3"
         flood-opacity="1"
         flood-color="rgb(0,0,0)"
         result="flood" />
      <feComposite
         id="feComposite4379-3-8-8-2-77-0"
         in2="SourceGraphic"
         in="flood"
         operator="in"
         result="composite1" />
      <feMorphology
         id="feMorphology4393-1-0-49-8-9-0"
         operator="dilate"
         radius="3"
         result="result3" />
      <feComposite
         id="feComposite4385-9-5-7-0-8-02"
         in2="result3"
         in="SourceGraphic"
         operator="over"
         result="composite2" />
    </filter>
    <filter
       style="color-interpolation-filters:sRGB"
       id="filter4375-4-1-1-1-9-8"
       inkscape:label="Roughen">
      <feFlood
         id="feFlood4377-7-9-0-8-1-96"
         flood-opacity="1"
         flood-color="rgb(0,0,0)"
         result="flood" />
      <feComposite
         id="feComposite4379-3-8-8-2-77-4"
         in2="SourceGraphic"
         in="flood"
         operator="in"
         result="composite1" />
      <feMorphology
         id="feMorphology4393-1-0-49-8-9-33"
         operator="dilate"
         radius="4"
         result="result3" />
      <feComposite
         id="feComposite4385-9-5-7-0-8-38"
         in2="result3"
         in="SourceGraphic"
         operator="over"
         result="fbSourceGraphic" />
      <feColorMatrix
         result="fbSourceGraphicAlpha"
         in="fbSourceGraphic"
         values="0 0 0 -1 0 0 0 0 -1 0 0 0 0 -1 0 0 0 0 1 0"
         id="feColorMatrix333-6" />
      <feTurbulence
         id="feTurbulence335-0"
         type="fractalNoise"
         numOctaves="5"
         seed="1"
         baseFrequency="0.013 0.013"
         result="turbulence" />
      <feDisplacementMap
         in2="turbulence"
         id="feDisplacementMap337-48"
         in="fbSourceGraphic"
         scale="6.6"
         yChannelSelector="G"
         xChannelSelector="R"
         result="fbSourceGraphic" />
      <feColorMatrix
         result="fbSourceGraphicAlpha"
         in="fbSourceGraphic"
         values="0 0 0 -1 0 0 0 0 -1 0 0 0 0 -1 0 0 0 0 1 0"
         id="feColorMatrix435-8" />
      <feTurbulence
         id="feTurbulence437-8"
         type="fractalNoise"
         numOctaves="5"
         seed="27"
         baseFrequency="0.001 0.4414"
         result="turbulence" />
      <feDisplacementMap
         in2="turbulence"
         id="feDisplacementMap439-9"
         in="fbSourceGraphic"
         scale="4.27461"
         yChannelSelector="G"
         xChannelSelector="R" />
    </filter>
    <filter
       style="color-interpolation-filters:sRGB"
       id="filter4375-4-1-1-1-9-30-7"
       inkscape:label="Roughen">
      <feFlood
         id="feFlood4377-7-9-0-8-1-78-41"
         flood-opacity="1"
         flood-color="rgb(0,0,0)"
         result="flood" />
      <feComposite
         id="feComposite4379-3-8-8-2-77-68-8"
         in2="SourceGraphic"
         in="flood"
         operator="in"
         result="composite1" />
      <feMorphology
         id="feMorphology4393-1-0-49-8-9-8-59"
         operator="dilate"
         radius="4"
         result="result3" />
      <feComposite
         id="feComposite4385-9-5-7-0-8-4-7"
         in2="result3"
         in="SourceGraphic"
         operator="over"
         result="fbSourceGraphic" />
      <feColorMatrix
         result="fbSourceGraphicAlpha"
         in="fbSourceGraphic"
         values="0 0 0 -1 0 0 0 0 -1 0 0 0 0 -1 0 0 0 0 1 0"
         id="feColorMatrix333-3-5" />
      <feTurbulence
         id="feTurbulence335-1-3"
         type="fractalNoise"
         numOctaves="5"
         seed="1"
         baseFrequency="0.013 0.013"
         result="turbulence" />
      <feDisplacementMap
         in2="turbulence"
         id="feDisplacementMap337-4-8"
         in="fbSourceGraphic"
         scale="6.6"
         yChannelSelector="G"
         xChannelSelector="R"
         result="fbSourceGraphic" />
      <feColorMatrix
         result="fbSourceGraphicAlpha"
         in="fbSourceGraphic"
         values="0 0 0 -1 0 0 0 0 -1 0 0 0 0 -1 0 0 0 0 1 0"
         id="feColorMatrix435-92-8" />
      <feTurbulence
         id="feTurbulence437-06-3"
         type="fractalNoise"
         numOctaves="5"
         seed="27"
         baseFrequency="0.001 0.4414"
         result="turbulence" />
      <feDisplacementMap
         in2="turbulence"
         id="feDisplacementMap439-8-1"
         in="fbSourceGraphic"
         scale="4.27461"
         yChannelSelector="G"
         xChannelSelector="R" />
    </filter>
    <filter
       style="color-interpolation-filters:sRGB"
       id="filter4375-4-1-1-1-9-30-2-7-9"
       inkscape:label="Roughen">
      <feFlood
         id="feFlood4377-7-9-0-8-1-78-6-7-8"
         flood-opacity="1"
         flood-color="rgb(0,0,0)"
         result="flood" />
      <feComposite
         id="feComposite4379-3-8-8-2-77-68-1-1-4"
         in2="SourceGraphic"
         in="flood"
         operator="in"
         result="composite1" />
      <feMorphology
         id="feMorphology4393-1-0-49-8-9-8-0-1-8"
         operator="dilate"
         radius="4"
         result="result3" />
      <feComposite
         id="feComposite4385-9-5-7-0-8-4-6-5-1"
         in2="result3"
         in="SourceGraphic"
         operator="over"
         result="fbSourceGraphic" />
      <feColorMatrix
         result="fbSourceGraphicAlpha"
         in="fbSourceGraphic"
         values="0 0 0 -1 0 0 0 0 -1 0 0 0 0 -1 0 0 0 0 1 0"
         id="feColorMatrix333-3-1-9-0" />
      <feTurbulence
         id="feTurbulence335-1-5-7-3"
         type="fractalNoise"
         numOctaves="5"
         seed="1"
         baseFrequency="0.013 0.013"
         result="turbulence" />
      <feDisplacementMap
         in2="turbulence"
         id="feDisplacementMap337-4-9-7-0"
         in="fbSourceGraphic"
         scale="6.6"
         yChannelSelector="G"
         xChannelSelector="R"
         result="fbSourceGraphic" />
      <feColorMatrix
         result="fbSourceGraphicAlpha"
         in="fbSourceGraphic"
         values="0 0 0 -1 0 0 0 0 -1 0 0 0 0 -1 0 0 0 0 1 0"
         id="feColorMatrix435-92-4-6-4" />
      <feTurbulence
         id="feTurbulence437-06-9-7-4"
         type="fractalNoise"
         numOctaves="5"
         seed="27"
         baseFrequency="0.001 0.4414"
         result="turbulence" />
      <feDisplacementMap
         in2="turbulence"
         id="feDisplacementMap439-8-0-3-4"
         in="fbSourceGraphic"
         scale="4.27461"
         yChannelSelector="G"
         xChannelSelector="R" />
    </filter>
    <filter
       style="color-interpolation-filters:sRGB"
       id="filter4375-4-1-1-1-9-30-2-4"
       inkscape:label="Roughen">
      <feFlood
         id="feFlood4377-7-9-0-8-1-78-6-76"
         flood-opacity="1"
         flood-color="rgb(0,0,0)"
         result="flood" />
      <feComposite
         id="feComposite4379-3-8-8-2-77-68-1-3"
         in2="SourceGraphic"
         in="flood"
         operator="in"
         result="composite1" />
      <feMorphology
         id="feMorphology4393-1-0-49-8-9-8-0-17"
         operator="dilate"
         radius="4"
         result="result3" />
      <feComposite
         id="feComposite4385-9-5-7-0-8-4-6-59"
         in2="result3"
         in="SourceGraphic"
         operator="over"
         result="fbSourceGraphic" />
      <feColorMatrix
         result="fbSourceGraphicAlpha"
         in="fbSourceGraphic"
         values="0 0 0 -1 0 0 0 0 -1 0 0 0 0 -1 0 0 0 0 1 0"
         id="feColorMatrix333-3-1-6" />
      <feTurbulence
         id="feTurbulence335-1-5-2"
         type="fractalNoise"
         numOctaves="5"
         seed="1"
         baseFrequency="0.013 0.013"
         result="turbulence" />
      <feDisplacementMap
         in2="turbulence"
         id="feDisplacementMap337-4-9-1"
         in="fbSourceGraphic"
         scale="6.6"
         yChannelSelector="G"
         xChannelSelector="R"
         result="fbSourceGraphic" />
      <feColorMatrix
         result="fbSourceGraphicAlpha"
         in="fbSourceGraphic"
         values="0 0 0 -1 0 0 0 0 -1 0 0 0 0 -1 0 0 0 0 1 0"
         id="feColorMatrix435-92-4-7" />
      <feTurbulence
         id="feTurbulence437-06-9-8"
         type="fractalNoise"
         numOctaves="5"
         seed="27"
         baseFrequency="0.001 0.4414"
         result="turbulence" />
      <feDisplacementMap
         in2="turbulence"
         id="feDisplacementMap439-8-0-5"
         in="fbSourceGraphic"
         scale="4.27461"
         yChannelSelector="G"
         xChannelSelector="R" />
    </filter>
    <filter
       style="color-interpolation-filters:sRGB"
       id="filter4375-4-1-1-1-9-30-2-7-6-5"
       inkscape:label="Roughen">
      <feFlood
         id="feFlood4377-7-9-0-8-1-78-6-7-3-0"
         flood-opacity="1"
         flood-color="rgb(0,0,0)"
         result="flood" />
      <feComposite
         id="feComposite4379-3-8-8-2-77-68-1-1-9-9"
         in2="SourceGraphic"
         in="flood"
         operator="in"
         result="composite1" />
      <feMorphology
         id="feMorphology4393-1-0-49-8-9-8-0-1-4-6"
         operator="dilate"
         radius="4"
         result="result3" />
      <feComposite
         id="feComposite4385-9-5-7-0-8-4-6-5-8-3"
         in2="result3"
         in="SourceGraphic"
         operator="over"
         result="fbSourceGraphic" />
      <feColorMatrix
         result="fbSourceGraphicAlpha"
         in="fbSourceGraphic"
         values="0 0 0 -1 0 0 0 0 -1 0 0 0 0 -1 0 0 0 0 1 0"
         id="feColorMatrix333-3-1-9-1-8" />
      <feTurbulence
         id="feTurbulence335-1-5-7-2-5"
         type="fractalNoise"
         numOctaves="5"
         seed="1"
         baseFrequency="0.013 0.013"
         result="turbulence" />
      <feDisplacementMap
         in2="turbulence"
         id="feDisplacementMap337-4-9-7-9-6"
         in="fbSourceGraphic"
         scale="6.6"
         yChannelSelector="G"
         xChannelSelector="R"
         result="fbSourceGraphic" />
      <feColorMatrix
         result="fbSourceGraphicAlpha"
         in="fbSourceGraphic"
         values="0 0 0 -1 0 0 0 0 -1 0 0 0 0 -1 0 0 0 0 1 0"
         id="feColorMatrix435-92-4-6-3-1" />
      <feTurbulence
         id="feTurbulence437-06-9-7-9-1"
         type="fractalNoise"
         numOctaves="5"
         seed="27"
         baseFrequency="0.001 0.4414"
         result="turbulence" />
      <feDisplacementMap
         in2="turbulence"
         id="feDisplacementMap439-8-0-3-0-5"
         in="fbSourceGraphic"
         scale="4.27461"
         yChannelSelector="G"
         xChannelSelector="R" />
    </filter>
  </defs>
  <sodipodi:namedview
     pagecolor="#ffffff"
     bordercolor="#666666"
     borderopacity="1"
     objecttolerance="10"
     gridtolerance="10"
     guidetolerance="10"
     inkscape:pageopacity="0"
     inkscape:pageshadow="2"
     inkscape:window-width="1680"
     inkscape:window-height="980"
     id="namedview4"
     showgrid="false"
     inkscape:zoom="0.21895518"
     inkscape:cx="1240.5"
     inkscape:cy="1751.5"
     inkscape:window-x="0"
     inkscape:window-y="1"
     inkscape:window-maximized="1"
     inkscape:current-layer="layer1" />
  <g
     inkscape:groupmode="layer"
     id="layer2"
     inkscape:label="artwork"
     sodipodi:insensitive="true">
    <image
       sodipodi:absref="/Users/gand/Documents/Pepper&amp;Carrot/ep27_Coriander-s-Invention/it/../gfx_Pepper-and-Carrot_by-David-Revoy_E27P05.png"
       xlink:href="../gfx_Pepper-and-Carrot_by-David-Revoy_E27P05.png"
       width="2481"
       height="3503"
       id="image10"
       x="0"
       y="0" />
  </g>
  <g
     inkscape:groupmode="layer"
     id="layer3"
     inkscape:label="speechbubbles"
     style="display:inline">
    <path
       style="fill:#ffffff;fill-rule:evenodd;stroke:none;stroke-width:1.10533893px;stroke-linecap:butt;stroke-linejoin:miter;stroke-opacity:1"
       d="m 718.61756,245.42599 c 0,-41.7709 -1.47142,-68.35016 21.8877,-84.10927 27.13913,-18.30928 97.14869,-31.77127 114.63545,-33.11871 17.48679,-1.34745 106.86357,0 137.95115,6.73723 31.08764,6.73725 103.33614,7.96193 122.76604,21.43641 19.4295,13.47448 38.5008,49.97834 38.5008,79.62219 0,29.64386 -27.2016,66.02496 -54.4031,80.84689 -27.2019,14.82192 -114.63563,26.94895 -151.55213,25.60151 -36.91651,-1.34745 -120.46438,0 -153.49495,-18.86428 -33.03055,-18.86427 -76.29096,-39.07598 -76.29096,-78.15197 z"
       id="path1076"
       inkscape:connector-curvature="0"
       sodipodi:nodetypes="sssscscsss" />
    <path
       style="fill:#ffffff;fill-rule:evenodd;stroke:none;stroke-width:1px;stroke-linecap:butt;stroke-linejoin:miter;stroke-opacity:1"
       d="m 940.3125,313.50325 c 0,0 -8.64656,34.5862 -16.21229,50.79849 -7.56573,16.21228 -11.88901,24.85883 -5.40409,39.9903 6.48491,15.13146 23.77801,25.93965 23.77801,42.15194 0,16.21228 -12.96982,60.52586 -35.66702,85.3847 17.2931,-33.50539 22.6972,-67.01078 18.37392,-82.14224 -4.32328,-15.13147 -33.50539,-33.50539 -33.50539,-48.63686 0,-15.13146 28.1013,-89.70797 28.1013,-89.70797 z"
       id="path1078"
       inkscape:connector-curvature="0" />
    <path
       style="fill:#ffffff;fill-rule:evenodd;stroke:none;stroke-width:1.04349387px;stroke-linecap:butt;stroke-linejoin:miter;stroke-opacity:1"
       d="m 1123.5144,289.17194 c 5.6749,-58.27798 31.3158,-76.78421 51.7452,-81.26712 20.4295,-4.48293 90.5125,-15.67347 112.0769,-12.31128 21.5645,3.36219 97.221,1.67851 117.6505,43.14553 20.4295,41.46701 23.1092,84.39339 4.9498,118.01529 -18.1594,33.62191 -66.8261,52.78864 -119.0347,52.78864 -52.2087,0 -114.8098,-3.81512 -144.3191,-30.71265 -29.5093,-26.89752 -25.3388,-48.19139 -23.0686,-89.65841 z"
       id="path1080"
       inkscape:connector-curvature="0"
       sodipodi:nodetypes="csscsssc" />
    <path
       style="fill:#ffffff;fill-rule:evenodd;stroke:none;stroke-width:1px;stroke-linecap:butt;stroke-linejoin:miter;stroke-opacity:1"
       d="m 1194.305,345.92782 c -9.7274,39.9903 -10.8082,52.96012 -21.6164,69.17241 -10.8082,16.21228 -29.1821,20.53556 -31.3438,29.18211 -2.1616,8.64655 1.0808,29.18211 20.5356,51.87931 -36.7479,-29.18211 -35.667,-43.23276 -32.4246,-60.52586 3.2425,-17.2931 25.9397,-18.37392 33.5054,-54.04095 7.5657,-35.66702 16.2123,-56.20258 16.2123,-56.20258 z"
       id="path1082"
       inkscape:connector-curvature="0" />
    <path
       style="fill:#ffffff;fill-rule:evenodd;stroke:none;stroke-width:1px;stroke-linecap:butt;stroke-linejoin:miter;stroke-opacity:1"
       d="m 381.62228,1130.1196 c 7.10656,-26.2943 39.08608,-39.0861 50.45657,-41.2181 11.3705,-2.1319 69.64429,3.5533 87.41069,13.5025 17.7664,9.9492 32.69018,19.8984 34.82215,30.5582 2.13197,10.6598 2.13197,24.873 -2.84263,33.4008 -4.97459,8.5279 -68.93363,18.4771 -84.56806,20.6091 -15.63443,2.1319 -47.61395,-0.7107 -65.38035,-9.2386 -17.7664,-8.5278 -23.45165,-24.8729 -19.89837,-47.6139 z"
       id="path1084"
       inkscape:connector-curvature="0" />
    <path
       style="fill:#ffffff;fill-rule:evenodd;stroke:none;stroke-width:1px;stroke-linecap:butt;stroke-linejoin:miter;stroke-opacity:1"
       d="m 441.31738,1197.6319 c 15.63444,-22.0303 54.72052,-29.8476 79.59348,-30.5582 24.87296,-0.7107 43.35001,-2.132 58.98445,5.6852 15.63443,7.8173 36.95411,17.0558 35.5328,35.5328 -1.42132,18.4771 0.71065,31.2689 -13.50247,41.9287 -14.21312,10.6599 -61.11642,17.0558 -71.77626,17.7664 -10.65984,0.7107 -27.71558,4.264 -49.03526,-5.6852 -21.31968,-9.9492 -39.08608,-24.1623 -41.21805,-36.9541 -2.13197,-12.7918 1.42131,-27.7156 1.42131,-27.7156 z"
       id="path1086"
       inkscape:connector-curvature="0" />
    <path
       style="fill:#ffffff;fill-rule:evenodd;stroke:none;stroke-width:1px;stroke-linecap:butt;stroke-linejoin:miter;stroke-opacity:1"
       d="m 502.33666,1275.8008 c 7.10656,-22.0303 26.39141,-32.6869 50.55372,-32.6869 24.1623,0 59.6951,-2.8426 76.75085,7.8172 17.05574,10.6598 25.58361,22.741 24.87296,35.5328 -0.71066,12.7918 -7.81722,27.7156 -22.741,35.5328 -14.92377,7.8172 -52.58854,9.2385 -76.75085,7.1066 -24.1623,-2.132 -49.03688,-16.3484 -52.58854,-27.7156 -1.92638,-9.3357 -0.0971,-25.5869 -0.0971,-25.5869 z"
       id="path1088"
       inkscape:connector-curvature="0"
       sodipodi:nodetypes="cssssccc" />
    <path
       style="fill:#ffffff;fill-rule:evenodd;stroke:none;stroke-width:1px;stroke-linecap:butt;stroke-linejoin:miter;stroke-opacity:1"
       d="m 596.46743,1302.5188 c 0,0 8.06037,1.6121 6.98565,11.8219 -1.07471,10.2098 -10.74716,38.6898 -16.6581,45.6754 9.67245,-7.523 19.88225,-15.046 31.16677,-6.9856 11.28452,8.0603 19.88225,12.8966 6.4483,38.6898 0.53735,5.9109 1.61207,15.5833 9.67244,18.8075 -18.27017,-6.4483 -22.03168,-15.5834 -19.88225,-23.6438 2.14943,-8.0603 6.98566,-18.2701 0.53736,-22.0317 -6.4483,-3.7615 -26.8679,17.1955 -34.92827,7.5231 -8.06037,-9.6725 -8.06037,-16.6581 -6.4483,-19.8823 1.61208,-3.2241 10.74716,-13.9713 11.82188,-19.8822 1.07471,-5.911 1.61207,-18.2702 -2.14943,-24.7185 -3.76151,-6.4483 13.43395,-5.3736 13.43395,-5.3736 z"
       id="path1090"
       inkscape:connector-curvature="0" />
    <path
       style="fill:#ffffff;fill-rule:evenodd;stroke:none;stroke-width:1.00397301px;stroke-linecap:butt;stroke-linejoin:miter;stroke-opacity:1"
       d="m 102.6778,2106.6536 c 26.44638,8.9612 66.89293,40.1949 12.96983,66.4549 18.80195,10.0562 52.724,20.3976 9.72737,58.8289 103.06565,-23.6639 88.57768,20.6764 58.36422,53.3817 75.97413,-51.3277 83.42096,-31.1094 70.03143,6.1037 80.84118,-50.3068 60.97243,0.4056 54.26275,16.7743 42.20265,-26.5229 66.7549,-24.2414 69.17242,14.1625 42.64042,-61.3018 64.27867,-21.8214 81.06142,1.0894 -5.3419,-19.6669 13.32894,-75.3369 78.89978,-10.8942 -10.71279,-46.4925 19.79613,-43.7811 81.06143,-4.3577 -46.94423,-70.7942 33.65459,-38.4011 55.12176,-23.9674 -27.41526,-20.4615 -64.31284,-78.8462 38.90949,-38.1298 -41.48742,-23.4136 -35.44544,-42.5707 31.34375,-52.2924 -24.87408,-19.2355 -43.55271,-37.2885 22.69719,-46.8452 -26.3266,-5.0695 -89.33408,9.7167 -20.53556,-46.8452 -45.88658,1.8277 -63.81997,-3.2555 -9.72737,-26.1463 -72.67493,10.059 -93.00682,1.1244 -23.77801,-40.3086 -115.51746,44.0421 -56.23383,-3.2794 -41.07113,-18.5202 -52.36865,23.454 -88.38109,36.2898 -30.26293,-11.9837 -101.29035,34.0902 -64.5478,-14.3766 -62.6875,-28.325 -51.84205,61.9662 -56.47856,4.2081 -62.6875,-9.8049 -4.83313,48.4551 -11.18902,16.9264 -22.69719,-2.1788 -16.28,21.397 -32.81186,41.0678 -58.36423,-1.0894 -16.31205,39.7407 -37.52356,21.8659 -59.44504,-4.3577 1.8202,59.1905 -45.1974,4.5445 -70.25323,1.0894 19.48149,57.7401 -19.29542,29.494 -50.79849,11.9837 58.97783,72.7387 -32.75724,40.3528 -62.6875,19.6097 65.72865,55.1496 45.01751,68.2448 -10.80819,43.5769 69.25845,41.7365 -10.63458,60.5111 -50.79849,20.6991 50.98676,49.9061 23.61364,57.3949 -27.02048,52.2923 z"
       id="path1092"
       inkscape:connector-curvature="0"
       sodipodi:nodetypes="cccccccccccccccccccccccccccccc" />
    <path
       style="fill:#ffffff;fill-rule:evenodd;stroke:none;stroke-width:1px;stroke-linecap:butt;stroke-linejoin:miter;stroke-opacity:1"
       d="m 357.21198,2209.9917 c -73.33356,55.9324 -104.40711,93.2206 -116.83653,150.3959 -12.42942,57.1754 -21.13001,118.0795 47.23179,190.1701 -79.54827,-68.3618 -74.57651,-141.6953 -72.09062,-162.8253 2.48588,-21.1301 16.15824,-95.7066 60.90414,-147.9101 44.74591,-52.2036 93.22064,-87.0059 93.22064,-87.0059 l 6.21471,34.8023 z"
       id="path1094"
       inkscape:connector-curvature="0" />
    <path
       style="fill:#ffffff;fill-rule:evenodd;stroke:none;stroke-width:1.03585076px;stroke-linecap:butt;stroke-linejoin:miter;stroke-opacity:1"
       d="m 850.54423,1974.1816 c 51.6555,34.6882 42.14444,49.8316 -30.67417,44.7459 116.09538,53.2655 68.16996,61.238 -5.33465,62.1471 49.34331,19.4553 103.94099,38.4938 -9.33562,70.8477 65.64494,5.2455 122.84257,12.652 10.66928,63.39 58.19811,-2.0839 116.86991,-4.4303 46.67811,64.633 95.26526,-31.0201 161.34292,-40.1458 112.02745,37.2882 47.88397,-22.8044 126.60657,-80.5977 98.69087,-17.4012 21.9384,-20.1828 49.859,-27.8213 100.0245,11.1865 -9.7822,-28.1322 -39.2553,-72.7174 49.3454,-18.6441 -26.7845,-42.3104 -32.1174,-65.2342 57.3474,-2.4859 -13.3275,-31.9022 -70.7813,-63.8043 38.6762,-95.7065 -75.3968,-3.1818 -52.0099,-24.7765 -4.001,-50.9606 -89.7782,-14.4712 -45.3582,-31.9928 8.002,-49.7177 -55.6088,-6.7561 -98.5101,-18.1339 -10.6694,-77.0624 -96.6879,24.464 -68.707,-16.9122 -64.0157,-45.9888 -44.6197,23.0884 -95.0786,59.3281 -98.6909,-9.9436 -59.8557,85.9439 -82.5189,20.2381 -116.0284,-1.2429 -34.85312,102.2654 -113.86176,8.0149 -136.03326,1.2429 45.21464,41.857 53.10901,60.809 -46.67811,13.6724 z"
       id="path1096"
       inkscape:connector-curvature="0"
       sodipodi:nodetypes="cccccccccccccccccccc" />
    <path
       style="fill:#ffffff;fill-rule:evenodd;stroke:none;stroke-width:1px;stroke-linecap:butt;stroke-linejoin:miter;stroke-opacity:1"
       d="m 1092.4181,2235.1567 c -27.3447,36.0454 -98.19242,124.2942 -99.43532,131.7519 -1.24299,7.4576 39.77412,-2.4859 39.77412,-2.4859 l -60.90418,89.4918 c 0,0 103.16418,-99.4353 109.37888,-104.4071 6.2147,-4.9718 -23.6159,-11.1865 -41.0171,-6.2147 19.8871,-19.8871 99.4354,-99.4354 99.4354,-99.4354 z"
       id="path1098"
       inkscape:connector-curvature="0" />
    <path
       style="fill:#ffffff;fill-rule:evenodd;stroke:none;stroke-width:1.02686799px;stroke-linecap:butt;stroke-linejoin:miter;stroke-opacity:1"
       d="m 1344.6207,2045.122 c 47.741,25.8606 63.8286,-19.2377 74.885,-75.6144 -2.0531,137.8642 65.3321,79.1036 141.0621,-3.2875 -22.5318,100.9579 37.522,107.6272 112.279,51.1627 -8.4552,48.7044 21.35,68.0509 101.0031,24.8367 -24.0651,54.9811 -70.2256,105.8558 102.6201,39.8106 -50.607,36.851 -130.2746,83.4177 -19.8455,116.0465 -99.4431,14.3838 -124.8679,81.7414 -98.9285,113.658 -47.3762,-64.5955 -88.4616,-53.9715 -69.998,49.0773 -47.6545,-48.926 -86.7073,-81.9737 -95.7831,-26.3007 -85.9047,-144.4324 -67.6072,45.1846 -66.1772,164.3791 -24.2895,-139.5228 -52.617,-277.2814 -127.1302,-126.5719 -0.5265,-53.3867 -18.8109,-91.517 -53.9868,-64.1078 z"
       id="path1100"
       inkscape:connector-curvature="0"
       sodipodi:nodetypes="cccccccccccccc" />
  </g>
  <g
     inkscape:groupmode="layer"
     id="layer1"
     inkscape:label="txt">
    <text
       xml:space="preserve"
       style="font-style:normal;font-variant:normal;font-weight:normal;font-stretch:normal;line-height:0%;font-family:Lavi;-inkscape-font-specification:Lavi;text-align:center;letter-spacing:0px;word-spacing:0px;text-anchor:middle;fill:#000000;fill-opacity:1;stroke:none"
       x="936.65186"
       y="207.78159"
       id="text4246"><tspan
         sodipodi:role="line"
         style="font-size:45px;line-height:1.20000005"
         x="936.65186"
         y="207.78159"
         id="tspan4252">Divertente? Ma no,</tspan><tspan
         sodipodi:role="line"
         style="font-size:45px;line-height:1.20000005"
         x="936.65186"
         y="261.78159"
         id="tspan823">certo che no!</tspan><tspan
         sodipodi:role="line"
         style="font-size:45px;line-height:1.20000005"
         x="936.65186"
         y="315.78159"
         id="tspan825">Scusa.</tspan></text>
    <text
       xml:space="preserve"
       style="font-style:normal;font-variant:normal;font-weight:normal;font-stretch:normal;line-height:0%;font-family:Lavi;-inkscape-font-specification:Lavi;text-align:center;letter-spacing:0px;word-spacing:0px;text-anchor:middle;fill:#000000;fill-opacity:1;stroke:none"
       x="1265.011"
       y="265.11826"
       id="text4246-3"><tspan
         sodipodi:role="line"
         style="font-size:45px;line-height:1.20000005"
         x="1265.011"
         y="265.11826"
         id="tspan825-5">Si si! Vero!</tspan><tspan
         sodipodi:role="line"
         style="font-size:45px;line-height:1.20000005"
         x="1265.011"
         y="319.11826"
         id="tspan856">Per nulla</tspan><tspan
         sodipodi:role="line"
         style="font-size:45px;line-height:1.20000005"
         x="1265.011"
         y="373.11826"
         id="tspan858">divertente!</tspan></text>
    <text
       xml:space="preserve"
       style="font-style:normal;font-variant:normal;font-weight:normal;font-stretch:normal;line-height:0%;font-family:Lavi;-inkscape-font-specification:Lavi;text-align:center;letter-spacing:0px;word-spacing:0px;text-anchor:middle;fill:#000000;fill-opacity:1;stroke:none"
       x="475.27716"
       y="1156.4937"
       id="text4246-0"><tspan
         sodipodi:role="line"
         style="font-size:45px;line-height:1.20000005"
         x="475.27716"
         y="1156.4937"
         id="tspan4252-9">Ha…</tspan></text>
    <text
       xml:space="preserve"
       style="font-style:normal;font-variant:normal;font-weight:normal;font-stretch:normal;line-height:0%;font-family:Lavi;-inkscape-font-specification:Lavi;text-align:center;letter-spacing:0px;word-spacing:0px;text-anchor:middle;fill:#000000;fill-opacity:1;stroke:none"
       x="535.16223"
       y="1232.2852"
       id="text4246-0-3"><tspan
         sodipodi:role="line"
         style="font-size:45px;line-height:1.20000005"
         x="535.16223"
         y="1232.2852"
         id="tspan4252-9-6">Ha…</tspan></text>
    <text
       xml:space="preserve"
       style="font-style:normal;font-variant:normal;font-weight:normal;font-stretch:normal;line-height:0%;font-family:Lavi;-inkscape-font-specification:Lavi;text-align:center;letter-spacing:0px;word-spacing:0px;text-anchor:middle;fill:#000000;fill-opacity:1;stroke:none"
       x="581.47876"
       y="1302.325"
       id="text4246-0-0"><tspan
         sodipodi:role="line"
         style="font-size:45px;line-height:1.20000005"
         x="581.47876"
         y="1302.325"
         id="tspan4252-9-62">Ha.</tspan></text>
    <flowRoot
       xml:space="preserve"
       id="flowRoot1004"
       style="font-style:normal;font-variant:normal;font-weight:normal;font-stretch:normal;font-size:0.66666669px;line-height:0%;font-family:Lavi;-inkscape-font-specification:Lavi;text-align:center;letter-spacing:4.28999996px;word-spacing:-79.63999939px;writing-mode:lr-tb;text-anchor:middle;fill:#000000;fill-opacity:1;stroke:none;stroke-width:1px;stroke-linecap:butt;stroke-linejoin:miter;stroke-opacity:1"><flowRegion
         id="flowRegion1006"><rect
           id="rect1008"
           width="15.723214"
           height="1.429383"
           x="606.05841"
           y="1290.3149" /></flowRegion><flowPara
         id="flowPara1010" /></flowRoot>    <flowRoot
       xml:space="preserve"
       id="flowRoot1012"
       style="font-style:normal;font-variant:normal;font-weight:normal;font-stretch:normal;font-size:0.66666669px;line-height:0%;font-family:Lavi;-inkscape-font-specification:Lavi;text-align:center;letter-spacing:4.28999996px;word-spacing:-79.63999939px;writing-mode:lr-tb;text-anchor:middle;fill:#000000;fill-opacity:1;stroke:none;stroke-width:1px;stroke-linecap:butt;stroke-linejoin:miter;stroke-opacity:1"><flowRegion
         id="flowRegion1014"><rect
           id="rect1016"
           width="10.005682"
           height="2.8587661"
           x="608.91718"
           y="1290.3149" /></flowRegion><flowPara
         id="flowPara1018" /></flowRoot>    <text
       xml:space="preserve"
       style="font-style:normal;font-variant:normal;font-weight:normal;font-stretch:normal;font-size:19.50984192px;line-height:0%;font-family:Lavi;-inkscape-font-specification:Lavi;text-align:center;letter-spacing:0px;word-spacing:0px;text-anchor:middle;fill:#000000;fill-opacity:1;stroke:none;stroke-width:1.95098436;stroke-miterlimit:4;stroke-dasharray:none"
       x="450.68362"
       y="1960.8077"
       id="text4246-6"
       transform="scale(0.9428475,1.0606169)"><tspan
         sodipodi:role="line"
         style="font-style:normal;font-variant:normal;font-weight:bold;font-stretch:normal;font-size:73.16191101px;line-height:1.20000005;font-family:Lavi;-inkscape-font-specification:'Lavi Bold';stroke:#000000;stroke-width:1.95098436;stroke-miterlimit:4;stroke-dasharray:none;stroke-opacity:1"
         x="450.68362"
         y="1960.8077"
         id="tspan4252-1">OH NO!</tspan></text>
    <text
       xml:space="preserve"
       style="font-style:normal;font-variant:normal;font-weight:normal;font-stretch:normal;line-height:0%;font-family:Lavi;-inkscape-font-specification:Lavi;text-align:center;letter-spacing:0px;word-spacing:0px;text-anchor:middle;fill:#000000;fill-opacity:1;stroke:none"
       x="429.84744"
       y="2138.5007"
       id="text4246-8"><tspan
         sodipodi:role="line"
         style="font-size:45px;line-height:1.20000005"
         x="429.84744"
         y="2138.5007"
         id="tspan961">Il vestito della cerimonia</tspan><tspan
         sodipodi:role="line"
         style="font-size:45px;line-height:1.20000005"
         x="429.84744"
         y="2192.5007"
         id="tspan957">è rovinato! Il mio sarto</tspan><tspan
         sodipodi:role="line"
         style="font-size:45px;line-height:1.20000005"
         x="429.84744"
         y="2246.5007"
         id="tspan962">sarà furioso!</tspan></text>
    <text
       xml:space="preserve"
       style="font-style:normal;font-variant:normal;font-weight:normal;font-stretch:normal;font-size:15.58635426px;line-height:0%;font-family:Lavi;-inkscape-font-specification:Lavi;text-align:center;letter-spacing:0px;word-spacing:0px;text-anchor:middle;fill:#000000;fill-opacity:1;stroke:none;stroke-width:1.29886293"
       x="1355.6484"
       y="1927.4419"
       id="text4246-9"
       transform="matrix(0.92146908,0,-0.09009126,1.0852236,0,0)"><tspan
         sodipodi:role="line"
         style="font-style:normal;font-variant:normal;font-weight:bold;font-stretch:normal;font-size:58.44882965px;line-height:1.20000005;font-family:Lavi;-inkscape-font-specification:'Lavi Bold';stroke-width:1.29886293"
         x="1355.6484"
         y="1927.4419"
         id="tspan4252-2">Cattivo robot!</tspan></text>
    <text
       xml:space="preserve"
       style="font-style:normal;font-variant:normal;font-weight:normal;font-stretch:normal;font-size:13.84969044px;line-height:0%;font-family:Lavi;-inkscape-font-specification:Lavi;text-align:center;letter-spacing:0px;word-spacing:0px;text-anchor:middle;fill:#000000;fill-opacity:1;stroke:none;stroke-width:1.15414095"
       x="1071.7494"
       y="2174.3855"
       id="text4246-02"
       transform="scale(1.0048528,0.99517063)"><tspan
         sodipodi:role="line"
         style="font-size:51.93634033px;line-height:1.20000005;stroke-width:1.15414095"
         x="1071.7494"
         y="2174.3855"
         id="tspan1056">Adesso ti sistemo</tspan><tspan
         sodipodi:role="line"
         style="font-size:51.93634033px;line-height:1.20000005;stroke-width:1.15414095"
         x="1071.7494"
         y="2236.7092"
         id="tspan766">io, per sempre!</tspan></text>
    <text
       xml:space="preserve"
       style="font-style:normal;font-variant:normal;font-weight:normal;font-stretch:normal;font-size:26.56264687px;line-height:0%;font-family:Lavi;-inkscape-font-specification:Lavi;text-align:center;letter-spacing:26.91141891px;word-spacing:0px;text-anchor:middle;fill:#000000;fill-opacity:1;stroke:none;stroke-width:0.92450589"
       x="2179.6978"
       y="2031.6165"
       id="text4246-6-6-3"
       transform="matrix(0.91674667,0,-0.2119342,1.0908139,0,0)"><tspan
         sodipodi:role="line"
         style="font-style:normal;font-variant:normal;font-weight:bold;font-stretch:normal;font-size:99.60993195px;line-height:1.20000005;font-family:Lavi;-inkscape-font-specification:'Lavi Bold';letter-spacing:3.69802356px;stroke-width:0.92450589"
         x="2181.5469"
         y="2031.6165"
         id="tspan4252-00-4-7">FERMA!!!</tspan></text>
    <text
       xml:space="preserve"
       style="font-style:normal;font-variant:normal;font-weight:normal;font-stretch:normal;font-size:40px;line-height:125%;font-family:'Cabin Sketch';-inkscape-font-specification:'Cabin Sketch';letter-spacing:0px;word-spacing:0px;fill:#000000;fill-opacity:1;stroke:none;stroke-width:1px;stroke-linecap:butt;stroke-linejoin:miter;stroke-opacity:1"
       x="1263.3837"
       y="254.65823"
       id="text770"><tspan
         sodipodi:role="line"
         id="tspan768"
         x="1263.3837"
         y="289.47891" /></text>
    <text
       xml:space="preserve"
       style="font-style:normal;font-variant:normal;font-weight:normal;font-stretch:normal;line-height:0%;font-family:Lavi;-inkscape-font-specification:Lavi;letter-spacing:0px;word-spacing:0px;fill:#000000;fill-opacity:1;stroke:#000000;stroke-width:0;stroke-linecap:square;stroke-miterlimit:4;stroke-dasharray:none;stroke-opacity:1;filter:url(#filter4375-4-1-1-1-9-8)"
       x="787.65729"
       y="1584.5073"
       id="text4580-7"
       transform="matrix(2.7819933,-0.1626793,-0.94551619,2.9284614,887.83592,-4228.9016)"><tspan
         sodipodi:role="line"
         id="tspan4582-7"
         x="787.65729"
         y="1584.5073"
         style="font-style:normal;font-variant:normal;font-weight:normal;font-stretch:normal;font-size:70px;line-height:1.25;font-family:ComicSpice;-inkscape-font-specification:ComicSpice;fill:#ffffff;stroke-width:0;stroke-linecap:square;stroke-miterlimit:4;stroke-dasharray:none">B</tspan></text>
    <text
       xml:space="preserve"
       style="font-style:normal;font-variant:normal;font-weight:normal;font-stretch:normal;line-height:0%;font-family:Lavi;-inkscape-font-specification:Lavi;letter-spacing:0px;word-spacing:0px;fill:#000000;fill-opacity:1;stroke:#000000;stroke-width:0;stroke-linecap:square;stroke-miterlimit:4;stroke-dasharray:none;stroke-opacity:1;filter:url(#filter4375-4-1-1-1-9-30-7)"
       x="787.65729"
       y="1584.5073"
       id="text4580-9-6"
       transform="matrix(2.0062568,-0.28085132,-1.1064232,2.8181271,1827.0399,-3899.3548)"><tspan
         sodipodi:role="line"
         id="tspan4582-26-4"
         x="787.65729"
         y="1584.5073"
         style="font-style:normal;font-variant:normal;font-weight:normal;font-stretch:normal;font-size:70px;line-height:1.25;font-family:ComicSpice;-inkscape-font-specification:ComicSpice;fill:#ffffff;stroke-width:0;stroke-linecap:square;stroke-miterlimit:4;stroke-dasharray:none">Z</tspan></text>
    <text
       xml:space="preserve"
       style="font-style:normal;font-variant:normal;font-weight:normal;font-stretch:normal;line-height:0%;font-family:Lavi;-inkscape-font-specification:Lavi;letter-spacing:0px;word-spacing:0px;fill:#000000;fill-opacity:1;stroke:#000000;stroke-width:0;stroke-linecap:square;stroke-miterlimit:4;stroke-dasharray:none;stroke-opacity:1;filter:url(#filter4375-4-1-1-1-9-30-2-4)"
       x="787.65729"
       y="1584.5073"
       id="text4580-9-9-3"
       transform="matrix(1.6478956,-0.12375314,-0.87637078,2.5734869,1811.3927,-3600.7784)"><tspan
         sodipodi:role="line"
         id="tspan4582-26-1-0"
         x="787.65729"
         y="1584.5073"
         style="font-style:normal;font-variant:normal;font-weight:normal;font-stretch:normal;font-size:70px;line-height:1.25;font-family:ComicSpice;-inkscape-font-specification:ComicSpice;fill:#ffffff;stroke-width:0;stroke-linecap:square;stroke-miterlimit:4;stroke-dasharray:none">Z</tspan></text>
    <text
       xml:space="preserve"
       style="font-style:normal;font-variant:normal;font-weight:normal;font-stretch:normal;line-height:0%;font-family:Lavi;-inkscape-font-specification:Lavi;letter-spacing:0px;word-spacing:0px;fill:#000000;fill-opacity:1;stroke:#000000;stroke-width:0;stroke-linecap:square;stroke-miterlimit:4;stroke-dasharray:none;stroke-opacity:1;filter:url(#filter4375-4-1-1-1-9-30-2-7-9)"
       x="787.65729"
       y="1584.5073"
       id="text4580-9-9-6-3"
       transform="matrix(1.7863953,-0.07100102,-0.69940041,2.1802978,1477.4386,-2984.9193)"><tspan
         sodipodi:role="line"
         id="tspan4582-26-1-5-0"
         x="787.65729"
         y="1584.5073"
         style="font-style:normal;font-variant:normal;font-weight:normal;font-stretch:normal;font-size:70px;line-height:1.25;font-family:ComicSpice;-inkscape-font-specification:ComicSpice;fill:#ffffff;stroke-width:0;stroke-linecap:square;stroke-miterlimit:4;stroke-dasharray:none">Z</tspan></text>
    <text
       xml:space="preserve"
       style="font-style:normal;font-variant:normal;font-weight:normal;font-stretch:normal;line-height:0%;font-family:Lavi;-inkscape-font-specification:Lavi;letter-spacing:0px;word-spacing:0px;fill:#000000;fill-opacity:1;stroke:#000000;stroke-width:0;stroke-linecap:square;stroke-miterlimit:4;stroke-dasharray:none;stroke-opacity:1;filter:url(#filter4375-4-1-1-1-9-30-2-7-6-5)"
       x="787.65729"
       y="1584.5073"
       id="text4580-9-9-6-8-9"
       transform="matrix(2.0241923,0.10781681,-1.2082941,2.536771,2181.4743,-3672.0484)"><tspan
         sodipodi:role="line"
         id="tspan4582-26-1-5-8-2"
         x="787.65729"
         y="1584.5073"
         style="font-style:normal;font-variant:normal;font-weight:normal;font-stretch:normal;font-size:70px;line-height:1.25;font-family:ComicSpice;-inkscape-font-specification:ComicSpice;fill:#ffffff;stroke-width:0;stroke-linecap:square;stroke-miterlimit:4;stroke-dasharray:none">!</tspan></text>
  </g>
</svg>
