<?xml version="1.0" encoding="UTF-8" standalone="no"?>
<!-- Created with Inkscape (http://www.inkscape.org/) -->

<svg
   xmlns:dc="http://purl.org/dc/elements/1.1/"
   xmlns:cc="http://creativecommons.org/ns#"
   xmlns:rdf="http://www.w3.org/1999/02/22-rdf-syntax-ns#"
   xmlns:svg="http://www.w3.org/2000/svg"
   xmlns="http://www.w3.org/2000/svg"
   xmlns:xlink="http://www.w3.org/1999/xlink"
   xmlns:sodipodi="http://sodipodi.sourceforge.net/DTD/sodipodi-0.dtd"
   xmlns:inkscape="http://www.inkscape.org/namespaces/inkscape"
   id="svg2"
   version="1.1"
   inkscape:version="0.92.4 5da689c313, 2019-01-14"
   width="2481"
   height="3503"
   sodipodi:docname="E29P03.svg">
  <metadata
     id="metadata8">
    <rdf:RDF>
      <cc:Work
         rdf:about="">
        <dc:format>image/svg+xml</dc:format>
        <dc:type
           rdf:resource="http://purl.org/dc/dcmitype/StillImage" />
        <dc:title />
      </cc:Work>
    </rdf:RDF>
  </metadata>
  <defs
     id="defs6" />
  <sodipodi:namedview
     pagecolor="#ffffff"
     bordercolor="#666666"
     borderopacity="1"
     objecttolerance="10"
     gridtolerance="10"
     guidetolerance="10"
     inkscape:pageopacity="0"
     inkscape:pageshadow="2"
     inkscape:window-width="1920"
     inkscape:window-height="1000"
     id="namedview4"
     showgrid="false"
     inkscape:zoom="0.36246312"
     inkscape:cx="706.79411"
     inkscape:cy="1697.8409"
     inkscape:window-x="0"
     inkscape:window-y="45"
     inkscape:window-maximized="1"
     inkscape:current-layer="layer1"
     inkscape:snap-global="false" />
  <g
     inkscape:groupmode="layer"
     id="layer2"
     inkscape:label="artwork"
     sodipodi:insensitive="true">
    <image
       sodipodi:absref="/home/ambernite/peppercarrot/webcomics/new-ep29_Destroyer-of-Worlds/lang/kr/../gfx_Pepper-and-Carrot_by-David-Revoy_E29P03.png"
       xlink:href="../gfx_Pepper-and-Carrot_by-David-Revoy_E29P03.png"
       width="2481"
       height="3503"
       id="image10"
       x="0"
       y="0" />
  </g>
  <g
     inkscape:groupmode="layer"
     id="layer3"
     inkscape:label="speechbubbles">
    <path
       style="color:#000000;display:inline;overflow:visible;visibility:visible;fill:#ffffff;fill-opacity:1;fill-rule:nonzero;stroke:none;stroke-width:0.93669188px;marker:none;enable-background:accumulate"
       d="m 145.05957,202.33064 c 4.10363,-20.13195 -1.44969,-43.79319 46.52835,-55.15666 47.97804,-11.36346 149.48745,-13.4538 254.93572,-9.46345 56.48376,2.13745 149.90467,-0.0746 193.19606,11.48671 28.28469,7.55367 42.76814,25.1888 37.41285,54.68195 -5.35526,29.49313 -30.95712,44.8532 -83.21112,51.92252 -52.25401,7.06932 -104.63209,6.82963 -150.24572,6.50136 -44.04147,-0.31696 -78.19783,2.36328 -136.77933,-1.63206 -58.5815,-3.99533 -116.6322,-10.67114 -133.59453,-20.73954 -10.61798,-6.30258 -17.95737,-12.58461 -22.50284,-18.85009 -4.54546,-6.26548 -6.29706,-12.5144 -5.73944,-18.75074 z"
       id="path4546-6"
       inkscape:connector-curvature="0"
       sodipodi:nodetypes="csssssssssc" />
    <path
       style="fill:#ffffff;stroke:none;stroke-width:1"
       d="m 240.20205,385.06686 c -58.13838,-27.45721 -59.25417,-104.2317 6.40363,-135.1495 33.25786,-15.66089 31.21798,-5.00947 31.21798,-5.00947 l -6.80518,-52.3863 c 0,0 17.27652,-20.93641 -34.72953,12.43271 -52.00605,33.36911 -110.96723,129.16604 3.9131,180.11256 z"
       id="path3063"
       inkscape:connector-curvature="0"
       sodipodi:nodetypes="cscczc" />
    <path
       style="color:#000000;display:inline;overflow:visible;visibility:visible;fill:#ffffff;fill-opacity:1;fill-rule:nonzero;stroke:none;stroke-width:0.95251155px;marker:none;enable-background:accumulate"
       d="m 1853.8931,161.70482 c 28.21,-35.7225 395.7349,-57.75144 446.7183,19.47099 32.3522,49.0024 19.6935,234.3177 -21.6154,269.827 -48.6162,41.79071 -320.3368,30.46494 -388.6745,7.17083 -65.0165,-22.16198 -67.4182,-98.07112 -70.6972,-171.81292 -1.3383,-30.0969 6.0587,-88.9333 34.2688,-124.6559 z"
       id="path4040-4"
       inkscape:connector-curvature="0"
       sodipodi:nodetypes="zssssz" />
    <path
       style="color:#000000;display:inline;overflow:visible;visibility:visible;fill:#ffffff;fill-opacity:1;fill-rule:nonzero;stroke:none;stroke-width:0.99999994px;marker:none;enable-background:accumulate"
       d="m 1521.7564,267.86763 c 32.5901,-37.14844 120.5249,-77.58678 199.7918,-73.40468 42.0311,2.21755 81.2853,18.77332 113.3871,43.73164 54.8474,16.58165 18.1095,-34.39627 18.1095,-34.39627 -9.1911,-10.4538 -45.1517,-22.91599 -79.6603,-28.40181 -77.1713,-12.26787 -186.4105,2.0063 -251.6281,92.47112 z"
       id="path3984"
       inkscape:connector-curvature="0"
       sodipodi:nodetypes="csccsc" />
    <path
       style="color:#000000;display:inline;overflow:visible;visibility:visible;fill:#ffffff;fill-opacity:1;fill-rule:nonzero;stroke:none;stroke-width:0.91603637px;marker:none;enable-background:accumulate"
       d="m 1935.3501,526.03993 c 2.6275,-27.92669 8.5513,-50.08154 41.1421,-62.36647 32.5908,-12.28493 91.8487,-14.69995 167.0282,-9.86734 40.2703,2.58861 93.9894,6.35815 126.0815,18.02744 32.0922,11.6693 42.5573,31.23838 39.1757,72.1464 -3.3815,40.908 -15.2077,62.69956 -52.3293,72.842 -37.1216,10.14243 -99.5388,8.63574 -113.1257,9.66758 -35.526,-3.24918 -104.0276,1.35913 -147.5752,-7.24059 -43.5477,-8.59972 -62.1412,-30.40745 -60.3973,-93.20902 z"
       id="path4546-6-0"
       inkscape:connector-curvature="0"
       sodipodi:nodetypes="cssssscsc" />
    <path
       style="color:#000000;display:inline;overflow:visible;visibility:visible;fill:#ffffff;fill-opacity:1;fill-rule:nonzero;stroke:none;stroke-width:0.75731444px;marker:none;enable-background:accumulate"
       d="m 197.71195,1694.024 c 2.54019,-29.5773 2.90481,-58.1325 36.50326,-75.4938 33.59846,-17.3611 92.78985,-22.1677 167.13824,-17.8555 39.825,2.3099 89.99418,5.4231 121.7515,17.4284 31.75731,12.0053 45.10276,32.9027 41.84384,76.2239 -3.25891,43.3211 -20.84543,62.2482 -57.53067,73.3756 -36.68523,11.1275 -92.46919,14.4554 -105.90189,15.6921 -13.43269,1.2365 -55.09495,0.171 -96.42996,-4.8322 -41.335,-5.0031 -69.60794,-8.5012 -81.73165,-23.016 -19.0059,-18.3815 -26.79844,-39.9943 -25.64267,-61.5225 z"
       id="path4546-6-2"
       inkscape:connector-curvature="0"
       sodipodi:nodetypes="cssssssscc" />
    <path
       style="color:#000000;display:inline;overflow:visible;visibility:visible;fill:#ffffff;fill-opacity:1;fill-rule:nonzero;stroke:none;stroke-width:1px;marker:none;enable-background:accumulate"
       d="m 521.869,1649.1001 c 16.11108,-12.2669 15.86616,-23.0299 15.86632,-28.1369 10e-5,-5.107 -4.54529,-18.6761 -3.34265,-24.7247 1.02193,-4.995 3.12956,-18.1154 7.70997,-16.7463 4.58049,1.369 41.01203,26.2432 51.36903,17.3665 10.35713,-8.8768 11.10734,-20.8369 5.69423,-31.5145 -5.41309,-10.6777 -12.30128,-24.7121 -5.30101,-32.1137 7.00027,-7.4017 18.59276,-5.447 23.97197,-2.6844 5.3792,2.7626 35.49917,23.7296 45.22292,25.6243 9.7237,1.8947 23.71407,1.7027 43.50196,-19.9526 -14.8657,10.0411 -26.23617,15.9908 -34.47171,12.561 -8.23568,-3.4298 -23.77359,-8.4777 -30.56794,-16.4657 -6.79439,-7.9881 -19.06179,-24.7851 -27.96463,-25.3584 -8.9028,-0.5734 -30.44585,-2.3321 -37.17011,6.2487 -6.72431,8.5806 -9.50599,21.5672 -1.38826,37.7993 4.40691,11.1306 5.56687,16.9279 3.01621,18.7834 -2.55071,1.8553 -15.98612,-1.694 -23.40319,-10.6812 -7.41712,-8.9873 -15.67928,-14.4795 -30.30826,-9.5821 -15.5687,3.9577 -23.51473,25.3051 -27.43064,29.9131 -2.73121,11.1832 -10.25128,59.7905 -19.09981,53.7189 z"
       id="path5058"
       inkscape:connector-curvature="0"
       sodipodi:nodetypes="cscsssssscssssccscccc" />
    <path
       style="color:#000000;display:inline;overflow:visible;visibility:visible;fill:#ffffff;fill-opacity:1;fill-rule:nonzero;stroke:none;stroke-width:0.82313806px;marker:none;enable-background:accumulate"
       d="m 1764.4652,1053.2341 c 5.2498,-8.2073 17.7963,-16.1303 46.3529,-20.6081 28.5564,-4.478 63.7582,-3.4365 101.8045,-2.4845 38.0462,0.952 37.8932,0.2001 72.4976,0.2078 36.8269,0.01 55.4756,7.7221 77.453,33.4038 21.9775,25.6816 32.773,50.3168 32.6461,82.4557 -0.1269,32.139 -4.9247,55.2101 -25.2644,76.8531 -20.3397,21.6429 -50.8748,38.114 -90.4131,41.6713 -39.5383,3.5575 -132.788,5.498 -180.7883,-16.6429 -48.0006,-22.1412 -50.7211,-37.9122 -53.162,-105.6803 -0.9961,-27.659 -2.1252,-56.347 18.8737,-89.1759 z"
       id="path4040"
       inkscape:connector-curvature="0"
       sodipodi:nodetypes="sssszzzzsss" />
    <path
       style="color:#000000;display:inline;overflow:visible;visibility:visible;fill:#ffffff;fill-opacity:1;fill-rule:nonzero;stroke:none;stroke-width:1.0653249px;marker:none;enable-background:accumulate"
       d="m 1881.5529,1219.0726 c -41.8665,122.7323 -35.3869,185.6777 42.5567,264.4098 -47.4291,-53.5721 -48.443,-140.458 -27.8836,-196.5656 17.5953,-48.018 24.528,-47.5096 24.528,-47.5096 z"
       id="path4440"
       inkscape:connector-curvature="0"
       sodipodi:nodetypes="ccscc" />
    <path
       style="color:#000000;display:inline;overflow:visible;visibility:visible;fill:#ffffff;fill-opacity:1;fill-rule:nonzero;stroke:none;stroke-width:0.76782608px;marker:none;enable-background:accumulate"
       d="m 657.93366,1993.9475 c 29.47991,-13.4405 287.57019,-11.9309 332.36862,-7.6059 34.33602,3.3148 75.11172,3.5193 102.16852,15.3952 27.0566,11.876 37.0079,30.1847 37.1434,67.5058 0.1366,37.6117 -14.8113,71.1333 -46.858,78.7569 -44.2893,10.536 -92.78173,9.9573 -136.44561,10.3643 -26.14232,0.2436 -212.14973,4.6071 -252.29245,-10.5453 -45.79993,-17.2879 -65.29363,-36.9054 -68.08235,-69.4049 -2.51168,-54.9119 12.69791,-75.0308 31.99787,-84.4661 z"
       id="path4546-6-28"
       inkscape:connector-curvature="0"
       sodipodi:nodetypes="csssssscc" />
    <path
       style="color:#000000;display:inline;overflow:visible;visibility:visible;fill:#ffffff;fill-opacity:1;fill-rule:nonzero;stroke:none;stroke-width:1px;marker:none;enable-background:accumulate"
       d="m 876.44075,2262.2076 c 27.46212,-10.0522 29.72719,-13.3589 28.53705,-27.8918 -1.19034,-14.5328 -9.92446,-26.5364 7.13822,-46.8557 17.0627,-20.3194 23.42581,-21.4269 33.84191,-22.8653 -10.7962,-15.1116 -24.19769,-37.3822 -37.83781,-39.5812 -13.64004,-2.1992 45.1695,-29.6441 45.1695,-29.6441 0,0 22.75583,46.3627 21.99513,70.4189 -5.53179,28.827 -31.7847,25.0277 -45.6068,37.2789 -13.82198,12.2511 -2.66123,31.1992 -11.63877,43.0536 -8.97788,11.8543 -27.71027,14.1688 -41.59843,16.0867 z"
       id="path4538"
       inkscape:connector-curvature="0"
       sodipodi:nodetypes="cccccccscc" />
    <path
       style="fill:#ffffff;fill-rule:evenodd;stroke:none;stroke-width:0.90549982px;stroke-linecap:butt;stroke-linejoin:miter;stroke-opacity:1"
       d="m 1351.4781,1984.7216 c 23.6432,-4.5331 47.7166,-6.8902 23.9141,-39.0973 32.9862,15.9013 83.3164,24.7011 104.4324,-9.3315 17.2526,32.4151 59.4625,18.1393 84.952,9.2863 -18.65,39.1099 15.0387,35.1498 39.9173,26.2972 -47.6696,44.4003 -22.6378,58.521 -3.8543,75.2441 -46.848,-12.3727 -78.9412,-0.2731 -63.2681,27.9538 -38.7162,-29.2045 -83.3905,-23.5745 -70.3498,4.2937 -9.6042,-13.2298 -8.5885,-40.9431 -60.385,1.7915 16.3704,-44.5555 -5.0876,-39.8788 -39.8284,-17.9152 5.4447,-15.1762 37.8047,-38.2538 -16.7022,-35.8306 34.046,-14.4273 45.8736,-25.3946 1.172,-42.692 z"
       id="path4584"
       inkscape:connector-curvature="0"
       sodipodi:nodetypes="cccccccccccc" />
    <path
       style="color:#000000;display:inline;overflow:visible;visibility:visible;fill:#ffffff;fill-opacity:1;fill-rule:nonzero;stroke:none;stroke-width:1px;marker:none;enable-background:accumulate"
       d="m 1472.7384,2047.3416 c 0.2312,29.9074 3.2778,68.8487 8.7074,74.7102 -9.1366,-3.6864 -17.8817,-5.2616 -24.6773,-6.6173 -2.08,14.7875 9.0067,61.8116 14.5567,88.5609 -25.1053,-37.9041 -39.0273,-94.4 -38.8725,-117.7051 8.4834,5.8822 16.5056,8.882 21.4065,8.8433 5.497,-10.4938 -6.7061,-51.3933 -7.3939,-51.6226 z"
       id="path5066"
       inkscape:connector-curvature="0"
       sodipodi:nodetypes="cccccccc" />
    <path
       style="color:#000000;display:inline;overflow:visible;visibility:visible;fill:#ffffff;fill-opacity:1;fill-rule:nonzero;stroke:none;stroke-width:1px;marker:none;enable-background:accumulate"
       d="m 226.06862,2871.1843 c 32.22727,-24.4433 452.09061,-39.5168 510.33447,13.3232 36.95935,33.5303 22.49799,160.3336 -24.6936,184.631 -55.53956,28.5956 -365.95535,20.846 -444.02488,4.9068 -74.27529,-15.1645 -77.01903,-67.106 -80.76496,-117.5643 -1.5289,-20.594 6.92144,-60.8532 39.14897,-85.2967 z"
       id="path4040-4-0"
       inkscape:connector-curvature="0"
       sodipodi:nodetypes="zssssz" />
    <path
       style="color:#000000;display:inline;overflow:visible;visibility:visible;fill:#ffffff;fill-opacity:1;fill-rule:nonzero;stroke:none;stroke-width:0.90364814px;marker:none;enable-background:accumulate"
       d="m 230.18052,3075.0205 c 51.81298,-20.3173 433.89309,-47.0203 511.34792,0.6945 62.1627,38.2944 39.62389,183.1142 -26.01084,210.864 -63.23442,26.735 -385.47668,23.8079 -467.71071,5.604 -78.23739,-17.3192 -81.26914,-58.9257 -85.07324,-114.6649 -1.73597,-25.4362 15.63389,-82.1804 67.44687,-102.4976 z"
       id="path4040-4-0-6"
       inkscape:connector-curvature="0"
       sodipodi:nodetypes="zssssz" />
    <path
       style="color:#000000;display:inline;overflow:visible;visibility:visible;fill:#ffffff;fill-opacity:1;fill-rule:nonzero;stroke:none;stroke-width:0.97532344px;marker:none;enable-background:accumulate"
       d="m 1734.8704,2896.9818 c 45.7705,-45.608 470.369,-64.4139 549.5521,17.4157 54.2647,56.0783 40.508,209.584 -26.5913,241.3451 -64.6452,30.5996 -394.0779,27.2493 -478.1468,6.4141 -79.9831,-19.8228 -82.9377,-87.7192 -86.9715,-153.6772 -1.6464,-26.9199 -3.6131,-65.8897 42.1575,-111.4977 z"
       id="path4040-4-0-6-3"
       inkscape:connector-curvature="0"
       sodipodi:nodetypes="zssssz" />
    <path
       style="display:inline;fill:#ffffff;fill-rule:evenodd;stroke:none;stroke-width:1.08985734px;stroke-linecap:butt;stroke-linejoin:miter;stroke-opacity:1"
       d="m 1713.0996,3135.5908 c 64.7566,23.9034 81.0675,18.509 79.956,-37.054 30.8949,60.0426 76.5992,61.935 89.3144,32.3516 40.9028,25.4281 66.45,18.2955 86.7329,0 7.5598,23.5291 23.7725,14.0342 37.8032,12.8655 4.6212,5.3234 46.2729,17.1068 110.3958,-0.5142 4.1534,7.046 9.7488,13.1137 47.3087,-2.5078 9.7307,28.5987 40.951,-1.585 72.9347,-33.8564 -19.9268,39.675 -11.6638,45.2788 13.7985,30.0946 -11.6412,16.3384 -18.6039,28.9862 25.6253,1.2539 -15.1416,30.1574 24.5831,9.4575 88.7044,-33.8563 -32.0745,32.0173 -117.1287,85.9801 -61.1072,81.506 -7.8126,9.4387 -35.6795,17.6626 47.3087,32.6025 -15.4928,6.4049 -62.7917,-2.9547 -23.3359,24.1641 5.2863,3.17 -12.411,5.1059 21.3648,13.454 -19.9382,-0.5679 -32.1657,1.4609 -13.7985,13.7933 -36.3944,-0.6669 -22.777,12.3008 3.9424,28.8406 -52.7044,-21.2158 -55.6046,-13.5051 -57.1649,-5.0157 -66.0539,-28.9243 -88.0966,-18.3757 -74.3067,4.953 -29.1687,-31.4989 -97.6958,-14.953 -101.1305,10.0943 -10.1779,-24.2214 -123.5183,-29.2296 -149.5712,-2.5707 16.1475,-28.4079 -17.7633,-15.0305 -51.8501,-4.5142 18.6666,-31.8857 -28.7067,-22.4954 -88.7043,8.5269 33.5984,-35.2109 -4.5614,-22.4918 -61.1073,2.5078 21.3649,-34.591 -13.4297,-51.3196 -96.5889,-52.6654 39.8025,-12.4775 63.013,-28.18 21.6835,-56.4273 46.5903,8.3176 34.7533,-15.2706 1.8624,-45.9569 50.818,25.187 49.7578,11.7271 29.9298,-22.0692 z"
       id="path4508"
       inkscape:connector-curvature="0"
       sodipodi:nodetypes="cccccccccccccccccccccccccccc" />
    <path
       style="color:#000000;display:inline;overflow:visible;visibility:visible;fill:#ffffff;fill-opacity:1;fill-rule:nonzero;stroke:none;stroke-width:1px;marker:none;enable-background:accumulate"
       d="m 731.14816,2946.5981 c 58.74459,-31.8831 133.6737,-22.4689 151.46532,-4.8409 -26.0629,-31.5484 -110.87474,-48.9787 -156.02352,-29.9411 -36.86673,19.522 4.5582,34.782 4.5582,34.782 z"
       id="path4480"
       inkscape:connector-curvature="0"
       sodipodi:nodetypes="cccc" />
    <path
       style="color:#000000;display:inline;overflow:visible;visibility:visible;fill:#ffffff;fill-opacity:1;fill-rule:nonzero;stroke:none;stroke-width:0.99999994px;marker:none;enable-background:accumulate"
       d="m 1721.525,3105.1967 c -45.0341,26.3761 -102.4755,18.588 -116.1149,4.0048 19.9802,26.0992 84.9979,40.5188 119.6093,24.7695 28.2623,-16.1501 -3.4944,-28.7743 -3.4944,-28.7743 z"
       id="path4480-2"
       inkscape:connector-curvature="0"
       sodipodi:nodetypes="cccc"
       inkscape:transform-center-x="-155.62645"
       inkscape:transform-center-y="34.210293" />
    <path
       sodipodi:nodetypes="zssssz"
       inkscape:connector-curvature="0"
       id="path1111"
       d="m 1734.8704,2896.9818 c 45.7705,-45.608 470.369,-64.4139 549.5521,17.4157 54.2647,56.0783 40.508,209.584 -26.5913,241.3451 -64.6452,30.5996 -394.0779,27.2493 -478.1468,6.4141 -79.9831,-19.8228 -82.9377,-87.7192 -86.9715,-153.6772 -1.6464,-26.9199 -3.6131,-65.8897 42.1575,-111.4977 z"
       style="color:#000000;display:inline;overflow:visible;visibility:visible;fill:#ffffff;fill-opacity:1;fill-rule:nonzero;stroke:none;stroke-width:0.97532344px;marker:none;enable-background:accumulate" />
  </g>
  <g
     inkscape:groupmode="layer"
     id="layer1"
     inkscape:label="txt">
    <text
       id="text883"
       y="214.33942"
       x="410.77844"
       style="font-style:normal;font-variant:normal;font-weight:normal;font-stretch:normal;font-size:14.29909897px;line-height:100%;font-family:'Nanum Pen Script OTF';-inkscape-font-specification:'Nanum Pen Script OTF';text-align:center;letter-spacing:0px;word-spacing:0px;text-anchor:middle;fill:#000000;fill-opacity:1;stroke:none;stroke-width:1.19159162"
       xml:space="preserve"><tspan
         y="214.33942"
         x="410.77844"
         style="font-style:normal;font-variant:normal;font-weight:normal;font-stretch:normal;font-size:53.62162018px;line-height:100%;font-family:'Nanum Pen Script OTF';-inkscape-font-specification:'Nanum Pen Script OTF';stroke-width:1.19159162"
         sodipodi:role="line"
         id="tspan971">하하, 설명하기가 좀 어려워.</tspan></text>
    <text
       id="text895"
       y="210.08177"
       x="2066.5659"
       style="font-style:normal;font-variant:normal;font-weight:normal;font-stretch:normal;font-size:14.82917786px;line-height:100%;font-family:'Nanum Pen Script OTF';-inkscape-font-specification:'Nanum Pen Script OTF';text-align:center;letter-spacing:0px;word-spacing:0px;text-anchor:middle;fill:#000000;fill-opacity:1;stroke:none;stroke-width:1.23576486"
       xml:space="preserve"><tspan
         id="tspan893"
         y="210.08177"
         x="2066.5659"
         style="font-style:normal;font-variant:normal;font-weight:normal;font-stretch:normal;font-size:55.60941696px;line-height:100%;font-family:'Nanum Pen Script OTF';-inkscape-font-specification:'Nanum Pen Script OTF';stroke-width:1.23576486"
         sodipodi:role="line">음, 카오사의 마법은</tspan><tspan
         y="265.69119"
         x="2066.5659"
         style="font-style:normal;font-variant:normal;font-weight:normal;font-stretch:normal;font-size:55.60941696px;line-height:100%;font-family:'Nanum Pen Script OTF';-inkscape-font-specification:'Nanum Pen Script OTF';stroke-width:1.23576486"
         sodipodi:role="line"
         id="tspan989">혼돈 체계의 기본 법칙을</tspan><tspan
         y="321.30063"
         x="2066.5659"
         style="font-style:normal;font-variant:normal;font-weight:normal;font-stretch:normal;font-size:55.60941696px;line-height:100%;font-family:'Nanum Pen Script OTF';-inkscape-font-specification:'Nanum Pen Script OTF';stroke-width:1.23576486"
         sodipodi:role="line"
         id="tspan994">이해하는 것에서부터</tspan><tspan
         y="376.91003"
         x="2066.5659"
         style="font-style:normal;font-variant:normal;font-weight:normal;font-stretch:normal;font-size:55.60941696px;line-height:100%;font-family:'Nanum Pen Script OTF';-inkscape-font-specification:'Nanum Pen Script OTF';stroke-width:1.23576486"
         sodipodi:role="line"
         id="tspan998">출발한다고 말할 수</tspan><tspan
         y="432.51944"
         x="2066.5659"
         style="font-style:normal;font-variant:normal;font-weight:normal;font-stretch:normal;font-size:55.60941696px;line-height:100%;font-family:'Nanum Pen Script OTF';-inkscape-font-specification:'Nanum Pen Script OTF';stroke-width:1.23576486"
         sodipodi:role="line"
         id="tspan1000">있을 것 같아...</tspan></text>
    <text
       id="text901"
       y="534.12823"
       x="2118.6113"
       style="font-style:normal;font-variant:normal;font-weight:normal;font-stretch:normal;font-size:15.37872601px;line-height:100%;font-family:'Nanum Pen Script OTF';-inkscape-font-specification:'Nanum Pen Script OTF';text-align:center;letter-spacing:0px;word-spacing:0px;text-anchor:middle;fill:#000000;fill-opacity:1;stroke:none;stroke-width:1.28156066"
       xml:space="preserve"><tspan
         id="tspan899"
         y="534.12823"
         x="2118.6113"
         style="font-style:normal;font-variant:normal;font-weight:normal;font-stretch:normal;font-size:57.67022705px;line-height:100%;font-family:'Nanum Pen Script OTF';-inkscape-font-specification:'Nanum Pen Script OTF';stroke-width:1.28156066"
         sodipodi:role="line">...미미한 것부터</tspan><tspan
         y="591.79846"
         x="2118.6113"
         style="font-style:normal;font-variant:normal;font-weight:normal;font-stretch:normal;font-size:57.67022705px;line-height:100%;font-family:'Nanum Pen Script OTF';-inkscape-font-specification:'Nanum Pen Script OTF';stroke-width:1.28156066"
         sodipodi:role="line"
         id="tspan1010">거대한 것까지.</tspan></text>
    <text
       id="text907"
       y="1683.7104"
       x="381.35367"
       style="font-style:normal;font-variant:normal;font-weight:normal;font-stretch:normal;font-size:15.17430401px;line-height:100%;font-family:'Nanum Pen Script OTF';-inkscape-font-specification:'Nanum Pen Script OTF';text-align:center;letter-spacing:0px;word-spacing:0px;text-anchor:middle;fill:#000000;fill-opacity:1;stroke:none;stroke-width:1.26452529"
       xml:space="preserve"><tspan
         y="1683.7104"
         x="381.35367"
         style="font-style:normal;font-variant:normal;font-weight:normal;font-stretch:normal;font-size:56.90364075px;line-height:100%;font-family:'Nanum Pen Script OTF';-inkscape-font-specification:'Nanum Pen Script OTF';stroke-width:1.26452529"
         sodipodi:role="line"
         id="tspan1026">그래, 아주 좋은</tspan><tspan
         y="1740.6141"
         x="381.35367"
         style="font-style:normal;font-variant:normal;font-weight:normal;font-stretch:normal;font-size:56.90364075px;line-height:100%;font-family:'Nanum Pen Script OTF';-inkscape-font-specification:'Nanum Pen Script OTF';stroke-width:1.26452529"
         sodipodi:role="line"
         id="tspan1030">설명이었어.</tspan></text>
    <text
       id="text915"
       y="1109.0309"
       x="1920.6842"
       style="font-style:normal;font-variant:normal;font-weight:normal;font-stretch:normal;font-size:14.69307804px;line-height:100%;font-family:'Nanum Pen Script OTF';-inkscape-font-specification:'Nanum Pen Script OTF';text-align:center;letter-spacing:0px;word-spacing:0px;text-anchor:middle;fill:#000000;fill-opacity:1;stroke:none;stroke-width:1.22442317"
       xml:space="preserve"><tspan
         id="tspan913"
         y="1109.0309"
         x="1920.6842"
         style="font-style:normal;font-variant:normal;font-weight:normal;font-stretch:normal;font-size:55.09904099px;line-height:100%;font-family:'Nanum Pen Script OTF';-inkscape-font-specification:'Nanum Pen Script OTF';stroke-width:1.22442317"
         sodipodi:role="line">잠시,</tspan><tspan
         y="1164.1299"
         x="1920.6842"
         style="font-style:normal;font-variant:normal;font-weight:normal;font-stretch:normal;font-size:55.09904099px;line-height:100%;font-family:'Nanum Pen Script OTF';-inkscape-font-specification:'Nanum Pen Script OTF';stroke-width:1.22442317"
         sodipodi:role="line"
         id="tspan1049">내가 쉬운 예를</tspan><tspan
         y="1219.229"
         x="1920.6842"
         style="font-style:normal;font-variant:normal;font-weight:normal;font-stretch:normal;font-size:55.09904099px;line-height:100%;font-family:'Nanum Pen Script OTF';-inkscape-font-specification:'Nanum Pen Script OTF';stroke-width:1.22442317"
         sodipodi:role="line"
         id="tspan1051">들어볼게.</tspan></text>
    <text
       id="text927"
       y="2027.5841"
       x="1475.5236"
       style="font-style:normal;font-variant:normal;font-weight:normal;font-stretch:normal;font-size:16.06428719px;line-height:100%;font-family:'Nanum Pen Script OTF';-inkscape-font-specification:'Nanum Pen Script OTF';text-align:center;letter-spacing:0px;word-spacing:0px;text-anchor:middle;fill:#000000;fill-opacity:1;stroke:none;stroke-width:1.33869064"
       xml:space="preserve"><tspan
         id="tspan925"
         y="2027.5841"
         x="1475.5236"
         style="font-style:normal;font-variant:normal;font-weight:normal;font-stretch:normal;font-size:60.24107742px;line-height:100%;font-family:'Nanum Pen Script OTF';-inkscape-font-specification:'Nanum Pen Script OTF';stroke-width:1.33869064"
         sodipodi:role="line">아하!</tspan></text>
    <text
       transform="matrix(1.0319884,-0.31510126,0.04925332,0.95396439,0,0)"
       id="text931"
       y="1829.9916"
       x="1426.365"
       style="font-style:normal;font-variant:normal;font-weight:normal;font-stretch:normal;font-size:15.5134449px;line-height:100%;font-family:'Nanum Pen Script OTF';-inkscape-font-specification:'Nanum Pen Script OTF';text-align:center;letter-spacing:0px;word-spacing:0px;text-anchor:middle;opacity:0.5;fill:#000000;fill-opacity:1;stroke:none;stroke-width:1.52830625"
       xml:space="preserve"><tspan
         id="tspan929"
         y="1829.9916"
         x="1426.365"
         style="font-style:normal;font-variant:normal;font-weight:normal;font-stretch:normal;font-size:58.17542267px;line-height:100%;font-family:'Nanum Pen Script OTF';-inkscape-font-specification:'Nanum Pen Script OTF';stroke-width:1.52830625"
         sodipodi:role="line">긁적</tspan></text>
    <text
       transform="matrix(1.0148469,-0.17332086,-0.1273814,1.0071251,0,0)"
       id="text935"
       y="1634.6284"
       x="1751.1165"
       style="font-style:normal;font-variant:normal;font-weight:normal;font-stretch:normal;font-size:13.5078001px;line-height:100%;font-family:'Nanum Pen Script OTF';-inkscape-font-specification:'Nanum Pen Script OTF';text-align:center;letter-spacing:0px;word-spacing:0px;text-anchor:middle;opacity:0.5;fill:#000000;fill-opacity:1;stroke:none;stroke-width:1.52166355"
       xml:space="preserve"><tspan
         id="tspan933"
         y="1634.6284"
         x="1751.1165"
         style="font-style:normal;font-variant:normal;font-weight:normal;font-stretch:normal;font-size:50.6542511px;line-height:100%;font-family:'Nanum Pen Script OTF';-inkscape-font-specification:'Nanum Pen Script OTF';stroke-width:1.52166355"
         sodipodi:role="line">긁적</tspan></text>
    <text
       id="text943"
       y="2930.2632"
       x="468.63205"
       style="font-style:normal;font-variant:normal;font-weight:normal;font-stretch:normal;font-size:14.83906269px;line-height:100%;font-family:'Nanum Pen Script OTF';-inkscape-font-specification:'Nanum Pen Script OTF';text-align:center;letter-spacing:0px;word-spacing:0px;text-anchor:middle;fill:#000000;fill-opacity:1;stroke:none;stroke-width:1.2365886"
       xml:space="preserve"><tspan
         y="2930.2632"
         x="468.63205"
         style="font-style:normal;font-variant:normal;font-weight:normal;font-stretch:normal;font-size:55.64648438px;line-height:100%;font-family:'Nanum Pen Script OTF';-inkscape-font-specification:'Nanum Pen Script OTF';stroke-width:1.2365886"
         sodipodi:role="line"
         id="tspan1063">이 막대기가</tspan><tspan
         y="2985.9097"
         x="468.63205"
         style="font-style:normal;font-variant:normal;font-weight:normal;font-stretch:normal;font-size:55.64648438px;line-height:100%;font-family:'Nanum Pen Script OTF';-inkscape-font-specification:'Nanum Pen Script OTF';stroke-width:1.2365886"
         sodipodi:role="line"
         id="tspan1067">돌 틈 사이에 끼어있었던 거</tspan><tspan
         y="3041.5562"
         x="468.63205"
         style="font-style:normal;font-variant:normal;font-weight:normal;font-stretch:normal;font-size:55.64648438px;line-height:100%;font-family:'Nanum Pen Script OTF';-inkscape-font-specification:'Nanum Pen Script OTF';stroke-width:1.2365886"
         sodipodi:role="line"
         id="tspan1069">봤지?</tspan></text>
    <text
       id="text951"
       y="3145.2744"
       x="467.7287"
       style="font-style:normal;font-variant:normal;font-weight:normal;font-stretch:normal;font-size:15.73320961px;line-height:100%;font-family:'Nanum Pen Script OTF';-inkscape-font-specification:'Nanum Pen Script OTF';text-align:center;letter-spacing:0px;word-spacing:0px;text-anchor:middle;fill:#000000;fill-opacity:1;stroke:none;stroke-width:1.31110072"
       xml:space="preserve"><tspan
         id="tspan949"
         y="3145.2744"
         x="467.7287"
         style="font-style:normal;font-variant:normal;font-weight:normal;font-stretch:normal;font-size:58.99953461px;line-height:100%;font-family:'Nanum Pen Script OTF';-inkscape-font-specification:'Nanum Pen Script OTF';stroke-width:1.31110072"
         sodipodi:role="line">이걸 내가 집어올렸으니,</tspan><tspan
         y="3204.2739"
         x="467.7287"
         style="font-style:normal;font-variant:normal;font-weight:normal;font-stretch:normal;font-size:58.99953461px;line-height:100%;font-family:'Nanum Pen Script OTF';-inkscape-font-specification:'Nanum Pen Script OTF';stroke-width:1.31110072"
         sodipodi:role="line"
         id="tspan1080">분명 누가 지나가면서 밟는 걸</tspan><tspan
         y="3263.2734"
         x="467.7287"
         style="font-style:normal;font-variant:normal;font-weight:normal;font-stretch:normal;font-size:58.99953461px;line-height:100%;font-family:'Nanum Pen Script OTF';-inkscape-font-specification:'Nanum Pen Script OTF';stroke-width:1.31110072"
         sodipodi:role="line"
         id="tspan1082">막은 거야.</tspan></text>
    <text
       id="text961"
       y="2948.6045"
       x="1996.0044"
       style="font-style:normal;font-variant:normal;font-weight:normal;font-stretch:normal;font-size:15.28425407px;line-height:100%;font-family:'Nanum Pen Script OTF';-inkscape-font-specification:'Nanum Pen Script OTF';text-align:center;letter-spacing:0px;word-spacing:0px;text-anchor:middle;fill:#000000;fill-opacity:1;stroke:none;stroke-width:1.27368784"
       xml:space="preserve"><tspan
         y="2948.6045"
         x="1996.0044"
         style="font-style:normal;font-variant:normal;font-weight:normal;font-stretch:normal;font-size:57.31594849px;line-height:100%;font-family:'Nanum Pen Script OTF';-inkscape-font-specification:'Nanum Pen Script OTF';stroke-width:1.27368784"
         sodipodi:role="line"
         id="tspan1097">거대한 혼돈 체계에서 일으킨</tspan><tspan
         y="3005.9204"
         x="1996.0044"
         style="font-style:normal;font-variant:normal;font-weight:normal;font-stretch:normal;font-size:57.31594849px;line-height:100%;font-family:'Nanum Pen Script OTF';-inkscape-font-specification:'Nanum Pen Script OTF';stroke-width:1.27368784"
         sodipodi:role="line"
         id="tspan1101">작은 긍정적 변화가</tspan><tspan
         y="3063.2363"
         x="1996.0044"
         style="font-style:normal;font-variant:normal;font-weight:normal;font-stretch:normal;font-size:57.31594849px;line-height:100%;font-family:'Nanum Pen Script OTF';-inkscape-font-specification:'Nanum Pen Script OTF';stroke-width:1.27368784"
         sodipodi:role="line"
         id="tspan1103">엄청난 결과를</tspan><tspan
         y="3120.5522"
         x="1996.0044"
         style="font-style:normal;font-variant:normal;font-weight:normal;font-stretch:normal;font-size:57.31594849px;line-height:100%;font-family:'Nanum Pen Script OTF';-inkscape-font-specification:'Nanum Pen Script OTF';stroke-width:1.27368784"
         sodipodi:role="line"
         id="tspan1105">불러일으킬 수 있다.</tspan></text>
    <text
       id="text967"
       y="3241.3291"
       x="2000.8491"
       style="font-style:normal;font-variant:normal;font-weight:normal;font-stretch:normal;font-size:67.22779846px;line-height:100%;font-family:'Nanum Pen Script OTF';-inkscape-font-specification:'Nanum Pen Script OTF';text-align:center;letter-spacing:0px;word-spacing:0px;text-anchor:middle;fill:#000000;fill-opacity:1;stroke:none;stroke-width:1.26052117"
       xml:space="preserve"><tspan
         id="tspan965"
         y="3241.3291"
         x="2000.8491"
         style="font-style:normal;font-variant:normal;font-weight:normal;font-stretch:normal;font-size:67.22779846px;line-height:100%;font-family:'Nanum Pen Script OTF';-inkscape-font-specification:'Nanum Pen Script OTF';stroke-width:1.26052117"
         sodipodi:role="line">그게 바로 카오사 마법이야!</tspan></text>
    <text
       id="text884"
       y="2059.1006"
       x="880.69275"
       style="font-style:normal;font-variant:normal;font-weight:normal;font-stretch:normal;font-size:15.66165829px;line-height:100%;font-family:'Nanum Pen Script OTF';-inkscape-font-specification:'Nanum Pen Script OTF';text-align:center;letter-spacing:0px;word-spacing:0px;text-anchor:middle;fill:#000000;fill-opacity:1;stroke:none;stroke-width:1.30513823"
       xml:space="preserve"><tspan
         id="tspan882"
         y="2059.1006"
         x="880.69275"
         style="font-style:normal;font-variant:normal;font-weight:normal;font-stretch:normal;font-size:58.73122025px;line-height:100%;font-family:'Nanum Pen Script OTF';-inkscape-font-specification:'Nanum Pen Script OTF';stroke-width:1.30513823"
         sodipodi:role="line">카오사의 지혜로</tspan><tspan
         y="2117.8318"
         x="880.69275"
         style="font-style:normal;font-variant:normal;font-weight:normal;font-stretch:normal;font-size:58.73122025px;line-height:100%;font-family:'Nanum Pen Script OTF';-inkscape-font-specification:'Nanum Pen Script OTF';stroke-width:1.30513823"
         sodipodi:role="line"
         id="tspan891">무엇을 보여줄 수 있을까...</tspan></text>
  </g>
</svg>
