<?xml version="1.0" encoding="UTF-8" standalone="no"?>
<!-- Created With Inkscape (http://www.inkscape.org/) -->

<svg
   xmlns:dc="http://purl.org/dc/elements/1.1/"
   xmlns:cc="http://creativecommons.org/ns#"
   xmlns:rdf="http://www.w3.org/1999/02/22-rdf-syntax-ns#"
   xmlns:svg="http://www.w3.org/2000/svg"
   xmlns="http://www.w3.org/2000/svg"
   xmlns:xlink="http://www.w3.org/1999/xlink"
   xmlns:sodipodi="http://sodipodi.sourceforge.net/DTD/sodipodi-0.dtd"
   xmlns:inkscape="http://www.inkscape.org/namespaces/inkscape"
   id="svg2"
   version="1.1"
   inkscape:version="0.92.3 (2405546, 2018-03-11)"
   width="2481"
   height="663"
   sodipodi:docname="E05P00.svg">
  <metadata
     id="metadata8">
    <rdf:RDF>
      <cc:Work
         rdf:about="">
        <dc:format>image/svg+xml</dc:format>
        <dc:type
           rdf:resource="http://purl.org/dc/dcmitype/StillImage" />
        <dc:title />
      </cc:Work>
    </rdf:RDF>
  </metadata>
  <defs
     id="defs6" />
  <sodipodi:namedview
     pagecolor="#ffffff"
     bordercolor="#666666"
     borderopacity="1"
     objecttolerance="10"
     gridtolerance="10"
     guidetolerance="10"
     inkscape:pageopacity="0"
     inkscape:pageshadow="2"
     inkscape:window-width="1920"
     inkscape:window-height="935"
     id="namedview4"
     showgrid="false"
     inkscape:zoom="0.60944264"
     inkscape:cx="1244.8687"
     inkscape:cy="174.53051"
     inkscape:window-x="0"
     inkscape:window-y="118"
     inkscape:window-maximized="1"
     inkscape:current-layer="layer1" />
  <g
     inkscape:groupmode="layer"
     id="layer2"
     inkscape:label="artwork"
     sodipodi:insensitive="true"
     style="display:none">
    <image
       sodipodi:absref="/home/deevad/peppercarrot/webcomics/ep05_Special-holiday-episode/lang/ja/../gfx_Pepper-and-Carrot_by-David-Revoy_E05P00.png"
       xlink:href="../gfx_Pepper-and-Carrot_by-David-Revoy_E05P00.png"
       width="2481"
       height="663"
       id="image10"
       x="0"
       y="0" />
  </g>
  <g
     inkscape:groupmode="layer"
     id="layer1"
     inkscape:label="txt"
     style="display:inline">
    <flowRoot
       xml:space="preserve"
       id="episode-title"
       style="font-style:normal;font-variant:normal;font-weight:500;font-stretch:normal;line-height:0.01%;font-family:'Rounded M+ 1c';-inkscape-font-specification:'Rounded M+ 1c, Medium';text-align:center;letter-spacing:0px;word-spacing:0px;writing-mode:lr-tb;text-anchor:middle;fill:#8b9cb1;fill-opacity:1;stroke:none"
       transform="translate(-727.11813,-120.8471)"><flowRegion
         id="flowRegion2989"><rect
           id="rect2991"
           width="2405.8"
           height="107.55731"
           x="739.22333"
           y="644.36664"
           style="font-style:normal;font-variant:normal;font-weight:500;font-stretch:normal;font-size:72px;line-height:125%;font-family:'Rounded M+ 1c';-inkscape-font-specification:'Rounded M+ 1c, Medium';text-align:center;writing-mode:lr-tb;text-anchor:middle;fill:#8b9cb1;fill-opacity:1" /></flowRegion><flowPara
         id="flowPara4139"
         style="font-size:72px;line-height:1.25">エピソード 5: クリスマススペシャルエピソード</flowPara></flowRoot>    <path
       style="color:#000000;display:inline;overflow:visible;visibility:visible;fill:#547498;fill-opacity:1;fill-rule:nonzero;stroke:none;stroke-width:2.02291632;marker:none;enable-background:accumulate"
       d="m 1970.8472,296.70582 c 0.5266,-10.4309 -0.4239,-16.83634 3.3715,-21.19245 3.0287,-3.47622 7.6831,-6.38599 11.6943,-4.65751 3.1769,-2.24449 6.7166,0.63163 9.041,2.64373 7.5786,-1.39706 9.2504,3.3602 12.9318,6.83024 2.1429,2.01983 2.9785,6.70724 2.7814,7.92968 -0.6321,3.91951 -6.1233,3.05385 -7.3571,11.33619 -10.1549,68.17019 -7.1845,83.0257 -2.8898,145.16838 0.4208,6.08912 -5.6456,7.24508 -6.6537,-5.39849 -3.8287,3.21833 -4.0554,-3.47753 -4.524,-6.26369 -1.6338,1.29345 -2.6649,8.56564 -3.7763,7.72754 -2.8901,-2.17949 -9.4142,-29.7191 -8.8139,-41.07348 -1.0436,0.41874 -2.2158,7.40996 -2.8735,6.21523 -6.2186,-70.57584 -5.465,-59.09121 -2.9317,-109.26537 z"
       id="path2985-3"
       inkscape:connector-curvature="0"
       sodipodi:nodetypes="ssccssssccsccs" />
    <path
       style="color:#000000;display:inline;overflow:visible;visibility:visible;fill:#547498;fill-opacity:1;fill-rule:nonzero;stroke:none;stroke-width:2.02291632;marker:none;enable-background:accumulate"
       d="m 1987.8974,346.31544 c -0.3831,-13.70714 1.0643,-27.0102 6.6262,-21.38879 22.7934,23.03733 36.8825,29.41608 61.2518,39.09603 14.8172,5.88569 0.011,6.13552 -6.2272,0.788 3.1916,3.5729 6.6858,6.02328 5.1771,7.67336 -1.3435,1.46935 -2.5774,0.0635 -6.3641,-0.0839 -0.099,6.22881 -13.0095,3.55008 -17.5972,1.46548 5.2721,6.17582 6.5456,7.4543 5.1181,7.6668 -1.6154,0.24048 -5.4294,-2.14507 -7.4336,-3.73099 -8.2026,1.24291 -29.957,-16.82391 -40.5511,-31.486 z"
       id="path2987-6"
       inkscape:connector-curvature="0"
       sodipodi:nodetypes="csscsccscc" />
    <path
       sodipodi:nodetypes="sssssccscssssssccs"
       inkscape:connector-curvature="0"
       id="path3137-7"
       d="m 449.35396,312.88866 c 14.72265,-7.96051 28.21652,-35.48314 56.06358,-26.97221 52.95422,16.18444 34.00503,96.2035 89.5858,127.74545 13.28995,7.54198 24.81404,15.92319 36.49887,18.6833 4.9764,1.17545 3.87389,3.31697 -0.22238,3.16916 -1.9273,-0.0696 -0.89966,4.59722 -21.34541,-4.51316 2.22662,7.87802 -11.06482,-1.46337 -20.69976,-4.84785 3.04887,4.15946 12.33237,9.45076 13.05158,11.30005 2.85481,7.34082 -21.11486,-7.72468 -22.69557,-9.34207 -0.47302,11.54435 -8.45889,1.00371 -22.15572,-11.55956 -25.81841,-23.68161 -35.55869,-101.76684 -60.0933,-102.47354 -16.15986,-0.46548 -24.07291,18.36282 -35.72295,29.86956 -3.54462,3.50104 -5.83544,6.04421 -10.30116,7.93708 -1.40282,0.59459 -5.28912,0.0658 -6.77488,-0.86605 -1.49723,-0.93907 -0.59784,-2.2837 -3.02372,-2.32217 -4.82958,-0.0766 -9.74742,-8.42187 -6.43901,-13.1214 -2.53937,-3.85827 -5.07658,-12.74378 0.87821,-16.63644 -1.77504,-4.36634 8.88506,-3.61119 13.39582,-6.05015 z"
       style="color:#000000;display:inline;overflow:visible;visibility:visible;fill:#547498;fill-opacity:1;fill-rule:nonzero;stroke:none;stroke-width:2.02291632;marker:none;enable-background:accumulate" />
    <path
       sodipodi:nodetypes="ssssscsccsscssccscss"
       inkscape:connector-curvature="0"
       id="path3141-5"
       d="m 906.81382,293.66026 c -1.29224,6.86923 -3.9737,10.2044 -3.35242,15.09488 5.2804,41.56555 29.60817,98.5616 72.90542,131.30573 5.69746,4.30881 -6.30973,0.90276 -12.31188,-2.38252 0.0616,0.63317 -5.41765,-3.4155 -1.95231,0.79716 1.07904,1.31173 1.26609,3.06189 -0.72477,2.69412 -3.4884,-0.6443 -9.55763,-4.26323 -13.6194,-10.64489 0.5281,1.77089 1.26138,3.77547 -1.55433,2.75578 -3.07142,1.90053 2.31665,6.40395 0.14385,6.48251 -2.29357,0.0829 -8.2053,-5.56343 -13.81567,-12.68534 -0.44144,0.77248 -0.29341,2.05798 -0.83553,2.05461 -0.72374,-0.007 -2.20654,-1.45981 -3.42384,-1.32953 -2.50972,0.26858 -2.77233,0.79541 -4.43033,-0.64598 -13.00004,-11.30173 -53.26129,-84.2067 -55.58066,-132.03542 -0.29533,-6.08999 -1.37824,-18.92727 5.25101,-18.63097 2.80752,-2.92454 5.98879,-3.78173 10.74564,-3.78173 3.30086,-3.74576 9.11887,0.82678 12.35002,4.69345 1.78491,2.13595 3.25373,2.39998 1.95416,4.84268 3.08549,-1.74548 2.86812,2.89912 5.25819,5.02112 2.08491,1.85107 3.28278,4.85314 2.99285,6.39434 z"
       style="color:#000000;display:inline;overflow:visible;visibility:visible;fill:#547498;fill-opacity:1;fill-rule:nonzero;stroke:none;stroke-width:2.02291632;marker:none;enable-background:accumulate" />
    <path
       sodipodi:nodetypes="ssscscssssscscscs"
       inkscape:connector-curvature="0"
       id="path3143-3"
       d="m 799.94861,418.94517 c 21.46494,-25.32263 45.58958,-69.38312 50.51162,-100.78732 1.19004,-7.59283 2.61987,-13.08664 1.25589,-21.30137 -1.18144,-7.11536 -5.20672,-9.73043 -9.58705,-10.86987 -0.35483,-2.11913 -0.27609,-4.01307 -2.07804,-5.4523 -3.18066,-2.54042 -9.16388,-3.66411 -11.89415,-2.10882 -1.37709,-1.15929 -4.54073,-3.46534 -6.43107,-3.09351 -5.06114,0.99552 -9.39802,8.58221 -9.30125,13.63961 0.11416,5.9665 7.11132,11.34368 6.93687,18.44274 -1.12398,45.73687 -30.89912,87.46637 -60.96306,116.29891 -4.53163,4.34597 -15.88214,13.01811 -15.36147,16.50333 0.35587,2.38211 6.44878,-1.08274 13.03922,-5.23282 -1.19036,0.95293 -3.50968,6.99309 -2.29965,8.24332 1.54929,1.6006 10.0033,-4.65116 13.84165,-8.22356 -0.14658,2.17383 -0.10828,3.99573 4.13197,3.44334 3.56654,-0.4646 14.31702,-12.24609 21.1875,-20.85396 -3.40208,7.80477 -5.07279,15.6078 7.01102,1.35228 z"
       style="color:#000000;display:inline;overflow:visible;visibility:visible;fill:#547498;fill-opacity:1;fill-rule:nonzero;stroke:none;stroke-width:2.02291632;marker:none;enable-background:accumulate" />
    <path
       style="color:#000000;display:inline;overflow:visible;visibility:visible;fill:#547498;fill-opacity:1;fill-rule:nonzero;stroke:none;stroke-width:2.02291632;marker:none;enable-background:accumulate"
       d="m 580.88048,310.96975 c -7.23543,-0.11518 -11.52165,-6.45852 -8.81964,-15.72188 3.28366,-2.46276 7.42612,-6.3696 7.66921,-10.7369 0.0526,-0.94944 -1.22333,-1.72817 -1.40134,-3.38589 -0.27195,-2.53248 0.25239,-5.9921 -1.86675,-6.42532 0.74511,-2.40586 1.0443,-4.87314 -0.70485,-5.5489 -2.9658,-1.14578 -10.62301,0.73066 -13.98718,4.37854 -2.00539,2.17456 -1.3534,5.7947 -2.23229,7.05264 -3.40983,4.88047 -5.76039,9.98129 -5.87192,15.44862 -0.24187,11.85441 8.4272,29.7151 25.68092,29.53785 15.24126,-0.15657 28.18327,-11.53498 29.0596,-23.11746 1.14854,-15.18111 -10.1833,-27.33656 -13.72111,-26.37622 -2.6163,-2.42215 -8.20697,-3.92876 -8.39786,-2.05192 -5.67847,-1.8113 -11.60123,0.25158 -13.84296,2.05192 -3.10935,2.49717 4.3217,-1.02047 10.90716,10e-4 -2.04752,0.4632 -2.78258,1.47341 -2.02797,1.73115 1.76742,0.60369 3.47355,1.41393 4.49782,2.44404 -1.0803,0.0779 -3.94381,0.0992 -2.79108,0.62787 1.20943,0.55467 5.41575,1.36112 8.33852,3.97822 1.76904,1.58405 5.70962,5.93778 5.69782,9.1891 -1.69129,-4.59185 -6.41069,-6.67337 -4.76802,-3.44239 1.52603,3.00176 1.9008,6.02789 1.77774,8.59634 -0.32144,6.70621 -6.41905,11.87722 -13.19582,11.76934 z"
       id="path3147-5"
       inkscape:connector-curvature="0"
       sodipodi:nodetypes="cssscssssssccscscsscsssc" />
    <path
       sodipodi:nodetypes="sssscssscsscscsss"
       inkscape:connector-curvature="0"
       id="path3158-6"
       d="m 1091.8438,361.87576 c -24.8989,0.2975 -44.3717,0.39591 -82.3616,4.33482 -5.5808,0.57863 -21.15448,9.34616 -26.6948,6.19599 -6.98192,-3.96984 -12.98133,-8.72361 -14.80136,-12.97088 -0.98997,-2.31023 0.57554,-5.19005 0.86179,-6.05947 -3.36327,-1.92364 -4.64083,-3.305 -4.42953,-4.22106 0.47501,-2.05922 3.73061,-4.56264 6.14886,-6.61222 2.80183,-2.3747 12.87133,-4.84804 17.00456,-3.91183 2.71521,0.61501 4.29119,1.59184 6.59414,2.72649 50.24214,-6.35243 90.19794,-4.77432 117.52184,-5.29811 15.4621,-0.2964 25.9381,-0.19075 18.9842,2.79959 -1.8746,0.80611 -12.7323,1.49024 -15.6127,2.45036 2.2297,0.64588 4.6419,3.98295 0.5964,5.92218 -1.7754,0.85102 2.162,4.8785 -4.2088,5.1557 0.5134,4.27012 -22.96,1.62103 -22.8997,2.7515 0.069,1.29676 3.6071,2.03615 6.1878,2.35131 2.963,0.36185 1.4158,4.33418 -2.8911,4.38563 z"
       style="color:#000000;display:inline;overflow:visible;visibility:visible;fill:#547498;fill-opacity:1;fill-rule:nonzero;stroke:none;stroke-width:2.02291632;marker:none;enable-background:accumulate" />
    <path
       inkscape:connector-curvature="0"
       id="path3160-2"
       d="m 1239.8197,365.9503 c 2.4302,-1.27407 3.1336,-7.29316 1.5646,-13.71065 -4.7689,-19.50614 -13.8786,-32.38202 -19.5351,-37.21756 -2.143,-1.832 -5.0671,-3.30887 -7.5705,-3.38324 -0.9825,-0.0292 -1.8217,0.40641 -2.4319,0.87232 -0.778,-0.43794 -2.0589,-0.51334 -2.811,-0.12702 -1.9529,1.00306 -3.785,2.82287 -5.3223,5.70556 -0.8856,0.0879 -2.7346,0.80661 -3.6694,1.9891 -1.8766,2.37372 -2.7269,7.76046 -0.8054,11.62455 0.6231,1.25303 6.614,2.77492 7.6451,4.40298 5.8912,4.19801 11.9926,10.131 15.7753,14.83604 2.1312,2.65093 0.8674,-2.69563 0.2408,-4.57565 4.1546,3.59125 6.4873,9.23816 8.3975,14.71258 1.8247,5.22934 6.7024,5.82501 8.5223,4.87099 z"
       style="color:#000000;display:inline;overflow:visible;visibility:visible;fill:#547498;fill-opacity:1;fill-rule:nonzero;stroke:none;stroke-width:2.02291632;marker:none;enable-background:accumulate"
       sodipodi:nodetypes="sscscsssscscss" />
    <path
       sodipodi:nodetypes="sssscscssssssssssssccssss"
       inkscape:connector-curvature="0"
       id="path3162-9"
       d="m 1233.7896,350.16902 c 5.8375,-3.7951 15.0365,-11.42324 18.3243,-18.79775 0.5642,-1.26536 0.8799,-4.02481 2.1709,-5.17569 2.7785,-2.47714 5.2825,-2.75133 8.194,-1.59083 1.3545,0.5399 3.3527,2.56915 4.42,4.31304 0.9816,-3.03935 1.8146,-5.9829 5.5131,-6.36668 1.8673,-0.19376 11.1922,0.72018 9.9923,5.25318 0.99,0.0739 2.0707,0.9227 3.1529,1.92547 2.7742,2.57062 0.8729,6.17474 0.7058,7.48791 -1.3657,10.7338 -11.3056,18.29448 -16.2534,22.98373 -20.2684,19.20947 -83.4811,26.57629 -70.3722,49.36304 4.4285,7.69806 19.0957,10.23623 34.5822,10.27977 11.2667,0.0317 33.5304,-2.15181 50.7743,-9.85236 2.6895,-1.20102 7.9992,-5.0345 7.3006,-2.31532 -0.4839,1.88432 -3.4709,4.8436 -9.5446,7.86764 -4.2105,2.09639 -11.3649,4.2024 -10.7521,4.62284 0.7919,0.54335 3.1847,0.3892 3.7661,0.97227 1.3759,1.3799 1.0188,6.16336 -4.7585,8.28196 -2.2332,0.81894 -1.2543,3.02726 -3.7144,4.53858 -2.1222,1.3037 -7.7932,1.37693 -10.0644,1.78988 1.8258,1.44227 1.1095,3.35386 -4.6744,3.22304 0.2179,1.01045 1.9229,1.92852 0.9768,2.53539 -1.6937,1.08637 -6.8393,1.44052 -8.3509,1.42831 -34.8668,-0.27923 -70.3478,-3.12776 -72.2687,-37.82665 -1.6767,-30.28773 40.6321,-41.77682 60.8803,-54.94077 z"
       style="color:#000000;display:inline;overflow:visible;visibility:visible;fill:#547498;fill-opacity:1;fill-rule:nonzero;stroke:none;stroke-width:2.02291632;marker:none;enable-background:accumulate" />
    <path
       sodipodi:nodetypes="cssscssssssccscscsscsssc"
       inkscape:connector-curvature="0"
       id="path3164-1"
       d="m 951.26685,317.71281 c -7.23544,-0.11518 -11.52166,-6.45853 -8.81965,-15.72189 3.28366,-2.46275 7.42613,-6.3696 7.66921,-10.7369 0.0526,-0.94944 -1.22332,-1.72817 -1.40134,-3.38589 -0.27195,-2.53247 0.25239,-5.9921 -1.86675,-6.42532 0.74511,-2.40585 1.0443,-4.87314 -0.70485,-5.54889 -2.9658,-1.14578 -10.62301,0.73065 -13.98718,4.37854 -2.00539,2.17455 -1.3534,5.79469 -2.23229,7.05263 -3.40983,4.88047 -5.76039,9.9813 -5.87192,15.44863 -0.24187,11.8544 8.4272,29.71509 25.68092,29.53785 15.24126,-0.15658 28.18327,-11.53499 29.0596,-23.11746 1.14855,-15.18111 -10.18329,-27.33656 -13.7211,-26.37622 -2.61631,-2.42215 -8.20697,-3.92876 -8.39787,-2.05193 -5.67846,-1.8113 -11.60122,0.25158 -13.84295,2.05193 -3.10936,2.49717 4.32169,-1.02048 10.90716,0.001 -2.04753,0.4632 -2.78259,1.47341 -2.02798,1.73115 1.76743,0.60368 3.47355,1.41392 4.49782,2.44403 -1.0803,0.0779 -3.94381,0.0992 -2.79108,0.62787 1.20943,0.55468 5.41575,1.36112 8.33853,3.97823 1.76904,1.58405 5.70961,5.93777 5.69781,9.18909 -1.69129,-4.59185 -6.41069,-6.67336 -4.76801,-3.44238 1.52602,3.00175 1.9008,6.02789 1.77774,8.59634 -0.32144,6.7062 -6.41905,11.87721 -13.19582,11.76933 z"
       style="color:#000000;display:inline;overflow:visible;visibility:visible;fill:#547498;fill-opacity:1;fill-rule:nonzero;stroke:none;stroke-width:2.02291632;marker:none;enable-background:accumulate" />
    <path
       style="color:#000000;display:inline;overflow:visible;visibility:visible;fill:#547498;fill-opacity:1;fill-rule:nonzero;stroke:none;stroke-width:2.02291632;marker:none;enable-background:accumulate"
       d="m 1838.979,332.53044 c 7.6741,10.2383 14.473,25.73281 16.0511,37.63361 0.7647,5.76675 0.2001,13.67302 2.5425,11.93382 1.6215,-1.20392 1.7876,-3.30204 1.9068,-6.00095 0.9115,-0.33608 0.241,-3.55588 0.1553,-4.48992 0.4864,0.17444 2.3053,4.88568 3.5212,3.80722 0.8544,-0.75785 0.093,-7.04124 -0.6774,-10.47679 1.6558,1.82912 2.0915,9.22027 3.511,7.22103 1.0566,-1.48803 -0.3599,-14.84005 -0.59,-17.1855 0.9859,1.29209 1.9612,8.71048 3.0443,7.89001 2.5782,-1.95307 2.1044,-13.24556 1.8266,-15.63691 -0.764,-6.57548 -3.3689,-16.36847 -4.6729,-19.92822 -2.3466,-6.40606 -5.6735,-10.04357 -11.5048,-7.67564 -2.0724,0.84156 -6.0517,0.93883 -4.7779,3.94112 -1.6217,-0.14565 -9.3815,0.52852 -10.689,1.27777 -3.6439,2.08815 -3.2634,6.38919 0.3532,7.68935 z"
       id="path3166-2"
       inkscape:connector-curvature="0"
       sodipodi:nodetypes="cssccscscsssscsc" />
    <path
       style="color:#000000;display:inline;overflow:visible;visibility:visible;fill:#547498;fill-opacity:1;fill-rule:nonzero;stroke:none;stroke-width:2.02291632;marker:none;enable-background:accumulate"
       d="m 1871.2926,326.74065 c 7.2299,9.38357 11.6698,18.13184 13.9636,28.26778 0.2258,0.99765 1.7429,7.93738 2.8356,8.44046 1.2174,0.5605 1.9902,-5.55389 1.5687,-9.49187 0.5999,1.28949 3.8062,6.81782 4.3709,1.00939 1.7055,3.39333 2.6661,1.18403 2.6731,-0.59648 0.01,-1.96189 -0.7919,-5.01479 -2.4567,-9.55097 0.942,1.84434 3.6337,1.30778 2.6104,-4.47701 1.7761,1.24479 3.4837,3.83762 3.1425,1.8757 -1.849,-10.63348 -1.4339,-18.3961 -7.8777,-25.74769 -2.6774,-3.05459 -12.0091,-4.12988 -12.9656,1.018 -4.5489,-1.75204 -8.1638,1.93746 -9.18,2.57142 -3.4175,2.13193 -0.7321,4.42709 1.3152,6.68127 z"
       id="path3168-7"
       inkscape:connector-curvature="0"
       sodipodi:nodetypes="cssccsccsscsc" />
    <path
       style="color:#000000;display:inline;overflow:visible;visibility:visible;fill:#547498;fill-opacity:1;fill-rule:nonzero;stroke:none;stroke-width:2.02291632;marker:none;enable-background:accumulate"
       d="m 1889.9986,414.94623 c 26.2025,-17.63493 56.5573,-46.11038 53.0276,-79.90797 -0.3499,-3.34982 -0.4815,-6.5247 -3.4029,-7.45119 0.3456,-2.74015 -2.0267,-4.11319 -4.7739,-5.97979 -1.216,-0.82625 -5.4986,-2.86377 -6.4503,-1.36469 -5.7274,-4.33753 -7.559,-6.53338 -14.1675,-2.04006 -0.8803,-0.79883 -7.6557,1.04219 -8.6472,4.35984 -2.9908,1.52616 -3.5427,4.32307 -1.4555,7.03075 4.7659,6.18232 7.939,5.64019 7.9744,9.7146 0.3891,44.89014 -46.0478,71.72325 -66.1512,82.8532 -0.575,0.31841 -1.9453,1.78253 -2.368,2.69136 -0.4894,1.05239 -1.3739,1.95906 -0.2337,2.49412 -2.0356,1.3501 5.5475,-2.10201 10.133,-3.77786 -1.6409,1.80545 -1.2417,2.53916 -0.4096,2.49493 4.4673,-0.23743 17.3359,-6.60295 28.8784,-14.57937 -0.6132,0.48617 -0.9746,1.41015 -2.968,3.00535 -2.0013,1.60148 -1.7162,2.1712 -1.3469,2.61017 0.7333,0.87154 7.3973,-1.78947 8.5016,-2.2803 -1.6566,2.7983 2.8546,0.80334 3.8597,0.12691 z"
       id="path3170-0"
       inkscape:connector-curvature="0"
       sodipodi:nodetypes="sscscccssssccscsscs" />
    <path
       sodipodi:nodetypes="csccscsssscsssccssc"
       inkscape:connector-curvature="0"
       id="path3172-9"
       d="m 1349.8673,329.80128 c -1.3323,-0.21128 -3.6658,1.83916 -2.7926,4.1448 0.3638,0.96081 -0.4928,7.91886 2.0433,8.32036 -0.1487,2.35888 3.9012,3.82711 6.057,3.80958 -1.4549,2.2171 -0.291,3.78498 0.9611,5.18466 3.1768,3.55102 6.6308,4.5435 8.7396,2.37528 1.1484,1.81753 3.0098,1.0074 4.923,0.5382 4.2504,-1.04234 13.601,-5.62967 16.0042,-6.48986 36.6988,-13.13577 53.3789,-22.74182 80.9582,-42.27479 2.9259,-2.07232 9.1168,-5.48127 4.3912,-7.00291 -1.1069,-0.35642 8.0635,-5.72295 6.581,-9.09512 1.8828,-1.78415 4.1548,-2.63734 3.2947,-3.8288 -1.4202,-1.9673 -5.0247,0.43221 -6.254,-0.38928 -0.8963,-0.599 -0.5129,-1.45629 0.8296,-2.40167 1.0632,-0.74867 -2.8491,-0.86529 -4.7094,-0.84663 6.6982,-5.53442 20.9333,-19.91007 14.8631,-15.96795 -40.4911,27.84804 -72.079,42.62786 -110.8067,55.96173 -4.7948,1.65082 -13.7983,1.01013 -19.4843,1.28986 -3.9094,0.19233 -7.2723,4.56609 -5.599,6.67254 z"
       style="color:#000000;display:inline;overflow:visible;visibility:visible;fill:#547498;fill-opacity:1;fill-rule:nonzero;stroke:none;stroke-width:2.02291632;marker:none;enable-background:accumulate" />
    <path
       sodipodi:nodetypes="sssccscscssscscscscss"
       inkscape:connector-curvature="0"
       id="path3174-3"
       d="m 1392.1258,386.74614 c 42.5052,-13.64677 76.1531,-31.12385 114.7464,-64.81951 2.7737,-2.42165 1.8186,1.57855 -3.2569,6.49713 -1.8873,1.82906 -4.5431,5.04479 -6.715,6.08957 5.8275,-2.5896 2.7743,1.56086 2.0875,4.06058 2.5103,-1.20382 3.218,0.58027 3.1101,1.58988 -0.3143,2.94356 -6.2892,7.9261 -7.8198,9.85949 0.7231,1.55256 0.4755,4.1416 -1.4222,5.60093 -2.8863,2.21958 1.1175,3.86173 -3.9126,8.41249 6.8789,-2.58285 9.7127,-6.68181 10.5292,-4.45213 0.6486,1.77119 -6.3715,6.61977 -8.7726,8.29202 -33.9,23.61016 -51.3154,29.43872 -75.9842,39.78907 -7.1169,2.98604 -33.156,17.19882 -31.6177,6.61853 -1.1182,0.0455 -3.7044,0.70376 -4.6744,0.3419 -2.2516,-0.83986 -2.5208,-3.43987 -3.6351,-5.22261 -1.0441,0.339 -3.0949,-1.15365 -3.7806,-1.93944 -2.0865,-2.3912 -4.1463,-4.54448 -1.7202,-6.9062 -1.0181,-0.74865 -3.273,-2.66605 -2.8352,-3.67503 1.368,-3.15279 2.2054,-7.12898 4.632,-6.16179 -0.051,-1.22141 2.341,-2.65045 4.849,-2.60537 6.44,0.11577 11.4777,0.14415 16.1923,-1.36951 z"
       style="color:#000000;display:inline;overflow:visible;visibility:visible;fill:#547498;fill-opacity:1;fill-rule:nonzero;stroke:none;stroke-width:2.02291632;marker:none;enable-background:accumulate" />
    <path
       sodipodi:nodetypes="cscsscsscssscsscsssc"
       inkscape:connector-curvature="0"
       id="path3176-6"
       d="m 1412.3399,278.31135 c -1.5237,-2.01993 -4.5511,-6.02772 -6.365,-7.46787 -3.2769,-2.60155 -5.4696,-1.66935 -8.0827,0.12989 -3.0685,-3.0579 -9.216,-1.95816 -13.877,-0.57982 -2.1999,0.65057 -3.6248,4.82393 -4.3679,6.70301 -1.43,3.61601 4.831,14.36472 8.0491,18.82956 11.3343,55.26743 26.5437,86.8159 51.9843,127.70708 4.0773,6.55351 11.8885,18.35578 13.5307,17.82598 1.7804,-0.57438 -3.824,-11.07577 -2.4849,-11.55433 1.9686,0.34288 5.3739,6.93338 9.1294,12.25007 2.0491,2.901 5.2124,6.80584 5.9669,6.25877 0.9294,-0.6739 0.2038,-5.05439 -2.65,-9.41971 -2.8046,-4.29 -0.4152,-4.31036 -2.9095,-7.61618 3.0946,2.20367 8.794,16.37548 11.0829,14.69005 1.07,-0.78806 0.7708,-1.96385 1.2853,-2.21887 1.7158,-0.8507 2.7602,2.8573 2.1003,-4.21906 1.6206,3.09749 5.5756,7.28196 7.6536,10.01843 1.9632,2.58515 3.8212,3.06424 2.8583,1.50795 -53.5375,-86.53217 -60.7049,-118.82112 -69.4,-155.89973 -1.2945,-5.52002 3.8321,-16.59627 -3.5038,-16.94522 z"
       style="color:#000000;display:inline;overflow:visible;visibility:visible;fill:#547498;fill-opacity:1;fill-rule:nonzero;stroke:none;stroke-width:2.02291632;marker:none;enable-background:accumulate" />
    <path
       sodipodi:nodetypes="scsscsscsccsscccss"
       inkscape:connector-curvature="0"
       id="path3178-0"
       d="m 1531.4071,371.19562 c 31.4828,-12.95052 60.9709,-41.87972 95.6069,-50.81373 3.4745,-0.80542 14.2301,6.91668 14.5698,11.19829 1.201,15.13724 -10.3102,35.78349 -18.6638,49.24838 -0.6266,1.00996 -2.8737,1.49821 -3.6241,0.21951 -1.8242,3.04998 -3.6195,4.6665 -3.0008,2.5929 0.8822,-2.95612 3.1258,-4.58396 6.6249,-11.9637 2.2172,-4.67619 -8.6888,8.99732 -8.7615,2.67403 -1.5943,0.11499 -2.9499,-4.21389 -6.1971,-0.90909 -3.0186,3.07218 -6.8495,4.01846 -0.6358,-6.63565 -0.7978,-3.16846 5.1059,-11.84766 5.3594,-14.63598 -19.7601,8.29851 -48.033,24.71561 -64.9019,38.41134 -2.1536,1.74849 -5.3384,6.09929 -7.8705,7.04352 -5.1717,1.92849 -13.9653,2.42414 -11.5735,-1.90995 -1.3569,-0.24513 -3.4061,-1.15186 -2.1097,-3.68864 -3.2192,1.79852 -8.9091,-4.06894 -10.1361,-7.13058 -2.155,-2.039 -0.3629,-4.69337 -0.4066,-5.80014 -0.091,-2.31762 10.1776,-5.62047 15.7204,-7.90051 z"
       style="color:#000000;display:inline;overflow:visible;visibility:visible;fill:#547498;fill-opacity:1;fill-rule:nonzero;stroke:none;stroke-width:2.02291632;marker:none;enable-background:accumulate" />
    <path
       sodipodi:nodetypes="csccsssscssc"
       inkscape:connector-curvature="0"
       id="path3180-6"
       d="m 1542.0033,339.52736 c 12.4689,31.37017 19.3364,54.37816 37.0868,80.07377 3.761,5.44447 3.7716,-3.23277 5.9002,-5.0573 9.8999,6.80665 11.8004,19.81046 11.8004,3.37154 2.849,6.73024 15.0553,15.36286 11.8003,9.27169 -21.0051,-39.30747 -32.9458,-68.61301 -40.6371,-94.41987 -2.0451,-6.86187 0.034,-21.13937 -5.7418,-22.7959 -2.9995,-0.86024 -4.3299,-2.91341 -8.3549,-2.4204 -2.5626,0.31388 -11.3079,3.97026 -10.6191,6.29808 -4.7426,-1.65784 -7.0415,3.86589 -8.0365,6.18069 -1.3209,3.07343 -5.1109,11.60248 -2.9072,14.16728 2.343,2.72678 6.2868,2.76383 9.7089,5.33042 z"
       style="color:#000000;display:inline;overflow:visible;visibility:visible;fill:#547498;fill-opacity:1;fill-rule:nonzero;stroke:none;stroke-width:2.02291632;marker:none;enable-background:accumulate" />
    <path
       sodipodi:nodetypes="csscscsscc"
       inkscape:connector-curvature="0"
       id="path3184-2"
       d="m 1669.6428,299.0485 c -4.7414,48.51677 -5.0107,60.79957 -1.3597,106.79544 0.2255,2.84137 1.4971,11.81794 1.8085,12.66438 0.6847,1.86186 2.2366,-5.48458 1.5346,-12.92768 0.9015,-0.38324 5.1233,24.47809 7.6793,24.33574 5.4562,-0.30391 4.0097,12.27293 4.875,8.20573 3.6448,6.63806 5.8337,-4.29041 6.6294,-1.52171 2.4043,8.36672 4.5658,9.82847 4.021,5.65803 -7.4172,-56.77561 -4.9269,-92.31435 1.9266,-144.93418 0,0 -26.941,-0.0533 -27.1147,1.72425 z"
       style="color:#000000;display:inline;overflow:visible;visibility:visible;fill:#547498;fill-opacity:1;fill-rule:nonzero;stroke:none;stroke-width:2.02291632;marker:none;enable-background:accumulate" />
    <path
       sodipodi:nodetypes="csscssscscscssscsc"
       inkscape:connector-curvature="0"
       id="path3186-6"
       d="m 1693.8404,283.5088 c 42.4995,1.12273 67.5625,-4.00205 101.5311,-6.61909 3.9407,-0.30362 9.6798,1.21138 12.1589,5.15631 0.5533,0.88032 1.7956,2.32467 1.968,3.28784 1.3685,0.6999 1.5829,1.30136 2.5203,3.14313 0.8673,1.70419 3.3801,5.12156 3.5032,8.66226 0.067,1.93953 -1.9834,4.39662 -2.1442,5.51233 -4.3799,30.39229 -11.2552,58.80692 -11.2552,102.17724 -7.2146,3.31168 -10.2114,3.4842 -14.0023,-2.77702 -1.4823,-2.44831 -2.0616,-12.40838 -3.2463,-13.74299 -0.6347,7.09848 -4.1028,6.12028 -4.0005,-0.43192 0.5754,-36.86244 4.0542,-71.94533 7.3894,-82.64496 -32.9481,5.06675 -77.212,6.3979 -107.1034,6.28696 -9.0912,-0.0337 -16.7811,-13.36297 -18.9874,-20.82811 -1.6026,-5.42271 4.4255,-9.16038 6.8504,-12.05579 1.0033,-1.1979 4.9472,-2.1071 7.6829,-0.5858 -0.5464,-3.08545 3.59,-2.6531 5.2045,-1.79711 5.1132,2.71105 10.7618,5.54016 11.9306,7.25672 z"
       style="color:#000000;display:inline;overflow:visible;visibility:visible;fill:#547498;fill-opacity:1;fill-rule:nonzero;stroke:none;stroke-width:2.02291632;marker:none;enable-background:accumulate" />
    <path
       sodipodi:nodetypes="ccsscsccsc"
       inkscape:connector-curvature="0"
       id="path3188-1"
       d="m 1682.3575,399.53803 c -4.0119,4.97635 -9.2906,21.25945 4.0869,27.205 45.0467,-2.50585 82.7605,-4.14003 114.2329,-7.90539 0.5664,-0.0678 5.5005,-0.79759 6.7538,-1.78776 1.676,-1.32411 -0.57,-3.08909 -3.1061,-4.23527 3.8625,-1.64485 6.8019,-2.62464 7.497,-4.52871 1.0608,-2.90573 -3.9841,-4.47761 -1.4019,-5.75675 5.2112,-2.58147 13.716,-5.75088 4.6677,-6.36527 7.9668,-2.2546 15.0191,-5.39724 12.3822,-5.0955 -36.2106,4.14371 -87.3043,12.89715 -145.1125,8.46965 z"
       style="color:#000000;display:inline;overflow:visible;visibility:visible;fill:#547498;fill-opacity:1;fill-rule:nonzero;stroke:none;stroke-width:2.02291632;marker:none;enable-background:accumulate" />
    <path
       sodipodi:nodetypes="cssccscscsssscsc"
       inkscape:connector-curvature="0"
       id="path4062-8"
       d="m 649.50411,332.53044 c 7.67413,10.2383 14.47295,25.73281 16.0511,37.63361 0.76473,5.76675 0.20006,13.67302 2.54246,11.93382 1.62151,-1.20392 1.78759,-3.30204 1.90687,-6.00095 0.91146,-0.33608 0.241,-3.55588 0.15523,-4.48992 0.48644,0.17444 2.30531,4.88568 3.52122,3.80722 0.85441,-0.75785 0.0927,-7.04124 -0.67734,-10.47679 1.65576,1.82912 2.09143,9.22027 3.51098,7.22103 1.05656,-1.48803 -0.35995,-14.84005 -0.59002,-17.1855 0.9859,1.29209 1.96122,8.71048 3.04429,7.89001 2.5782,-1.95307 2.10437,-13.24556 1.82655,-15.63691 -0.76392,-6.57548 -3.36883,-16.36847 -4.6728,-19.92822 -2.34665,-6.40606 -5.67354,-10.04357 -11.50486,-7.67564 -2.07241,0.84156 -6.05169,0.93883 -4.77786,3.94112 -1.62177,-0.14565 -9.38155,0.52852 -10.68903,1.27777 -3.64387,2.08815 -3.26343,6.38919 0.35321,7.68935 z"
       style="color:#000000;display:inline;overflow:visible;visibility:visible;fill:#547498;fill-opacity:1;fill-rule:nonzero;stroke:none;stroke-width:2.02291632;marker:none;enable-background:accumulate" />
    <path
       sodipodi:nodetypes="cssccsccsscsc"
       inkscape:connector-curvature="0"
       id="path4064-7"
       d="m 681.8177,326.74065 c 7.2299,9.38357 11.6698,18.13184 13.96359,28.26778 0.22582,0.99765 1.74287,7.93738 2.83559,8.44046 1.21739,0.5605 1.99021,-5.55389 1.56877,-9.49187 0.59986,1.28949 3.80618,6.81782 4.37085,1.00939 1.70552,3.39333 2.66606,1.18403 2.67314,-0.59648 0.008,-1.96189 -0.7919,-5.01479 -2.45676,-9.55097 0.94207,1.84434 3.63376,1.30778 2.61044,-4.47701 1.77605,1.24479 3.48366,3.83762 3.14253,1.8757 -1.84908,-10.63348 -1.43398,-18.3961 -7.87777,-25.74769 -2.6774,-3.05459 -12.00911,-4.12988 -12.96562,1.018 -4.54886,-1.75204 -8.16375,1.93746 -9.17999,2.57142 -3.41752,2.13193 -0.73203,4.42709 1.31523,6.68127 z"
       style="color:#000000;display:inline;overflow:visible;visibility:visible;fill:#547498;fill-opacity:1;fill-rule:nonzero;stroke:none;stroke-width:2.02291632;marker:none;enable-background:accumulate" />
    <path
       sodipodi:nodetypes="sscscccssssccscsscs"
       inkscape:connector-curvature="0"
       id="path4066-9"
       d="m 700.52368,414.94623 c 26.20256,-17.63493 56.5573,-46.11038 53.02765,-79.90797 -0.3499,-3.34982 -0.48152,-6.5247 -3.40295,-7.45119 0.34558,-2.74015 -2.02669,-4.11319 -4.77388,-5.97979 -1.21604,-0.82625 -5.49863,-2.86377 -6.45034,-1.36469 -5.72735,-4.33753 -7.55896,-6.53338 -14.16743,-2.04006 -0.8803,-0.79883 -7.65573,1.04219 -8.64722,4.35984 -2.99082,1.52616 -3.54274,4.32307 -1.45549,7.03075 4.76585,6.18232 7.939,5.64019 7.97433,9.7146 0.38915,44.89014 -46.04778,71.72325 -66.15112,82.8532 -0.57504,0.31841 -1.9453,1.78253 -2.36802,2.69136 -0.48941,1.05239 -1.3739,1.95906 -0.23372,2.49412 -2.03559,1.3501 5.54751,-2.10201 10.13306,-3.77786 -1.64092,1.80545 -1.24173,2.53916 -0.40964,2.49493 4.46727,-0.23743 17.33586,-6.60295 28.87841,-14.57937 -0.61321,0.48617 -0.97457,1.41015 -2.96802,3.00535 -2.00134,1.60148 -1.71624,2.1712 -1.34686,2.61017 0.73331,0.87154 7.39727,-1.78947 8.50158,-2.2803 -1.65663,2.7983 2.8546,0.80334 3.85966,0.12691 z"
       style="color:#000000;display:inline;overflow:visible;visibility:visible;fill:#547498;fill-opacity:1;fill-rule:nonzero;stroke:none;stroke-width:2.02291632;marker:none;enable-background:accumulate" />
  </g>
</svg>
