<?xml version="1.0" encoding="UTF-8" standalone="no"?>
<!-- Created with Inkscape (http://www.inkscape.org/) -->

<svg
   xmlns:dc="http://purl.org/dc/elements/1.1/"
   xmlns:cc="http://creativecommons.org/ns#"
   xmlns:rdf="http://www.w3.org/1999/02/22-rdf-syntax-ns#"
   xmlns:svg="http://www.w3.org/2000/svg"
   xmlns="http://www.w3.org/2000/svg"
   xmlns:xlink="http://www.w3.org/1999/xlink"
   xmlns:sodipodi="http://sodipodi.sourceforge.net/DTD/sodipodi-0.dtd"
   xmlns:inkscape="http://www.inkscape.org/namespaces/inkscape"
   id="svg2"
   version="1.1"
   inkscape:version="0.91 r13725"
   width="2481"
   height="663"
   sodipodi:docname="Pepper-and-Carrot_by-David-Revoy_E13P00.svg">
  <metadata
     id="metadata8">
    <rdf:RDF>
      <cc:Work
         rdf:about="">
        <dc:format>image/svg+xml</dc:format>
        <dc:type
           rdf:resource="http://purl.org/dc/dcmitype/StillImage" />
        <dc:title />
      </cc:Work>
    </rdf:RDF>
  </metadata>
  <defs
     id="defs6">
    <linearGradient
       id="linearGradient4561"
       inkscape:collect="always">
      <stop
         id="stop4563"
         offset="0"
         style="stop-color:#774e33;stop-opacity:1" />
      <stop
         id="stop4565"
         offset="1"
         style="stop-color:#ffd42a;stop-opacity:1" />
    </linearGradient>
    <linearGradient
       inkscape:collect="always"
       id="linearGradient4290">
      <stop
         style="stop-color:#e80000;stop-opacity:1"
         offset="0"
         id="stop4292" />
      <stop
         id="stop4298"
         offset="0.5"
         style="stop-color:#9e1900;stop-opacity:1;" />
      <stop
         style="stop-color:#2b0000;stop-opacity:1"
         offset="1"
         id="stop4294" />
    </linearGradient>
    <filter
       inkscape:menu-tooltip="Transparent plastic with deep colors"
       inkscape:menu="Bevels"
       inkscape:label="Pepper-title-style"
       style="color-interpolation-filters:sRGB;"
       id="filter4268">
      <feGaussianBlur
         in="SourceGraphic"
         result="result6"
         stdDeviation="0.20000000000000001"
         id="feGaussianBlur4270" />
      <feComposite
         in2="SourceGraphic"
         in="result6"
         operator="xor"
         id="feComposite4272" />
      <feGaussianBlur
         result="result2"
         stdDeviation="6.0001843317972341"
         id="feGaussianBlur4274" />
      <feComposite
         in2="SourceGraphic"
         operator="atop"
         result="result91"
         id="feComposite4276"
         stdDeviation="6" />
      <feComposite
         result="result4"
         in="result2"
         operator="xor"
         in2="result91"
         id="feComposite4278"
         stdDeviation="3.7000000000000002" />
      <feGaussianBlur
         in="result4"
         result="result3"
         stdDeviation="3.6962672811059902"
         id="feGaussianBlur4280" />
      <feSpecularLighting
         lighting-color="rgb(216,189,109)"
         in="result3"
         result="result5"
         specularExponent="35"
         specularConstant="3"
         surfaceScale="12"
         id="feSpecularLighting4282">
        <feDistantLight
           elevation="45"
           azimuth="235"
           id="feDistantLight4284" />
      </feSpecularLighting>
      <feComposite
         in2="result5"
         in="SourceGraphic"
         k3="0.7"
         k2="0.8"
         operator="arithmetic"
         result="result7"
         id="feComposite4286" />
      <feComposite
         in="result7"
         operator="in"
         in2="SourceGraphic"
         id="feComposite4288" />
    </filter>
    <linearGradient
       inkscape:collect="always"
       xlink:href="#linearGradient4290"
       id="linearGradient4327"
       gradientUnits="userSpaceOnUse"
       x1="1243.5789"
       y1="254.0174"
       x2="1240.9818"
       y2="421.95773"
       gradientTransform="translate(-1629.8642,-2.8536363)" />
    <linearGradient
       inkscape:collect="always"
       xlink:href="#linearGradient4290"
       id="linearGradient4327-3"
       gradientUnits="userSpaceOnUse"
       x1="1243.5789"
       y1="254.0174"
       x2="1240.9818"
       y2="421.95773"
       gradientTransform="translate(-300.09377,-152.28618)" />
    <filter
       inkscape:menu-tooltip="Transparent plastic with deep colors"
       inkscape:menu="Bevels"
       inkscape:label="Pepper-title-style"
       style="color-interpolation-filters:sRGB"
       id="filter4268-0">
      <feGaussianBlur
         in="SourceGraphic"
         result="result6"
         stdDeviation="0.20000000000000001"
         id="feGaussianBlur4270-9" />
      <feComposite
         in2="SourceGraphic"
         in="result6"
         operator="xor"
         id="feComposite4272-3" />
      <feGaussianBlur
         result="result2"
         stdDeviation="6.0001843317972341"
         id="feGaussianBlur4274-4" />
      <feComposite
         in2="SourceGraphic"
         operator="atop"
         result="result91"
         id="feComposite4276-3"
         stdDeviation="6" />
      <feComposite
         result="result4"
         in="result2"
         operator="xor"
         in2="result91"
         id="feComposite4278-2"
         stdDeviation="3.7000000000000002" />
      <feGaussianBlur
         in="result4"
         result="result3"
         stdDeviation="3.6962672811059902"
         id="feGaussianBlur4280-5" />
      <feSpecularLighting
         lighting-color="#d8bd6d"
         in="result3"
         result="result5"
         specularExponent="35"
         specularConstant="3"
         surfaceScale="12"
         id="feSpecularLighting4282-0">
        <feDistantLight
           elevation="45"
           azimuth="235"
           id="feDistantLight4284-6" />
      </feSpecularLighting>
      <feComposite
         k4="0"
         k1="0"
         in2="result5"
         in="SourceGraphic"
         k3="0.7"
         k2="0.8"
         operator="arithmetic"
         result="result7"
         id="feComposite4286-6" />
      <feComposite
         in="result7"
         operator="in"
         in2="SourceGraphic"
         id="feComposite4288-4" />
    </filter>
    <filter
       id="filter4140"
       style="color-interpolation-filters:sRGB;"
       inkscape:label="Dark And Glow"
       inkscape:menu="Shadows and Glows"
       inkscape:menu-tooltip="Darkens the edge with an inner blur and adds a flexible glow"
       height="1.5"
       y="-0.25">
      <feGaussianBlur
         id="feGaussianBlur4142"
         result="result6"
         stdDeviation="4.6710210876803542" />
      <feComposite
         stdDeviation="4.7000000000000002"
         id="feComposite4144"
         in2="result6"
         operator="atop"
         in="SourceGraphic"
         result="result8" />
      <feComposite
         id="feComposite4146"
         in="result8"
         in2="SourceAlpha"
         operator="over"
         result="result9" />
      <feColorMatrix
         id="feColorMatrix4148"
         result="result10"
         values="1 0 0 0 0 0 1 0 0 0 0 0 1 0 0 0 0 0 1 0 " />
      <feBlend
         id="feBlend4150"
         in2="result6"
         mode="normal"
         in="result10" />
    </filter>
    <linearGradient
       inkscape:collect="always"
       xlink:href="#linearGradient4290"
       id="linearGradient4514"
       x1="1181.2179"
       y1="-405.09784"
       x2="1181.2179"
       y2="-193.42131"
       gradientUnits="userSpaceOnUse" />
    <linearGradient
       inkscape:collect="always"
       xlink:href="#linearGradient4561"
       id="linearGradient4559"
       gradientUnits="userSpaceOnUse"
       x1="1224.7605"
       y1="-120.70979"
       x2="1227.4819"
       y2="-294.11374" />
  </defs>
  <sodipodi:namedview
     pagecolor="#ffffff"
     bordercolor="#666666"
     borderopacity="1"
     objecttolerance="10"
     gridtolerance="10"
     guidetolerance="10"
     inkscape:pageopacity="0"
     inkscape:pageshadow="2"
     inkscape:window-width="1855"
     inkscape:window-height="1056"
     id="namedview4"
     showgrid="false"
     inkscape:zoom="0.2598304"
     inkscape:cx="1393.333"
     inkscape:cy="314.61705"
     inkscape:window-x="65"
     inkscape:window-y="24"
     inkscape:window-maximized="1"
     inkscape:current-layer="layer1" />
  <g
     inkscape:groupmode="layer"
     id="layer2"
     inkscape:label="artwork"
     sodipodi:insensitive="true">
    <image
       sodipodi:absref="/home/thomas/Data/Copy/PepperCarrot/Git/peppercarrot_ep13_translation/no/../gfx_Pepper-and-Carrot_by-David-Revoy_E13P00.png"
       xlink:href="../gfx_Pepper-and-Carrot_by-David-Revoy_E13P00.png"
       y="0"
       x="0"
       id="image10"
       height="663"
       width="2481" />
  </g>
  <g
     inkscape:groupmode="layer"
     id="layer1"
     inkscape:label="txt"
     style="display:inline">
    <text
       xml:space="preserve"
       style="font-style:normal;font-variant:normal;font-weight:normal;font-stretch:normal;font-size:12px;line-height:125%;font-family:Arial;-inkscape-font-specification:Arial;letter-spacing:0px;word-spacing:0px;display:inline;fill:#2b1100;fill-opacity:1;stroke:#000000;stroke-width:2;stroke-miterlimit:4;stroke-dasharray:none;stroke-opacity:1"
       x="748.98328"
       y="582.47577"
       id="episode-title"
       sodipodi:linespacing="125%"><tspan
         sodipodi:role="line"
         id="tspan4180"
         style="font-style:normal;font-variant:normal;font-weight:normal;font-stretch:normal;font-size:72.5px;font-family:Lavi;-inkscape-font-specification:Lavi;fill:#2b1100;stroke:none"
         x="748.98328"
         y="582.47577">Episode 13: Pysjamas-party</tspan></text>
    <flowRoot
       transform="translate(-286.66777,-1591.47)"
       xml:space="preserve"
       id="flowRoot2987-3"
       style="font-style:normal;font-variant:normal;font-weight:normal;font-stretch:normal;font-size:8.52000046px;line-height:125%;font-family:Lavi;-inkscape-font-specification:Lavi;letter-spacing:0px;word-spacing:0px;fill:#000000;fill-opacity:1;stroke:none;stroke-width:1px;stroke-linecap:butt;stroke-linejoin:miter;stroke-opacity:1"><flowRegion
         id="flowRegion2989-5"><rect
           id="rect2991-6"
           width="721.75812"
           height="55.156185"
           x="502.10858"
           y="-1050.8098"
           style="font-style:normal;font-variant:normal;font-weight:normal;font-stretch:normal;font-family:Lavi;-inkscape-font-specification:Lavi" /></flowRegion><flowPara
         id="flowPara2993-2" /></flowRoot>    <g
       id="g4572"
       transform="translate(1628.0992,0)">
      <path
         sodipodi:nodetypes="ccccc"
         inkscape:connector-curvature="0"
         id="path4329"
         d="m 215.78876,358.75549 16.5232,-11.15831 16.9221,12.23719 -17.6612,10.81842 z"
         style="color:#000000;clip-rule:nonzero;display:inline;overflow:visible;visibility:visible;opacity:1;isolation:auto;mix-blend-mode:normal;color-interpolation:sRGB;color-interpolation-filters:linearRGB;solid-color:#000000;solid-opacity:1;fill:url(#linearGradient4327);fill-opacity:1;fill-rule:nonzero;stroke:#552200;stroke-width:5.4000001;stroke-linecap:butt;stroke-linejoin:miter;stroke-miterlimit:4;stroke-dasharray:none;stroke-dashoffset:0;stroke-opacity:1;filter:url(#filter4268);color-rendering:auto;image-rendering:auto;shape-rendering:auto;text-rendering:auto;enable-background:accumulate" />
      <g
         transform="translate(-1593.3471,612.13287)"
         id="g4568">
        <path
           inkscape:connector-curvature="0"
           id="path4544"
           style="fill:url(#linearGradient4559);fill-opacity:1;stroke:#774e33;stroke-width:5.4000001;stroke-miterlimit:4;stroke-dasharray:none;stroke-opacity:1;filter:url(#filter4268)"
           d="m 1218.9444,-227.60944 7.7925,-6.6489 1.9463,-3.192 1.9464,-3.192 0,-3.2028 0,-3.2029 -2.5028,-2.9745 -2.5029,-2.9745 -3.0316,-1.2557 -3.0316,-1.2558 -3.4886,0.6545 -3.4886,0.6545 -2.7372,3.2459 c -1.5054,1.7853 -3.3495,4.7076 -4.0981,6.4939 l -1.3616,3.2479 0,3.9093 0,3.9093 1.4294,4.7493 c 1.4196,4.7171 3.1941,7.6835 4.5962,7.6835 0.4024,0 4.2383,-2.9921 8.5242,-6.649 z m 5.3994,62.03241 4.4373,-2.148 0.4942,-1.2879 0.4942,-1.28791 -10.4164,-10.1838 -10.4165,-10.1839 -1.2186,-0.01 -1.2187,-0.01 -2.8186,3.7153 c -1.5503,2.0434 -4.2948,5.0793 -6.099,6.7463 l -3.2803,3.031 0,1.365 0,1.365 4.2896,4.3767 c 2.3593,2.40721 5.198,4.87491 6.3083,5.48391 l 2.0187,1.1072 6.4942,0.031 6.4943,0.031 4.4373,-2.1481 z m -24.4911,24.4256 c -2.7757,-0.9893 -7.3585,-2.9708 -10.1841,-4.4034 l -5.1375,-2.6046 -3.1833,-3.6255 c -1.7508,-1.994 -4.193,-5.5432 -5.4273,-7.8871 l -2.244,-4.2616 -0.033,-7.56991 -0.033,-7.5699 3.1865,-6.7259 3.1865,-6.7258 7.8321,-8.1978 7.8321,-8.1977 -2.8354,-5.9323 -2.8353,-5.9322 0.6055,-3.0276 0.6055,-3.0276 -1.4446,-1.1989 -1.4445,-1.1989 1.5666,-3.0294 1.5666,-3.0295 -2.24,-2.3843 -2.24,-2.3843 0.6401,-4.6695 0.64,-4.6694 2.0103,-4.5447 2.0104,-4.5448 4.2924,-5.1269 4.2924,-5.1268 4.4309,-2.8099 4.4309,-2.81 5.4663,-1.2234 5.4663,-1.2232 5.255,1.6601 5.2549,1.6601 5.762,3.6087 5.762,3.6087 3.6768,6.0527 3.6769,6.0528 0.5164,3.8503 0.5165,3.8504 -2.2282,7.06 -2.2282,7.06 -3.8778,4.938 c -2.1329,2.7159 -5.5453,7.4361 -7.5832,10.4893 -2.0379,3.0532 -5.0652,6.7583 -6.7273,8.2336 l -3.0219,2.6822 0.8594,1.466 c 0.4726,0.8063 4.995,5.8566 10.0497,11.2228 l 9.1904,9.7568 1.2054,-1.4524 1.2054,-1.4524 0.2022,-2.8641 0.2021,-2.8641 -3.7799,-0.3129 -3.7798,-0.313 -2.5284,-3.3149 -2.5285,-3.315 0,-2.1036 0,-2.1036 1.4459,-1.4459 1.4459,-1.4459 8.395,-2.6099 c 4.6173,-1.4354 10.666,-3.1259 13.4417,-3.7566 l 5.0466,-1.1467 12.1119,-0.3982 c 6.6616,-0.219 14.4965,-0.6682 17.4109,-0.9982 l 5.2989,-0.6 -5e-4,1.3343 -5e-4,1.3343 -7.1781,6.5606 c -3.9479,3.6084 -8.6032,7.9788 -10.345,9.7121 l -3.167,3.1515 -4.9233,0.7147 c -2.7079,0.3931 -5.5467,0.9538 -6.3083,1.2461 l -1.385,0.5315 0,4.9008 0,4.9007 -2.1535,5.7557 -2.1535,5.7557 2.9001,2.10441 c 1.595,1.1575 4.7215,3.5063 6.9478,5.2197 l 4.0477,3.1151 -0.1874,1.4268 c -0.1031,0.7848 -0.8155,3.1266 -1.5831,5.204 l -1.3956,3.7772 -2.3778,2.5311 -2.3779,2.5311 -3.1044,0 -3.1044,0 -3.3047,-2.0149 c -1.8176,-1.1076 -3.9138,-2.0143 -4.6582,-2.0143 -0.7444,0 -2.5083,-0.9084 -3.9198,-2.0187 -1.4115,-1.1102 -3.176,-2.007 -3.9211,-1.9928 -0.7451,0.014 -3.8529,1.6206 -6.9061,3.5698 l -5.5513,3.5441 -9.5484,2.9907 -9.5485,2.9908 -5.0867,-0.074 -5.0868,-0.074 -5.0466,-1.7988 z" />
        <path
           inkscape:connector-curvature="0"
           id="path4376-2"
           style="fill:url(#linearGradient4514);fill-opacity:1;stroke:#774e33;stroke-width:5.4000001;stroke-miterlimit:4;stroke-dasharray:none;stroke-opacity:1;filter:url(#filter4268)"
           d="m 1926.4334,-193.28294 -5.2211,-2.6018 -2.5952,-3.0843 c -1.4274,-1.6963 -3.4406,-4.7413 -4.4738,-6.7665 l -1.8785,-3.6822 -1.1013,-5.957 -1.1011,-5.9569 -0.071,-26.8141 -0.071,-26.8141 -0.7892,-2.0186 -0.7894,-2.0187 -7.284,0 -7.284,0 -3.9677,-4.2505 -3.9676,-4.2506 0,-2.5761 0,-2.5761 -1.1686,-1.8712 -1.1685,-1.8713 0.5501,-1.4339 0.5502,-1.4338 5.9545,-3.1213 5.9544,-3.1212 5.8239,-1.3033 5.8239,-1.3033 1.2043,-2.0976 1.2043,-2.0975 -0.2589,-20.5175 -0.259,-20.5175 -1.0727,-2.0045 -1.0728,-2.0045 1.203,-1.4495 1.2029,-1.4495 2.0154,0 2.0154,0 5.9062,3.5879 5.9062,3.5878 2.1245,2.9836 2.1246,2.9836 0.5875,15.2884 0.5876,15.2884 1.8747,1.8747 1.8747,1.8746 2.7602,-0.6632 c 1.5182,-0.3648 4.35,-1.45 6.2929,-2.4116 l 3.5327,-1.7483 7.929,-0.7279 7.9291,-0.7279 3.6782,-1.5673 3.6781,-1.5672 5.2881,-0.103 5.2881,-0.1029 0.4945,1.2895 0.4946,1.2895 -1.7453,1.4227 c -0.96,0.7825 -3.8757,3.1545 -6.4796,5.2711 -2.6037,2.1166 -8.5867,7.2898 -13.2955,11.4961 l -8.5613,7.6477 -8.9097,3.3694 c -4.9002,1.8532 -9.5909,3.9911 -10.4236,4.7509 l -1.5139,1.3815 -0.3251,27.9744 -0.3253,27.9745 0.6543,5.3319 0.6542,5.3319 2.3422,2.7229 2.3421,2.7229 3.1024,-1.4942 3.1023,-1.4942 11.4885,-11.2398 c 6.3187,-6.1819 12.4732,-11.7668 13.6769,-12.4109 l 2.1882,-1.1711 0.8616,0.5325 0.8617,0.5326 -0.8159,4.3084 c -0.4489,2.3696 -1.5413,6.0305 -2.4277,8.1354 l -1.6116,3.827 -3.1325,2.7989 -3.1325,2.7989 1.1681,2.1826 1.1681,2.1827 -1.5849,3.808 -1.585,3.8081 -4.2417,4.4151 c -2.3331,2.4283 -6.2612,5.7212 -8.7292,7.3176 l -4.4873,2.9025 -5.6601,0 -5.6601,0 z m -90.0957,-19.8557 5.5665,-1.2617 3.8621,-3.8477 3.8621,-3.8478 1.9618,-4.5769 1.9619,-4.5768 1.1123,-7.1691 1.1124,-7.1692 -0.6712,-14.1813 c -0.3692,-7.7998 -0.6526,-16.2913 -0.6297,-18.8701 l 0.041,-4.6887 -2.7263,-1.7863 c -1.4995,-0.9825 -5.1435,-3.7552 -8.0979,-6.1616 l -5.3714,-4.3752 -3.3102,0 -3.3102,0 -5.1819,1.5389 -5.182,1.5388 -3.2511,2.7358 -3.2513,2.7357 -3.8389,5.9394 -3.8388,5.9395 -0.6159,3.6641 c -0.3387,2.0154 -0.8275,4.4389 -1.0861,5.3858 -0.2587,0.9468 -3.1452,3.3614 -4.4539,6.5421 l -3.9835,4.8206 0,1.5605 0,1.5605 1.8628,1.595 1.8629,1.595 0.6933,5.8996 0.6934,5.8996 4.3633,9.2111 4.3634,9.211 2.9583,2.1065 c 3.4915,2.4862 8.5825,4.0769 13.4528,4.2035 1.9267,0.05 6.008,-0.4767 9.0696,-1.1707 z m -24.1799,20.8979 -5.5513,-1.5244 -5.3635,-3.672 -5.3634,-3.672 -3.9571,-4.6269 -3.9569,-4.627 -2.9412,-6.0559 -2.9411,-6.056 -1.112,-5.3486 -1.1119,-5.3487 0.02,-9.2865 0.02,-9.2866 0.9815,-6.7861 0.9814,-6.786 2.1674,-6.3352 c 2.8528,-8.3384 6.4174,-18.611 11.202,-22.254 l 2.9999,-3.8068 6.3304,-4.5173 c 3.4818,-2.4845 8.8124,-5.6536 11.8461,-7.0424 l 5.5156,-2.5251 7.4813,-0.6099 7.4814,-0.6098 7.0427,1.657 7.0428,1.6569 4.2168,2.4712 4.2167,2.4712 3.1207,3.9401 3.1205,3.9401 3.5036,7.4281 c 1.9269,4.0855 4.2267,10.1534 5.1107,13.4842 l 1.6072,6.0559 0.5641,9.5886 0.5641,9.5886 -1.6329,8.5793 c -0.8982,4.7186 -2.0988,10.2439 -2.668,12.2785 l -1.0349,3.6994 -3.5089,2.0702 -3.5088,2.0703 0,1.5617 c 0,0.859 0.5603,2.4588 1.245,3.5553 l 1.245,1.9935 -2.002,3.7318 c -1.1011,2.0524 -4.1188,6.0511 -6.706,8.8858 l -4.7042,5.1541 -5.3891,2.9752 -5.3892,2.9752 -12.6166,0.2448 -12.6165,0.2447 -5.5513,-1.5245 z m -114.7402,-0.085 c -1.2102,-1.0382 -3.3677,-3.6542 -4.7943,-5.8134 l -2.5939,-3.9258 0,-1.9555 0,-1.9554 2.8278,-2.8278 2.8278,-2.8278 4.1794,-0.7061 4.1794,-0.7061 0.9742,-1.1828 0.9743,-1.1827 0.2151,-35.3264 0.2152,-35.3264 -1.0079,-4.8307 -1.0078,-4.8307 -1.7772,-1.9638 -1.7773,-1.9639 -5.1592,-1.9219 -5.1591,-1.9219 -0.2753,-1.3768 -0.2752,-1.3768 12.7972,-2.2837 12.7974,-2.2837 2.6177,1.6649 c 1.4398,0.9157 3.6236,2.8518 4.8528,4.3024 l 2.2349,2.6374 0.6531,3.2803 0.6531,3.2803 1.1493,-0.01 1.1493,-0.01 4.7428,-5.9483 4.743,-5.9483 5.5487,-2.7148 5.5488,-2.7147 3.3342,0.7183 c 1.8339,0.395 4.6969,1.3967 6.3623,2.2259 3.8859,1.9348 8.3906,6.1228 10.0972,9.3874 l 1.3377,2.5589 -1.4407,13.0856 -1.4406,13.0857 -2.9892,4.5419 c -1.644,2.4981 -3.7662,6.0181 -4.7161,7.8223 l -1.7268,3.2803 -1.6341,0 -1.634,0 -0.097,-8.3269 -0.098,-8.327 -1.7161,-4.2702 -1.7161,-4.2703 -3.2976,-2.038 -3.2977,-2.038 -2.5322,0 -2.5322,0 -2.0188,4.7943 c -1.1104,2.6368 -2.7298,7.0652 -3.5988,9.8409 -1.7137,5.4739 -5.23,26.9255 -6.3083,38.485 l -0.6714,7.196 1.1793,3.5735 c 0.6487,1.9655 1.724,4.0185 2.3895,4.5623 l 1.21,0.9886 5.5513,-0.9933 c 3.0532,-0.5463 8.2765,-1.1158 11.6072,-1.2656 3.3308,-0.1497 6.8049,-0.5965 7.7202,-0.9927 l 1.6642,-0.7205 0.7145,1.1561 0.7146,1.1562 -6.6351,6.3789 -6.6351,6.379 -1.5767,3.9407 -1.5768,3.9408 -3.2307,1.9084 -3.2308,1.9085 -9.6087,0.713 c -5.2847,0.3922 -13.7066,0.9286 -18.6926,1.441 l -9.0839,0.7279 -2.2004,-1.8875 z m -63.0207,-1.0205 c -1.4415,-1.5872 -3.3718,-4.0088 -4.2896,-5.3813 l -1.6688,-2.4956 0,-2.8034 0,-2.8034 1.9788,-1.9789 1.9789,-1.9789 5.5898,-1.6249 6.715,-10.6279 2.8261,-7.9195 3.4089,-23.7263 -0.1651,-24.3465 c 1.3679,-18.4818 0.7052,-22.3899 1.4382,-25.2684 -0.7731,-2.5479 0.6462,-6.4059 1.5195,-25.9146 0.2871,-6.4151 -0.9903,-15.526 -0.4335,-25.5121 1.6295,-2.4588 -1.7225,-18.6726 -0.6973,-27.8822 -3.0281,-3.1807 -4.8205,-6.4896 -4.2347,-10.0241 0.6622,-3.9959 11.0483,-0.9047 12.2192,-3.4902 l 7.5156,3.3801 8.0709,9.9973 c 4.0155,6.0166 1.4257,8.3822 0.8087,13.902 -0.6137,5.491 0.763,14.1387 -1.941,19.2433 -0.051,10.6716 2.9713,28.1392 -0.55,36.7288 2.8678,12.4546 0.017,19.4129 0.01,33.3054 l -1.3249,16.1188 -0.4262,18.2032 c -0.3343,6.6624 -2.2909,6.0199 -3.9209,10.7612 0.477,2.12 2.2912,4.0979 1.3205,9.1134 l -1.534,8.7081 -4.445,8.0738 c -4.362,6.5978 0.1723,9.7701 -17.559,18.4205 l -9.5886,0.7082 -2.6208,-2.8858 z m -592.8378,-0.7639 -3.7033,-3.7033 -2.5233,-4.9794 -2.5232,-4.9793 0,-2.4973 0,-2.4973 1.2567,-0.7766 1.2566,-0.7767 8.5843,-0.04 8.5843,-0.04 0.6077,-20.1865 0.6076,-20.1865 1.2392,-5.2844 1.2391,-5.2843 -0.3328,-13.0576 -0.3329,-13.0577 -2.2353,-2.3763 -2.2354,-2.3764 0.5835,-2.2315 0.5836,-2.2316 -1.6966,-0.651 -1.6966,-0.6511 -2.2029,1.1592 -2.2028,1.1593 -5.0467,-1.9301 -5.0466,-1.9301 -0.3437,-1.7084 -0.3437,-1.7084 2.2407,-2.3851 2.2407,-2.3851 8.7009,-3.1969 8.7009,-3.1969 5.6146,-0.1192 5.6145,-0.1192 2.7967,1.8325 2.7967,1.8324 1.4297,3.4217 1.4297,3.4218 0,5.079 0,5.0791 1.2616,-6e-4 1.2617,-6e-4 5.7723,-6.4548 5.7722,-6.4548 4.3874,-2.1239 4.3873,-2.1239 4.6454,0 c 2.555,0 5.3986,0.2891 6.3193,0.6423 l 1.6738,0.6424 0.907,2.3856 0.9071,2.3857 2.8641,0 2.8641,0 2.5872,2.7756 2.5872,2.7757 4.1623,8.6147 4.1622,8.6147 -0.058,1.9832 c -0.032,1.0908 -0.868,5.0894 -1.8577,8.8858 l -1.7994,6.9026 -4.4507,1.9885 -4.4506,1.9885 -2.6817,2.5626 -2.6816,2.5626 -6.0253,-2.704 -6.0252,-2.7039 -1.096,-2.4054 -1.0959,-2.4054 0.8363,-0.517 0.8364,-0.5169 1.8053,1.9949 1.8053,1.9949 2.6787,0 2.6786,0 1.6531,-1.2617 1.6531,-1.2617 1.5531,-4.5419 c 0.8542,-2.4981 1.5597,-5.3575 1.5678,-6.3542 l 0.015,-1.8122 -2.5233,-2.5233 c -1.3878,-1.3878 -2.5233,-2.8777 -2.5233,-3.3108 0,-0.4332 -1.0512,-1.7751 -2.336,-2.9821 l -2.3361,-2.1947 -5.514,0 -5.514,0 -2.2654,1.5868 -2.2654,1.5868 -2.8653,5.7308 c -1.5759,3.1519 -3.5976,8.0018 -4.4927,10.7774 -0.8951,2.7757 -2.7881,11.8498 -4.2068,20.1647 l -2.5794,15.1181 -0.1013,7.8224 -0.1013,7.8224 1.7295,2.6394 1.7294,2.6394 4.3376,1.9188 4.3377,1.9188 0.5491,2.0996 0.5491,2.0996 2.0701,-1.1079 2.0702,-1.1079 1.9796,1.2363 1.9796,1.2363 2.5078,-1.3422 2.5079,-1.3421 2.8534,0.7122 c 1.5693,0.3918 3.5347,1.2972 4.3674,2.012 0.8327,0.7149 2.7723,1.5989 4.3103,1.9645 l 2.7964,0.6646 2.1063,-1.1272 2.1063,-1.1273 0.9658,0.9659 0.9659,0.9658 -1.7294,1.7294 -1.7293,1.7293 -2.046,-0.535 -2.0461,-0.5351 -2.5978,1.3981 c -3.9474,2.1244 -12.1942,4.5619 -15.4343,4.5619 l -2.8884,0 -4.2495,2.1995 -4.2494,2.1996 -11.1026,0.7475 c -6.1064,0.4111 -15.4542,1.0726 -20.7728,1.47 l -9.6703,0.7226 -3.7034,-3.7033 z m 564.7963,-99.1907 c 6.0529,5.7036 2.2968,12.0275 2.8402,21.366 0.3894,6.6912 -1.2207,12.4787 -1.9218,19.4299 -0.8532,8.4581 -0.9689,18.0308 -2.2012,25.3495 l -3.0037,6.4216 0,1.9053 0,1.9053 1.065,0 c 0.5857,0 3.6516,-1.3265 6.813,-2.9478 8.4718,-4.3449 9.2496,-5.9537 10.5895,-6.1507 l 4.5773,0.3978 0.3979,3.7231 c 0.055,0.513 -0.058,-0.4573 -2.3165,2.9434 l -4.107,6.1831 -0.7779,4.9212 -0.778,4.9211 -1.6353,2.4958 -1.6353,2.4958 -5.3394,3.0309 -5.3393,3.0308 -5.4822,1.6083 c -3.0151,0.8846 -5.7403,1.5465 -6.0559,1.4709 -0.3157,-0.076 -1.5867,-0.3331 -2.8247,-0.5722 l 0,0 -2.2508,-0.4348 -2.0389,-2.5918 -2.0387,-2.5919 0,-1.759 0,-1.7589 -1.4254,-1.183 -1.4254,-1.183 -6.1169,2.5745 c -3.3641,1.416 -9.6492,3.7408 -13.9667,5.1662 l -7.85,2.5917 -9.1648,0.5732 -9.1649,0.5733 -5.3554,-1.7788 -5.3555,-1.7788 -3.8941,-3.5181 -3.8942,-3.5182 -1.5198,-5.1176 -1.5197,-5.1175 0,-4.8176 0,-4.8175 2.4454,-6.737 1.8827,-9.8317 c 0.5259,-5.7972 0.4105,-10.9529 2.6847,-18.4983 -0.4176,-8.5088 1.3715,-17.3159 2.076,-26.1661 0.2995,-3.7625 -0.9671,-7.3259 0.5984,-13.1802 2.2824,-2.3236 4.2448,3.0289 7.2889,0.7187 0.5883,-2.649 3.165,-4.0024 5.5991,-4.8575 l 9.1824,1.1023 c 1.5809,3.0856 1.0855,5.3331 0.7556,8.0218 -0.8284,6.7528 -2.0193,7.3512 -5.3569,19.9257 l -1.9727,19.6353 -3.1796,15.6423 c -1.3527,2.0023 -1.0818,7.7795 -1.4609,9.0558 l -0.83,5.9778 0.9176,5.7093 3.5904,1.4892 3.4699,0.9847 5.4392,0 7.7538,-1.4836 7.754,-1.4835 5.7084,-2.6035 c 3.1396,-1.4319 7.4137,-3.7797 9.4979,-5.2174 l 3.7893,-2.6138 2.0143,-3.2592 c 1.3875,-4.9332 2.9727,-15.1494 3.5002,-26.7054 2.9977,-1.8651 3.5199,-4.9531 0.1377,-7.6858 -0.014,-6.1455 -0.23,-12.2712 0,-17.0318 0.5952,-12.4041 0.9316,-11.9946 3.1245,-19.1578 l 9.9919,0.8341 z m -644.19905,30.8969 c 7.4943,-1.66 16.4694,-3.9537 19.9447,-5.0969 l 6.3186,-2.0787 1.1144,-2.0823 1.1144,-2.0822 0.1369,-11.7103 0.1369,-11.7102 -2.1004,-3.5326 -2.1004,-3.5327 -3.5345,0.1001 -3.5346,0.1002 -6.2049,4.2136 -6.2049,4.2137 -2.398,-0.6019 -2.398,-0.6018 -1.66,1.66 -1.66,1.66 0.6183,2.4633 0.6183,2.4633 -4.0022,5.286 c -2.2011,2.9072 -5.8854,8.7483 -8.1873,12.9801 l -4.1851,7.6943 0,2.2644 0,2.2645 2.271,-0.6578 c 1.249,-0.3618 8.4026,-2.0161 15.8968,-3.6761 z m -16.268,72.3484 c -2.0083,-0.7176 -5.3052,-2.3269 -7.3265,-3.5762 l -3.6751,-2.2713 -2.5255,-4.3094 c -1.3891,-2.3702 -4.2238,-9.0301 -6.2994,-14.7997 l -3.7738,-10.4903 0.094,-16.1492 0.094,-16.1492 2.1869,-8.0746 2.1869,-8.0746 4.0923,-8.5793 4.0924,-8.5792 5.467,-7.1533 c 3.0068,-3.9343 7.9815,-9.5314 11.0549,-12.438 l 5.5879,-5.2849 7.6018,-3.5122 7.6017,-3.5122 4.9133,-0.5819 4.9134,-0.5819 4.3735,2.1354 4.3735,2.1355 6.2664,5.6084 6.26635,5.6084 3.3223,6.743 3.3222,6.743 0.3271,17.6899 0.3271,17.6898 -1.039,2.7229 -1.0391,2.7229 -2.316,1.5026 -2.316,1.5027 -9.11495,1.5707 c -5.0132,0.8639 -17.7308,3.8647 -28.2612,6.6684 l -19.1463,5.0976 -4.5419,2.2274 -4.542,2.2273 0.1697,6.2282 0.1696,6.2281 2.0597,4.6562 2.0596,4.6562 3.5419,1.4799 3.5419,1.4799 7.35,-0.017 7.3501,-0.017 8.5123,-3.452 8.5124,-3.4519 1.9172,1.026 1.9173,1.0261 1.8439,-1.6687 c 1.0141,-0.9178 2.0956,-2.6573 2.4033,-3.8654 l 0.5595,-2.1968 6.3498,-4.2896 6.34995,-4.2896 1.8573,0 1.8572,0 2.8871,-2.0558 c 1.5878,-1.1306 4.9886,-2.9854 7.5573,-4.1216 l 4.6702,-2.0659 0.5277,0.5277 0.5277,0.5277 -1.6918,4.4298 -1.6918,4.4299 -3.9355,5.1997 c -2.1646,2.8599 -4.842,6.9766 -5.95,9.1484 l -2.0145,3.9487 -5.1074,4.4679 -5.10745,4.4678 -9.3106,4.6859 -9.3105,4.686 -4.8034,1.2601 -4.8033,1.2602 -1.5622,-2.2304 -1.5622,-2.2304 -2.7184,0.01 -2.7184,0 -4.0373,2.4866 c -2.2206,1.3677 -4.7186,2.4809 -5.5513,2.4739 -0.8327,-0.01 -3.1572,-0.6 -5.1655,-1.3177 z m -319.77829,-72.7796 16.5949,-3.7321 4.2033,-1.8302 4.2033,-1.8301 1.0956,-2.0472 1.0957,-2.0473 0,-10.6438 0,-10.6439 -1.6273,-4.0669 -1.6273,-4.0669 -2.3836,-0.5983 -2.3837,-0.5982 -4.5562,2.2056 -4.5562,2.2056 -7.5415,7.0429 c -4.1478,3.8736 -9.0901,9.1725 -10.983,11.7754 -1.8929,2.6029 -5.3664,8.4441 -7.719,12.9804 l -4.2773,8.2479 0.7151,1.1572 0.7152,1.1571 1.2186,-0.4676 c 0.6702,-0.2572 8.6862,-2.147 17.8134,-4.1996 z m -9.6476,74.4783 c -1.6654,-0.2208 -5.4473,-1.084 -8.4041,-1.918 l -5.3762,-1.5165 -4.2562,-4.2562 -4.2561,-4.2561 -4.4335,-11.5901 -4.4335,-11.5901 -0.4212,-13.5863 -0.4213,-13.5863 1.1988,-7.4311 1.1988,-7.4312 2.4306,-7.1464 c 1.3369,-3.9305 4.06,-10.1105 6.0513,-13.7334 4.3364,-7.889 11.2421,-17.0664 17.8185,-23.68 l 4.8121,-4.8394 8.3657,-4.0141 8.3656,-4.0141 5.1462,-0.6095 5.1461,-0.6095 5.2362,2.8499 5.2362,2.8499 5.3596,5.1497 5.3595,5.1497 2.517,4.996 2.517,4.9961 1.1349,5.3486 1.1349,5.3486 -0.01,12.8193 -0.01,12.8192 -1.0538,3.7945 -1.0538,3.7945 -2.2209,1.4411 -2.2209,1.4411 -7.0653,1.1553 c -7.0837,1.1582 -41.8821,9.801 -49.4569,12.2835 l -4.0373,1.3231 -1.7593,3.5962 -1.7593,3.5963 1.7115,4.4783 c 0.9412,2.4632 2.7709,6.1981 4.066,8.3 l 2.3546,3.8215 3.2445,2.0463 3.2446,2.0463 6.1464,-0.4397 6.1465,-0.4396 6.4701,-2.8535 c 3.5586,-1.5694 11.9179,-6.1127 18.5763,-10.0961 l 12.1062,-7.2427 1.3752,0.5277 1.3752,0.5277 -0.5397,3.3253 c -0.2967,1.829 -1.4552,5.3953 -2.5743,7.9253 l -2.0348,4.5999 -2.508,0 -2.5079,0 -1.6538,1.6537 -1.6537,1.6537 0.1613,4.1499 c 0.089,2.2825 0.1191,4.6423 0.068,5.2442 l -0.094,1.0943 -8.8602,4.2105 -8.8602,4.2106 -7.0367,1.4906 c -6.9691,1.4762 -9.243,1.5999 -15.1113,0.8215 z m -95.0131,-110.0084 8.9474,-3.5357 4.3681,0.655 4.368,0.655 1.6181,-2.4695 1.6182,-2.4696 -0.6079,-2.422 -0.6079,-2.422 1.9919,-1.8027 1.9918,-1.8026 2.1672,1.1599 2.1671,1.1598 1.5365,-1.2752 1.5364,-1.2752 -0.5615,-2.8078 -0.5616,-2.8078 5.0418,-5.7615 c 6.2983,-7.1975 11.3777,-14.8055 14.8916,-22.3052 l 2.7149,-5.7944 7e-4,-9.0839 6e-4,-9.084 -2.6852,-5.728 -2.6852,-5.7281 -4.1303,-4.4808 -4.1303,-4.4809 -5.8852,-2.6411 -5.8852,-2.6411 -7.7452,-1.152 -7.7451,-1.1519 -9.8339,1.1933 c -5.4087,0.6564 -10.5915,1.4121 -11.5175,1.6795 l -1.6837,0.4862 -3.4962,-3.0698 -3.4963,-3.0697 -2.1022,0 -2.1022,0 -1.0448,1.9523 c -0.5747,1.0738 -1.0449,3.0416 -1.0449,4.3729 l 0,2.4205 -3.7058,2.4401 c -2.0382,1.3421 -4.5958,3.6501 -5.6836,5.1289 l -1.9777,2.6888 -0.8306,15.9837 -0.8306,15.9837 -0.046,28.8252 -0.046,28.8252 1.2616,1.5908 c 0.6939,0.8749 1.943,1.7953 2.7757,2.0451 l 1.514,0.4544 11.6072,-2.451 11.6072,-2.4511 8.9475,-3.5357 z m -75.4244,112.3373 -3.8987,-1.4652 -3.0067,-2.8554 -3.0066,-2.8555 -1.9819,-3.854 -1.982,-3.854 -0.5666,-4.7844 -0.5667,-4.7845 2.4076,-2.799 2.4075,-2.7989 6.3247,-0.7457 6.3246,-0.7458 1.7181,-1.7181 1.7181,-1.7181 0.5177,-9.307 0.5177,-9.3069 3.0279,-0.5158 3.028,-0.5157 0.3133,-2.7076 0.3133,-2.7077 -2.8366,-1.8062 c -1.5601,-0.9934 -3.1703,-2.2709 -3.5782,-2.8388 l -0.7415,-1.0327 -0.015,-29.0497 -0.015,-29.0498 1.2617,-0.3887 c 0.6939,-0.2138 2.4606,-0.6498 3.926,-0.9689 l 2.6643,-0.5803 0.641,-1.6704 0.641,-1.6705 -1.2867,-1.7226 c -0.7077,-0.9474 -2.8156,-3.7197 -4.6843,-6.1606 l -3.3976,-4.4379 0.8159,-16.1492 c 0.4488,-8.882 0.8422,-20.5418 0.8743,-25.9107 l 0.058,-9.7614 -2.4372,-2.5925 -2.4372,-2.5924 -5.6374,-2.102 -5.6374,-2.102 -2.1894,-2.0449 -2.1894,-2.045 -2.1494,-4.9965 -2.1495,-4.9965 -0.1653,-5.9656 -0.1654,-5.9657 2.3639,-2.5162 2.3639,-2.5163 8.7009,-3.1805 8.701,-3.1805 15.6445,-2.9191 15.6445,-2.9191 18.1679,0.021 18.1679,0.022 9.7056,0.9446 9.7056,0.9445 8.2941,3.0269 c 4.5618,1.6649 11.1024,4.5975 14.5348,6.517 3.4323,1.9194 8.2974,5.3004 10.8112,7.5131 l 4.5706,4.0232 6.403,8.9282 6.403,8.9281 4.8371,10.0933 4.8371,10.0932 1.6953,6.5606 1.6953,6.5607 0.091,7.5699 0.091,7.5699 -1.3074,5.5513 -1.3073,5.5513 -3.9459,8.0746 -3.9459,8.0746 -5.7993,6.7383 c -3.1896,3.7061 -8.0703,8.7549 -10.8459,11.2196 -2.7757,2.4647 -8.6041,7.0329 -12.9521,10.1515 l -7.9055,5.6702 -12.281,5.9419 c -15.4827,7.491 -33.5498,14.7242 -42.0562,16.8373 -3.6083,0.8964 -8.2434,2.0617 -10.3001,2.5896 l -3.7396,0.9598 -1.5594,1.5594 -1.5594,1.5595 0,13.095 0,13.095 2.3152,2.3151 2.3151,2.3152 4.1144,0.6579 4.1144,0.6579 1.264,1.523 1.264,1.5231 5.1753,0.015 5.1754,0.015 4.3567,1.5174 4.3567,1.5174 0.9348,-0.5778 c 0.8804,-0.5441 22.1273,-1.6739 28.7062,-1.5264 1.6654,0.037 4.6176,0.074 6.5606,0.082 1.9429,0.01 4.1515,0.2362 4.908,0.5073 l 1.3753,0.493 -1.2466,1.502 -1.2466,1.502 -1.5764,0 c -0.867,0 -3.6501,0.965 -6.1847,2.1443 -2.5345,1.1794 -7.3335,3.4109 -10.6642,4.9589 -3.3308,1.5481 -8.7812,3.5839 -12.1119,4.5241 -3.3308,0.9402 -7.5475,2.3422 -9.3705,3.1157 l -3.3146,1.4063 -3.7785,0 -3.7785,0 -2.2074,1.5461 c -3.3,2.3114 -9.7525,4.4005 -20.4469,6.62 l -9.5886,1.99 -12.1119,0.5043 -12.1119,0.5042 -3.8988,-1.4652 z m 951.93904,17.55661 c -3.1748,-0.4072 -8.9912,-1.77531 -12.9252,-3.04031 l -7.1528,-2.2999 -5.9933,-3.6403 c -3.2963,-2.0022 -8.316,-5.4571 -11.1549,-7.6776 l -5.1614,-4.0373 -5.8362,-6.8681 -5.8362,-6.8681 -3.0534,-5.7484 c -1.6793,-3.1617 -3.9817,-8.7008 -5.1164,-12.3091 -1.1347,-3.6084 -3.0268,-11.7742 -4.2049,-18.1462 l -2.142,-11.5856 0.4486,-4.5637 c 0.6481,-6.5929 3.5007,-21.2355 6.3118,-32.3989 2.7988,-11.1141 8.7849,-28.7499 11.7808,-34.7071 4.4629,-8.8746 15.6912,-26.6973 22.583,-35.8462 3.9982,-5.3076 10.3842,-12.8359 14.1912,-16.7295 3.807,-3.8937 10.0996,-9.4818 13.9836,-12.4181 l 7.0617,-5.3388 8.3693,-4.1472 8.3694,-4.1472 10.8113,-0.068 10.8114,-0.068 9.5886,3.8692 c 5.2738,2.1281 10.497,3.9448 11.6073,4.0373 l 2.0186,0.1681 0.5047,-5.5969 0.5047,-5.597 1.8725,-2.8565 1.8724,-2.8564 5.5531,0.6526 5.5531,0.6527 5.4551,2.5806 5.4551,2.5807 3.5208,3.3206 3.5209,3.3207 0,5.0536 c 0,2.7795 -0.284,6.4737 -0.6311,8.2093 l -0.6311,3.1558 -3.9812,4.5228 -3.9813,4.5229 0.6347,1.0268 0.6345,1.0269 1.8473,0 1.8473,0 2.3313,1.8877 2.3312,1.8878 -1.1986,14.0091 c -1.3796,16.1236 -2.4148,23.8263 -4.5713,34.0106 -0.8443,3.9877 -1.975,9.5213 -2.5128,12.2969 -0.5378,2.7757 -1.7253,8.3855 -2.6391,12.4664 l -1.6612,7.4198 -2.5056,4.9445 -2.5055,4.9444 -0.8746,0 -0.8746,0 -0.6086,-2.271 c -0.3348,-1.249 -0.6148,-4.6701 -0.6224,-7.6023 l -0.014,-5.3314 -1.3639,-3.2641 -1.3638,-3.2642 -0.7443,-13.0646 -0.7442,-13.0647 -4.3249,-12.6569 -4.3249,-12.6569 -4.3464,-8.4753 -4.3466,-8.4752 -3.6264,-3.8122 -3.6264,-3.8122 -2.7964,-0.7018 -2.7964,-0.7019 -4.4207,1.6883 c -2.4314,0.9285 -7.2943,3.5848 -10.8064,5.9027 l -6.3858,4.2144 -9.407,9.5353 -9.407,9.5352 -7.4357,11.1773 -7.4357,11.1772 -7.0553,14.6352 c -7.5767,15.7171 -12.6518,28.7107 -16.7857,42.9759 l -2.5918,8.944 -0.6251,7.6001 -0.625,7.6002 -2.3626,2.8427 -2.3625,2.8427 1.4852,2.8721 c 0.817,1.5796 2.7793,3.934 4.3608,5.2319 l 2.8755,2.3598 2.7037,4.735 2.7035,4.7351 4.7866,4.9013 4.7864,4.9014 4.8904,2.3597 4.8903,2.3597 11.2589,-0.5289 11.2588,-0.529 9.774,-3.1662 c 5.3758,-1.7414 12.3856,-4.3212 15.5776,-5.7328 l 5.8035,-2.5666 1.7934,0.469 1.7934,0.469 2.8988,-2.7702 2.8987,-2.7702 7.1173,-2.7196 7.1174,-2.7198 1.8811,-2.0784 c 1.0345,-1.1432 3.0671,-2.6919 4.5168,-3.4416 l 2.6358,-1.363 c -3.1531,-13.3272 -11.9567,-7.6349 -22.2538,-8.6226 -13.3338,-1.279 -19.8923,-11.4035 -41.82,-9.9558 l 19.7659,-13.5142 10.777,-11.9106 c 2.4666,-2.726 16.9166,9.5974 20.7584,11.1098 l 13.3575,-0.6124 15.6739,-3.0184 13.1571,4.3998 1.5096,-0.5793 1.5096,-0.5793 1.2352,1.4885 1.2353,1.4883 -4.3611,10.9582 c -0.6191,1.2301 -7.8128,-0.5165 -5.9396,4.991 l 3.0913,9.0886 -4.8715,8.8949 -4.8716,8.8949 -6.7461,6.7509 -6.746,6.7511 -2.8958,1.4974 -2.8958,1.4974 -1.9458,-0.1738 -1.9459,-0.1738 -2.808,5.5513 -2.8079,5.5512 -10.8404,6.7542 -10.8402,6.7541 -9.0839,3.0166 -9.084,3.0166 -7.8953,1.07951 c -8.6465,1.1822 -13.3409,1.1981 -22.1009,0.075 z m -546.04674,-50.93631 7.2904,-3.4938 7.3164,-5.4314 7.3163,-5.4314 7.0653,-7.4898 7.0653,-7.4897 2.8284,-5.8345 2.8285,-5.8345 0.5112,-4.75 0.5112,-4.75 -1.8256,-3.5069 -1.8257,-3.5069 -4.0373,-2.8081 -4.0373,-2.8081 -7.57,-1.6015 -7.5699,-1.6016 -6.5606,0.5854 c -3.6084,0.322 -9.2858,1.2806 -12.6166,2.1304 l -6.0559,1.545 -2.3148,2.613 -2.3148,2.6131 0.2961,28.5053 0.2962,28.5053 1.3852,1.6672 1.3852,1.6673 1.6713,0 c 0.9191,0 4.9518,-1.5722 8.9615,-3.4938 z m -41.1597,108.88791 c -1.3878,-0.8972 -3.7633,-3.2381 -5.2788,-5.2019 l -2.7556,-3.5705 -0.621,-3.31 -0.6209,-3.31 1.3579,-2.8615 1.3578,-2.8615 4.4599,-2.1402 4.4599,-2.1403 1.3437,-1.8376 1.3438,-1.8377 0,-27.9432 0,-27.94321 -5.299,-0.592 c -2.9144,-0.3256 -7.0784,-0.9513 -9.2534,-1.3903 l -3.9544,-0.7983 -0.3188,-1.0057 c -0.1753,-0.5531 0.035,-1.5633 0.4674,-2.2448 l 0.7862,-1.2391 7.8023,-1.4928 c 4.2913,-0.821 8.2449,-1.7664 8.786,-2.1008 l 0.9837,-0.6079 0,-40.8683 0,-40.8682 -1.4728,-2.848 -1.4728,-2.8481 -8.3681,-1.1886 c -4.6025,-0.6537 -9.8443,-1.4139 -11.6485,-1.6895 l -3.2803,-0.5009 0,-0.7877 c 0,-0.4332 1.0219,-1.7183 2.271,-2.8558 2.4715,-2.2507 15.2086,-10.3956 16.2569,-10.3956 0.3556,0 4.6923,-1.8218 9.6372,-4.0483 l 8.9907,-4.0483 2.8684,1.0906 c 1.5776,0.5998 3.6641,1.8106 4.6366,2.6907 l 1.7681,1.6002 0,2.7538 0,2.7538 2.271,0.6086 c 1.2491,0.3347 6.8221,0.6148 12.3846,0.6224 l 10.1135,0.014 7.2417,2.0068 c 3.9829,1.1037 9.825,3.1492 12.9823,4.5455 l 5.7407,2.5388 6.6792,4.97 c 3.6736,2.7335 8.36,6.7061 10.4144,8.828 l 3.7351,3.858 2.23969,5.0466 2.2396,5.0467 0.4516,7.6229 0.4517,7.6228 -2.9543,8.5709 -2.95429,8.571 -3.8858,5.8541 c -2.1371,3.2198 -6.1625,8.3454 -8.9452,11.39 l -5.0594,5.5359 -3.2188,-0.6039 -3.2187,-0.6038 -1.0524,1.2811 c -0.5788,0.7047 -1.2095,2.4124 -1.4015,3.795 l -0.349,2.5138 -4.9665,3.245 -4.9666,3.2449 -12.5261,4.5869 -12.5262,4.5868 -2.1892,0.015 c -1.204,0.01 -2.8704,0.4459 -3.7031,0.972 l -1.514,0.9566 0,21.6554 0,21.65551 2.4061,2.5621 2.406,2.5622 5.2414,1.0881 5.2414,1.0881 10.0158,-0.029 c 5.5086,-0.016 12.6539,-0.081 15.8784,-0.1444 l 5.8627,-0.1157 0.6895,0.6895 0.6895,0.6895 -2.0102,1.1792 c -1.1056,0.6485 -4.9001,2.4338 -8.4321,3.9674 l -6.4218,2.7883 -2.9919,2.5175 c -1.6455,1.3846 -3.5744,2.5174 -4.2863,2.5174 l -1.2944,0 -4.4318,3.8934 c -2.4374,2.1414 -6.3768,4.8833 -8.7541,6.0932 l -4.3224,2.1997 -9.8081,2.6663 -9.8082,2.6662 -5.0466,0.3431 -5.0466,0.3431 -2.5234,-1.6315 z m -74.0356,-109.88341 8.9341,-4.4892 8.1362,-6.5318 8.1361,-6.5317 4.8739,-5.8852 4.8739,-5.8852 2.8861,-6.056 2.886,-6.0559 8e-4,-4.3398 8e-4,-4.3397 -1.4777,-2.8577 c -0.8128,-1.5717 -2.8869,-4.0433 -4.6091,-5.4924 l -3.1314,-2.6349 -5.7365,-1.7228 -5.7365,-1.7228 -8.5792,-0.027 -8.5793,-0.027 -5.5768,1.2606 -5.5769,1.2606 -3.2547,1.9793 -3.2548,1.9794 0,30.2444 0,30.2445 1.7663,1.0287 c 0.9715,0.5659 2.2879,1.0427 2.9254,1.0595 0.6375,0.017 5.1794,-1.9894 10.0933,-4.4585 z m -44.5765,108.30001 c -1.9907,-1.7478 -4.2775,-4.4504 -5.0818,-6.0059 l -1.4624,-2.828 0,-4.1333 0,-4.1333 2.4774,-2.4774 2.4775,-2.4775 1.8122,-0.032 c 0.9967,-0.018 2.6879,-0.6946 3.7582,-1.5043 l 1.946,-1.4722 0.7559,-5.3086 0.756,-5.3087 0.074,-23.02851 0.074,-23.0285 -1.0449,-1.9523 -1.0448,-1.9523 -1.7999,0 c -0.99,0 -4.2078,-0.715 -7.1507,-1.5889 l -5.3507,-1.589 -2.4024,-2.4025 -2.4025,-2.4024 0,-1.5599 0,-1.5598 5.8037,-0.042 5.8036,-0.042 4.5419,-2.2294 4.542,-2.2294 0.2884,-35.3264 0.2884,-35.3264 -1.1981,-4.3664 -1.198,-4.3664 -2.1183,-1.3739 -2.1183,-1.374 -8.8316,-0.7067 -8.8316,-0.7067 0,-1.2089 0,-1.2089 4.464,-4.528 4.4641,-4.528 12.7745,-5.7742 12.7746,-5.7741 1.944,0.617 c 1.0692,0.3393 3.3042,1.7615 4.9666,3.1603 l 3.0225,2.5433 0,1.3522 c 0,0.7436 0.7137,2.0659 1.5861,2.9382 l 1.586,1.5861 10.413,0 10.4129,0 8.7501,2.5357 c 4.8126,1.3946 10.9408,3.6457 13.6181,5.0024 2.6773,1.3567 8.4756,5.1853 12.8851,8.5079 l 8.0172,6.0412 2.7707,3.9981 2.7707,3.9981 1.4447,4.8006 1.4448,4.8005 0,6.8149 0,6.815 -1.889,6.0694 -1.889,6.0694 -3.7338,6.6765 -3.7337,6.6766 -6.0705,6.4894 -6.0704,6.4893 -6.727,4.9574 c -3.6999,2.7266 -8.998,6.0815 -11.7736,7.4553 -2.7757,1.3738 -10.2699,4.2272 -16.6539,6.3408 -6.384,2.1137 -12.6292,4.2138 -13.8782,4.6669 l -2.271,0.8237 0,21.768 0,21.76811 2.4364,2.4363 2.4364,2.4364 2.8626,0.6067 c 1.5744,0.3337 3.6257,1.0175 4.5584,1.5196 l 1.6959,0.9129 4.4012,-0.088 c 2.4206,-0.048 6.7199,0.2306 9.5539,0.6204 l 5.1528,0.7087 3.2067,-1.6583 3.2067,-1.6582 2.9722,0.6527 c 1.6346,0.3591 5.008,0.6528 7.4962,0.6528 2.4883,0 4.5242,0.2125 4.5242,0.4721 0,0.2596 -1.6402,1.1573 -3.6448,1.9949 -3.6776,1.5366 -11.5866,6.5005 -16.9007,10.6074 l -2.8824,2.2275 -6.5673,1.8211 -6.5672,1.821 -4.681,2.9762 -4.6809,2.9761 -7.57,2.1385 c -4.1634,1.1762 -9.8808,2.8038 -12.7052,3.617 l -5.1354,1.4784 -4.1658,0 -4.1658,0 -3.6193,-3.1778 z" />
      </g>
    </g>
  </g>
</svg>
