<?xml version="1.0" encoding="UTF-8" standalone="no"?>
<!-- Created with Inkscape (http://www.inkscape.org/) -->

<svg
   xmlns:dc="http://purl.org/dc/elements/1.1/"
   xmlns:cc="http://creativecommons.org/ns#"
   xmlns:rdf="http://www.w3.org/1999/02/22-rdf-syntax-ns#"
   xmlns:svg="http://www.w3.org/2000/svg"
   xmlns="http://www.w3.org/2000/svg"
   xmlns:xlink="http://www.w3.org/1999/xlink"
   xmlns:sodipodi="http://sodipodi.sourceforge.net/DTD/sodipodi-0.dtd"
   xmlns:inkscape="http://www.inkscape.org/namespaces/inkscape"
   id="svg2"
   version="1.1"
   inkscape:version="0.92.4 (5da689c313, 2019-01-14)"
   width="2481"
   height="3503"
   sodipodi:docname="E21P02.svg">
  <sodipodi:namedview
     pagecolor="#ffffff"
     bordercolor="#666666"
     inkscape:pageopacity="0"
     inkscape:pageshadow="2"
     inkscape:window-width="1813"
     inkscape:window-height="955"
     id="namedview70"
     showgrid="false"
     inkscape:zoom="1.1313708"
     inkscape:cx="1247.947"
     inkscape:cy="1389.1021"
     inkscape:current-layer="layer1"
     inkscape:window-x="0"
     inkscape:window-y="74"
     inkscape:window-maximized="0" />
  <metadata
     id="metadata8">
    <rdf:RDF>
      <cc:Work
         rdf:about="">
        <dc:format>image/svg+xml</dc:format>
        <dc:type
           rdf:resource="http://purl.org/dc/dcmitype/StillImage" />
        <dc:title />
      </cc:Work>
    </rdf:RDF>
  </metadata>
  <defs
     id="defs6">
    <filter
       style="color-interpolation-filters:sRGB"
       id="filter4375-4-1-1-1-9"
       inkscape:label="deevad outline effect">
      <feFlood
         id="feFlood4377-7-9-0-8-1"
         flood-opacity="1"
         flood-color="rgb(0,0,0)"
         result="flood" />
      <feComposite
         id="feComposite4379-3-8-8-2-77"
         in2="SourceGraphic"
         in="flood"
         operator="in"
         result="composite1" />
      <feMorphology
         id="feMorphology4393-1-0-49-8-9"
         operator="dilate"
         radius="4"
         result="result3" />
      <feComposite
         id="feComposite4385-9-5-7-0-8"
         in2="result3"
         in="SourceGraphic"
         operator="over"
         result="composite2" />
    </filter>
    <filter
       inkscape:collect="always"
       style="color-interpolation-filters:sRGB"
       id="filter4210"
       x="-0.0015578248"
       width="1.0031157"
       y="-0.0045528179"
       height="1.0091056">
      <feGaussianBlur
         inkscape:collect="always"
         stdDeviation="0.2079876"
         id="feGaussianBlur4212" />
    </filter>
    <filter
       inkscape:collect="always"
       style="color-interpolation-filters:sRGB"
       id="filter4218"
       x="-0.0015404148"
       width="1.0030808"
       y="-0.0047074384"
       height="1.0094149">
      <feGaussianBlur
         inkscape:collect="always"
         stdDeviation="0.19873465"
         id="feGaussianBlur4220" />
    </filter>
    <filter
       inkscape:collect="always"
       style="color-interpolation-filters:sRGB"
       id="filter4202"
       x="-0.0016505915"
       width="1.0033011"
       y="-0.0039833132"
       height="1.0079666">
      <feGaussianBlur
         inkscape:collect="always"
         stdDeviation="0.11736083"
         id="feGaussianBlur4204" />
    </filter>
    <filter
       inkscape:collect="always"
       style="color-interpolation-filters:sRGB"
       id="filter4202-2"
       x="-0.0016505915"
       width="1.0033011"
       y="-0.0039833132"
       height="1.0079666">
      <feGaussianBlur
         inkscape:collect="always"
         stdDeviation="0.11736083"
         id="feGaussianBlur4204-9" />
    </filter>
    <filter
       inkscape:collect="always"
       style="color-interpolation-filters:sRGB"
       id="filter4325"
       x="-0.003899595"
       width="1.0077991"
       y="-0.012803033"
       height="1.0256062">
      <feGaussianBlur
         inkscape:collect="always"
         stdDeviation="0.3730953"
         id="feGaussianBlur4327" />
    </filter>
    <filter
       inkscape:collect="always"
       style="color-interpolation-filters:sRGB"
       id="filter4369"
       x="-0.0062486199"
       width="1.0124972"
       y="-0.023161722"
       height="1.0463234">
      <feGaussianBlur
         inkscape:collect="always"
         stdDeviation="0.69985892"
         id="feGaussianBlur4371" />
    </filter>
    <filter
       inkscape:collect="always"
       style="color-interpolation-filters:sRGB"
       id="filter4369-7"
       x="-0.0062486199"
       width="1.0124972"
       y="-0.023161722"
       height="1.0463234">
      <feGaussianBlur
         inkscape:collect="always"
         stdDeviation="0.69985892"
         id="feGaussianBlur4371-9" />
    </filter>
  </defs>
  <sodipodi:namedview
     pagecolor="#ffffff"
     bordercolor="#666666"
     borderopacity="1"
     objecttolerance="10"
     gridtolerance="10"
     guidetolerance="10"
     inkscape:pageopacity="0"
     inkscape:pageshadow="2"
     inkscape:window-width="1920"
     inkscape:window-height="1025"
     id="namedview4"
     showgrid="false"
     inkscape:zoom="1.1172693"
     inkscape:cx="1252.2428"
     inkscape:cy="2693.0536"
     inkscape:window-x="0"
     inkscape:window-y="26"
     inkscape:window-maximized="1"
     inkscape:current-layer="layer1" />
  <g
     inkscape:groupmode="layer"
     id="layer2"
     inkscape:label="artwork"
     sodipodi:insensitive="true">
    <image
       sodipodi:absref="/felles/omsetting/pepper-carrot/webcomics/ep21_The-Magic-Contest/lang/nn/../gfx_Pepper-and-Carrot_by-David-Revoy_E21P02.png"
       xlink:href="../gfx_Pepper-and-Carrot_by-David-Revoy_E21P02.png"
       width="2481"
       height="3503"
       id="image10"
       x="0"
       y="0" />
  </g>
  <g
     inkscape:groupmode="layer"
     id="layer3"
     inkscape:label="speechbubbles"
     style="display:inline">
    <path
       style="color:#000000;display:inline;overflow:visible;visibility:visible;fill:#ffffff;fill-opacity:1;fill-rule:nonzero;stroke:none;stroke-width:1px;marker:none;enable-background:accumulate"
       d="m 227.60343,542.9479 c 9.941,-62.60564 56.36504,-98.90884 266.24486,-88.1128 112.42295,5.78291 277.19789,-0.52859 263.94326,91.1782 -13.25475,91.70666 -214.55491,83.63476 -252.66223,85.95466 -38.10732,2.31998 -218.07925,0.19399 -251.01639,-30.82774 -20.61788,-19.41876 -28.16632,-38.80962 -26.5095,-58.19232 z"
       id="path4546-6"
       inkscape:connector-curvature="0"
       sodipodi:nodetypes="cssssc" />
    <path
       style="color:#000000;display:inline;overflow:visible;visibility:visible;fill:#ffffff;fill-opacity:1;fill-rule:nonzero;stroke:none;stroke-width:1px;marker:none;enable-background:accumulate"
       d="m 307.04254,892.28079 c 5.23393,-47.85411 40.09266,-88.80257 80.14723,-97.78225 40.0545,-8.97977 372.92426,-5.25972 398.47262,5.66107 25.54828,10.92097 64.43804,18.52409 56.0654,100.54202 -8.37282,82.01801 -55.68043,100.94787 -103.47209,104.31737 -47.79157,3.3693 -357.09403,12.6012 -390.07135,-20.0264 -18.44863,-18.25297 -41.15705,-39.17228 -41.14181,-92.71181 z"
       id="path4010"
       inkscape:connector-curvature="0"
       sodipodi:nodetypes="csssssc" />
    <path
       style="color:#000000;display:inline;overflow:visible;visibility:visible;fill:#ffffff;fill-opacity:1;fill-rule:nonzero;stroke:none;stroke-width:1px;marker:none;enable-background:accumulate"
       d="m 708.28728,324.66682 c -17.80302,-2.67292 -29.44884,-2.78409 -47.16698,2.02614 -5.00825,1.47381 -10.08814,3.34728 -14.32577,6.39934 -3.69997,4.15642 -3.59037,10.33514 -1.29957,15.14622 2.82169,7.17956 8.76937,13.55058 8.49474,21.65616 -0.3429,5.89548 -5.65216,9.33006 -9.84801,12.60191 -10.85858,8.12974 -22.88187,14.83631 -32.3875,24.65688 -11.42122,10.36094 -22.68704,22.09158 -27.50316,37.10006 -1.80609,5.97046 -2.86049,12.46873 -0.93358,18.54832 4.23596,15.82051 17.61171,29.44221 33.99141,32.24046 10.61786,0.79327 21.63745,-7.82582 21.71957,-18.81268 0.13014,-5.79897 -3.67523,-10.74961 -8.17826,-13.98082 -7.16767,-7.4865 -9.54283,-18.69535 -7.02055,-28.6264 1.9475,-8.22998 6.45887,-15.76324 12.48174,-21.66268 6.07198,-10.1853 17.74223,-14.32617 27.37733,-20.2179 4.36179,-2.75728 8.81469,-5.98576 11.38712,-10.53486 2.12502,-7.35941 -2.27973,-14.38799 -6.69225,-19.90395 -4.40425,-5.80612 -10.16904,-12.0434 -9.41757,-19.89494 -0.21215,-5.51878 6.17387,-6.74567 9.97179,-9.0346 10.38423,-5.22283 20.05102,-6.98163 39.3495,-7.70666 z"
       id="path4496"
       inkscape:connector-curvature="0"
       sodipodi:nodetypes="cccccccccccccccccccc" />
    <path
       style="color:#000000;display:inline;overflow:visible;visibility:visible;fill:#ffffff;fill-opacity:1;fill-rule:nonzero;stroke:none;stroke-width:1px;marker:none;enable-background:accumulate"
       d="m 1119.5437,840.64097 c -113.8785,125.0678 -279.41233,101.54529 -356.99074,52.03846 -77.57834,-49.50677 -21.03459,-49.26335 -21.03459,-49.26335 l 31.24176,8.1154 c -28.183,-7.45936 130.87131,147.10952 346.78357,-10.89051 z"
       id="path3541"
       inkscape:connector-curvature="0"
       sodipodi:nodetypes="csccc" />
    <path
       style="color:#000000;display:inline;overflow:visible;visibility:visible;fill:#ffffff;fill-opacity:1;fill-rule:nonzero;stroke:none;stroke-width:0.97484356px;marker:none;enable-background:accumulate"
       d="m 906.10665,1985.027 c 8.21811,-51.3235 30.63464,-86.7788 250.65265,-72.5608 96.3053,6.2234 198.6043,-0.8678 187.6469,89.3737 -9.162,75.4554 -177.0735,77.124 -208.5762,78.0089 -31.5029,0.885 -173.35601,-3.4963 -200.58464,-29.9478 -17.04463,-16.5581 -30.50839,-48.9459 -29.13871,-64.874 z"
       id="path4546-6-6"
       inkscape:connector-curvature="0"
       sodipodi:nodetypes="cssssc" />
    <path
       style="color:#000000;display:inline;overflow:visible;visibility:visible;fill:#ffffff;fill-opacity:1;fill-rule:nonzero;stroke:none;stroke-width:1px;marker:none;enable-background:accumulate"
       d="m 1208.9581,1837.3548 c -51.8093,6.6291 -63.1327,26.4049 -72.7535,39.757 3.2832,4.0843 7.7777,12.4211 7.7777,12.4211 0,0 -21.2954,24.4542 -26.3512,36.4684 -5.0561,12.014 13.5408,18.2582 13.5408,18.2582 0,0 28.706,-45.6159 40.7672,-52.8813 -9.4456,-10.8353 -10.9712,-13.8404 -15.9223,-16.3387 2.967,-9.4271 34.7001,-34.7514 52.9413,-37.6847 z"
       id="path4456"
       inkscape:connector-curvature="0"
       sodipodi:nodetypes="cccscccc" />
    <path
       style="fill:#ffffff;fill-rule:evenodd;stroke:none;stroke-width:1.04245174"
       d="m 1090.9937,2029.2351 c 28.0798,16.8002 28.6947,27.0815 0.6714,30.5655 28.1472,8.5327 22.1829,13.8009 8.2625,18.3075 36.6174,43.2361 26.8495,69.9222 15.9905,96.2189 38.4954,-11.3182 40.3391,12.2633 50.2095,28.2018 8.3041,-31.1032 12.7175,-10.9152 16.0453,23.5848 8.4369,-40.2374 14.4865,-43.2964 18.3592,-12.4523 8.1143,-25.3858 18.7926,-34.94 32.4179,-26.2963 25.4614,-23.2 35.3226,9.7363 50.2259,24.5285 6.1289,-26.6079 17.8311,-27.1137 31.3102,-19.2975 6.4979,-11.1561 11.51,-27.5003 28.2757,-2.8062 4.1676,-21.9903 12.5623,-6.1385 19.6582,-1.916 -8.5562,-12.7374 6.5982,-15.8995 49.0251,-8.0474 -16.3604,-6.9579 -14.9659,-15.5653 7.3841,-26.1197 -24.5836,-12.2257 -24.1554,-25.8511 -10.5874,-40.2116 -27.9622,-22.6439 0.6183,-43.0935 15.0903,-64.0906 -28.8149,9.4605 -51.7143,8.6448 -56.4203,-23.7739 -43.9098,24.1373 -37.2176,10.4938 -32.8327,-1.4274 -27.4667,29.6732 -25.4838,3.0771 -32.2705,-6.7632 -74.661,35.6354 -71.3617,-2.4711 -86.3004,-23.3263 -6.8409,43.5947 -22.1305,26.4391 -37.4554,9.0323 -0.072,36.9635 -9.3194,26.0441 -18.3755,16.1257 -1.4661,15.9211 -10.7152,20.4016 -30.4587,9.4568 14.0016,13.3257 5.1712,15.4187 -38.2249,0.5066 z"
       id="path4289"
       inkscape:connector-curvature="0"
       sodipodi:nodetypes="cccccccccccccccccccccccc" />
    <path
       style="color:#000000;display:inline;overflow:visible;visibility:visible;fill:#ffffff;fill-opacity:1;fill-rule:nonzero;stroke:none;stroke-width:1.0758909px;marker:none;enable-background:accumulate"
       d="m 1260.5787,2211.8392 c 5.9004,-43.0982 55.3912,-73.152 179.966,-60.932 66.729,6.5457 142.596,11.8893 134.7286,75.0503 -7.8673,63.161 -127.1369,64.7637 -149.7556,65.5067 -22.6187,0.7432 -133.9873,-2.9359 -153.5371,-25.1481 -12.2379,-13.9044 -12.3855,-41.1016 -11.4019,-54.4769 z"
       id="path4546-6-6-7"
       inkscape:connector-curvature="0"
       sodipodi:nodetypes="cssssc" />
    <path
       style="display:inline;fill:#ffffff;fill-opacity:1;stroke:none"
       d="m 1935.6939,2123.6849 c -2.2769,-23.3922 12.8251,-35.0287 26.5755,-40.541 17.4266,-6.9861 143.1405,-14.7723 158.3105,4.8085 13.9712,18.0333 23.8975,51.1875 -17.8203,67.5649 -41.718,16.3773 -111.3422,7.4067 -123.194,4.429 -11.8516,-2.9777 -41.5014,-10.951 -43.8717,-36.2614 z"
       id="path3659-8"
       inkscape:connector-curvature="0"
       sodipodi:nodetypes="cssssc" />
    <path
       style="color:#000000;display:inline;overflow:visible;visibility:visible;fill:#ffffff;fill-opacity:1;fill-rule:nonzero;stroke:none;stroke-width:1px;marker:none;enable-background:accumulate"
       d="m 1982.1675,2095.4596 c 0.3856,-31.752 -21.3304,-64.1917 -32.5323,-69.3608 -11.2018,-5.1692 49.8903,6.7173 65.5334,65.5673 15.6432,58.8498 -25.2443,31.1505 -25.2443,31.1505 z"
       id="path4035"
       inkscape:connector-curvature="0" />
  </g>
  <g
     inkscape:groupmode="layer"
     id="layer1"
     inkscape:label="txt"
     style="display:inline">
    <text
       xml:space="preserve"
       style="font-style:normal;font-variant:normal;font-weight:normal;font-stretch:normal;line-height:0%;font-family:Lavi;-inkscape-font-specification:Lavi;text-align:center;letter-spacing:0px;word-spacing:0px;text-anchor:middle;fill:#000000;fill-opacity:1;stroke:none"
       x="486.82043"
       y="530.35999"
       id="text4246-2"><tspan
         sodipodi:role="line"
         style="font-size:45px;line-height:1.25"
         x="486.82043"
         y="530.35999"
         id="tspan4035">Er du sikker på at du</tspan><tspan
         sodipodi:role="line"
         style="font-size:45px;line-height:1.25"
         x="486.82043"
         y="586.60999"
         id="tspan894">ikkje vil vera med?</tspan></text>
    <text
       xml:space="preserve"
       style="font-style:normal;font-variant:normal;font-weight:normal;font-stretch:normal;line-height:0%;font-family:Lavi;-inkscape-font-specification:Lavi;text-align:center;letter-spacing:0px;word-spacing:0px;text-anchor:middle;fill:#000000;fill-opacity:1;stroke:none"
       x="575.73303"
       y="860.72797"
       id="text4246-2-3"><tspan
         sodipodi:role="line"
         style="font-size:45px;line-height:1.25"
         x="575.73303"
         y="860.72797"
         id="tspan4042">Heilt sikker. I kaosah</tspan><tspan
         sodipodi:role="line"
         style="font-size:45px;line-height:1.25"
         x="575.73303"
         y="916.97797"
         id="tspan901">driv me med trolldom,</tspan><tspan
         sodipodi:role="line"
         style="font-size:45px;line-height:1.25"
         x="575.73303"
         y="973.22797"
         id="tspan903">ikkje show!</tspan></text>
    <text
       xml:space="preserve"
       style="font-style:normal;font-variant:normal;font-weight:normal;font-stretch:normal;line-height:0%;font-family:Lavi;-inkscape-font-specification:Lavi;text-align:center;letter-spacing:0px;word-spacing:0px;text-anchor:middle;display:inline;opacity:0.6;fill:#000000;fill-opacity:1;stroke:none;filter:url(#filter4210)"
       x="1174.0292"
       y="1085.962"
       id="text4246-5"
       transform="matrix(0.81617603,-0.24118584,0.17851212,0.94169981,224.67399,68.479077)"><tspan
         sodipodi:role="line"
         style="font-style:normal;font-variant:normal;font-weight:normal;font-stretch:normal;font-size:45.00812149px;line-height:1.25;font-family:Fondamento;-inkscape-font-specification:Fondamento;stroke:#000000;stroke-width:3.39352751;stroke-miterlimit:4;stroke-dasharray:none;stroke-opacity:1"
         x="1174.0292"
         y="1085.962"
         id="tspan4209">KOMONA-nytt</tspan></text>
    <text
       xml:space="preserve"
       style="font-style:normal;font-variant:normal;font-weight:normal;font-stretch:normal;line-height:0%;font-family:Lavi;-inkscape-font-specification:Lavi;text-align:center;letter-spacing:0px;word-spacing:0px;text-anchor:middle;display:inline;opacity:0.6;fill:#000000;fill-opacity:1;stroke:#000000;stroke-width:0.70955449;stroke-miterlimit:4;stroke-dasharray:none;stroke-opacity:1;filter:url(#filter4218)"
       x="1294.5164"
       y="1174.9954"
       id="text4246-5-1"
       transform="matrix(0.90609923,-0.28266083,0.16479579,1.0522233,18.165073,-16.789512)"><tspan
         sodipodi:role="line"
         style="font-style:normal;font-variant:normal;font-weight:normal;font-stretch:normal;font-size:21.33333206px;line-height:1.10000002;font-family:Fondamento;-inkscape-font-specification:Fondamento;stroke:#000000;stroke-width:0.70955449;stroke-miterlimit:4;stroke-dasharray:none;stroke-opacity:1"
         x="1294.5164"
         y="1174.9954"
         id="tspan911">OPNING AV DEN NYE</tspan><tspan
         sodipodi:role="line"
         style="font-style:normal;font-variant:normal;font-weight:normal;font-stretch:normal;font-size:21.33333206px;line-height:1.10000002;font-family:Fondamento;-inkscape-font-specification:Fondamento;stroke:#000000;stroke-width:0.70955449;stroke-miterlimit:4;stroke-dasharray:none;stroke-opacity:1"
         x="1294.5164"
         y="1198.462"
         id="tspan889">ARENAEN I DAG</tspan></text>
    <text
       xml:space="preserve"
       style="font-style:normal;font-variant:normal;font-weight:normal;font-stretch:normal;line-height:0%;font-family:Lavi;-inkscape-font-specification:Lavi;text-align:start;letter-spacing:0px;word-spacing:0px;text-anchor:start;display:inline;opacity:0.6;fill:#000000;fill-opacity:1;stroke:#000000;stroke-width:0.49537376;stroke-miterlimit:4;stroke-dasharray:none;stroke-opacity:1;filter:url(#filter4202)"
       x="1131.04"
       y="1300.7131"
       id="text4246-5-1-3"
       transform="matrix(0.90128293,-0.29766095,0.18223745,1.0493431,-9.0738366,-34.818915)"><tspan
         sodipodi:role="line"
         style="font-style:normal;font-variant:normal;font-weight:normal;font-stretch:normal;font-size:10.78135014px;line-height:1.25;font-family:Fondamento;-inkscape-font-specification:Fondamento;text-align:start;text-anchor:start;stroke:#000000;stroke-width:0.49537376;stroke-miterlimit:4;stroke-dasharray:none;stroke-opacity:1"
         x="1131.04"
         y="1300.7131"
         id="tspan4048">FOLKET UROA OVER</tspan><tspan
         sodipodi:role="line"
         style="font-style:normal;font-variant:normal;font-weight:normal;font-stretch:normal;font-size:10.78135014px;line-height:1.25;font-family:Fondamento;-inkscape-font-specification:Fondamento;text-align:start;text-anchor:start;stroke:#000000;stroke-width:0.49537376;stroke-miterlimit:4;stroke-dasharray:none;stroke-opacity:1"
         x="1131.04"
         y="1314.1898"
         id="tspan917">AUKA SKATTAR</tspan></text>
    <text
       xml:space="preserve"
       style="font-style:normal;font-variant:normal;font-weight:normal;font-stretch:normal;line-height:0%;font-family:Fondamento;-inkscape-font-specification:'Fondamento, Normal';text-align:start;letter-spacing:0px;word-spacing:0px;writing-mode:lr-tb;text-anchor:start;display:inline;opacity:0.6;fill:#000000;fill-opacity:1;stroke:#000000;stroke-width:0.49537376;stroke-miterlimit:4;stroke-dasharray:none;stroke-opacity:1;filter:url(#filter4202-2)"
       x="1131.04"
       y="1300.7131"
       id="text4246-5-1-3-1"
       transform="matrix(0.81172816,-0.30643117,0.16412967,0.92516231,129.86236,215.40246)"><tspan
         sodipodi:role="line"
         x="1131.04"
         y="1300.7131"
         id="tspan4060"
         style="font-size:10.78128147px;line-height:1.25">ALLE BILLETTANE SELDE:</tspan><tspan
         sodipodi:role="line"
         x="1131.04"
         y="1314.1897"
         style="font-size:10.78128147px;line-height:1.25"
         id="tspan921">GARANTERT SUKSESS!</tspan></text>
    <text
       xml:space="preserve"
       style="font-style:normal;font-variant:normal;font-weight:normal;font-stretch:normal;line-height:0%;font-family:Lavi;-inkscape-font-specification:Lavi;text-align:start;letter-spacing:0px;word-spacing:0px;text-anchor:start;display:inline;opacity:0.6;fill:#000000;fill-opacity:1;stroke:#000000;stroke-width:0.49537376;stroke-miterlimit:4;stroke-dasharray:none;stroke-opacity:1;filter:url(#filter4325)"
       x="1131.04"
       y="1300.7131"
       id="text4246-5-1-3-6"
       transform="matrix(0.7407423,0.32265096,0.201955,1.3268708,-207.87775,-1375.971)"><tspan
         sodipodi:role="line"
         style="font-style:normal;font-variant:normal;font-weight:normal;font-stretch:normal;font-size:10.78135014px;line-height:1.25;font-family:Fondamento;-inkscape-font-specification:Fondamento;text-align:start;text-anchor:start;stroke:#000000;stroke-width:0.49537376;stroke-miterlimit:4;stroke-dasharray:none;stroke-opacity:1"
         x="1131.04"
         y="1300.7131"
         id="tspan4196-6">POLITISK URO I LANDET AH</tspan></text>
    <text
       xml:space="preserve"
       style="font-style:normal;font-variant:normal;font-weight:normal;font-stretch:normal;line-height:0%;font-family:Lavi;-inkscape-font-specification:Lavi;text-align:start;letter-spacing:0px;word-spacing:0px;text-anchor:start;display:inline;opacity:0.6;fill:#000000;fill-opacity:1;stroke:#000000;stroke-width:0.49537376;stroke-miterlimit:4;stroke-dasharray:none;stroke-opacity:1;filter:url(#filter4369)"
       x="1131.04"
       y="1300.7131"
       id="text4246-5-1-3-6-1"
       transform="matrix(0.7407423,0.2965061,0.201955,1.3197427,-161.60175,-1084.8437)"><tspan
         sodipodi:role="line"
         style="font-style:normal;font-variant:normal;font-weight:normal;font-stretch:normal;font-size:10.78135014px;line-height:1.25;font-family:Fondamento;-inkscape-font-specification:Fondamento;text-align:start;text-anchor:start;stroke:#000000;stroke-width:0.49537376;stroke-miterlimit:4;stroke-dasharray:none;stroke-opacity:1"
         x="1131.04"
         y="1300.7131"
         id="tspan4196-6-8">AH OKKUPERER 80 % AV LANDOMRÅDA</tspan></text>
    <text
       xml:space="preserve"
       style="font-style:normal;font-variant:normal;font-weight:normal;font-stretch:normal;line-height:0%;font-family:Lavi;-inkscape-font-specification:Lavi;text-align:start;letter-spacing:0px;word-spacing:0px;text-anchor:start;display:inline;opacity:0.6;fill:#000000;fill-opacity:1;stroke:#000000;stroke-width:0.49537376;stroke-miterlimit:4;stroke-dasharray:none;stroke-opacity:1;filter:url(#filter4369-7)"
       x="1131.04"
       y="1300.7131"
       id="text4246-5-1-3-6-1-2"
       transform="matrix(0.45709154,0.19808295,0.12462083,0.91251868,299.48835,-366.52798)"><tspan
         sodipodi:role="line"
         style="font-style:normal;font-variant:normal;font-weight:normal;font-stretch:normal;font-size:10.78135014px;line-height:1.25;font-family:Fondamento;-inkscape-font-specification:Fondamento;text-align:start;text-anchor:start;stroke:#000000;stroke-width:0.49537376;stroke-miterlimit:4;stroke-dasharray:none;stroke-opacity:1"
         x="1131.04"
         y="1300.7131"
         id="tspan4196-6-8-0">DU HAR PERFEKT SYN!</tspan></text>
    <text
       xml:space="preserve"
       style="font-style:normal;font-variant:normal;font-weight:normal;font-stretch:normal;line-height:0%;font-family:Lavi;-inkscape-font-specification:Lavi;text-align:center;letter-spacing:0px;word-spacing:0px;text-anchor:middle;fill:#000000;fill-opacity:1;stroke:none"
       x="1119.7324"
       y="1981.7657"
       id="text4246-2-3-1"><tspan
         sodipodi:role="line"
         style="font-size:45px;line-height:1.25"
         x="1119.7324"
         y="1981.7657"
         id="tspan4064">Takk for at eg får</tspan><tspan
         sodipodi:role="line"
         style="font-size:45px;line-height:1.25"
         x="1119.7324"
         y="2038.0157"
         id="tspan925">lov til å delta!</tspan></text>
    <text
       xml:space="preserve"
       style="font-style:normal;font-variant:normal;font-weight:normal;font-stretch:normal;line-height:0%;font-family:Lavi;-inkscape-font-specification:Lavi;text-align:center;letter-spacing:0px;word-spacing:0px;text-anchor:middle;fill:#000000;fill-opacity:1;stroke:none"
       x="1259.5112"
       y="2098.9883"
       id="text4246-2-3-1-0"><tspan
         sodipodi:role="line"
         style="font-size:45px;line-height:1.25;stroke:#000000;stroke-width:1.20000005;stroke-miterlimit:4;stroke-dasharray:none;stroke-opacity:1"
         x="1259.5112"
         y="2098.9883"
         id="tspan4412-3">Og eg lovar</tspan><tspan
         sodipodi:role="line"
         style="font-size:45px;line-height:1.25;stroke:#000000;stroke-width:1.20000005;stroke-miterlimit:4;stroke-dasharray:none;stroke-opacity:1"
         x="1259.5112"
         y="2155.2383"
         id="tspan4452">å vinna!</tspan></text>
    <text
       xml:space="preserve"
       style="font-style:normal;font-variant:normal;font-weight:normal;font-stretch:normal;line-height:0%;font-family:Lavi;-inkscape-font-specification:'Lavi, Normal';text-align:center;letter-spacing:0px;word-spacing:0px;writing-mode:lr-tb;text-anchor:middle;fill:#000000;fill-opacity:1;stroke:none"
       x="1413.5112"
       y="2213.4883"
       id="text4246-2-3-1-5"><tspan
         sodipodi:role="line"
         x="1413.5112"
         y="2213.4883"
         id="tspan4066"
         style="font-size:45px;line-height:1.25">Me snakkast</tspan><tspan
         sodipodi:role="line"
         x="1413.5112"
         y="2269.7383"
         style="font-size:45px;line-height:1.25"
         id="tspan929">i kveld!</tspan></text>
    <text
       xml:space="preserve"
       style="font-style:normal;font-variant:normal;font-weight:normal;font-stretch:normal;line-height:0%;font-family:Lavi;-inkscape-font-specification:Lavi;text-align:center;letter-spacing:0px;word-spacing:0px;text-anchor:middle;fill:#000000;fill-opacity:1;stroke:none"
       x="2038.8628"
       y="2126.2102"
       id="text4246-2-3-6"><tspan
         sodipodi:role="line"
         style="font-size:45px;line-height:1.25"
         x="2038.8628"
         y="2126.2102"
         id="tspan4187-2">...</tspan></text>
    <text
       xml:space="preserve"
       style="font-style:normal;font-variant:normal;font-weight:normal;font-stretch:normal;line-height:0%;font-family:Lavi;-inkscape-font-specification:Lavi;letter-spacing:0px;word-spacing:0px;fill:#000000;fill-opacity:1;stroke:#000000;stroke-width:0.99236238;stroke-miterlimit:4;stroke-dasharray:none;stroke-opacity:1;filter:url(#filter4375-4-1-1-1-9)"
       x="787.65729"
       y="1584.5073"
       id="text4580"
       transform="matrix(0.66983444,-0.42899526,0.00573176,0.82056131,1671.7153,441.03315)"><tspan
         sodipodi:role="line"
         id="tspan4582"
         x="787.65729"
         y="1584.5073"
         style="font-size:70px;line-height:1.25;fill:#ffffff"><tspan
           style="font-size:80.40014648px"
           id="tspan4617">Kleis!</tspan></tspan></text>
    <flowRoot
       xml:space="preserve"
       id="flowRoot4050"
       style="font-style:normal;font-variant:normal;font-weight:normal;font-stretch:normal;line-height:0.01%;font-family:sans-serif;-inkscape-font-specification:Clean;letter-spacing:0px;word-spacing:0px;fill:#000000;fill-opacity:1;stroke:none;stroke-width:1px;stroke-linecap:butt;stroke-linejoin:miter;stroke-opacity:1"><flowRegion
         id="flowRegion4052"
         style="font-family:sans-serif"><rect
           id="rect4054"
           width="1.5832587"
           height="22.165623"
           x="1378.2268"
           y="1077.4476"
           style="font-family:sans-serif" /></flowRegion><flowPara
         id="flowPara4056"
         style="font-size:6px;line-height:1.25;font-family:sans-serif"> </flowPara></flowRoot>  </g>
</svg>
