<?xml version="1.0" encoding="UTF-8" standalone="no"?>
<!-- Created with Inkscape (http://www.inkscape.org/) -->

<svg
   xmlns:dc="http://purl.org/dc/elements/1.1/"
   xmlns:cc="http://creativecommons.org/ns#"
   xmlns:rdf="http://www.w3.org/1999/02/22-rdf-syntax-ns#"
   xmlns:svg="http://www.w3.org/2000/svg"
   xmlns="http://www.w3.org/2000/svg"
   xmlns:xlink="http://www.w3.org/1999/xlink"
   xmlns:sodipodi="http://sodipodi.sourceforge.net/DTD/sodipodi-0.dtd"
   xmlns:inkscape="http://www.inkscape.org/namespaces/inkscape"
   id="svg2"
   version="1.1"
   inkscape:version="0.92.2 (5c3e80d, 2017-08-06)"
   width="2481"
   height="3503"
   sodipodi:docname="E22P06.svg"
   inkscape:export-filename="E:\Users\jamesmichael\Downloads\Compressed\eps\ep22_The-Voting-System_lang-pack\lang\ph\E22P06.png"
   inkscape:export-xdpi="90"
   inkscape:export-ydpi="90">
  <sodipodi:namedview
     pagecolor="#ffffff"
     bordercolor="#666666"
     inkscape:pageopacity="0"
     inkscape:pageshadow="2"
     inkscape:window-width="1813"
     inkscape:window-height="955"
     id="namedview70"
     showgrid="false"
     inkscape:zoom="0.28284271"
     inkscape:cx="1188.5812"
     inkscape:cy="1119.4501"
     inkscape:current-layer="layer3"
     inkscape:snap-grids="false"
     inkscape:snap-to-guides="false"
     inkscape:snap-others="false"
     inkscape:snap-nodes="false"
     inkscape:snap-global="false" />
  <metadata
     id="metadata8">
    <rdf:RDF>
      <cc:Work
         rdf:about="">
        <dc:format>image/svg+xml</dc:format>
        <dc:type
           rdf:resource="http://purl.org/dc/dcmitype/StillImage" />
        <dc:title />
      </cc:Work>
    </rdf:RDF>
  </metadata>
  <defs
     id="defs6">
    <linearGradient
       id="linearGradient4480"
       inkscape:collect="always">
      <stop
         id="stop4482"
         offset="0"
         style="stop-color:#ff0505;stop-opacity:1" />
      <stop
         id="stop4484"
         offset="1"
         style="stop-color:#ff9898;stop-opacity:1" />
    </linearGradient>
    <linearGradient
       inkscape:collect="always"
       id="linearGradient4546">
      <stop
         style="stop-color:#ffffff;stop-opacity:1;"
         offset="0"
         id="stop4548" />
      <stop
         style="stop-color:#fffad3;stop-opacity:1"
         offset="1"
         id="stop4550" />
    </linearGradient>
    <filter
       style="color-interpolation-filters:sRGB"
       id="filter4375-4-1-1-1-9-5-8-8-0"
       inkscape:label="fx-red">
      <feFlood
         id="feFlood4377-7-9-0-8-1-7-3-1-4"
         flood-opacity="1"
         flood-color="rgb(198,65,60)"
         result="flood" />
      <feComposite
         id="feComposite4379-3-8-8-2-77-4-1-0-1"
         in2="SourceGraphic"
         in="flood"
         operator="in"
         result="composite1"
         baseFrequency="0.053999999999999999 0.053999999999999999" />
      <feMorphology
         id="feMorphology4393-1-0-49-8-9-3-0-1-3"
         operator="dilate"
         radius="5"
         result="result3" />
      <feComposite
         id="feComposite4385-9-5-7-0-8-8-7-5-02"
         in2="result3"
         in="SourceGraphic"
         operator="over"
         result="fbSourceGraphic" />
      <feColorMatrix
         result="fbSourceGraphicAlpha"
         in="fbSourceGraphic"
         values="0 0 0 -1 0 0 0 0 -1 0 0 0 0 -1 0 0 0 0 1 0"
         id="feColorMatrix4544-9-9" />
      <feTurbulence
         id="feTurbulence4546-3-6"
         type="fractalNoise"
         numOctaves="5"
         seed="174"
         baseFrequency="0 0"
         result="turbulence" />
      <feDisplacementMap
         id="feDisplacementMap4548-8-0"
         in2="turbulence"
         in="fbSourceGraphic"
         scale="0"
         yChannelSelector="G"
         xChannelSelector="R"
         result="fbSourceGraphic" />
      <feColorMatrix
         result="fbSourceGraphicAlpha"
         in="fbSourceGraphic"
         values="0 0 0 -1 0 0 0 0 -1 0 0 0 0 -1 0 0 0 0 1 0"
         id="feColorMatrix4670-7-93" />
      <feFlood
         id="feFlood4672-4-5"
         flood-opacity="1"
         flood-color="rgb(255,255,255)"
         result="flood"
         in="fbSourceGraphic"
         stdDeviation="2.7999999999999998" />
      <feComposite
         id="feComposite4674-8-4"
         in2="fbSourceGraphic"
         in="flood"
         operator="in"
         result="composite1" />
      <feGaussianBlur
         id="feGaussianBlur4676-3-3"
         in="composite1"
         stdDeviation="0.90000000000000002"
         result="blur" />
      <feOffset
         id="feOffset4678-6-6"
         dx="0"
         dy="0"
         result="offset" />
      <feComposite
         id="feComposite4680-4-4"
         in2="offset"
         in="fbSourceGraphic"
         operator="over"
         result="composite2" />
    </filter>
    <filter
       style="color-interpolation-filters:sRGB"
       id="filter4375-4-1-1-1-9-5-8-8"
       inkscape:label="fx-green">
      <feFlood
         id="feFlood4377-7-9-0-8-1-7-3-1"
         flood-opacity="1"
         flood-color="rgb(104,199,61)"
         result="flood" />
      <feComposite
         id="feComposite4379-3-8-8-2-77-4-1-0"
         in2="SourceGraphic"
         in="flood"
         operator="in"
         result="composite1"
         baseFrequency="0.053999999999999999 0.053999999999999999" />
      <feMorphology
         id="feMorphology4393-1-0-49-8-9-3-0-1"
         operator="dilate"
         radius="5"
         result="result3" />
      <feComposite
         id="feComposite4385-9-5-7-0-8-8-7-5"
         in2="result3"
         in="SourceGraphic"
         operator="over"
         result="fbSourceGraphic" />
      <feColorMatrix
         result="fbSourceGraphicAlpha"
         in="fbSourceGraphic"
         values="0 0 0 -1 0 0 0 0 -1 0 0 0 0 -1 0 0 0 0 1 0"
         id="feColorMatrix4544-9" />
      <feTurbulence
         id="feTurbulence4546-3"
         type="fractalNoise"
         numOctaves="5"
         seed="174"
         baseFrequency="0 0"
         result="turbulence" />
      <feDisplacementMap
         id="feDisplacementMap4548-8"
         in2="turbulence"
         in="fbSourceGraphic"
         scale="0"
         yChannelSelector="G"
         xChannelSelector="R"
         result="fbSourceGraphic" />
      <feColorMatrix
         result="fbSourceGraphicAlpha"
         in="fbSourceGraphic"
         values="0 0 0 -1 0 0 0 0 -1 0 0 0 0 -1 0 0 0 0 1 0"
         id="feColorMatrix4670-7" />
      <feFlood
         id="feFlood4672-4"
         flood-opacity="1"
         flood-color="rgb(255,255,255)"
         result="flood"
         in="fbSourceGraphic"
         stdDeviation="2.7999999999999998" />
      <feComposite
         id="feComposite4674-8"
         in2="fbSourceGraphic"
         in="flood"
         operator="in"
         result="composite1" />
      <feGaussianBlur
         id="feGaussianBlur4676-3"
         in="composite1"
         stdDeviation="0.90000000000000002"
         result="blur" />
      <feOffset
         id="feOffset4678-6"
         dx="0"
         dy="0"
         result="offset" />
      <feComposite
         id="feComposite4680-4"
         in2="offset"
         in="fbSourceGraphic"
         operator="over"
         result="composite2" />
    </filter>
    <filter
       id="filter4761"
       inkscape:label="thumb-glow"
       style="color-interpolation-filters:sRGB">
      <feFlood
         id="feFlood4763"
         result="flood"
         flood-color="rgb(255,255,255)"
         flood-opacity="1" />
      <feComposite
         id="feComposite4765"
         result="composite1"
         operator="in"
         in2="SourceGraphic"
         in="flood" />
      <feGaussianBlur
         id="feGaussianBlur4767"
         result="blur"
         stdDeviation="6.5"
         in="composite1" />
      <feOffset
         id="feOffset4769"
         result="offset"
         dy="0"
         dx="0" />
      <feComposite
         id="feComposite4771"
         result="composite2"
         operator="over"
         in2="offset"
         in="SourceGraphic" />
    </filter>
    <filter
       id="filter4279"
       inkscape:label="thumb-glow"
       style="color-interpolation-filters:sRGB">
      <feFlood
         id="feFlood4281"
         result="flood"
         flood-color="rgb(255,255,255)"
         flood-opacity="1" />
      <feComposite
         id="feComposite4283"
         result="composite1"
         operator="in"
         in2="SourceGraphic"
         in="flood" />
      <feGaussianBlur
         id="feGaussianBlur4285"
         result="blur"
         stdDeviation="6.5"
         in="composite1" />
      <feOffset
         id="feOffset4287"
         result="offset"
         dy="0"
         dx="0" />
      <feComposite
         id="feComposite4289"
         result="composite2"
         operator="over"
         in2="offset"
         in="SourceGraphic" />
    </filter>
    <filter
       id="filter4291"
       inkscape:label="thumb-glow"
       style="color-interpolation-filters:sRGB">
      <feFlood
         id="feFlood4293"
         result="flood"
         flood-color="rgb(255,255,255)"
         flood-opacity="1" />
      <feComposite
         id="feComposite4295"
         result="composite1"
         operator="in"
         in2="SourceGraphic"
         in="flood" />
      <feGaussianBlur
         id="feGaussianBlur4297"
         result="blur"
         stdDeviation="6.5"
         in="composite1" />
      <feOffset
         id="feOffset4299"
         result="offset"
         dy="0"
         dx="0" />
      <feComposite
         id="feComposite4301"
         result="composite2"
         operator="over"
         in2="offset"
         in="SourceGraphic" />
    </filter>
    <filter
       style="color-interpolation-filters:sRGB"
       inkscape:label="OSD glow"
       id="filter4610">
      <feFlood
         flood-opacity="1"
         flood-color="rgb(155,255,249)"
         result="flood"
         id="feFlood4612" />
      <feComposite
         in="flood"
         in2="SourceGraphic"
         operator="in"
         result="composite1"
         id="feComposite4614" />
      <feGaussianBlur
         in="composite1"
         stdDeviation="6.5"
         result="blur"
         id="feGaussianBlur4616" />
      <feOffset
         dx="0"
         dy="0"
         result="offset"
         id="feOffset4618" />
      <feComposite
         in="SourceGraphic"
         in2="offset"
         operator="over"
         result="composite2"
         id="feComposite4620" />
    </filter>
    <filter
       style="color-interpolation-filters:sRGB"
       id="filter4375-4-1-1-1-9-6-9-2-1"
       inkscape:label="deevad outline effect">
      <feFlood
         id="feFlood4377-7-9-0-8-1-0-2-2-06"
         flood-opacity="1"
         flood-color="rgb(193,4,0)"
         result="flood" />
      <feComposite
         id="feComposite4379-3-8-8-2-77-6-0-8-3"
         in2="SourceGraphic"
         in="flood"
         operator="in"
         result="composite1" />
      <feMorphology
         id="feMorphology4393-1-0-49-8-9-2-2-9-2"
         operator="dilate"
         radius="4"
         result="result3"
         flood-opacity="0.53000000000000003" />
      <feComposite
         id="feComposite4385-9-5-7-0-8-6-3-7-0"
         in2="result3"
         in="SourceGraphic"
         operator="over"
         result="composite2" />
    </filter>
    <filter
       inkscape:label="Ripple"
       inkscape:menu="Distort"
       inkscape:menu-tooltip="Horizontal rippling of edges"
       style="color-interpolation-filters:sRGB"
       id="filter4265-7"
       y="-0.1">
      <feTurbulence
         numOctaves="1"
         baseFrequency="0.0089999999999999993 0.107"
         id="feTurbulence4267-7" />
      <feColorMatrix
         values="5 0 0 0 0 0 0 0 0 0 0 0 0 0 0 0 0 0 4 0 "
         result="result91"
         id="feColorMatrix4269-1" />
      <feDisplacementMap
         yChannelSelector="A"
         xChannelSelector="R"
         scale="14.3"
         in="SourceGraphic"
         in2="result91"
         id="feDisplacementMap4271-2" />
    </filter>
    <filter
       inkscape:label="Ripple"
       inkscape:menu="Distort"
       inkscape:menu-tooltip="Horizontal rippling of edges"
       style="color-interpolation-filters:sRGB"
       id="filter4265-7-3"
       y="-0.1">
      <feTurbulence
         numOctaves="1"
         baseFrequency="0.0040000000000000001 0.107"
         id="feTurbulence4267-7-5"
         type="turbulence"
         seed="451" />
      <feColorMatrix
         values="5 0 0 0 0 0 0 0 0 0 0 0 0 0 0 0 0 0 4 0 "
         result="result91"
         id="feColorMatrix4269-1-6" />
      <feDisplacementMap
         yChannelSelector="A"
         xChannelSelector="R"
         scale="14.3"
         in="SourceGraphic"
         in2="result91"
         id="feDisplacementMap4271-2-2" />
    </filter>
    <filter
       inkscape:label="Ripple"
       inkscape:menu="Distort"
       inkscape:menu-tooltip="Horizontal rippling of edges"
       style="color-interpolation-filters:sRGB"
       id="filter4265-7-0"
       y="-0.1">
      <feTurbulence
         numOctaves="1"
         baseFrequency="0.0089999999999999993 0.107"
         id="feTurbulence4267-7-9" />
      <feColorMatrix
         values="5 0 0 0 0 0 0 0 0 0 0 0 0 0 0 0 0 0 4 0 "
         result="result91"
         id="feColorMatrix4269-1-3" />
      <feDisplacementMap
         yChannelSelector="A"
         xChannelSelector="R"
         scale="14.3"
         in="SourceGraphic"
         in2="result91"
         id="feDisplacementMap4271-2-6" />
    </filter>
    <filter
       style="color-interpolation-filters:sRGB"
       id="filter4375-4-1-1-1-9-5-8-8-0-2"
       inkscape:label="fx-red">
      <feFlood
         id="feFlood4377-7-9-0-8-1-7-3-1-4-8"
         flood-opacity="1"
         flood-color="rgb(198,65,60)"
         result="flood" />
      <feComposite
         id="feComposite4379-3-8-8-2-77-4-1-0-1-9"
         in2="SourceGraphic"
         in="flood"
         operator="in"
         result="composite1"
         baseFrequency="0.053999999999999999 0.053999999999999999" />
      <feMorphology
         id="feMorphology4393-1-0-49-8-9-3-0-1-3-7"
         operator="dilate"
         radius="5"
         result="result3" />
      <feComposite
         id="feComposite4385-9-5-7-0-8-8-7-5-02-3"
         in2="result3"
         in="SourceGraphic"
         operator="over"
         result="fbSourceGraphic" />
      <feColorMatrix
         result="fbSourceGraphicAlpha"
         in="fbSourceGraphic"
         values="0 0 0 -1 0 0 0 0 -1 0 0 0 0 -1 0 0 0 0 1 0"
         id="feColorMatrix4544-9-9-6" />
      <feTurbulence
         id="feTurbulence4546-3-6-1"
         type="fractalNoise"
         numOctaves="5"
         seed="174"
         baseFrequency="0 0"
         result="turbulence" />
      <feDisplacementMap
         id="feDisplacementMap4548-8-0-2"
         in2="turbulence"
         in="fbSourceGraphic"
         scale="0"
         yChannelSelector="G"
         xChannelSelector="R"
         result="fbSourceGraphic" />
      <feColorMatrix
         result="fbSourceGraphicAlpha"
         in="fbSourceGraphic"
         values="0 0 0 -1 0 0 0 0 -1 0 0 0 0 -1 0 0 0 0 1 0"
         id="feColorMatrix4670-7-93-9" />
      <feFlood
         id="feFlood4672-4-5-3"
         flood-opacity="1"
         flood-color="rgb(255,255,255)"
         result="flood"
         in="fbSourceGraphic"
         stdDeviation="2.7999999999999998" />
      <feComposite
         id="feComposite4674-8-4-1"
         in2="fbSourceGraphic"
         in="flood"
         operator="in"
         result="composite1" />
      <feGaussianBlur
         id="feGaussianBlur4676-3-3-9"
         in="composite1"
         stdDeviation="0.90000000000000002"
         result="blur" />
      <feOffset
         id="feOffset4678-6-6-4"
         dx="0"
         dy="0"
         result="offset" />
      <feComposite
         id="feComposite4680-4-4-7"
         in2="offset"
         in="fbSourceGraphic"
         operator="over"
         result="composite2" />
    </filter>
    <filter
       style="color-interpolation-filters:sRGB"
       id="filter4375-4-1-1-1-9-5-8-8-8"
       inkscape:label="fx-green">
      <feFlood
         id="feFlood4377-7-9-0-8-1-7-3-1-45"
         flood-opacity="1"
         flood-color="rgb(104,199,61)"
         result="flood" />
      <feComposite
         id="feComposite4379-3-8-8-2-77-4-1-0-0"
         in2="SourceGraphic"
         in="flood"
         operator="in"
         result="composite1"
         baseFrequency="0.053999999999999999 0.053999999999999999" />
      <feMorphology
         id="feMorphology4393-1-0-49-8-9-3-0-1-36"
         operator="dilate"
         radius="5"
         result="result3" />
      <feComposite
         id="feComposite4385-9-5-7-0-8-8-7-5-1"
         in2="result3"
         in="SourceGraphic"
         operator="over"
         result="fbSourceGraphic" />
      <feColorMatrix
         result="fbSourceGraphicAlpha"
         in="fbSourceGraphic"
         values="0 0 0 -1 0 0 0 0 -1 0 0 0 0 -1 0 0 0 0 1 0"
         id="feColorMatrix4544-9-0" />
      <feTurbulence
         id="feTurbulence4546-3-63"
         type="fractalNoise"
         numOctaves="5"
         seed="174"
         baseFrequency="0 0"
         result="turbulence" />
      <feDisplacementMap
         id="feDisplacementMap4548-8-2"
         in2="turbulence"
         in="fbSourceGraphic"
         scale="0"
         yChannelSelector="G"
         xChannelSelector="R"
         result="fbSourceGraphic" />
      <feColorMatrix
         result="fbSourceGraphicAlpha"
         in="fbSourceGraphic"
         values="0 0 0 -1 0 0 0 0 -1 0 0 0 0 -1 0 0 0 0 1 0"
         id="feColorMatrix4670-7-0" />
      <feFlood
         id="feFlood4672-4-6"
         flood-opacity="1"
         flood-color="rgb(255,255,255)"
         result="flood"
         in="fbSourceGraphic"
         stdDeviation="2.7999999999999998" />
      <feComposite
         id="feComposite4674-8-1"
         in2="fbSourceGraphic"
         in="flood"
         operator="in"
         result="composite1" />
      <feGaussianBlur
         id="feGaussianBlur4676-3-5"
         in="composite1"
         stdDeviation="0.90000000000000002"
         result="blur" />
      <feOffset
         id="feOffset4678-6-5"
         dx="0"
         dy="0"
         result="offset" />
      <feComposite
         id="feComposite4680-4-47"
         in2="offset"
         in="fbSourceGraphic"
         operator="over"
         result="composite2" />
    </filter>
    <filter
       id="filter4761-6"
       inkscape:label="thumb-glow"
       style="color-interpolation-filters:sRGB">
      <feFlood
         id="feFlood4763-5"
         result="flood"
         flood-color="rgb(255,255,255)"
         flood-opacity="1" />
      <feComposite
         id="feComposite4765-6"
         result="composite1"
         operator="in"
         in2="SourceGraphic"
         in="flood" />
      <feGaussianBlur
         id="feGaussianBlur4767-9"
         result="blur"
         stdDeviation="6.5"
         in="composite1" />
      <feOffset
         id="feOffset4769-3"
         result="offset"
         dy="0"
         dx="0" />
      <feComposite
         id="feComposite4771-7"
         result="composite2"
         operator="over"
         in2="offset"
         in="SourceGraphic" />
    </filter>
    <filter
       id="filter4677"
       inkscape:label="thumb-glow"
       style="color-interpolation-filters:sRGB">
      <feFlood
         id="feFlood4679"
         result="flood"
         flood-color="rgb(255,255,255)"
         flood-opacity="1" />
      <feComposite
         id="feComposite4681"
         result="composite1"
         operator="in"
         in2="SourceGraphic"
         in="flood" />
      <feGaussianBlur
         id="feGaussianBlur4683"
         result="blur"
         stdDeviation="6.5"
         in="composite1" />
      <feOffset
         id="feOffset4685"
         result="offset"
         dy="0"
         dx="0" />
      <feComposite
         id="feComposite4687"
         result="composite2"
         operator="over"
         in2="offset"
         in="SourceGraphic" />
    </filter>
    <filter
       id="filter4689"
       inkscape:label="thumb-glow"
       style="color-interpolation-filters:sRGB">
      <feFlood
         id="feFlood4691"
         result="flood"
         flood-color="rgb(255,255,255)"
         flood-opacity="1" />
      <feComposite
         id="feComposite4693"
         result="composite1"
         operator="in"
         in2="SourceGraphic"
         in="flood" />
      <feGaussianBlur
         id="feGaussianBlur4695"
         result="blur"
         stdDeviation="6.5"
         in="composite1" />
      <feOffset
         id="feOffset4697"
         result="offset"
         dy="0"
         dx="0" />
      <feComposite
         id="feComposite4699"
         result="composite2"
         operator="over"
         in2="offset"
         in="SourceGraphic" />
    </filter>
    <filter
       style="color-interpolation-filters:sRGB"
       inkscape:label="OSD glow"
       id="filter4610-4">
      <feFlood
         flood-opacity="1"
         flood-color="rgb(155,255,249)"
         result="flood"
         id="feFlood4612-5" />
      <feComposite
         in="flood"
         in2="SourceGraphic"
         operator="in"
         result="composite1"
         id="feComposite4614-2" />
      <feGaussianBlur
         in="composite1"
         stdDeviation="6.5"
         result="blur"
         id="feGaussianBlur4616-5" />
      <feOffset
         dx="0"
         dy="0"
         result="offset"
         id="feOffset4618-4" />
      <feComposite
         in="SourceGraphic"
         in2="offset"
         operator="over"
         result="composite2"
         id="feComposite4620-7" />
    </filter>
    <linearGradient
       inkscape:collect="always"
       xlink:href="#linearGradient4480"
       id="linearGradient4203"
       x1="1294.5955"
       y1="356.86307"
       x2="1292.6337"
       y2="414.89822"
       gradientUnits="userSpaceOnUse" />
    <linearGradient
       inkscape:collect="always"
       id="linearGradient4197">
      <stop
         style="stop-color:#ffd005;stop-opacity:1"
         offset="0"
         id="stop4199" />
      <stop
         style="stop-color:#fff798;stop-opacity:1"
         offset="1"
         id="stop4201" />
    </linearGradient>
    <filter
       style="color-interpolation-filters:sRGB"
       id="filter4375-4-1-1-1-9-5-8-8-8-3"
       inkscape:label="Score-style">
      <feFlood
         id="feFlood4377-7-9-0-8-1-7-3-1-45-6"
         flood-opacity="1"
         flood-color="rgb(210,55,0)"
         result="flood" />
      <feComposite
         id="feComposite4379-3-8-8-2-77-4-1-0-0-7"
         in2="SourceGraphic"
         in="flood"
         operator="in"
         result="composite1"
         baseFrequency="0.053999999999999999 0.053999999999999999" />
      <feMorphology
         id="feMorphology4393-1-0-49-8-9-3-0-1-36-5"
         operator="dilate"
         radius="3.7999999999999998"
         result="result3" />
      <feComposite
         id="feComposite4385-9-5-7-0-8-8-7-5-1-3"
         in2="result3"
         in="SourceGraphic"
         operator="over"
         result="fbSourceGraphic" />
      <feColorMatrix
         result="fbSourceGraphicAlpha"
         in="fbSourceGraphic"
         values="0 0 0 -1 0 0 0 0 -1 0 0 0 0 -1 0 0 0 0 1 0"
         id="feColorMatrix4544-9-0-5" />
      <feTurbulence
         id="feTurbulence4546-3-63-6"
         type="fractalNoise"
         numOctaves="5"
         seed="174"
         baseFrequency="0 0"
         result="turbulence" />
      <feDisplacementMap
         id="feDisplacementMap4548-8-2-2"
         in2="turbulence"
         in="fbSourceGraphic"
         scale="0"
         yChannelSelector="G"
         xChannelSelector="R"
         result="fbSourceGraphic" />
      <feColorMatrix
         result="fbSourceGraphicAlpha"
         in="fbSourceGraphic"
         values="0 0 0 -1 0 0 0 0 -1 0 0 0 0 -1 0 0 0 0 1 0"
         id="feColorMatrix4670-7-0-9" />
      <feFlood
         id="feFlood4672-4-6-1"
         flood-opacity="1"
         flood-color="rgb(255,255,255)"
         result="flood"
         in="fbSourceGraphic"
         stdDeviation="2.7999999999999998" />
      <feComposite
         id="feComposite4674-8-1-2"
         in2="fbSourceGraphic"
         in="flood"
         operator="in"
         result="composite1" />
      <feGaussianBlur
         id="feGaussianBlur4676-3-5-7"
         in="composite1"
         stdDeviation="0.01"
         result="blur" />
      <feOffset
         id="feOffset4678-6-5-0"
         dx="0"
         dy="0"
         result="offset"
         stdDeviation="4.7000000000000002" />
      <feComposite
         id="feComposite4680-4-47-9"
         in2="offset"
         in="fbSourceGraphic"
         operator="over"
         result="composite2" />
    </filter>
    <linearGradient
       inkscape:collect="always"
       xlink:href="#linearGradient4197"
       id="linearGradient4203-3"
       x1="1294.5955"
       y1="356.86307"
       x2="1292.6337"
       y2="414.89822"
       gradientUnits="userSpaceOnUse" />
    <filter
       style="color-interpolation-filters:sRGB"
       id="filter4375-4-1-1-1-9-5-8-8-8-6"
       inkscape:label="Score-style">
      <feFlood
         id="feFlood4377-7-9-0-8-1-7-3-1-45-2"
         flood-opacity="1"
         flood-color="rgb(210,55,0)"
         result="flood" />
      <feComposite
         id="feComposite4379-3-8-8-2-77-4-1-0-0-6"
         in2="SourceGraphic"
         in="flood"
         operator="in"
         result="composite1"
         baseFrequency="0.053999999999999999 0.053999999999999999" />
      <feMorphology
         id="feMorphology4393-1-0-49-8-9-3-0-1-36-1"
         operator="dilate"
         radius="3.7999999999999998"
         result="result3" />
      <feComposite
         id="feComposite4385-9-5-7-0-8-8-7-5-1-8"
         in2="result3"
         in="SourceGraphic"
         operator="over"
         result="fbSourceGraphic" />
      <feColorMatrix
         result="fbSourceGraphicAlpha"
         in="fbSourceGraphic"
         values="0 0 0 -1 0 0 0 0 -1 0 0 0 0 -1 0 0 0 0 1 0"
         id="feColorMatrix4544-9-0-7" />
      <feTurbulence
         id="feTurbulence4546-3-63-9"
         type="fractalNoise"
         numOctaves="5"
         seed="174"
         baseFrequency="0 0"
         result="turbulence" />
      <feDisplacementMap
         id="feDisplacementMap4548-8-2-20"
         in2="turbulence"
         in="fbSourceGraphic"
         scale="0"
         yChannelSelector="G"
         xChannelSelector="R"
         result="fbSourceGraphic" />
      <feColorMatrix
         result="fbSourceGraphicAlpha"
         in="fbSourceGraphic"
         values="0 0 0 -1 0 0 0 0 -1 0 0 0 0 -1 0 0 0 0 1 0"
         id="feColorMatrix4670-7-0-2" />
      <feFlood
         id="feFlood4672-4-6-3"
         flood-opacity="1"
         flood-color="rgb(255,255,255)"
         result="flood"
         in="fbSourceGraphic"
         stdDeviation="2.7999999999999998" />
      <feComposite
         id="feComposite4674-8-1-7"
         in2="fbSourceGraphic"
         in="flood"
         operator="in"
         result="composite1" />
      <feGaussianBlur
         id="feGaussianBlur4676-3-5-5"
         in="composite1"
         stdDeviation="0.01"
         result="blur" />
      <feOffset
         id="feOffset4678-6-5-9"
         dx="0"
         dy="0"
         result="offset"
         stdDeviation="4.7000000000000002" />
      <feComposite
         id="feComposite4680-4-47-2"
         in2="offset"
         in="fbSourceGraphic"
         operator="over"
         result="composite2" />
    </filter>
    <linearGradient
       inkscape:collect="always"
       xlink:href="#linearGradient4197"
       id="linearGradient4402"
       x1="1294.5955"
       y1="356.86307"
       x2="1292.6337"
       y2="414.89822"
       gradientUnits="userSpaceOnUse" />
    <linearGradient
       inkscape:collect="always"
       xlink:href="#linearGradient4197"
       id="linearGradient4410"
       x1="1294.5955"
       y1="356.86307"
       x2="1292.6337"
       y2="414.89822"
       gradientUnits="userSpaceOnUse" />
    <filter
       style="color-interpolation-filters:sRGB"
       id="filter4375-4-1-1-1-9-6-9-2-1-7"
       inkscape:label="deevad outline effect">
      <feFlood
         id="feFlood4377-7-9-0-8-1-0-2-2-06-3"
         flood-opacity="1"
         flood-color="rgb(210,129,0)"
         result="flood" />
      <feComposite
         id="feComposite4379-3-8-8-2-77-6-0-8-3-6"
         in2="SourceGraphic"
         in="flood"
         operator="in"
         result="composite1" />
      <feMorphology
         id="feMorphology4393-1-0-49-8-9-2-2-9-2-1"
         operator="dilate"
         radius="4"
         result="result3" />
      <feComposite
         id="feComposite4385-9-5-7-0-8-6-3-7-0-2"
         in2="result3"
         in="SourceGraphic"
         operator="over"
         result="composite2" />
    </filter>
    <filter
       style="color-interpolation-filters:sRGB"
       id="filter4375-4-1-1-1-9-6-9-2-1-7-1"
       inkscape:label="deevad outline effect">
      <feFlood
         id="feFlood4377-7-9-0-8-1-0-2-2-06-3-9"
         flood-opacity="1"
         flood-color="rgb(0,0,0)"
         result="flood" />
      <feComposite
         id="feComposite4379-3-8-8-2-77-6-0-8-3-6-4"
         in2="SourceGraphic"
         in="flood"
         operator="in"
         result="composite1" />
      <feMorphology
         id="feMorphology4393-1-0-49-8-9-2-2-9-2-1-7"
         operator="dilate"
         radius="4"
         result="result3" />
      <feComposite
         id="feComposite4385-9-5-7-0-8-6-3-7-0-2-8"
         in2="result3"
         in="SourceGraphic"
         operator="over"
         result="composite2" />
    </filter>
    <radialGradient
       inkscape:collect="always"
       xlink:href="#linearGradient4546"
       id="radialGradient4552"
       cx="654.19264"
       cy="180.76592"
       fx="654.19264"
       fy="180.76592"
       r="544.37616"
       gradientTransform="matrix(1,0,0,0.11122065,0,160.66102)"
       gradientUnits="userSpaceOnUse" />
    <radialGradient
       inkscape:collect="always"
       xlink:href="#linearGradient4546"
       id="radialGradient4560"
       cx="678.74664"
       cy="177.3876"
       fx="678.74664"
       fy="177.3876"
       r="549.30536"
       gradientTransform="matrix(1,0,0,0.10216258,0,159.26524)"
       gradientUnits="userSpaceOnUse" />
    <linearGradient
       inkscape:collect="always"
       xlink:href="#linearGradient4546"
       id="linearGradient4294"
       x1="754.64325"
       y1="1552.0063"
       x2="1186.035"
       y2="1552.0063"
       gradientUnits="userSpaceOnUse" />
    <filter
       style="color-interpolation-filters:sRGB"
       id="filter4375-4-1-1-1-9-5-8-8-5"
       inkscape:label="soundFX-Kraken">
      <feFlood
         id="feFlood4377-7-9-0-8-1-7-3-1-2"
         flood-opacity="1"
         flood-color="rgb(243,227,152)"
         result="flood" />
      <feComposite
         id="feComposite4379-3-8-8-2-77-4-1-0-6"
         in2="SourceGraphic"
         in="flood"
         operator="in"
         result="composite1"
         baseFrequency="0.053999999999999999 0.053999999999999999" />
      <feMorphology
         id="feMorphology4393-1-0-49-8-9-3-0-1-9"
         operator="dilate"
         radius="6.2000000000000002"
         result="result3" />
      <feComposite
         id="feComposite4385-9-5-7-0-8-8-7-5-4"
         in2="result3"
         in="SourceGraphic"
         operator="over"
         result="fbSourceGraphic" />
      <feColorMatrix
         result="fbSourceGraphicAlpha"
         in="fbSourceGraphic"
         values="0 0 0 -1 0 0 0 0 -1 0 0 0 0 -1 0 0 0 0 1 0"
         id="feColorMatrix4544-9-4" />
      <feTurbulence
         id="feTurbulence4546-3-6-0"
         type="fractalNoise"
         numOctaves="5"
         seed="174"
         baseFrequency="0.053999999999999999 0.054054054054054057"
         result="turbulence" />
      <feDisplacementMap
         id="feDisplacementMap4548-8-0-3"
         in2="turbulence"
         in="fbSourceGraphic"
         scale="6.6"
         yChannelSelector="G"
         xChannelSelector="R"
         result="fbSourceGraphic" />
      <feColorMatrix
         result="fbSourceGraphicAlpha"
         in="fbSourceGraphic"
         values="0 0 0 -1 0 0 0 0 -1 0 0 0 0 -1 0 0 0 0 1 0"
         id="feColorMatrix4670-7-7" />
      <feFlood
         id="feFlood4672-4-4"
         flood-opacity="1"
         flood-color="rgb(175,144,94)"
         result="flood"
         in="fbSourceGraphic" />
      <feComposite
         id="feComposite4674-8-3"
         in2="fbSourceGraphic"
         in="flood"
         operator="in"
         result="composite1" />
      <feGaussianBlur
         id="feGaussianBlur4676-3-7"
         in="composite1"
         stdDeviation="0"
         result="blur" />
      <feOffset
         id="feOffset4678-6-9"
         dx="6"
         dy="6"
         result="offset" />
      <feComposite
         id="feComposite4680-4-0"
         in2="offset"
         in="fbSourceGraphic"
         operator="over"
         result="composite2" />
    </filter>
    <filter
       style="color-interpolation-filters:sRGB"
       id="filter4375-4-1-1-1-9-6-9-2-1-7-6"
       inkscape:label="deevad outline effect">
      <feFlood
         id="feFlood4377-7-9-0-8-1-0-2-2-06-3-1"
         flood-opacity="1"
         flood-color="rgb(0,0,0)"
         result="flood" />
      <feComposite
         id="feComposite4379-3-8-8-2-77-6-0-8-3-6-0"
         in2="SourceGraphic"
         in="flood"
         operator="in"
         result="composite1" />
      <feMorphology
         id="feMorphology4393-1-0-49-8-9-2-2-9-2-1-6"
         operator="dilate"
         radius="4"
         result="result3" />
      <feComposite
         id="feComposite4385-9-5-7-0-8-6-3-7-0-2-3"
         in2="result3"
         in="SourceGraphic"
         operator="over"
         result="composite2" />
    </filter>
    <filter
       style="color-interpolation-filters:sRGB"
       id="filter4375-4-1-1-1-9-6-9-2-1-7-1-6"
       inkscape:label="deevad outline effect">
      <feFlood
         id="feFlood4377-7-9-0-8-1-0-2-2-06-3-9-1"
         flood-opacity="1"
         flood-color="rgb(0,0,0)"
         result="flood" />
      <feComposite
         id="feComposite4379-3-8-8-2-77-6-0-8-3-6-4-5"
         in2="SourceGraphic"
         in="flood"
         operator="in"
         result="composite1" />
      <feMorphology
         id="feMorphology4393-1-0-49-8-9-2-2-9-2-1-7-5"
         operator="dilate"
         radius="4"
         result="result3" />
      <feComposite
         id="feComposite4385-9-5-7-0-8-6-3-7-0-2-8-4"
         in2="result3"
         in="SourceGraphic"
         operator="over"
         result="composite2" />
    </filter>
    <filter
       style="color-interpolation-filters:sRGB"
       id="filter4375-4-1-1-1-9-6-9-2-1-7-5"
       inkscape:label="deevad outline effect">
      <feFlood
         id="feFlood4377-7-9-0-8-1-0-2-2-06-3-6"
         flood-opacity="1"
         flood-color="rgb(0,0,0)"
         result="flood" />
      <feComposite
         id="feComposite4379-3-8-8-2-77-6-0-8-3-6-9"
         in2="SourceGraphic"
         in="flood"
         operator="in"
         result="composite1" />
      <feMorphology
         id="feMorphology4393-1-0-49-8-9-2-2-9-2-1-3"
         operator="dilate"
         radius="4"
         result="result3" />
      <feComposite
         id="feComposite4385-9-5-7-0-8-6-3-7-0-2-7"
         in2="result3"
         in="SourceGraphic"
         operator="over"
         result="composite2" />
    </filter>
    <filter
       style="color-interpolation-filters:sRGB"
       id="filter4375-4-1-1-1-9-6-9-2-1-5"
       inkscape:label="deevad outline effect">
      <feFlood
         id="feFlood4377-7-9-0-8-1-0-2-2-06-4"
         flood-opacity="1"
         flood-color="rgb(0,0,0)"
         result="flood" />
      <feComposite
         id="feComposite4379-3-8-8-2-77-6-0-8-3-7"
         in2="SourceGraphic"
         in="flood"
         operator="in"
         result="composite1" />
      <feMorphology
         id="feMorphology4393-1-0-49-8-9-2-2-9-2-4"
         operator="dilate"
         radius="4"
         result="result3" />
      <feComposite
         id="feComposite4385-9-5-7-0-8-6-3-7-0-4"
         in2="result3"
         in="SourceGraphic"
         operator="over"
         result="composite2" />
    </filter>
    <filter
       style="color-interpolation-filters:sRGB"
       id="filter4375-4-1-1-1-9-6-9-2-1-7-6-3"
       inkscape:label="deevad outline effect">
      <feFlood
         id="feFlood4377-7-9-0-8-1-0-2-2-06-3-1-6"
         flood-opacity="1"
         flood-color="rgb(0,0,0)"
         result="flood" />
      <feComposite
         id="feComposite4379-3-8-8-2-77-6-0-8-3-6-0-7"
         in2="SourceGraphic"
         in="flood"
         operator="in"
         result="composite1" />
      <feMorphology
         id="feMorphology4393-1-0-49-8-9-2-2-9-2-1-6-5"
         operator="dilate"
         radius="4"
         result="result3" />
      <feComposite
         id="feComposite4385-9-5-7-0-8-6-3-7-0-2-3-3"
         in2="result3"
         in="SourceGraphic"
         operator="over"
         result="composite2" />
    </filter>
    <filter
       style="color-interpolation-filters:sRGB"
       id="filter4375-4-1-1-1-9-6-9-2-1-7-1-6-2"
       inkscape:label="deevad outline effect">
      <feFlood
         id="feFlood4377-7-9-0-8-1-0-2-2-06-3-9-1-9"
         flood-opacity="1"
         flood-color="rgb(197,116,0)"
         result="flood" />
      <feComposite
         id="feComposite4379-3-8-8-2-77-6-0-8-3-6-4-5-1"
         in2="SourceGraphic"
         in="flood"
         operator="in"
         result="composite1" />
      <feMorphology
         id="feMorphology4393-1-0-49-8-9-2-2-9-2-1-7-5-2"
         operator="dilate"
         radius="4"
         result="result3" />
      <feComposite
         id="feComposite4385-9-5-7-0-8-6-3-7-0-2-8-4-7"
         in2="result3"
         in="SourceGraphic"
         operator="over"
         result="composite2" />
    </filter>
    <filter
       style="color-interpolation-filters:sRGB"
       id="filter4375-4-1-1-1-9-6-9-2-1-7-6-3-3"
       inkscape:label="deevad outline effect">
      <feFlood
         id="feFlood4377-7-9-0-8-1-0-2-2-06-3-1-6-6"
         flood-opacity="1"
         flood-color="rgb(217,152,7)"
         result="flood" />
      <feComposite
         id="feComposite4379-3-8-8-2-77-6-0-8-3-6-0-7-0"
         in2="SourceGraphic"
         in="flood"
         operator="in"
         result="composite1" />
      <feMorphology
         id="feMorphology4393-1-0-49-8-9-2-2-9-2-1-6-5-6"
         operator="dilate"
         radius="4"
         result="result3" />
      <feComposite
         id="feComposite4385-9-5-7-0-8-6-3-7-0-2-3-3-2"
         in2="result3"
         in="SourceGraphic"
         operator="over"
         result="composite2" />
    </filter>
  </defs>
  <sodipodi:namedview
     pagecolor="#ffffff"
     bordercolor="#666666"
     borderopacity="1"
     objecttolerance="10"
     gridtolerance="10"
     guidetolerance="10"
     inkscape:pageopacity="0"
     inkscape:pageshadow="2"
     inkscape:window-width="1920"
     inkscape:window-height="1025"
     id="namedview4"
     showgrid="false"
     inkscape:zoom="0.33118508"
     inkscape:cx="1109.9332"
     inkscape:cy="2984.0226"
     inkscape:window-x="0"
     inkscape:window-y="26"
     inkscape:window-maximized="1"
     inkscape:current-layer="layer1" />
  <g
     inkscape:groupmode="layer"
     id="layer2"
     inkscape:label="artwork"
     sodipodi:insensitive="true">
    <image
       sodipodi:absref="E:\Users\jamesmichael\Downloads\Compressed\eps\ep22_The-Voting-System_lang-pack\lang\ph\../gfx_Pepper-and-Carrot_by-David-Revoy_E22P06.png"
       xlink:href="../gfx_Pepper-and-Carrot_by-David-Revoy_E22P06.png"
       y="0"
       x="0"
       id="image10"
       height="3503"
       width="2481" />
  </g>
  <g
     inkscape:groupmode="layer"
     id="layer3"
     inkscape:label="speechbubbles">
    <path
       style="fill:#fffbdc;fill-opacity:1;fill-rule:evenodd;stroke:none;stroke-width:1px;stroke-linecap:butt;stroke-linejoin:miter;stroke-opacity:1"
       d="m 2082.5244,1106.2004 c -49.5644,6.792 -98.9933,14.6952 -148.7699,19.8383 8.3969,7.7366 16.794,15.4729 25.191,23.2095 -23.2715,7.5492 -47.5525,11.7753 -71.9685,13.0699 -9.8022,0.7149 -19.6149,1.4443 -29.3441,2.8732 5.5496,7.841 11.0993,15.6822 16.6489,23.5232 40.362,-5.1289 80.7161,-12.7936 118.7949,-27.4799 -9.2243,-9.0788 -18.4485,-18.1573 -27.6727,-27.236 39.789,-5.8392 78.0817,-18.5609 117.1204,-27.7982 z"
       id="path4667"
       inkscape:connector-curvature="0" />
    <path
       style="color:#000000;display:inline;overflow:visible;visibility:visible;fill:#fffbdd;fill-opacity:1;fill-rule:nonzero;stroke:none;stroke-width:1px;marker:none;enable-background:accumulate"
       d="m 1026.7912,1065.8189 c -13.972,11.3523 -28.67848,23.0046 -37.06438,39.337 -2.2861,4.6934 -4.32524,9.7091 -4.92594,14.8968 0.5776,5.5346 5.21664,9.6174 10.31494,11.1669 7.20598,2.7534 15.92118,2.6524 21.72488,8.3175 4.1247,4.2262 3.0845,10.4634 2.6743,15.7683 -1.3108,13.5012 -4.458,26.9039 -3.6079,40.545 -0.041,15.4205 1.0337,31.6492 8.8771,45.3214 3.1941,5.3578 7.2847,10.5159 13.0751,13.1892 14.5433,7.5315 33.6212,6.8284 46.7267,-3.3879 7.7413,-7.3103 8.7991,-21.2603 0.7369,-28.7248 -4.1968,-4.0039 -10.4189,-4.5285 -15.8408,-3.379 -10.3614,0.2507 -20.2435,-5.5478 -25.8813,-14.1038 -4.7682,-6.9849 -7.2939,-15.3946 -7.594,-23.8201 -3.4335,-11.3499 1.3715,-22.7628 3.5114,-33.8519 0.9021,-5.0807 1.5175,-10.5463 -0.11,-15.5125 -4.0054,-6.5294 -12.1667,-8.0114 -19.2156,-8.4684 -7.2577,-0.6586 -15.7509,-0.6026 -21.04548,-6.4488 -4.2204,-3.5623 -0.8235,-9.1073 0.045,-13.4558 4.62308,-13.6368 13.44638,-25.6553 24.20098,-35.1054 1.0918,-0.8238 2.2426,-1.5546 3.3984,-2.2837 z"
       id="path4496"
       inkscape:connector-curvature="0" />
    <path
       style="color:#000000;display:inline;overflow:visible;visibility:visible;fill:#ffffff;fill-opacity:1;fill-rule:nonzero;stroke:none;stroke-width:1px;marker:none;enable-background:accumulate"
       d="m 998.83875,2769.0597 c -18.49311,33.4007 -42.52839,73.5647 -87.85747,-0.2591 1.22362,4.8186 53.35239,108.0736 93.39672,63.4794 58.7191,-65.391 62.6007,-104.5661 62.6007,-104.5661 z"
       id="path4064"
       inkscape:connector-curvature="0"
       sodipodi:nodetypes="ccscc" />
    <path
       style="color:#000000;display:inline;overflow:visible;visibility:visible;opacity:1;fill:#ffffff;fill-opacity:1;fill-rule:nonzero;stroke:none;stroke-width:1px;marker:none;enable-background:accumulate"
       d="m 1064.9995,2273.2878 c 52.7442,-1.8272 86.5426,11.9677 115.0615,91.1995 26.8213,74.5152 20.1367,150.7178 17.2481,209.0061 -2.6907,54.2938 -1.0028,109.9609 -43.0211,174.0591 -26.2185,39.9959 -64.4376,63.8824 -101.9768,60.6045 -40.9543,-3.5761 -84.50059,1.9976 -107.8698,-43.376 -22.69265,-44.06 -24.64462,-147.4143 -23.44173,-223.5799 25.63334,-36.6584 24.7349,-45.2336 22.53849,-79.3603 -0.65179,-15.8528 -7.57084,-44.5019 -13.91478,-60.3136 5.93746,-31.9178 15.41903,-57.731 29.88782,-75.253 26.98276,-32.6767 52.7441,-51.1594 105.4883,-52.9864 z"
       id="path3373"
       inkscape:connector-curvature="0"
       sodipodi:nodetypes="zssssscccsz" />
    <path
       style="fill:#ffffff;fill-rule:evenodd;stroke:none;stroke-width:1px;stroke-linecap:butt;stroke-linejoin:miter;stroke-opacity:1"
       d="m 1173.621,2027.7099 1.5347,-74.0217 1.0972,-33.4302 15.1052,3.4822 c 0,0 11.6887,-96.1189 15.5481,-138.7593 -0.3194,24.7561 -3.9965,156.6802 -3.9965,156.6802 l -14.3147,1.8172 1.1424,56.8143 7.3473,16.2331 c -5.1555,40.2332 -15.9615,97.7133 -23.4637,11.1842 z"
       id="path4230"
       inkscape:connector-curvature="0"
       sodipodi:nodetypes="cccccccccc" />
    <path
       style="color:#000000;display:inline;overflow:visible;visibility:visible;fill:#ffffff;fill-opacity:1;fill-rule:nonzero;stroke:none;stroke-width:1.42541909px;marker:none;enable-background:accumulate"
       d="m 1219.0829,1865.7919 c -20.3377,22.814 -40.4003,46.0709 -99.3567,6.7297 17.1978,37.8584 -15.4996,14.9829 -36.848,5.9219 45.7995,67.421 -23.3962,24.4185 -64.6352,8.2614 18.0753,15.4476 115.9948,58.8613 13.1711,33.2236 72.5691,28.4555 48.1228,28.0542 -6.4565,23.1288 32.1422,8.2562 60.8225,15.7564 3.3712,9.8579 32.5976,7.5123 67.8406,15.2321 17.8449,26.0087 22.8853,4.8941 27.3141,10.866 -6.593,19.3933 40.7109,12.1867 26.5741,14.6931 0.8981,19.9129 43.1695,4.2159 45.5339,30.0558 6.9723,37.3445 51.8009,0.076 28.0911,20.7711 -1.4465,50.5869 26.8657,-13.3278 40.6861,7.8955 20.8601,30.9205 35.3463,-14.5698 30.997,3.5769 23.0223,23.9613 18.9639,-15.0894 30.3123,-15.9998 22.6312,18.5206 14.6795,-24.1812 29.4941,-46.4822 48.5688,-9.5389 5.8864,-8.7863 -11.4779,-37.0321 68.7318,-6.8292 -18.8013,-21.94 -24.7187,-42.0016 44.3937,-49.0913 -35.5289,-17.9591 -59.0644,-36.2319 12.0689,-35.8016 -74.5936,-16.3061 -25.8383,-12.5658 -4.7115,-18.0376 -21.679,-1.5917 -58.4782,-26.8563 0.053,-46.7575 -33.7476,4.6365 -88.2093,2.1609 -0.1992,-21.2859 -15.6202,-0.2407 -99.7343,10.0331 -2.5109,-53.4361 -67.6702,8.6348 -29.4545,-12.5151 -7.4184,-29.1139 -42.1958,8.6352 -46.3785,-3.4859 -23.4848,-30.3915 -39.1426,21.0334 -29.4447,-0.1991 -28.9256,-13.4885 z"
       id="path3549"
       inkscape:connector-curvature="0"
       sodipodi:nodetypes="ccccccccccccccccccccccccccc" />
    <path
       style="color:#000000;display:inline;overflow:visible;visibility:visible;fill:#ffffff;fill-opacity:1;fill-rule:nonzero;stroke:none;stroke-width:1px;marker:none;enable-background:accumulate"
       d="m 834.01101,1760.1401 c -31.72549,-21.6006 -34.15669,-39.6087 -37.06983,-52.4078 3.11714,-1.8969 8.05908,-6.4842 8.05908,-6.4842 0,0 -7.70161,-24.6325 -8.00481,-34.9819 -0.3032,-10.3492 10.46694,-10.934 10.46694,-10.934 0,0 15.98622,47.5057 21.96595,56.683 -8.74314,4.7938 -12.44327,8.45 -16.24448,8.6563 -0.40613,7.7964 9.80434,31.4289 20.82715,39.4686 z"
       id="path4456-8"
       inkscape:connector-curvature="0" />
    <path
       style="color:#000000;display:inline;overflow:visible;visibility:visible;fill:url(#radialGradient4560);fill-opacity:1;fill-rule:nonzero;stroke:none;stroke-width:1px;marker:none;filter:url(#filter4265-7-0);enable-background:accumulate"
       d="m 262.0114,208.63346 c -35.48977,-11.8529 -54.02759,-26.1605 -30.55267,-38.85187 23.47491,-12.69136 113.19042,-24.77619 158.27354,-28.01661 84.1072,-6.04532 610.40713,-15.66699 648.60633,-8.72926 64.4396,11.7035 87.957,13.44299 97.1891,33.50327 5.212,11.32491 -9.1743,26.62193 -75.7834,35.59355 -66.60906,8.97162 -227.84487,17.33156 -320.44413,21.35707 -283.76843,2.36127 -433.28322,-1.35102 -477.28877,-14.85615 z"
       id="path3986-3-0"
       inkscape:connector-curvature="0"
       sodipodi:nodetypes="cssssscc"
       transform="matrix(0.09931213,-0.21370155,4.3329587,0.00454022,904.25452,1304.7021)" />
    <rect
       style="color:#000000;clip-rule:nonzero;display:inline;overflow:visible;visibility:visible;opacity:1;isolation:auto;mix-blend-mode:normal;color-interpolation:sRGB;color-interpolation-filters:linearRGB;solid-color:#000000;solid-opacity:1;fill:#550000;fill-opacity:1;fill-rule:nonzero;stroke:none;stroke-width:3.18433547;stroke-linecap:butt;stroke-linejoin:miter;stroke-miterlimit:4;stroke-dasharray:none;stroke-dashoffset:0;stroke-opacity:1;marker:none;color-rendering:auto;image-rendering:auto;shape-rendering:auto;text-rendering:auto;enable-background:accumulate"
       id="rect4632-8-6-1-3-6-7"
       width="503.81427"
       height="287.04074"
       x="-125.02569"
       y="-356.1622"
       ry="22.32233"
       rx="28.180176"
       transform="rotate(90)" />
    <path
       style="color:#000000;display:inline;overflow:visible;visibility:visible;fill:#550000;fill-opacity:1;fill-rule:nonzero;stroke:none;stroke-width:1px;marker:none;enable-background:accumulate"
       d="m 165.63052,127.12294 c -2.26649,25.82279 8.71397,36.08371 14.2253,40.40328 2.26971,-1.03908 11.47004,-18.18406 11.47004,-18.18406 0,0 12.95776,37.68521 23.50024,40.17102 6.21214,1.46471 19.02856,-17.33036 19.02856,-17.33036 -2.13689,2.99903 -40.07366,-34.078 -39.73148,-43.84826 -6.26809,3.57883 -13.69909,17.63759 -15.46656,19.53988 -7.08112,-0.99516 -14.19625,-12.57886 -13.0261,-20.7515 z"
       id="path4456"
       inkscape:connector-curvature="0"
       sodipodi:nodetypes="cccscccc"
       inkscape:transform-center-x="-6.523784"
       inkscape:transform-center-y="26.525964" />
    <path
       style="color:#000000;display:inline;overflow:visible;visibility:visible;fill:url(#radialGradient4552);fill-opacity:1;fill-rule:nonzero;stroke:none;stroke-width:1px;marker:none;filter:url(#filter4265-7);enable-background:accumulate"
       d="m 213.49778,207.92788 c -35.48977,-11.8529 10.70226,-23.10032 34.17718,-35.79169 23.47491,-12.69136 24.23271,-26.82668 69.31583,-30.0671 84.1072,-6.04532 696.79851,-21.84774 735.54961,-2.24684 38.751,19.601 53.3013,7.11522 55.2886,46.31702 1.9872,39.2018 -280.09703,40.15044 -368.52883,37.35034 -88.4319,-2.8002 -256.32624,12.81654 -340.37668,5.98599 -88.6791,-7.20671 -147.99848,-0.19474 -185.42571,-21.54772 z"
       id="path3986-3"
       inkscape:connector-curvature="0"
       sodipodi:nodetypes="cssssssc"
       transform="matrix(0.06023752,-0.1763248,2.6281452,0.00374612,562.31086,1413.756)" />
    <path
       style="color:#000000;display:inline;overflow:visible;visibility:visible;fill:#ffffff;fill-opacity:1;fill-rule:nonzero;stroke:none;stroke-width:1.15246248px;marker:none;enable-background:accumulate"
       d="m 750.2437,1764.1334 c 3.90783,-7.4997 20.79682,-29.486 18.31266,-2.2336 27.13416,-31.4455 46.06118,-15.2486 65.45465,-1.7597 6.72097,-9.7406 9.37195,-26.007 26.41999,-19.1901 -1.16169,-10.985 5.62883,-17.244 19.51508,-19.2866 -16.96834,-9.4015 -19.41893,-16.5394 14.40764,-18.0214 -24.99554,-4.9496 -48.22596,-10.3364 -15.8419,-29.4984 -9.15943,-2.1542 -33.53047,14.287 -16.09004,-42.9863 -18.18753,16.1921 -36.3941,23.7382 -52.78477,-19.4445 -8.44167,14.515 -19.49052,23.4064 -35.65575,-1.1047 -5.9159,14.8261 -28.73079,12.2571 -36.68296,7.687 14.68274,20.2072 12.78507,30.8859 -10.24073,28.6796 34.44023,37.7753 3.74321,27.7438 -3.39674,34.6237 28.72952,15.8849 13.64383,26.9913 6.65841,39.4318 34.48297,6.3309 20.55665,25.8122 19.92446,43.1032 z"
       id="path3549-3"
       inkscape:connector-curvature="0"
       sodipodi:nodetypes="ccccccccccccccc" />
    <path
       style="color:#000000;display:inline;overflow:visible;visibility:visible;fill:#ffffff;fill-opacity:1;fill-rule:nonzero;stroke:none;stroke-width:1px;marker:none;enable-background:accumulate"
       d="m 348.86252,1895.4334 c -6.13885,10.3972 -89.0034,97.6042 -76.91643,51.5251 -33.09527,34.7226 -43.50091,27.5251 -62.14192,-0.4761 -0.49201,23.9419 -6.92714,36.6459 -32.44055,23.1816 11.47674,11.2807 11.35043,28.0018 -18.75016,24.4279 21.03136,3.4269 24.49032,7.5017 -15.9609,13.1959 30.33159,-0.4639 58.5786,-0.4078 21.14649,16.0328 11.13962,0.041 39.16225,-13.5831 22.42778,24.3514 20.62655,-12.5966 41.90653,-19.841 64.70909,4.5896 9.06323,-10.1818 21.66269,-17.2487 42.83313,-4.3504 6.01205,-10.0179 33.55531,-11.6482 43.42359,-9.9407 -19.07897,-10.442 -17.58245,-17.3237 10.18725,-19.2085 -44.05026,-18.533 -6.51174,-16.6545 1.54753,-21.9237 -35.60633,-5.7816 -18.32808,-14.7903 -10.85966,-23.4816 -79.73537,25.4892 4.82605,-62.9374 10.79476,-77.9233 z"
       id="path3549-3-0"
       inkscape:connector-curvature="0"
       sodipodi:nodetypes="ccccccccccccccc" />
    <rect
       style="color:#000000;clip-rule:nonzero;display:inline;overflow:visible;visibility:visible;opacity:1;isolation:auto;mix-blend-mode:normal;color-interpolation:sRGB;color-interpolation-filters:linearRGB;solid-color:#000000;solid-opacity:1;fill:#550000;fill-opacity:1;fill-rule:nonzero;stroke:none;stroke-width:2.5999999;stroke-linecap:butt;stroke-linejoin:miter;stroke-miterlimit:4;stroke-dasharray:none;stroke-dashoffset:0;stroke-opacity:1;marker:none;color-rendering:auto;image-rendering:auto;shape-rendering:auto;text-rendering:auto;enable-background:accumulate"
       id="rect4632-8-6-1-3-6-7-1"
       width="542.69971"
       height="269.35141"
       x="2298.5415"
       y="-1807.6707"
       ry="15.251263"
       rx="15.251263"
       transform="rotate(90)" />
    <rect
       rx="15.665772"
       ry="21.690334"
       y="-844.17249"
       x="882.39331"
       height="190.97475"
       width="296.40942"
       id="rect5154"
       style="color:#000000;clip-rule:nonzero;display:inline;overflow:visible;visibility:visible;opacity:1;isolation:auto;mix-blend-mode:normal;color-interpolation:sRGB;color-interpolation-filters:linearRGB;solid-color:#000000;solid-opacity:1;fill:#550000;fill-opacity:1;fill-rule:nonzero;stroke:none;stroke-width:2.33170748;stroke-linecap:butt;stroke-linejoin:miter;stroke-miterlimit:4;stroke-dasharray:none;stroke-dashoffset:0;stroke-opacity:1;marker:none;color-rendering:auto;image-rendering:auto;shape-rendering:auto;text-rendering:auto;enable-background:accumulate"
       transform="rotate(90)" />
    <path
       style="color:#000000;display:inline;overflow:visible;visibility:visible;fill:#550000;fill-opacity:1;fill-rule:nonzero;stroke:none;stroke-width:1px;marker:none;enable-background:accumulate"
       d="m 794.29802,1190.6474 -54.86241,29.6603 -2.6186,-21.099 -35.05956,0.01 46.48955,-21.1499 3.00073,18.0975 z"
       id="path4456-4"
       inkscape:connector-curvature="0"
       sodipodi:nodetypes="ccccccc"
       inkscape:transform-center-x="39.76398"
       inkscape:transform-center-y="29.554658" />
    <path
       inkscape:transform-center-y="29.554658"
       inkscape:transform-center-x="39.76398"
       sodipodi:nodetypes="ccccccc"
       inkscape:connector-curvature="0"
       id="path5164"
       d="m 259.79802,393.1474 -54.86241,29.6603 -2.6186,-21.099 -35.05956,0.01 46.48955,-21.1499 3.00073,18.0975 z"
       style="color:#000000;display:inline;overflow:visible;visibility:visible;fill:#550000;fill-opacity:1;fill-rule:nonzero;stroke:none;stroke-width:1px;marker:none;enable-background:accumulate" />
    <rect
       transform="rotate(90)"
       rx="15.251263"
       ry="15.251263"
       y="-2411.3003"
       x="2820.8599"
       height="203.72949"
       width="243.58569"
       id="rect5180"
       style="color:#000000;clip-rule:nonzero;display:inline;overflow:visible;visibility:visible;opacity:1;isolation:auto;mix-blend-mode:normal;color-interpolation:sRGB;color-interpolation-filters:linearRGB;solid-color:#000000;solid-opacity:1;fill:#550000;fill-opacity:1;fill-rule:nonzero;stroke:none;stroke-width:2.5999999;stroke-linecap:butt;stroke-linejoin:miter;stroke-miterlimit:4;stroke-dasharray:none;stroke-dashoffset:0;stroke-opacity:1;marker:none;color-rendering:auto;image-rendering:auto;shape-rendering:auto;text-rendering:auto;enable-background:accumulate" />
    <path
       inkscape:transform-center-y="29.554658"
       inkscape:transform-center-x="39.76398"
       sodipodi:nodetypes="ccccccc"
       inkscape:connector-curvature="0"
       id="path5291"
       d="m 1723.9207,2857.4912 -54.8625,29.6603 -2.6186,-21.099 -35.0595,0.01 46.4895,-21.1499 3.0008,18.0975 z"
       style="color:#000000;display:inline;overflow:visible;visibility:visible;fill:#550000;fill-opacity:1;fill-rule:nonzero;stroke:none;stroke-width:1px;marker:none;enable-background:accumulate" />
    <path
       style="color:#000000;display:inline;overflow:visible;visibility:visible;fill:#550000;fill-opacity:1;fill-rule:nonzero;stroke:none;stroke-width:1px;marker:none;enable-background:accumulate"
       d="m 2356.8711,3078.9267 -54.8625,29.6603 -2.6186,-21.099 -35.0595,0.01 46.4895,-21.1499 3.0008,18.0975 z"
       id="path5293"
       inkscape:connector-curvature="0"
       sodipodi:nodetypes="ccccccc"
       inkscape:transform-center-x="39.76398"
       inkscape:transform-center-y="29.554658" />
  </g>
  <g
     inkscape:groupmode="layer"
     id="layer1"
     inkscape:label="txt">
    <text
       xml:space="preserve"
       style="font-style:normal;font-variant:normal;font-weight:normal;font-stretch:normal;line-height:0%;font-family:Lavi;-inkscape-font-specification:Lavi;text-align:center;letter-spacing:0px;word-spacing:0px;text-anchor:middle;display:inline;fill:#ffffff;fill-opacity:1;stroke:none"
       x="211.88675"
       y="125.90376"
       id="text4246-2-3-1-3-9-9"><tspan
         sodipodi:role="line"
         style="font-size:45px;line-height:0.89999998;fill:#ffffff"
         x="219.79691"
         y="125.90376"
         id="tspan4449">Magaling </tspan><tspan
         sodipodi:role="line"
         style="font-size:45px;line-height:0.89999998;fill:#ffffff"
         x="219.79691"
         y="166.40375"
         id="tspan5060">na mahika! </tspan><tspan
         sodipodi:role="line"
         style="font-size:45px;line-height:0.89999998;fill:#ffffff"
         x="219.79691"
         y="206.90375"
         id="tspan5062">Nakakuha si </tspan><tspan
         sodipodi:role="line"
         style="font-size:45px;line-height:0.89999998;fill:#ffffff"
         x="219.79691"
         y="247.40375"
         id="tspan5156">Camomile ng </tspan><tspan
         sodipodi:role="line"
         style="font-size:45px;line-height:0.89999998;fill:#ffffff"
         x="219.79691"
         y="287.90375"
         id="tspan5064">magandang </tspan><tspan
         sodipodi:role="line"
         style="font-size:45px;line-height:0.89999998;fill:#ffffff"
         x="211.88675"
         y="328.40375"
         id="tspan5152">puntos!</tspan><tspan
         sodipodi:role="line"
         style="font-size:45px;line-height:0.89999998;fill:#ffffff"
         x="211.88675"
         y="339.06229"
         id="tspan5066" /></text>
    <text
       xml:space="preserve"
       style="font-style:normal;font-variant:normal;font-weight:normal;font-stretch:normal;line-height:0%;font-family:Lavi;-inkscape-font-specification:Lavi;text-align:center;letter-spacing:0px;word-spacing:0px;text-anchor:middle;opacity:0.70200004;fill:url(#linearGradient4203-3);fill-opacity:1;stroke:#ffffff;stroke-width:2.68882608;stroke-linecap:round;stroke-miterlimit:4;stroke-dasharray:none;stroke-opacity:1;filter:url(#filter4375-4-1-1-1-9-5-8-8-8-6)"
       x="1276.0023"
       y="286.89603"
       id="text4246-3-8-2"
       transform="matrix(1.5087528,0,0,1.4964492,-1454.0961,-90.56131)"><tspan
         sodipodi:role="line"
         style="font-style:normal;font-variant:normal;font-weight:normal;font-stretch:normal;font-size:91.25513458px;line-height:1.25;font-family:Fondamento;-inkscape-font-specification:Fondamento;letter-spacing:17.77999878px;fill:url(#linearGradient4203-3);fill-opacity:1;stroke:#ffffff;stroke-width:2.68882608;stroke-linecap:round;stroke-miterlimit:4;stroke-dasharray:none;stroke-opacity:1"
         x="1304.9219"
         y="286.89603"
         id="tspan4252-5-6-8"> </tspan><tspan
         sodipodi:role="line"
         style="font-style:normal;font-variant:normal;font-weight:normal;font-stretch:normal;font-size:91.25513458px;line-height:1.25;font-family:Combat;-inkscape-font-specification:Combat;letter-spacing:8.96275425px;fill:url(#linearGradient4203-3);fill-opacity:1;stroke:#ffffff;stroke-width:2.68882608;stroke-linecap:round;stroke-miterlimit:4;stroke-dasharray:none;stroke-opacity:1"
         x="1280.4836"
         y="406.48062"
         id="tspan5535-8-9">5861</tspan></text>
    <use
       x="0"
       y="0"
       xlink:href="#text4580-1-7-3-6"
       id="use4300"
       transform="matrix(0.63079792,0,0,0.6472822,806.73729,518.69465)"
       width="100%"
       height="100%"
       style="fill:#ffffff;fill-opacity:1;stroke:#ffffff;stroke-width:7.88592052;stroke-miterlimit:4;stroke-dasharray:none;stroke-opacity:1" />
    <use
       x="0"
       y="0"
       xlink:href="#use4300"
       id="use4302"
       transform="matrix(0.90187341,0,0,0.88205133,140.5335,190.97283)"
       width="100%"
       height="100%" />
    <use
       x="0"
       y="0"
       xlink:href="#use4302"
       id="use4304"
       transform="matrix(1.1804172,0,0,1.1342206,-768.88603,-150.6649)"
       width="100%"
       height="100%" />
    <use
       x="0"
       y="0"
       xlink:href="#use4304"
       id="use4306"
       transform="matrix(0.75763055,0,0,0.78553034,560.85604,316.25779)"
       width="100%"
       height="100%" />
    <use
       x="0"
       y="0"
       xlink:href="#use4304"
       id="use4308"
       transform="matrix(0.72733437,0,0,0.76170038,34.931813,239.34201)"
       width="100%"
       height="100%" />
    <use
       x="0"
       y="0"
       xlink:href="#use4306"
       id="use4310"
       transform="translate(-451.24998,14.750003)"
       width="100%"
       height="100%" />
    <text
       xml:space="preserve"
       style="font-style:normal;font-variant:normal;font-weight:normal;font-stretch:normal;line-height:0%;font-family:Lavi;-inkscape-font-specification:Lavi;text-align:center;letter-spacing:0px;word-spacing:0px;text-anchor:middle;display:inline;fill:#8f5902;fill-opacity:1;stroke:none"
       x="1079.8777"
       y="1322.106"
       id="text4246-2-3-1-3-9-9-3"><tspan
         sodipodi:role="line"
         style="font-style:normal;font-variant:normal;font-weight:normal;font-stretch:normal;font-size:73.83346558px;line-height:1.25;font-family:'Drukaatie burti';-inkscape-font-specification:'Drukaatie burti';fill:#8f5902;fill-opacity:1"
         x="1079.8777"
         y="1322.106"
         id="tspan4341-5">LUX…</tspan></text>
    <text
       xml:space="preserve"
       style="font-style:normal;font-variant:normal;font-weight:normal;font-stretch:normal;line-height:0%;font-family:Lavi;-inkscape-font-specification:Lavi;letter-spacing:0px;word-spacing:0px;fill:url(#linearGradient4294);fill-opacity:1;stroke:none;stroke-width:0.76397806;stroke-miterlimit:4;stroke-dasharray:none;stroke-opacity:0;filter:url(#filter4375-4-1-1-1-9-5-8-8-5)"
       x="787.65729"
       y="1584.5073"
       id="text4580-6-0-0-0"
       transform="matrix(0.98074575,-0.82465511,0.10674066,1.2040962,1130.4954,-856.60582)"><tspan
         sodipodi:role="line"
         id="tspan4582-1-1-0-2"
         x="787.65729"
         y="1584.5073"
         style="font-size:93.14950562px;line-height:1.25;fill:url(#linearGradient4294);fill-opacity:1;stroke:none;stroke-width:0.76397806;stroke-miterlimit:4;stroke-dasharray:none;stroke-opacity:0">Fii<tspan
   style="font-size:70.77825928px;fill:url(#linearGradient4294);fill-opacity:1"
   id="tspan4630">iiiii</tspan><tspan
   style="font-size:55.92811584px;fill:url(#linearGradient4294);fill-opacity:1"
   id="tspan4638">zz!!</tspan></tspan></text>
    <text
       xml:space="preserve"
       style="font-style:normal;font-variant:normal;font-weight:normal;font-stretch:normal;line-height:0%;font-family:Lavi;-inkscape-font-specification:Lavi;text-align:center;letter-spacing:0px;word-spacing:0px;text-anchor:middle;display:inline;fill:#8f5902;fill-opacity:1;stroke:none"
       x="1745.0958"
       y="1183.5892"
       id="text4246-2-3-1-3-9-9-3-2"><tspan
         sodipodi:role="line"
         style="font-style:normal;font-variant:normal;font-weight:normal;font-stretch:normal;font-size:73.83346558px;line-height:1.25;font-family:'Drukaatie burti';-inkscape-font-specification:'Drukaatie burti';fill:#8f5902;fill-opacity:1"
         x="1745.0958"
         y="1183.5892"
         id="tspan4341-5-7">MAXIMA!</tspan></text>
    <text
       xml:space="preserve"
       style="font-style:normal;font-variant:normal;font-weight:normal;font-stretch:normal;line-height:0%;font-family:Lavi;-inkscape-font-specification:Lavi;text-align:center;letter-spacing:0px;word-spacing:0px;text-anchor:middle;display:inline;fill:#000000;fill-opacity:1;stroke:none"
       x="797.65961"
       y="1671.2977"
       id="text4246-2-3-1-3-9-9-6"><tspan
         sodipodi:role="line"
         style="font-size:45px;line-height:1.25"
         x="805.56976"
         y="1671.2977"
         id="tspan4341-1">Mata </tspan><tspan
         sodipodi:role="line"
         style="font-size:45px;line-height:1.25"
         x="797.65961"
         y="1727.5477"
         id="tspan5146">ko!!</tspan></text>
    <text
       xml:space="preserve"
       style="font-style:normal;font-variant:normal;font-weight:normal;font-stretch:normal;line-height:0%;font-family:Lavi;-inkscape-font-specification:Lavi;text-align:center;letter-spacing:0px;word-spacing:0px;text-anchor:middle;display:inline;fill:#000000;fill-opacity:1;stroke:none"
       x="257.68674"
       y="2020.4244"
       id="text4246-2-3-1-3-9-9-6-2"><tspan
         sodipodi:role="line"
         style="font-size:45px;line-height:1.25"
         x="257.68674"
         y="2020.4244"
         id="tspan4341-1-3">Ow!!</tspan></text>
    <text
       xml:space="preserve"
       style="font-style:normal;font-variant:normal;font-weight:normal;font-stretch:normal;line-height:0%;font-family:Lavi;-inkscape-font-specification:Lavi;text-align:center;letter-spacing:0px;word-spacing:0px;text-anchor:middle;display:inline;fill:#000000;fill-opacity:1;stroke:none"
       x="1156.3466"
       y="1963.3505"
       id="text4246-2-3-1-3-9-9-6-9"><tspan
         sodipodi:role="line"
         style="font-size:45px;line-height:1.25"
         x="1164.2567"
         y="1963.3505"
         id="tspan4341-1-2">ah </tspan><tspan
         sodipodi:role="line"
         style="font-size:45px;line-height:1.25"
         x="1156.3466"
         y="2019.6005"
         id="tspan5102">nakaka-</tspan><tspan
         sodipodi:role="line"
         style="font-size:45px;line-height:1.25"
         x="1156.3466"
         y="2075.8506"
         id="tspan5148">bulag!!!</tspan></text>
    <text
       xml:space="preserve"
       style="font-style:normal;font-variant:normal;font-weight:normal;font-stretch:normal;line-height:0%;font-family:Lavi;-inkscape-font-specification:Lavi;text-align:center;letter-spacing:0px;word-spacing:0px;text-anchor:middle;display:inline;fill:#000000;fill-opacity:1;stroke:none"
       x="1059.8271"
       y="2408.8638"
       id="text4246-2-3-1-3-9-9-7"><tspan
         sodipodi:role="line"
         style="font-size:45px;line-height:1.25"
         x="1067.7373"
         y="2408.8638"
         id="tspan4881">Carrot </tspan><tspan
         sodipodi:role="line"
         style="font-size:45px;line-height:1.25"
         x="1067.7373"
         y="2465.1138"
         id="tspan5113">bigyan mo </tspan><tspan
         sodipodi:role="line"
         style="font-size:45px;line-height:1.25"
         x="1067.7373"
         y="2521.3638"
         id="tspan5299">parin siya </tspan><tspan
         sodipodi:role="line"
         style="font-size:45px;line-height:1.25"
         x="1059.8271"
         y="2577.6138"
         id="tspan5115">ng green,</tspan><tspan
         sodipodi:role="line"
         style="font-size:45px;line-height:1.25"
         x="1067.7373"
         y="2633.8638"
         id="tspan5119">kaibigan </tspan><tspan
         sodipodi:role="line"
         style="font-size:45px;line-height:1.25"
         x="1067.7373"
         y="2690.1138"
         dx="0 0 0 0 0 0 -0.88388348"
         id="tspan5303">parin natin </tspan><tspan
         sodipodi:role="line"
         style="font-size:45px;line-height:1.25"
         x="1059.8271"
         y="2746.3638"
         id="tspan5305">siya…</tspan></text>
    <text
       xml:space="preserve"
       style="font-style:normal;font-variant:normal;font-weight:normal;font-stretch:normal;line-height:0%;font-family:Lavi;-inkscape-font-specification:Lavi;letter-spacing:0px;word-spacing:0px;display:inline;fill:#ffffff;fill-opacity:1;stroke:#ffffff;stroke-width:1.82718372;stroke-miterlimit:4;stroke-dasharray:none;stroke-opacity:1;filter:url(#filter4375-4-1-1-1-9-6-9-2-1-5)"
       x="787.65729"
       y="1584.5073"
       id="text4580-1-7-3-6-3"
       transform="matrix(0.4834259,-0.25133535,-0.08924755,0.66599199,986.55613,2279.2739)"><tspan
         sodipodi:role="line"
         id="tspan4582-8-5-6-1-0"
         x="787.65729"
         y="1584.5073"
         style="font-size:70px;line-height:1.25;fill:#ffffff;fill-opacity:1;stroke:#ffffff;stroke-width:1.82718372;stroke-miterlimit:4;stroke-dasharray:none;stroke-opacity:1">Tap</tspan></text>
    <text
       xml:space="preserve"
       style="font-style:normal;font-variant:normal;font-weight:normal;font-stretch:normal;line-height:0%;font-family:Lavi;-inkscape-font-specification:Lavi;letter-spacing:0px;word-spacing:0px;display:inline;fill:#ffffff;fill-opacity:1;stroke:#ffffff;stroke-width:1.42756975;stroke-miterlimit:4;stroke-dasharray:none;stroke-opacity:1;filter:url(#filter4375-4-1-1-1-9-6-9-2-1-7-6-3-3)"
       x="787.65729"
       y="1584.5073"
       id="text4580-1-7-3-6-9-2-5-6"
       transform="matrix(0.59995716,-0.22362522,-0.11076094,0.85915594,-158.57776,1939.1304)"><tspan
         sodipodi:role="line"
         id="tspan4582-8-5-6-1-3-0-6-1"
         x="787.65729"
         y="1584.5073"
         style="font-size:70px;line-height:1.25;fill:#ffffff;fill-opacity:1;stroke:#ffffff;stroke-width:1.42756975;stroke-miterlimit:4;stroke-dasharray:none;stroke-opacity:1">Boo!</tspan></text>
    <text
       xml:space="preserve"
       style="font-style:normal;font-variant:normal;font-weight:normal;font-stretch:normal;line-height:0%;font-family:Lavi;-inkscape-font-specification:Lavi;letter-spacing:0px;word-spacing:0px;display:inline;fill:#ffffff;fill-opacity:1;stroke:#ffffff;stroke-width:1.19853473;stroke-miterlimit:4;stroke-dasharray:none;stroke-opacity:1;filter:url(#filter4375-4-1-1-1-9-6-9-2-1-7-1-6-2)"
       x="787.65729"
       y="1584.5073"
       id="text4580-1-7-3-6-9-4-7-0"
       transform="matrix(0.7453695,-0.25536587,-0.1376062,0.98110181,-196.25442,1849.6598)"><tspan
         sodipodi:role="line"
         id="tspan4582-8-5-6-1-3-5-6-9"
         x="787.65729"
         y="1584.5073"
         style="font-size:70px;line-height:1.25;fill:#ffffff;fill-opacity:1;stroke:#ffffff;stroke-width:1.19853473;stroke-miterlimit:4;stroke-dasharray:none;stroke-opacity:1">Booo!</tspan></text>
    <text
       xml:space="preserve"
       style="font-style:normal;font-variant:normal;font-weight:normal;font-stretch:normal;line-height:1;font-family:Lavi;-inkscape-font-specification:Lavi;text-align:center;letter-spacing:0px;word-spacing:0px;text-anchor:middle;display:inline;fill:#ffffff;fill-opacity:1;stroke:none"
       x="1676.2056"
       y="2378.6667"
       id="text4246-2-3-1-3-9-9-9"><tspan
         sodipodi:role="line"
         style="font-size:45px;line-height:1;fill:#ffffff"
         x="1684.1157"
         y="2378.6667"
         id="tspan4529">ah </tspan><tspan
         sodipodi:role="line"
         style="font-size:45px;line-height:1;fill:#ffffff"
         x="1684.1157"
         y="2423.6667"
         id="tspan5176">mukhang </tspan><tspan
         sodipodi:role="line"
         style="font-size:45px;line-height:1;fill:#ffffff"
         x="1684.1157"
         y="2468.6667"
         id="tspan5132">hindi </tspan><tspan
         sodipodi:role="line"
         style="font-size:45px;line-height:1;fill:#ffffff"
         x="1684.1157"
         y="2513.6667"
         id="tspan5166">&quot;nasilaw&quot; </tspan><tspan
         sodipodi:role="line"
         style="font-size:45px;line-height:1;fill:#ffffff"
         x="1684.1157"
         y="2558.6667"
         id="tspan5134">ang mga </tspan><tspan
         sodipodi:role="line"
         style="font-size:45px;line-height:1;fill:#ffffff"
         x="1684.1157"
         y="2603.6667"
         id="tspan5168">madlang </tspan><tspan
         sodipodi:role="line"
         style="font-size:45px;line-height:1;fill:#ffffff"
         x="1676.2056"
         y="2648.6667"
         id="tspan5136">komona</tspan><tspan
         sodipodi:role="line"
         style="font-size:45px;line-height:1;fill:#ffffff"
         x="1684.1157"
         y="2693.6667"
         id="tspan5172">sa mahika </tspan><tspan
         sodipodi:role="line"
         style="font-size:45px;line-height:1;fill:#ffffff"
         x="1684.1157"
         y="2738.6667"
         id="tspan5138">ng ating </tspan><tspan
         sodipodi:role="line"
         style="font-size:45px;line-height:1;fill:#ffffff"
         x="1676.2056"
         y="2783.6667"
         id="tspan5142">kalahok!</tspan><tspan
         sodipodi:role="line"
         style="font-size:45px;line-height:1;fill:#ffffff"
         x="1676.2056"
         y="2802.5752"
         id="tspan5144" /></text>
    <text
       xml:space="preserve"
       style="font-style:normal;font-variant:normal;font-weight:normal;font-stretch:normal;line-height:0%;font-family:Lavi;-inkscape-font-specification:Lavi;text-align:center;letter-spacing:0px;word-spacing:0px;text-anchor:middle;opacity:0.70200004;fill:url(#linearGradient4203);fill-opacity:1;stroke:#ffffff;stroke-width:2.68882608;stroke-linecap:round;stroke-miterlimit:4;stroke-dasharray:none;stroke-opacity:1;filter:url(#filter4375-4-1-1-1-9-5-8-8-8-3)"
       x="1276.0023"
       y="286.89603"
       id="text4246-3-8"
       transform="matrix(1.6804587,0,0,1.6667549,-168.49262,2049.5396)"><tspan
         sodipodi:role="line"
         style="font-style:normal;font-variant:normal;font-weight:normal;font-stretch:normal;font-size:91.25513458px;line-height:1.25;font-family:Fondamento;-inkscape-font-specification:Fondamento;letter-spacing:17.77999878px;fill:url(#linearGradient4203);fill-opacity:1;stroke:#ffffff;stroke-width:2.68882608;stroke-linecap:round;stroke-miterlimit:4;stroke-dasharray:none;stroke-opacity:1"
         x="1304.9219"
         y="286.89603"
         id="tspan4252-5-6"> </tspan><tspan
         sodipodi:role="line"
         style="font-style:normal;font-variant:normal;font-weight:normal;font-stretch:normal;font-size:91.25513458px;line-height:1.25;font-family:Combat;-inkscape-font-specification:Combat;letter-spacing:8.96275425px;fill:url(#linearGradient4203);fill-opacity:1;stroke:#ffffff;stroke-width:2.68882608;stroke-linecap:round;stroke-miterlimit:4;stroke-dasharray:none;stroke-opacity:1"
         x="1280.4836"
         y="406.48062"
         id="tspan5535-8">-42</tspan></text>
    <text
       xml:space="preserve"
       style="font-style:normal;font-variant:normal;font-weight:normal;font-stretch:normal;line-height:0%;font-family:Lavi;-inkscape-font-specification:Lavi;letter-spacing:0px;word-spacing:0px;display:inline;fill:#ffffff;fill-opacity:1;stroke:#ffffff;stroke-width:1.26322591;stroke-miterlimit:4;stroke-dasharray:none;stroke-opacity:1;filter:url(#filter4375-4-1-1-1-9-6-9-2-1-7)"
       x="787.65729"
       y="1584.5073"
       id="text4580-1-7-3-6-9"
       transform="matrix(0.71367437,-0.24008968,-0.13175481,0.92241152,1291.2405,1981.9638)"><tspan
         sodipodi:role="line"
         id="tspan4582-8-5-6-1-3"
         x="787.65729"
         y="1584.5073"
         style="font-size:70px;line-height:1.25;fill:#ffffff;fill-opacity:1;stroke:#ffffff;stroke-width:1.26322591;stroke-miterlimit:4;stroke-dasharray:none;stroke-opacity:1">Boooo!</tspan></text>
    <text
       id="text5078"
       y="987.07971"
       x="747.83667"
       style="font-style:normal;font-variant:normal;font-weight:normal;font-stretch:normal;font-size:10.2551651px;line-height:1;font-family:Lavi;-inkscape-font-specification:Lavi;text-align:center;letter-spacing:0px;word-spacing:0px;text-anchor:middle;display:inline;fill:#ffffff;fill-opacity:1;stroke:none;stroke-width:0.85459709"
       xml:space="preserve"><tspan
         id="tspan5076"
         y="987.07971"
         x="754.59668"
         style="font-size:38.45686722px;line-height:1;fill:#ffffff;stroke-width:0.85459709"
         sodipodi:role="line">Sunod </tspan><tspan
         y="1025.5366"
         x="754.59668"
         style="font-size:38.45686722px;line-height:1;fill:#ffffff;stroke-width:0.85459709"
         sodipodi:role="line"
         id="tspan5094">naman si </tspan><tspan
         y="1063.9935"
         x="747.83667"
         style="font-size:38.45686722px;line-height:1;fill:#ffffff;stroke-width:0.85459709"
         sodipodi:role="line"
         id="tspan5100">Ms.</tspan><tspan
         y="1102.4503"
         x="747.83667"
         style="font-size:38.45686722px;line-height:1;fill:#ffffff;stroke-width:0.85459709"
         sodipodi:role="line"
         id="tspan5162">Shichimi!</tspan><tspan
         y="1118.6095"
         x="747.83667"
         style="font-size:38.45686722px;line-height:1;fill:#ffffff;stroke-width:0.85459709"
         sodipodi:role="line"
         id="tspan5098" /></text>
    <text
       id="text5210"
       y="2914.9131"
       x="2311.3147"
       style="font-style:normal;font-variant:normal;font-weight:normal;font-stretch:normal;line-height:1;font-family:Lavi;-inkscape-font-specification:Lavi;text-align:center;letter-spacing:0px;word-spacing:0px;text-anchor:middle;display:inline;fill:#ffffff;fill-opacity:1;stroke:none"
       xml:space="preserve"><tspan
         id="tspan5204"
         y="2914.9131"
         x="2319.2249"
         style="font-size:45px;line-height:1;fill:#ffffff"
         sodipodi:role="line">Susunod </tspan><tspan
         id="tspan5206"
         y="2959.9131"
         x="2319.2249"
         style="font-size:45px;line-height:1;fill:#ffffff"
         sodipodi:role="line">na si Ms. </tspan><tspan
         y="3004.9131"
         x="2319.2249"
         style="font-size:45px;line-height:1;fill:#ffffff"
         sodipodi:role="line"
         id="tspan5281">Spirulina! </tspan><tspan
         id="tspan5208"
         y="3023.8215"
         x="2311.3147"
         style="font-size:45px;line-height:1;fill:#ffffff"
         sodipodi:role="line" /></text>
    <use
       x="0"
       y="0"
       xlink:href="#text4580-1-7-3-6-9-4-7-0"
       id="use5309"
       transform="translate(1074.8023,-261.62951)"
       width="100%"
       height="100%" />
    <use
       x="0"
       y="0"
       xlink:href="#use5309"
       id="use5311"
       transform="translate(127.27922,235.113)"
       width="100%"
       height="100%" />
    <use
       x="0"
       y="0"
       xlink:href="#text4580-1-7-3-6-9-2-5-6"
       id="use5313"
       transform="translate(1541.4928,245.71961)"
       width="100%"
       height="100%" />
    <use
       x="0"
       y="0"
       xlink:href="#use5311"
       id="use5315"
       transform="translate(889.64466,71.42136)"
       width="100%"
       height="100%"
       inkscape:transform-center-x="-7.1392605"
       inkscape:transform-center-y="-106.55225" />
    <use
       x="0"
       y="0"
       xlink:href="#use5311"
       id="use5317"
       transform="translate(63.639611,-81.317279)"
       width="100%"
       height="100%" />
    <use
       x="0"
       y="0"
       xlink:href="#use5315"
       inkscape:transform-center-x="-7.1392605"
       inkscape:transform-center-y="-106.55225"
       id="use5319"
       transform="translate(-982.5,115)"
       width="100%"
       height="100%" />
    <use
       inkscape:transform-center-y="-106.55225"
       inkscape:transform-center-x="-7.1392605"
       height="100%"
       width="100%"
       transform="translate(340.89466,120.17136)"
       id="use5321"
       xlink:href="#use5311"
       y="0"
       x="0" />
  </g>
  <g
     inkscape:groupmode="layer"
     id="layer4"
     inkscape:label="notes"
     style="display:inline">
    <path
       style="color:#000000;clip-rule:nonzero;display:inline;overflow:visible;visibility:visible;opacity:0.481;isolation:auto;mix-blend-mode:normal;color-interpolation:sRGB;color-interpolation-filters:linearRGB;solid-color:#000000;solid-opacity:1;fill:#ffe680;fill-opacity:1;fill-rule:nonzero;stroke:#565656;stroke-width:1.20000005;stroke-linecap:butt;stroke-linejoin:miter;stroke-miterlimit:4;stroke-dasharray:none;stroke-dashoffset:0;stroke-opacity:1;marker:none;color-rendering:auto;image-rendering:auto;shape-rendering:auto;text-rendering:auto;enable-background:accumulate"
       d="m -453.76586,1080.7442 v 189.0351 h 203.83 v -90.9805 h 10 v 15.6308 l 30.9825,-26.9824 -30.9825,-26.9804 v 16.6171 h -10 v -76.3397 z"
       id="rect4191-6"
       inkscape:connector-curvature="0" />
    <flowRoot
       xml:space="preserve"
       id="flowRoot4212-7"
       style="font-style:normal;font-variant:normal;font-weight:normal;font-stretch:normal;line-height:0.01%;font-family:Lavi;-inkscape-font-specification:'Lavi, Normal';text-align:center;letter-spacing:0px;word-spacing:0px;writing-mode:lr-tb;text-anchor:middle;display:inline;opacity:0.481;fill:#000000;fill-opacity:1;stroke:none;stroke-width:1px;stroke-linecap:butt;stroke-linejoin:miter;stroke-opacity:1"
       transform="translate(-224.07546,72.500608)"><flowRegion
         id="flowRegion4214-5"><rect
           id="rect4216-3"
           width="291.95547"
           height="247.52747"
           x="-275.14545"
           y="1061.6674" /></flowRegion><flowPara
         id="flowPara4218-5"
         style="font-size:25.3241539px;line-height:1.25">Edit this one,</flowPara><flowPara
         id="flowPara4562"
         style="font-size:25.3241539px;line-height:1.25">all others</flowPara><flowPara
         id="flowPara4564"
         style="font-size:25.3241539px;line-height:1.25">are linked</flowPara></flowRoot>    <text
       xml:space="preserve"
       style="font-style:normal;font-variant:normal;font-weight:normal;font-stretch:normal;line-height:0%;font-family:Lavi;-inkscape-font-specification:Lavi;letter-spacing:0px;word-spacing:0px;display:inline;fill:#ffffff;fill-opacity:1;stroke:#ffffff;stroke-width:0.86525804;stroke-miterlimit:4;stroke-dasharray:none;stroke-opacity:1;filter:url(#filter4375-4-1-1-1-9-6-9-2-1)"
       x="787.65729"
       y="1584.5073"
       id="text4580-1-7-3-6"
       transform="matrix(0.96380061,-0.56217228,-0.1779318,1.4896521,-669.59156,-686.85141)"><tspan
         sodipodi:role="line"
         id="tspan4582-8-5-6-1"
         x="787.65729"
         y="1584.5073"
         style="font-size:70px;line-height:1.25;fill:#ffffff;fill-opacity:1;stroke:#ffffff;stroke-width:0.86525804;stroke-miterlimit:4;stroke-dasharray:none;stroke-opacity:1">Clap</tspan></text>
  </g>
</svg>
