<?xml version="1.0" encoding="UTF-8" standalone="no"?>
<!-- Created with Inkscape (http://www.inkscape.org/) -->

<svg
   xmlns:dc="http://purl.org/dc/elements/1.1/"
   xmlns:cc="http://creativecommons.org/ns#"
   xmlns:rdf="http://www.w3.org/1999/02/22-rdf-syntax-ns#"
   xmlns:svg="http://www.w3.org/2000/svg"
   xmlns="http://www.w3.org/2000/svg"
   xmlns:xlink="http://www.w3.org/1999/xlink"
   xmlns:sodipodi="http://sodipodi.sourceforge.net/DTD/sodipodi-0.dtd"
   xmlns:inkscape="http://www.inkscape.org/namespaces/inkscape"
   id="svg2"
   version="1.1"
   inkscape:version="0.92.2 2405546, 2018-03-11"
   width="2481"
   height="3503"
   sodipodi:docname="E27P02.svg">
  <metadata
     id="metadata8">
    <rdf:RDF>
      <cc:Work
         rdf:about="">
        <dc:format>image/svg+xml</dc:format>
        <dc:type
           rdf:resource="http://purl.org/dc/dcmitype/StillImage" />
        <dc:title />
      </cc:Work>
    </rdf:RDF>
  </metadata>
  <defs
     id="defs6" />
  <sodipodi:namedview
     pagecolor="#ffffff"
     bordercolor="#666666"
     borderopacity="1"
     objecttolerance="10"
     gridtolerance="10"
     guidetolerance="10"
     inkscape:pageopacity="0"
     inkscape:pageshadow="2"
     inkscape:window-width="1280"
     inkscape:window-height="761"
     id="namedview4"
     showgrid="false"
     inkscape:zoom="0.4574026"
     inkscape:cx="961.3578"
     inkscape:cy="800.49181"
     inkscape:window-x="0"
     inkscape:window-y="39"
     inkscape:window-maximized="0"
     inkscape:current-layer="layer3"
     inkscape:snap-global="false" />
  <g
     inkscape:groupmode="layer"
     id="layer2"
     inkscape:label="artwork"
     sodipodi:insensitive="true">
    <image
       sodipodi:absref="/home/xhire/projects/peppercarrot/webcomics/new-ep27_Coriander-s-Invention/lang/cs/../gfx_Pepper-and-Carrot_by-David-Revoy_E27P02.png"
       xlink:href="../gfx_Pepper-and-Carrot_by-David-Revoy_E27P02.png"
       y="0"
       x="0"
       id="image10"
       height="3503"
       width="2481" />
  </g>
  <g
     inkscape:groupmode="layer"
     id="layer3"
     inkscape:label="speechbubbles">
    <path
       style="fill:#ffffff;fill-rule:evenodd;stroke:none;stroke-width:1px;stroke-linecap:butt;stroke-linejoin:miter;stroke-opacity:1"
       d="m 460.94747,195.57139 c 5.74488,1.63451 59.91087,0 64.83504,-0.81725 4.92419,-0.81726 41.85554,-7.35529 50.88321,-5.72078 9.02767,1.63451 71.40061,10.6243 82.89037,11.44156 11.48975,0.81725 66.47643,2.45176 76.32479,7.35529 9.84837,4.90352 22.97952,9.80705 30.3658,17.9796 7.38627,8.17254 18.05532,33.50743 17.23462,39.22821 -0.8207,5.72078 -12.31045,44.94899 -18.87602,50.66977 -6.56557,5.72078 -29.54508,24.51763 -36.11066,26.9694 -6.56558,2.45176 -21.33811,8.98979 -28.72439,11.44156 -7.38627,2.45176 -174.80841,4.90352 -195.32583,5.72078 -20.51742,0.81725 -100.12501,-4.90353 -114.07686,-5.72078 -13.95184,-0.81726 -46.77972,1.63451 -68.11782,-6.53804 -21.33813,-8.17254 -36.11067,-38.41095 -42.67624,-44.13174 -6.56558,-5.72078 -18.05533,-30.23841 -17.23463,-39.22821 0.82069,-8.9898 17.23463,-30.23841 25.44159,-32.69017 8.20697,-2.45177 41.85554,-22.88313 61.55226,-26.9694 19.69673,-4.08627 67.29714,-13.89332 76.3248,-13.07607 12.35712,1.64213 11.0589,0.16304 35.28997,4.08627 z"
       id="path1323"
       inkscape:connector-curvature="0"
       sodipodi:nodetypes="ccsscscsscsssccsscc" />
    <path
       style="fill:#ffffff;fill-rule:evenodd;stroke:none;stroke-width:0.99999994px;stroke-linecap:butt;stroke-linejoin:miter;stroke-opacity:1"
       d="m 172.66645,163.77351 c 10.53318,-19.15682 29.62457,-29.0442 39.49941,-31.51605 9.87486,-2.47185 26.33295,3.08981 35.54949,1.85389 50.92326,-8.33197 72.67467,-23.6867 120.68115,3.0898 11.19151,6.79758 23.69965,14.21312 25.67462,21.0107 1.97497,6.79758 6.58324,19.77478 1.97497,30.89809 -4.60826,11.12331 -15.79976,30.28013 -30.28288,32.13401 -57.58989,7.92759 -58.23883,7.92868 -116.0729,8.0335 -10.53318,0 -48.71595,-4.32573 -59.90745,-12.35923 -11.1915,-8.0335 -19.7497,-24.10051 -21.06635,-33.9879 -1.31665,-9.88738 3.94994,-19.15681 3.94994,-19.15681 z"
       id="path1325"
       inkscape:connector-curvature="0"
       sodipodi:nodetypes="csccssccssc" />
    <path
       style="fill:#ffffff;fill-rule:evenodd;stroke:none;stroke-width:1px;stroke-linecap:butt;stroke-linejoin:miter;stroke-opacity:1"
       d="m 544.4243,343.97954 c 6.17962,25.33643 -4.94369,76.0093 4.32573,89.60445 9.26943,13.59516 11.12331,11.74128 19.15682,18.53886 -12.35924,15.44904 -17.92089,33.36993 -16.68497,42.63936 1.23592,9.26942 4.32573,33.36993 35.84178,44.49324 -27.19032,-19.15681 -24.71847,-38.31363 -23.48255,-43.87528 1.23593,-5.56166 6.17962,-34.60586 21.62867,-42.0214 -15.44905,-11.74127 -23.48255,-24.71847 -23.48255,-32.13401 0,-7.41554 8.65146,-82.80688 8.65146,-82.80688 z"
       id="path1327"
       inkscape:connector-curvature="0" />
    <path
       style="fill:#ffffff;fill-rule:evenodd;stroke:none;stroke-width:0.93088484px;stroke-linecap:butt;stroke-linejoin:miter;stroke-opacity:1"
       d="m 1040.6999,97.941783 c -30.1835,15.854037 -58.07438,28.829927 -62.09885,52.082507 -4.02447,23.25258 -15.09177,42.27743 -16.09789,58.13146 -1.00612,15.85404 6.76241,73.69283 13.80523,94.83154 7.04282,21.13872 45.27531,69.75776 50.30581,73.9855 5.0306,4.22774 38.2326,17.9679 54.3305,24.30952 16.0979,6.34162 144.881,10.56935 168.0216,13.74016 23.1408,3.17081 85.5201,-14.7971 101.618,-22.19565 16.0979,-7.39855 38.2325,-10.56936 48.2937,-23.25258 10.0612,-12.68322 33.2019,-46.50517 37.2264,-61.30226 4.0244,-14.7971 4.0244,-65.53001 4.0244,-76.09937 0,-10.56936 -1.0061,-57.07453 -20.1223,-77.1563 -19.1163,-20.08178 -51.3121,-47.56211 -76.4651,-56.01759 -25.1529,-8.455485 -177.0767,-21.138713 -194.1807,-22.195649 -17.1041,-1.056935 -108.6608,21.138712 -108.6608,21.138712 z"
       id="path1329"
       inkscape:connector-curvature="0"
       sodipodi:nodetypes="cssscsscscscssc" />
    <path
       style="fill:#ffffff;fill-rule:evenodd;stroke:none;stroke-width:0.77159274px;stroke-linecap:butt;stroke-linejoin:miter;stroke-opacity:1"
       d="m 1062.5108,367.63721 c -23.5293,12.29603 -49.7736,23.82357 -55.2035,32.27709 -5.4298,8.45352 -12.66962,31.50857 -9.0498,42.26761 3.62,10.75903 15.3847,55.33215 28.9593,63.78567 13.5746,8.45352 57.0136,34.58259 78.733,34.58259 21.7194,0 91.4025,9.99052 103.1673,9.22202 11.7646,-0.7685 87.7826,8.45352 107.6922,0.7685 19.9094,-7.68502 45.2487,-21.51805 60.6334,-26.12907 15.3844,-4.611 52.4885,-6.91651 63.3482,-23.82356 10.8598,-16.90704 15.7192,-47.09692 7.2399,-69.16519 -8.2009,-21.34346 -25.3393,-39.96209 -52.4887,-51.48963 -27.1492,-11.52752 -114.027,-36.88809 -114.027,-36.88809 l -130.3165,-9.99053 c 0,0 -20.8145,6.91652 -42.534,16.90704 -21.7194,9.99053 -46.1538,17.67555 -46.1538,17.67555 z"
       id="path1331"
       inkscape:connector-curvature="0"
       sodipodi:nodetypes="csccsccccasccsc" />
    <path
       style="fill:#ffffff;fill-rule:evenodd;stroke:none;stroke-width:1px;stroke-linecap:butt;stroke-linejoin:miter;stroke-opacity:1"
       d="m 1347.7643,510.52805 c 0,0 27.0205,22.6972 35.667,37.82867 8.6466,15.13146 27.0205,36.74784 22.6972,76.73814 10.8082,-51.87931 10.8082,-67.01077 -20.5355,-116.72844 -31.3438,-49.71768 -37.8287,2.16163 -37.8287,2.16163 z"
       id="path1333"
       inkscape:connector-curvature="0" />
    <path
       style="fill:#ffffff;fill-rule:evenodd;stroke:none;stroke-width:0.97180623px;stroke-linecap:butt;stroke-linejoin:miter;stroke-opacity:1"
       d="m 1650.2317,207.15882 c 10.5646,-46.74643 14.0861,-74.01519 38.7368,-90.89585 24.6507,-16.880663 125.6013,-31.164293 139.6874,-32.462803 14.0861,-1.29851 56.3444,3.89554 76.2998,3.89554 19.9554,0 123.2536,-2.59703 139.6874,-2.59703 16.4338,0 83.3429,0 100.9506,2.59703 17.6076,2.59702 79.8212,18.179163 90.3859,29.865783 10.5646,11.6866 41.0844,61.03006 42.2583,93.49287 1.1739,32.4628 -1.1739,85.7018 -22.303,106.47799 -21.1292,20.77619 -70.4307,46.74643 -103.2983,54.53751 -32.8675,7.79107 -193.6841,16.88065 -212.4655,16.88065 -18.7816,0 -98.6029,3.89554 -137.3397,-2.59702 -38.7369,-6.49256 -80.9953,-25.97024 -100.9505,-44.14941 -19.9554,-18.17918 -44.6062,-31.16429 -51.6492,-66.22412 -7.043,-35.05983 0,-68.82114 0,-68.82114 z"
       id="path1335"
       inkscape:connector-curvature="0" />
    <path
       style="fill:#ffffff;fill-rule:evenodd;stroke:none;stroke-width:1.0247823px;stroke-linecap:butt;stroke-linejoin:miter;stroke-opacity:1"
       d="m 1708.162,421.82107 c 33.6709,30.4491 52.454,54.40629 -13.9593,92.335 60.136,-0.83292 53.3279,22.94022 41.878,52.12457 81.8746,-23.56191 139.2067,-8.47587 147.3488,37.23185 53.7492,-36.88907 61.8849,-30.27453 102.3685,-1.48927 48.5049,-57.0754 76.6218,-17.7783 111.6748,-11.91419 -7.199,-26.34569 16.5576,-50.2472 76.4617,-11.68867 -21.5027,-21.60619 -12.9885,-75.49812 69.3361,-79.15703 -36.9011,-12.4581 -89.5862,-25.75483 -27.9187,-78.93152 -94.9984,-10.27757 -48.8923,-31.27041 -63.5926,-47.65677 l -138.0426,-14.89274 -139.5934,8.93564 -71.3478,5.9571 c -1.7264,23.40344 5.4836,48.9551 -94.6135,49.14603 z"
       id="path1337"
       inkscape:connector-curvature="0"
       sodipodi:nodetypes="cccccccccccccc" />
    <path
       style="fill:#ffffff;fill-rule:evenodd;stroke:none;stroke-width:1px;stroke-linecap:butt;stroke-linejoin:miter;stroke-opacity:1"
       d="m 2093.0945,562.59641 c 24.8588,19.45474 57.2834,63.76832 55.1217,92.95043 10.8082,-38.90948 -17.2931,-97.27371 -31.3437,-112.40517 -14.0507,-15.13147 -23.778,19.45474 -23.778,19.45474 z"
       id="path1339"
       inkscape:connector-curvature="0" />
    <path
       style="fill:#ffffff;fill-rule:evenodd;stroke:none;stroke-width:1px;stroke-linecap:butt;stroke-linejoin:miter;stroke-opacity:1"
       d="m 890.21141,1438.6648 c 10.99475,-34.2595 32.98428,-50.6446 62.82721,-59.5818 29.84293,-8.9372 108.37698,1.4895 128.79578,1.4895 20.4188,0 102.0943,7.4477 113.089,19.3641 10.9948,11.9164 37.6963,37.2387 29.8429,64.0505 -7.8534,26.8118 -17.2775,53.6236 -59.6858,68.519 -42.4084,14.8954 -81.6754,0 -97.3823,1.4896 -15.7068,1.4895 -36.1256,8.9372 -80.10461,1.4895 -43.97905,-7.4477 -100.52356,-46.1759 -97.38218,-96.8204 z"
       id="path1341"
       inkscape:connector-curvature="0" />
    <path
       style="fill:#ffffff;fill-rule:evenodd;stroke:none;stroke-width:1px;stroke-linecap:butt;stroke-linejoin:miter;stroke-opacity:1"
       d="m 1321.8416,1549.9601 c -25.1103,-26.3097 -29.3743,-46.7563 -36.94,-53.2412 -7.5658,-6.4849 -52.768,-40.79 -87.3542,-44.0325 -34.5862,-3.2424 -28.1013,24.8589 -28.1013,24.8589 0,0 36.7479,1.0808 51.8793,5.4041 15.1315,4.3232 48.6369,20.5355 54.041,24.8588 5.4041,4.3233 19.4547,27.0205 46.4752,42.1519 z"
       id="path1343"
       inkscape:connector-curvature="0"
       sodipodi:nodetypes="cccccsc" />
    <path
       style="fill:#ffffff;fill-rule:evenodd;stroke:none;stroke-width:1px;stroke-linecap:butt;stroke-linejoin:miter;stroke-opacity:1"
       d="m 1847.0115,1634.8585 c 65.8759,-41.0171 79.5483,-53.4465 129.266,-55.9324 49.7176,-2.4859 59.6612,-29.8306 59.6612,-29.8306 0,0 -34.8024,-1.243 -72.0906,6.2147 -37.2883,7.4576 -95.7066,37.2882 -116.8366,79.5483 z"
       id="path1345"
       inkscape:connector-curvature="0" />
    <path
       style="fill:#ffffff;fill-rule:evenodd;stroke:none;stroke-width:0.97374648px;stroke-linecap:butt;stroke-linejoin:miter;stroke-opacity:1"
       d="m 1968.296,1512.5911 c 18.8365,-22.1242 67.2735,-45.6312 96.8737,-49.7795 29.6002,-4.1482 123.7831,5.5311 143.9651,17.9759 20.182,12.4449 61.8916,22.1243 60.546,62.2244 -1.3454,40.1001 5.3819,58.0761 -25.5638,80.2002 -30.9458,22.1243 -139.9287,16.5932 -164.147,15.2104 -24.2186,-1.3826 -69.9645,-6.9137 -94.1829,-31.8035 -24.2184,-24.8897 -34.9822,-51.1622 -17.4911,-94.0279 z"
       id="path1347"
       inkscape:connector-curvature="0" />
    <path
       style="fill:#ffffff;fill-rule:evenodd;stroke:none;stroke-width:1.02526343px;stroke-linecap:butt;stroke-linejoin:miter;stroke-opacity:1"
       d="m 502.04988,2537.5495 c 1.23057,-25.0744 15.9973,-71.0445 38.14744,-79.4027 22.15012,-8.3582 83.67821,-8.3582 95.98384,-4.179 12.30562,4.179 31.99463,34.8256 36.91687,47.3629 4.92226,12.5374 18.45844,57.1143 -3.69168,75.2237 -22.15012,18.1095 -44.30025,32.0398 -67.68093,30.6467 -23.38069,-1.393 -70.14205,-11.1442 -81.21711,-27.8606 -11.07506,-16.7164 -18.45843,-41.791 -18.45843,-41.791 z"
       id="path1355"
       inkscape:connector-curvature="0" />
    <path
       style="fill:#ffffff;fill-rule:evenodd;stroke:none;stroke-width:1.04522061px;stroke-linecap:butt;stroke-linejoin:miter;stroke-opacity:1"
       d="m 371.03351,2688.9055 c 0,0 10.62431,8.0355 12.25882,25.8922 1.63451,17.8568 -0.81725,38.3922 -13.89333,59.8203 28.60391,-35.7136 43.31449,-60.7131 34.32469,-91.0696 -8.9898,-30.3565 -32.69018,5.3571 -32.69018,5.3571 z"
       id="path1357"
       inkscape:connector-curvature="0" />
    <path
       style="fill:#ffffff;fill-rule:evenodd;stroke:none;stroke-width:1px;stroke-linecap:butt;stroke-linejoin:miter;stroke-opacity:1"
       d="m 611.59649,2593.9727 c 0,0 17.16235,24.5177 9.80706,38.411 -7.35529,13.8933 -8.9898,18.7968 -25.33489,35.1419 26.9694,-17.9796 37.5937,-31.0556 40.86272,-43.3145 3.26902,-12.2588 5.72078,-35.9592 5.72078,-42.4972 0,-6.538 -31.05567,12.2588 -31.05567,12.2588 z"
       id="path1359"
       inkscape:connector-curvature="0" />
    <path
       style="fill:#ffffff;fill-rule:evenodd;stroke:none;stroke-width:1.03840244px;stroke-linecap:butt;stroke-linejoin:miter;stroke-opacity:1"
       d="m 694.95926,2512.588 c -10.50321,-45.6534 -11.4944,-95.6305 2.15978,-107.5871 5.31872,-27.9572 69.44722,-67.723 93.69684,-61.8132 18.90579,-4.348 131.60838,-21.7639 151.56449,-19.5899 19.95611,2.1739 132.23553,4.9457 153.24183,24.5114 21.0065,19.5657 38.2843,30.5986 50.8882,51.2514 12.6039,20.6526 19.7986,61.3602 26.1006,67.882 6.3018,6.522 3.9911,38.9683 -1.2606,57.4471 -5.2516,18.4787 -24.1574,33.6965 -51.4657,40.2183 -27.3084,6.5221 -64.0697,15.2178 -88.227,16.3049 -24.1574,1.087 -79.82444,1.087 -121.83729,-2.1739 -50.0242,-10.1926 -81.15643,-10.4528 -131.05454,-15.1072 -9.4529,-1.0869 -81.70596,-21.9953 -83.80661,-51.3438 z"
       id="path1361"
       inkscape:connector-curvature="0"
       sodipodi:nodetypes="ccccccccccccc" />
    <path
       style="fill:#ffffff;fill-rule:evenodd;stroke:none;stroke-width:1px;stroke-linecap:butt;stroke-linejoin:miter;stroke-opacity:1"
       d="m 1362.7766,2499.8218 c -0.8172,-27.7867 20.4314,-32.6902 31.8729,-34.3247 11.4416,-1.6345 58.8423,-9.807 76.8219,3.269 17.9796,13.0761 22.8832,35.142 14.7106,43.3145 -8.1725,8.1726 -34.3247,20.4314 -50.6698,21.2486 -16.345,0.8173 -51.487,-4.0862 -62.9285,-15.5278 -11.4416,-11.4416 -9.8071,-17.9796 -9.8071,-17.9796 z"
       id="path1365"
       inkscape:connector-curvature="0" />
    <path
       style="fill:#ffffff;fill-rule:evenodd;stroke:none;stroke-width:1px;stroke-linecap:butt;stroke-linejoin:miter;stroke-opacity:1"
       d="m 1445.7231,2523.112 c 0,0 19.6141,10.6243 24.5176,19.6141 4.9035,8.9898 13.0761,31.0556 8.9898,45.7662 13.0761,-26.1521 8.1725,-42.4972 4.9035,-49.8525 -3.269,-7.3553 -23.7004,-34.3247 -23.7004,-34.3247 z"
       id="path1367"
       inkscape:connector-curvature="0" />
    <path
       style="fill:#ffffff;fill-rule:evenodd;stroke:none;stroke-width:0.95664841px;stroke-linecap:butt;stroke-linejoin:miter;stroke-opacity:1"
       d="m 1854.5414,2455.1288 c 3.481,-50.78 25.2371,-66.3249 40.0313,-73.5792 14.7942,-7.2543 75.7113,-17.6175 96.5972,-16.5812 20.8859,1.0363 98.3377,11.3996 111.3913,12.4359 13.0538,1.0364 46.1231,24.8718 48.7338,31.0898 2.6108,6.2179 13.924,22.7992 10.4429,41.4531 -3.4809,18.6538 -23.4966,43.5257 -42.642,52.8526 -19.1454,9.327 -95.7268,16.5812 -110.5211,14.5086 -14.7942,-2.0726 -40.0312,-5.1816 -54.8254,-5.1816 -14.7942,0 -61.7874,-1.0364 -73.9709,-12.4359 -12.1834,-11.3996 -25.2371,-44.5621 -25.2371,-44.5621 z"
       id="path1369"
       inkscape:connector-curvature="0" />
    <path
       style="fill:#ffffff;fill-rule:evenodd;stroke:none;stroke-width:1px;stroke-linecap:butt;stroke-linejoin:miter;stroke-opacity:1"
       d="m 1988.5393,2507.5657 c 15.6768,24.1512 6.1632,34.5534 -20.368,35.6671 20.5199,9.9586 46.1337,15.5923 40.7359,47.556 22.7818,-0.375 37.1938,-19.937 73.551,10.8082 21.4995,-25.3561 42.999,-13.281 64.4986,-2.1617 10.3119,-11.3113 29.2981,-12.0311 69.0248,-6.4849 -3.0677,-25.0109 21.8624,-36.1565 45.2622,-44.3136 -19.8128,-13.1763 -37.659,-27.5479 -24.8943,-60.5258 -28.7916,7.2773 -53.0033,6.6803 -66.7616,-11.889 -28.5646,4.157 -50.0209,21.8927 -89.3928,5.4041 -21.2019,19.9279 -44.8336,21.2885 -69.0248,18.3739 5.5129,17.7643 -0.9947,21.4958 -22.631,7.5657 z"
       id="path1371"
       inkscape:connector-curvature="0"
       sodipodi:nodetypes="cccccccccccc" />
    <path
       style="fill:#ffffff;fill-rule:evenodd;stroke:none;stroke-width:1px;stroke-linecap:butt;stroke-linejoin:miter;stroke-opacity:1"
       d="m 2142.1832,2571.3341 c -3.2425,28.1012 8.6465,79.9806 34.5862,113.4859 -3.2425,16.2123 1.0808,33.5054 15.1315,47.5561 -12.9699,-29.1821 -7.5658,-36.7479 -1.0809,-50.7985 -12.9698,-20.5356 -31.3437,-69.1724 -34.5862,-109.1627 -3.2424,-39.9903 -14.0506,-1.0808 -14.0506,-1.0808 z"
       id="path1373"
       inkscape:connector-curvature="0" />
    <path
       style="fill:#ffffff;fill-rule:evenodd;stroke:none;stroke-width:1.02066159px;stroke-linecap:butt;stroke-linejoin:miter;stroke-opacity:1"
       d="m 2005.3565,1655.9881 c 20.7174,-34.8024 71.216,-47.2318 82.8695,-47.2318 11.6535,0 102.2919,7.4576 119.1247,7.4576 16.833,0 51.7934,-7.4576 71.2159,-4.9717 19.4226,2.4859 55.6779,0 71.216,24.8588 15.5379,24.8588 27.1914,79.5483 23.307,103.1642 -3.8844,23.6159 5.1793,54.6894 -11.6535,90.7347 -16.8328,36.0453 -23.307,49.7177 -47.9089,60.9042 -24.6019,11.1865 -141.137,6.2147 -167.0336,2.4859 -25.8968,-3.7289 -76.3953,0 -98.4075,-6.2147 -22.0122,-6.2148 -56.9727,-27.3448 -51.7935,-53.4465 5.1795,-26.1018 -9.0638,-49.7177 -2.5896,-94.4636 6.4743,-44.7459 11.6535,-83.2771 11.6535,-83.2771 z"
       id="path1349"
       inkscape:connector-curvature="0" />
    <path
       style="fill:#ffffff;fill-rule:evenodd;stroke:none;stroke-width:1px;stroke-linecap:butt;stroke-linejoin:miter;stroke-opacity:1"
       d="m 1054.8645,2553.6612 c 40.4132,37.5937 65.789,69.5483 47.932,102.4428 29.1351,-35.714 14.0976,-69.5483 -24.4359,-117.4803 -38.5336,-47.932 -23.4961,15.0375 -23.4961,15.0375 z"
       id="path1363"
       inkscape:connector-curvature="0" />
    <path
       style="fill:#ffffff;fill-rule:evenodd;stroke:none;stroke-width:0.99999994px;stroke-linecap:butt;stroke-linejoin:miter;stroke-opacity:1"
       d="m 110.76637,2399.1148 c 0,-35.8207 25.87264,-41.7908 42.74609,-41.7908 16.87346,0 71.9934,-4.7762 79.86769,-4.7762 7.87428,0 66.36892,7.1642 76.493,13.1343 10.12407,5.9701 25.87262,10.7462 23.62284,32.2386 -2.2498,21.4925 0,33.4327 -22.49794,39.4028 -22.49795,5.9702 -110.23992,8.3582 -125.98848,7.1642 -15.74855,-1.194 -39.37139,-10.7463 -50.62036,-17.9104 -11.24897,-7.1641 -25.87264,-9.5522 -23.62284,-27.4625 z"
       id="path1351"
       inkscape:connector-curvature="0" />
    <path
       style="fill:#ffffff;fill-rule:evenodd;stroke:none;stroke-width:0.97067422px;stroke-linecap:butt;stroke-linejoin:miter;stroke-opacity:1"
       d="m 301.11426,2417.9923 c 48.1578,-12.6006 82.2039,-9.6115 96.44437,-7.7421 14.9867,1.9673 52.96013,13.5874 64.84914,23.7709 11.889,10.1836 27.05014,30.8156 25.96932,43.0359 -1.08082,12.2203 6.91442,45.7982 5.8336,62.0919 -1.08082,16.2937 -12.59967,72.3312 -20.1654,95.7534 -7.56574,23.4222 -25.93966,50.9178 -107.00108,56.0096 -81.06141,5.0918 -130.77908,3.0551 -162.12283,-5.0918 -31.34375,-8.1468 -71.33406,-13.2386 -82.14225,-51.9361 -10.80819,-38.6976 -14.05064,-82.487 -10.80819,-100.8173 3.24246,-18.3305 6.48492,-59.0647 10.80819,-66.1933 4.32328,-7.1285 17.38212,-34.8889 27.10949,-40.9991 9.72737,-6.1101 151.22564,-7.882 151.22564,-7.882 z"
       id="path1353"
       inkscape:connector-curvature="0"
       sodipodi:nodetypes="csssscscsscsc" />
  </g>
  <g
     inkscape:groupmode="layer"
     id="layer1"
     inkscape:label="txt">
    <text
       xml:space="preserve"
       style="font-style:normal;font-variant:normal;font-weight:normal;font-stretch:normal;line-height:0%;font-family:Lavi;-inkscape-font-specification:Lavi;text-align:center;letter-spacing:0px;word-spacing:0px;text-anchor:middle;fill:#000000;fill-opacity:1;stroke:none"
       x="287.82007"
       y="193.67375"
       id="text4246"><tspan
         sodipodi:role="line"
         style="font-size:45px;line-height:1.20000005"
         x="287.82007"
         y="193.67375"
         id="tspan4252">Víte…</tspan></text>
    <text
       xml:space="preserve"
       style="font-style:normal;font-variant:normal;font-weight:normal;font-stretch:normal;line-height:0%;font-family:Lavi;-inkscape-font-specification:Lavi;text-align:center;letter-spacing:0px;word-spacing:0px;text-anchor:middle;fill:#000000;fill-opacity:1;stroke:none"
       x="524.95502"
       y="267.4567"
       id="text4246-3"><tspan
         sodipodi:role="line"
         style="font-size:45px;line-height:1.20000005"
         x="531.98627"
         y="267.4567"
         id="tspan4252-6">zase jsem přemýšlela </tspan><tspan
         sodipodi:role="line"
         style="font-size:45px;line-height:1.20000005"
         x="524.95502"
         y="321.4567"
         id="tspan841">nad bezpečností…</tspan></text>
    <text
       xml:space="preserve"
       style="font-style:normal;font-variant:normal;font-weight:normal;font-stretch:normal;line-height:0%;font-family:Lavi;-inkscape-font-specification:Lavi;text-align:center;letter-spacing:0px;word-spacing:0px;text-anchor:middle;fill:#000000;fill-opacity:1;stroke:none"
       x="1202.0035"
       y="185.78487"
       id="text4246-3-7"><tspan
         sodipodi:role="line"
         style="font-size:45px;line-height:1.20000005"
         x="1202.0035"
         y="185.78487"
         id="tspan841-3">Tolik mladých králů</tspan><tspan
         sodipodi:role="line"
         style="font-size:45px;line-height:1.20000005"
         x="1202.0035"
         y="239.78487"
         id="tspan3492">a královen bylo</tspan><tspan
         sodipodi:role="line"
         style="font-size:45px;line-height:1.20000005"
         x="1202.0035"
         y="293.78488"
         id="tspan3494">zavražděno během</tspan><tspan
         sodipodi:role="line"
         style="font-size:45px;line-height:1.20000005"
         x="1202.0035"
         y="347.78488"
         id="tspan872">své korunovace.</tspan></text>
    <text
       xml:space="preserve"
       style="font-style:normal;font-variant:normal;font-weight:normal;font-stretch:normal;line-height:0%;font-family:Lavi;-inkscape-font-specification:Lavi;text-align:center;letter-spacing:0px;word-spacing:0px;text-anchor:middle;fill:#000000;fill-opacity:1;stroke:none"
       x="1224.4489"
       y="449.3392"
       id="text4246-3-7-7"><tspan
         sodipodi:role="line"
         style="font-size:45px;line-height:1.20000005"
         x="1224.4489"
         y="449.3392"
         id="tspan952">Historie naší rodiny</tspan><tspan
         sodipodi:role="line"
         style="font-size:45px;line-height:1.20000005"
         x="1224.4489"
         y="503.33923"
         id="tspan746">je toho plná.</tspan></text>
    <text
       xml:space="preserve"
       style="font-style:normal;font-variant:normal;font-weight:normal;font-stretch:normal;line-height:0%;font-family:Lavi;-inkscape-font-specification:Lavi;text-align:center;letter-spacing:0px;word-spacing:0px;text-anchor:middle;fill:#000000;fill-opacity:1;stroke:none"
       x="1958.4364"
       y="172.94882"
       id="text4246-3-7-7-6"><tspan
         sodipodi:role="line"
         style="font-size:45px;line-height:1.20000005"
         x="1958.4364"
         y="172.94882"
         id="tspan996">A teď tady budeme mít</tspan><tspan
         sodipodi:role="line"
         style="font-size:45px;line-height:1.20000005"
         x="1958.4364"
         y="226.94882"
         id="tspan4201">za pár hodin tisíce hostů</tspan><tspan
         sodipodi:role="line"
         style="font-size:45px;line-height:1.20000005"
         x="1958.4364"
         y="280.94882"
         id="tspan4205">z celého světa a já budu</tspan><tspan
         sodipodi:role="line"
         style="font-size:45px;line-height:1.20000005"
         x="1958.4364"
         y="334.94882"
         id="tspan4209">středem pozornosti.</tspan></text>
    <text
       xml:space="preserve"
       style="font-style:normal;font-variant:normal;font-weight:normal;font-stretch:normal;line-height:0%;font-family:Lavi;-inkscape-font-specification:Lavi;text-align:center;letter-spacing:0px;word-spacing:0px;text-anchor:middle;fill:#000000;fill-opacity:1;stroke:none"
       x="1063.3418"
       y="1445.7167"
       id="text4246-3-7-7-6-7"><tspan
         sodipodi:role="line"
         style="font-size:45px;line-height:1.20000005"
         x="1070.373"
         y="1445.7167"
         id="tspan1067">Neboj se, </tspan><tspan
         sodipodi:role="line"
         style="font-size:45px;line-height:1.20000005"
         x="1063.3418"
         y="1499.7167"
         id="tspan3420">Koriandro.</tspan></text>
    <text
       xml:space="preserve"
       style="font-style:normal;font-variant:normal;font-weight:normal;font-stretch:normal;line-height:0%;font-family:Lavi;-inkscape-font-specification:Lavi;text-align:center;letter-spacing:0px;word-spacing:0px;text-anchor:middle;fill:#000000;fill-opacity:1;stroke:none"
       x="1959.3252"
       y="463.72366"
       id="text4246-3-7-7-6-7-7"><tspan
         sodipodi:role="line"
         style="font-size:45px;line-height:1.20000005"
         x="1959.3252"
         y="463.72366"
         id="tspan3522">A já se opravdu</tspan><tspan
         sodipodi:role="line"
         style="font-size:45px;line-height:1.20000005"
         x="1959.3252"
         y="517.72369"
         id="tspan1042-9">hrozně moc bojím!</tspan></text>
    <text
       xml:space="preserve"
       style="font-style:normal;font-variant:normal;font-weight:normal;font-stretch:normal;line-height:0%;font-family:Lavi;-inkscape-font-specification:Lavi;text-align:center;letter-spacing:0px;word-spacing:0px;text-anchor:middle;fill:#000000;fill-opacity:1;stroke:none"
       x="2118.5024"
       y="1535.4182"
       id="text4246-3-7-7-6-7-2"><tspan
         sodipodi:role="line"
         style="font-size:45px;line-height:1.20000005"
         x="2118.5024"
         y="1535.4182"
         id="tspan3438">Vždyť</tspan><tspan
         sodipodi:role="line"
         style="font-size:45px;line-height:1.20000005"
         x="2118.5024"
         y="1589.4182"
         id="tspan1092">máme plán.</tspan></text>
    <text
       xml:space="preserve"
       style="font-style:normal;font-variant:normal;font-weight:normal;font-stretch:normal;line-height:0%;font-family:Lavi;-inkscape-font-specification:Lavi;text-align:center;letter-spacing:0px;word-spacing:0px;text-anchor:middle;fill:#000000;fill-opacity:1;stroke:none"
       x="2184.7373"
       y="1693.4915"
       id="text4246-3-7-7-6-7-2-9"><tspan
         sodipodi:role="line"
         style="font-size:45px;line-height:1.20000005"
         x="2184.7373"
         y="1693.4915"
         id="tspan1092-3">Spolu s Šičimi ti</tspan><tspan
         sodipodi:role="line"
         style="font-size:45px;line-height:1.20000005"
         x="2184.7373"
         y="1747.4915"
         id="tspan3422">přece budeme</tspan><tspan
         sodipodi:role="line"
         style="font-size:45px;line-height:1.20000005"
         x="2184.7373"
         y="1801.4915"
         id="tspan1121">dělat ochranku,</tspan><tspan
         sodipodi:role="line"
         style="font-size:45px;line-height:1.20000005"
         x="2184.7373"
         y="1855.4915"
         id="tspan3436">pamatuješ?</tspan></text>
    <text
       xml:space="preserve"
       style="font-style:normal;font-variant:normal;font-weight:normal;font-stretch:normal;line-height:0%;font-family:Lavi;-inkscape-font-specification:Lavi;text-align:center;letter-spacing:0px;word-spacing:0px;text-anchor:middle;fill:#000000;fill-opacity:1;stroke:none"
       x="225.04776"
       y="2412.8384"
       id="text4246-3-7-7-6-7-2-9-6"><tspan
         sodipodi:role="line"
         style="font-size:45px;line-height:1.20000005"
         x="225.04776"
         y="2412.8384"
         id="tspan1121-3">Přesně.</tspan></text>
    <text
       xml:space="preserve"
       style="font-style:normal;font-variant:normal;font-weight:normal;font-stretch:normal;line-height:0%;font-family:Lavi;-inkscape-font-specification:Lavi;text-align:center;letter-spacing:0px;word-spacing:0px;text-anchor:middle;fill:#000000;fill-opacity:1;stroke:none"
       x="298.60907"
       y="2479.4478"
       id="text4246-3-7-7-6-7-2-9-6-1"><tspan
         sodipodi:role="line"
         style="font-size:45px;line-height:1.20000005"
         x="298.60907"
         y="2479.4478"
         id="tspan5805">Co kdyby sis</tspan><tspan
         sodipodi:role="line"
         style="font-size:45px;line-height:1.20000005"
         x="298.60907"
         y="2533.4478"
         id="tspan5811">dala na chvíli</tspan><tspan
         sodipodi:role="line"
         style="font-size:45px;line-height:1.20000005"
         x="298.60907"
         y="2587.4478"
         id="tspan5815">pauzu a myslela</tspan><tspan
         sodipodi:role="line"
         style="font-size:45px;line-height:1.20000005"
         x="298.60907"
         y="2641.4478"
         id="tspan5817">na něco jiného?</tspan></text>
    <text
       xml:space="preserve"
       style="font-style:normal;font-variant:normal;font-weight:normal;font-stretch:normal;line-height:0%;font-family:Lavi;-inkscape-font-specification:Lavi;text-align:center;letter-spacing:0px;word-spacing:0px;text-anchor:middle;fill:#000000;fill-opacity:1;stroke:none"
       x="594.54846"
       y="2509.8782"
       id="text4246-3-7-7-6-7-2-9-6-1-4"><tspan
         sodipodi:role="line"
         style="font-size:45px;line-height:1.20000005"
         x="601.57971"
         y="2509.8782"
         id="tspan3478">Tak </tspan><tspan
         sodipodi:role="line"
         style="font-size:45px;line-height:1.20000005"
         x="594.54846"
         y="2563.8782"
         id="tspan3482">dobře.</tspan></text>
    <text
       xml:space="preserve"
       style="font-style:normal;font-variant:normal;font-weight:normal;font-stretch:normal;line-height:0%;font-family:Lavi;-inkscape-font-specification:Lavi;text-align:center;letter-spacing:0px;word-spacing:0px;text-anchor:middle;fill:#000000;fill-opacity:1;stroke:none"
       x="924.10059"
       y="2415.3877"
       id="text4246-3-7-7-6-7-2-9-6-1-4-3"><tspan
         sodipodi:role="line"
         style="font-size:45px;line-height:1.20000005"
         x="931.13184"
         y="2415.3877"
         id="tspan3450">Hele! A co kdybych </tspan><tspan
         sodipodi:role="line"
         style="font-size:45px;line-height:1.20000005"
         x="931.13184"
         y="2469.3877"
         id="tspan3452">vám ukázala svůj </tspan><tspan
         sodipodi:role="line"
         style="font-size:45px;line-height:1.20000005"
         x="924.10059"
         y="2523.3877"
         id="tspan3490">nejnovější vynález?</tspan></text>
    <text
       xml:space="preserve"
       style="font-style:normal;font-variant:normal;font-weight:normal;font-stretch:normal;line-height:0%;font-family:Lavi;-inkscape-font-specification:Lavi;text-align:center;letter-spacing:0px;word-spacing:0px;text-anchor:middle;fill:#000000;fill-opacity:1;stroke:none"
       x="1429.6105"
       y="2501.0703"
       id="text4246-3-7-7-6-7-2-9-6-1-4-3-1"><tspan
         sodipodi:role="line"
         style="font-size:45px;line-height:1.20000005"
         x="1429.6105"
         y="2501.0703"
         id="tspan1249-3">...</tspan></text>
    <text
       xml:space="preserve"
       style="font-style:normal;font-variant:normal;font-weight:normal;font-stretch:normal;line-height:0%;font-family:Lavi;-inkscape-font-specification:Lavi;text-align:center;letter-spacing:0px;word-spacing:0px;text-anchor:middle;fill:#000000;fill-opacity:1;stroke:none"
       x="2007.354"
       y="2424.9421"
       id="text4246-3-7-7-6-7-2-9-6-1-4-3-1-2"><tspan
         sodipodi:role="line"
         style="font-size:45px;line-height:1.20000005"
         x="2014.3853"
         y="2424.9421"
         id="tspan1298">Je dole </tspan><tspan
         sodipodi:role="line"
         style="font-size:45px;line-height:1.20000005"
         x="2007.354"
         y="2478.9421"
         id="tspan3456">v mé dílně.</tspan></text>
    <text
       xml:space="preserve"
       style="font-style:normal;font-variant:normal;font-weight:normal;font-stretch:normal;line-height:0%;font-family:Lavi;-inkscape-font-specification:Lavi;text-align:center;letter-spacing:0px;word-spacing:0px;text-anchor:middle;fill:#000000;fill-opacity:1;stroke:none"
       x="2118.0996"
       y="2553.5225"
       id="text4246-3-7-7-6-7-2-9-6-1-4-3-1-2-6"><tspan
         sodipodi:role="line"
         style="font-size:45px;line-height:1.20000005"
         x="2118.0996"
         y="2553.5225"
         id="tspan1298-5">Pojďte.</tspan></text>
    <flowRoot
       xml:space="preserve"
       id="flowRoot3470"
       style="font-style:normal;font-weight:normal;line-height:0.01%;font-family:sans-serif;letter-spacing:0px;word-spacing:0px;fill:#000000;fill-opacity:1;stroke:none;stroke-width:1px;stroke-linecap:butt;stroke-linejoin:miter;stroke-opacity:1"><flowRegion
         id="flowRegion3472"><rect
           id="rect3474"
           width="0"
           height="45.911415"
           x="393.5264"
           y="2586.958" /></flowRegion><flowPara
         id="flowPara3476"
         style="font-size:40px;line-height:1.25">z</flowPara></flowRoot>  </g>
</svg>
