<?xml version="1.0" encoding="UTF-8" standalone="no"?>
<!-- Created with Inkscape (http://www.inkscape.org/) -->

<svg
   xmlns:dc="http://purl.org/dc/elements/1.1/"
   xmlns:cc="http://creativecommons.org/ns#"
   xmlns:rdf="http://www.w3.org/1999/02/22-rdf-syntax-ns#"
   xmlns:svg="http://www.w3.org/2000/svg"
   xmlns="http://www.w3.org/2000/svg"
   xmlns:xlink="http://www.w3.org/1999/xlink"
   xmlns:sodipodi="http://sodipodi.sourceforge.net/DTD/sodipodi-0.dtd"
   xmlns:inkscape="http://www.inkscape.org/namespaces/inkscape"
   id="svg2"
   version="1.1"
   inkscape:version="0.92.3 (2405546, 2018-03-11)"
   width="2481"
   height="3503"
   sodipodi:docname="E25P09.svg">
  <metadata
     id="metadata8">
    <rdf:RDF>
      <cc:Work
         rdf:about="">
        <dc:format>image/svg+xml</dc:format>
        <dc:type
           rdf:resource="http://purl.org/dc/dcmitype/StillImage" />
        <dc:title />
      </cc:Work>
    </rdf:RDF>
  </metadata>
  <defs
     id="defs6" />
  <sodipodi:namedview
     pagecolor="#ffffff"
     bordercolor="#666666"
     borderopacity="1"
     objecttolerance="10"
     gridtolerance="10"
     guidetolerance="10"
     inkscape:pageopacity="0"
     inkscape:pageshadow="2"
     inkscape:window-width="1366"
     inkscape:window-height="715"
     id="namedview4"
     showgrid="false"
     inkscape:zoom="0.45740262"
     inkscape:cx="875.12315"
     inkscape:cy="154.13326"
     inkscape:window-x="1592"
     inkscape:window-y="124"
     inkscape:window-maximized="1"
     inkscape:current-layer="layer1" />
  <g
     inkscape:groupmode="layer"
     id="layer2"
     inkscape:label="artwork"
     sodipodi:insensitive="true">
    <image
       sodipodi:absref="G:\Aslan's Works &amp; Design Projects\2. Personal Projects\3. Translation Projects\1. Pepper &amp; Carrot Translation Project\Episode 25\lang\fa\../gfx_Pepper-and-Carrot_by-David-Revoy_E25P09.png"
       xlink:href="../gfx_Pepper-and-Carrot_by-David-Revoy_E25P09.png"
       width="2481"
       height="3503"
       id="image10"
       x="0"
       y="0" />
  </g>
  <g
     inkscape:groupmode="layer"
     id="layer3"
     inkscape:label="speechbubbles" />
  <g
     inkscape:groupmode="layer"
     id="layer1"
     inkscape:label="txt">
    <text
       xml:space="preserve"
       style="font-style:normal;font-variant:normal;font-weight:normal;font-stretch:normal;font-size:128px;line-height:0%;font-family:Midan;-inkscape-font-specification:Midan;text-align:center;letter-spacing:0px;word-spacing:0px;text-anchor:middle;display:inline;opacity:1;fill:#241c1c;fill-opacity:1;stroke:#000000;stroke-width:4.32200003;stroke-miterlimit:4;stroke-dasharray:none;stroke-opacity:1"
       x="2420.5117"
       y="3318.2485"
       id="text4213"
       transform="matrix(0.95719015,0,-0.32603671,1.0447245,0,0)"><tspan
         sodipodi:role="line"
         id="tspan3562"
         x="2420.5117"
         y="3318.2485"
         style="font-style:normal;font-variant:normal;font-weight:900;font-stretch:normal;font-size:90.66666412px;line-height:1.25;font-family:Midan;-inkscape-font-specification:'Midan Heavy';direction:rtl;stroke:none;stroke-width:4.32200003;stroke-miterlimit:4;stroke-dasharray:none">- پایان -</tspan></text>
    <text
       xml:space="preserve"
       style="font-style:normal;font-variant:normal;font-weight:normal;font-stretch:normal;font-size:128px;line-height:0%;font-family:Midan;-inkscape-font-specification:Midan;text-align:center;letter-spacing:0px;word-spacing:0px;text-anchor:middle;display:inline;fill:#6c5d53;fill-opacity:1;stroke:none;stroke-width:1"
       x="2200.7229"
       y="363.71201"
       id="text4246-7-6-2-0"
       transform="matrix(1.0166729,0,-0.14474245,0.98360054,0,0)"><tspan
         sodipodi:role="line"
         style="font-style:normal;font-variant:normal;font-weight:normal;font-stretch:normal;font-size:128px;line-height:1.25;font-family:Midan;-inkscape-font-specification:Midan;fill:#6c5d53;stroke-width:1"
         x="2200.7229"
         y="363.71201"
         id="tspan4434">؟</tspan></text>
    <text
       xml:space="preserve"
       style="font-style:normal;font-variant:normal;font-weight:normal;font-stretch:normal;font-size:128px;line-height:0%;font-family:Midan;-inkscape-font-specification:Midan;text-align:center;letter-spacing:0px;word-spacing:0px;text-anchor:middle;display:inline;fill:#6c5d53;fill-opacity:1;stroke:none;stroke-width:1"
       x="2147.6514"
       y="217.57851"
       id="text4246-7-6-2-0-3"
       transform="skewX(-8.1026777)"><tspan
         sodipodi:role="line"
         style="font-style:normal;font-variant:normal;font-weight:normal;font-stretch:normal;font-size:96px;line-height:1.25;font-family:Midan;-inkscape-font-specification:Midan;fill:#6c5d53;stroke-width:1"
         x="2147.6514"
         y="217.57851"
         id="tspan4434-6">؟</tspan></text>
    <text
       xml:space="preserve"
       style="font-style:normal;font-variant:normal;font-weight:normal;font-stretch:normal;font-size:128px;line-height:0%;font-family:Midan;-inkscape-font-specification:Midan;text-align:center;letter-spacing:0px;word-spacing:0px;text-anchor:middle;display:inline;fill:#6c5d53;fill-opacity:1;stroke:none;stroke-width:0.99999994"
       x="1928.7178"
       y="328.81763"
       id="text4246-7-6-2-0-7"
       transform="matrix(1.0268344,0,-0.14618914,0.97386687,0,0)"><tspan
         sodipodi:role="line"
         style="font-style:normal;font-variant:normal;font-weight:normal;font-stretch:normal;font-size:128px;line-height:1.25;font-family:Midan;-inkscape-font-specification:Midan;fill:#6c5d53;stroke-width:0.99999994"
         x="1928.7178"
         y="328.81763"
         id="tspan4434-5">؟</tspan></text>
    <text
       xml:space="preserve"
       style="font-style:normal;font-variant:normal;font-weight:normal;font-stretch:normal;font-size:128px;line-height:0%;font-family:Midan;-inkscape-font-specification:Midan;text-align:center;letter-spacing:0px;word-spacing:0px;text-anchor:middle;display:inline;fill:#6c5d53;fill-opacity:1;stroke:none;stroke-width:1"
       x="2128.3706"
       y="455.46783"
       id="text4246-7-6-2-0-35"
       transform="skewX(-8.1026777)"><tspan
         sodipodi:role="line"
         style="font-style:normal;font-variant:normal;font-weight:normal;font-stretch:normal;font-size:128px;line-height:1.25;font-family:Midan;-inkscape-font-specification:Midan;fill:#6c5d53;stroke-width:1"
         x="2128.3706"
         y="455.46783"
         id="tspan4434-62">؟</tspan></text>
    <text
       xml:space="preserve"
       style="font-style:normal;font-variant:normal;font-weight:normal;font-stretch:normal;font-size:128px;line-height:0%;font-family:Midan;-inkscape-font-specification:Midan;text-align:center;letter-spacing:0px;word-spacing:0px;text-anchor:middle;display:inline;fill:#6c5d53;fill-opacity:1;stroke:none;stroke-width:1"
       x="1817.8842"
       y="939.54242"
       id="text4246-7-6-2-0-35-9"
       transform="skewX(-8.1026777)"><tspan
         sodipodi:role="line"
         style="font-style:normal;font-variant:normal;font-weight:normal;font-stretch:normal;font-size:128px;line-height:1.25;font-family:Midan;-inkscape-font-specification:Midan;fill:#6c5d53;stroke-width:1"
         x="1817.8842"
         y="939.54242"
         id="tspan4434-62-1">؟</tspan></text>
    <text
       xml:space="preserve"
       style="font-style:normal;font-variant:normal;font-weight:normal;font-stretch:normal;font-size:128px;line-height:0%;font-family:Midan;-inkscape-font-specification:Midan;text-align:center;letter-spacing:0px;word-spacing:0px;text-anchor:middle;display:inline;fill:#6c5d53;fill-opacity:1;stroke:none;stroke-width:1"
       x="1912.656"
       y="1088.385"
       id="text4246-7-6-2-0-35-2"
       transform="matrix(1.0166729,0,-0.14474245,0.98360053,0,0)"><tspan
         sodipodi:role="line"
         style="font-style:normal;font-variant:normal;font-weight:normal;font-stretch:normal;font-size:128px;line-height:1.25;font-family:Midan;-inkscape-font-specification:Midan;fill:#6c5d53;stroke-width:1"
         x="1912.656"
         y="1088.385"
         id="tspan4434-62-7">؟</tspan></text>
    <text
       xml:space="preserve"
       style="font-style:normal;font-variant:normal;font-weight:normal;font-stretch:normal;font-size:128px;line-height:0%;font-family:Midan;-inkscape-font-specification:Midan;text-align:center;letter-spacing:0px;word-spacing:0px;text-anchor:middle;display:inline;fill:#6c5d53;fill-opacity:1;stroke:none;stroke-width:1"
       x="1702.245"
       y="1041.89"
       id="text4246-7-6-2-0-35-0"
       transform="skewX(-8.1026777)"><tspan
         sodipodi:role="line"
         style="font-style:normal;font-variant:normal;font-weight:normal;font-stretch:normal;font-size:128px;line-height:1.25;font-family:Midan;-inkscape-font-specification:Midan;fill:#6c5d53;stroke-width:1"
         x="1702.245"
         y="1041.89"
         id="tspan4434-62-9">؟</tspan></text>
    <text
       xml:space="preserve"
       style="font-style:normal;font-variant:normal;font-weight:normal;font-stretch:normal;font-size:128px;line-height:0%;font-family:Midan;-inkscape-font-specification:Midan;text-align:center;letter-spacing:0px;word-spacing:0px;text-anchor:middle;display:inline;fill:#6c5d53;fill-opacity:1;stroke:none;stroke-width:1"
       x="1804.478"
       y="1129.0446"
       id="text4246-7-6-2-0-35-3"
       transform="skewX(-8.1026778)"><tspan
         sodipodi:role="line"
         style="font-style:normal;font-variant:normal;font-weight:normal;font-stretch:normal;font-size:96px;line-height:1.25;font-family:Midan;-inkscape-font-specification:Midan;fill:#6c5d53;stroke-width:1"
         x="1804.478"
         y="1129.0446"
         id="tspan4434-62-6">؟</tspan></text>
    <text
       xml:space="preserve"
       style="font-style:normal;font-variant:normal;font-weight:normal;font-stretch:normal;font-size:128px;line-height:0%;font-family:Midan;-inkscape-font-specification:Midan;text-align:center;letter-spacing:0px;word-spacing:0px;text-anchor:middle;display:inline;fill:#6c5d53;fill-opacity:1;stroke:none;stroke-width:1"
       x="445.20239"
       y="221.06328"
       id="text4246-7-6-2-0-35-9-0"
       transform="skewX(-8.1026777)"><tspan
         sodipodi:role="line"
         style="font-style:normal;font-variant:normal;font-weight:normal;font-stretch:normal;font-size:128px;line-height:1.25;font-family:Midan;-inkscape-font-specification:Midan;fill:#6c5d53;stroke-width:1"
         x="445.20239"
         y="221.06328"
         id="tspan4434-62-1-6">؟</tspan></text>
    <text
       xml:space="preserve"
       style="font-style:normal;font-variant:normal;font-weight:normal;font-stretch:normal;font-size:128px;line-height:0%;font-family:Midan;-inkscape-font-specification:Midan;text-align:center;letter-spacing:0px;word-spacing:0px;text-anchor:middle;display:inline;fill:#6c5d53;fill-opacity:1;stroke:none;stroke-width:1"
       x="571.84967"
       y="301.72791"
       id="text4246-7-6-2-0-35-9-0-2"
       transform="matrix(0.99162337,0,-0.14117619,1.0084474,0,0)"><tspan
         sodipodi:role="line"
         style="font-style:normal;font-variant:normal;font-weight:normal;font-stretch:normal;font-size:151.9999993px;line-height:1.25;font-family:Midan;-inkscape-font-specification:Midan;fill:#6c5d53;stroke-width:1"
         x="571.84967"
         y="301.72791"
         id="tspan4434-62-1-6-6">؟</tspan></text>
    <text
       xml:space="preserve"
       style="font-style:normal;font-variant:normal;font-weight:normal;font-stretch:normal;font-size:128px;line-height:0%;font-family:Midan;-inkscape-font-specification:Midan;text-align:center;letter-spacing:0px;word-spacing:0px;text-anchor:middle;display:inline;fill:#6c5d53;fill-opacity:1;stroke:none;stroke-width:1"
       x="360.87628"
       y="304.96155"
       id="text4246-7-6-2-0-35-9-0-2-1"
       transform="matrix(0.99017188,0,-0.14096954,1.0099257,0,0)"><tspan
         sodipodi:role="line"
         style="font-style:normal;font-variant:normal;font-weight:normal;font-stretch:normal;font-size:111.99999837px;line-height:1.25;font-family:Midan;-inkscape-font-specification:Midan;fill:#6c5d53;stroke-width:1"
         x="360.87628"
         y="304.96155"
         id="tspan4434-62-1-6-6-8">؟</tspan></text>
    <text
       xml:space="preserve"
       style="font-style:normal;font-variant:normal;font-weight:normal;font-stretch:normal;font-size:128px;line-height:0%;font-family:Midan;-inkscape-font-specification:Midan;text-align:center;letter-spacing:0px;word-spacing:0px;text-anchor:middle;display:inline;fill:#6c5d53;fill-opacity:1;stroke:none;stroke-width:0.99999988"
       x="499.1864"
       y="390.67615"
       id="text4246-7-6-2-0-35-9-0-2-1-7"
       transform="matrix(0.97277155,0,-0.13849228,1.0279906,0,0)"><tspan
         sodipodi:role="line"
         style="font-style:normal;font-variant:normal;font-weight:normal;font-stretch:normal;font-size:128px;line-height:1.25;font-family:Midan;-inkscape-font-specification:Midan;fill:#6c5d53;stroke-width:0.99999988"
         x="499.1864"
         y="390.67615"
         id="tspan4434-62-1-6-6-8-9">؟</tspan></text>
  </g>
</svg>
