<?xml version="1.0" encoding="UTF-8" standalone="no"?>
<!-- Created with Inkscape (http://www.inkscape.org/) -->

<svg
   xmlns:dc="http://purl.org/dc/elements/1.1/"
   xmlns:cc="http://creativecommons.org/ns#"
   xmlns:rdf="http://www.w3.org/1999/02/22-rdf-syntax-ns#"
   xmlns:svg="http://www.w3.org/2000/svg"
   xmlns="http://www.w3.org/2000/svg"
   xmlns:xlink="http://www.w3.org/1999/xlink"
   xmlns:sodipodi="http://sodipodi.sourceforge.net/DTD/sodipodi-0.dtd"
   xmlns:inkscape="http://www.inkscape.org/namespaces/inkscape"
   id="svg2"
   version="1.1"
   inkscape:version="0.92.4 (5da689c313, 2019-01-14)"
   width="2481"
   height="3503"
   sodipodi:docname="E24P01.svg">
  <metadata
     id="metadata8">
    <rdf:RDF>
      <cc:Work
         rdf:about="">
        <dc:format>image/svg+xml</dc:format>
        <dc:type
           rdf:resource="http://purl.org/dc/dcmitype/StillImage" />
        <dc:title />
      </cc:Work>
    </rdf:RDF>
  </metadata>
  <defs
     id="defs6">
    <filter
       style="color-interpolation-filters:sRGB"
       id="filter4375-4-1-1-1-9"
       inkscape:label="deevad outline effect">
      <feFlood
         id="feFlood4377-7-9-0-8-1"
         flood-opacity="1"
         flood-color="rgb(0,0,0)"
         result="flood" />
      <feComposite
         id="feComposite4379-3-8-8-2-77"
         in2="SourceGraphic"
         in="flood"
         operator="in"
         result="composite1" />
      <feMorphology
         id="feMorphology4393-1-0-49-8-9"
         operator="dilate"
         radius="4"
         result="result3" />
      <feComposite
         id="feComposite4385-9-5-7-0-8"
         in2="result3"
         in="SourceGraphic"
         operator="over"
         result="composite2" />
    </filter>
  </defs>
  <sodipodi:namedview
     pagecolor="#ffffff"
     bordercolor="#666666"
     borderopacity="1"
     objecttolerance="10"
     gridtolerance="10"
     guidetolerance="10"
     inkscape:pageopacity="0"
     inkscape:pageshadow="2"
     inkscape:window-width="1920"
     inkscape:window-height="1056"
     id="namedview4"
     showgrid="false"
     inkscape:zoom="0.34782609"
     inkscape:cx="1921.7484"
     inkscape:cy="294.34067"
     inkscape:window-x="1920"
     inkscape:window-y="0"
     inkscape:window-maximized="1"
     inkscape:current-layer="layer1"
     inkscape:snap-global="false" />
  <g
     inkscape:groupmode="layer"
     id="layer2"
     inkscape:label="artwork"
     sodipodi:insensitive="true">
    <image
       sodipodi:absref="/felles/omsetting/pepper-carrot/webcomics/ep24_The-Unity-Tree/lang/nn/../gfx_Pepper-and-Carrot_by-David-Revoy_E24P01.png"
       xlink:href="../gfx_Pepper-and-Carrot_by-David-Revoy_E24P01.png"
       width="2481"
       height="3503"
       id="image10"
       x="0"
       y="0" />
  </g>
  <g
     inkscape:groupmode="layer"
     id="layer3"
     inkscape:label="speechbubbles">
    <path
       style="fill:#ffffff;fill-rule:evenodd;stroke:none;stroke-width:0.99999976px;stroke-linecap:butt;stroke-linejoin:miter;stroke-opacity:1"
       d="m 594.92449,444.82799 c 26.87588,10.3778 51.16979,16.82994 42.91034,-26.21365 47.57203,58.4381 40.74784,18.41593 48.27413,4.3689 28.2833,41.28048 52.61879,35.39772 73.75213,-8.73782 11.947,63.66343 36.94724,32.81806 59.00167,23.30101 -0.0544,17.90316 -6.07551,38.4323 59.00176,27.67002 -18.60729,16.16964 -25.54788,30.84858 16.09138,39.32057 -28.92452,13.00092 -44.80935,26.83488 -13.40954,43.68959 -16.68091,24.55329 -5.52405,39.14523 17.43236,49.51474 -53.75052,1.43599 -60.7306,3.82078 -52.10727,16.5467 -45.76281,-26.16442 -32.24105,-4.56586 -28.34959,15.49224 -21.29993,-11.5063 -37.04336,-38.70257 -75.09304,-2.91255 -11.31644,-11.87815 -21.7477,-26.88035 -46.93322,10.19418 -1.77665,-32.33917 -20.19038,-31.12261 -46.93319,-13.10682 -7.05356,-30.32815 -33.53991,-14.92955 -61.68361,4.369 22.97168,-29.60091 24.63631,-54.33009 -20.11422,-68.44696 43.36702,-16.93386 35.47026,-30.59285 18.77327,-43.68949 16.4961,-12.31548 27.25173,-25.73102 -16.09136,-49.51483 25.34164,3.69751 52.32458,8.46458 25.478,-21.84483 z"
       id="path4582"
       inkscape:connector-curvature="0"
       sodipodi:nodetypes="ccccccccccccccccccc" />
    <path
       style="color:#000000;display:inline;overflow:visible;visibility:visible;fill:#ffffff;fill-opacity:1;fill-rule:nonzero;stroke:none;stroke-width:0.99999994px;marker:none;enable-background:accumulate"
       d="m 1120.4405,700.1743 c -32.2265,-17.97546 -75.6905,-29.21797 -94.8601,-55.01638 l -18.7309,38.20697 c -21.19647,-1.31166 -26.2338,-14.07539 -36.75813,-22.95055 l -18.52445,25.72405 C 902.21848,682.47077 878.08971,666.613 844.32571,653.77368 l -19.93547,22.60875 c 41.44339,8.00317 86.22663,23.6167 121.36515,31.70826 l 22.07602,-17.34663 c 14.0695,3.48337 27.30829,7.5971 36.83679,14.52656 l 23.5694,-31.97386 z"
       id="path4032"
       inkscape:connector-curvature="0"
       sodipodi:nodetypes="cccccccccccc" />
    <path
       style="color:#000000;display:inline;overflow:visible;visibility:visible;fill:#ffffff;fill-opacity:1;fill-rule:nonzero;stroke:none;stroke-width:0.99999994px;marker:none;enable-background:accumulate"
       d="m 1371.9994,1875.4312 c 7.1505,-9.6035 38.0532,-37.7572 33.5078,-2.86 49.6492,-40.2666 84.2811,-19.5262 119.7666,-2.2535 12.2977,-12.4731 17.1485,-33.3022 48.3423,-24.5731 -2.1257,-14.0664 10.2993,-22.0812 35.7078,-24.6967 -31.0479,-12.0387 -35.5319,-21.179 26.3627,-23.0767 -45.7359,-6.3379 -88.242,-13.2357 -28.987,-37.773 -16.7596,-2.7585 -61.3528,18.2946 -29.4408,-55.0444 -33.2791,20.7342 -66.5927,30.3971 -96.5836,-24.8989 -15.4464,18.5866 -35.6631,29.9721 -65.2417,-1.4146 -10.8247,18.985 -52.5705,15.6954 -67.1211,9.8432 26.8659,25.8757 23.3936,39.5499 -18.7382,36.7247 63.0176,48.3718 6.8494,35.5263 -6.2151,44.3362 52.568,20.3406 24.9649,34.5624 12.1834,50.4926 63.0956,8.1069 37.6137,33.0527 36.4569,55.1942 z"
       id="path3549-3"
       inkscape:connector-curvature="0"
       sodipodi:nodetypes="ccccccccccccccc" />
    <path
       style="color:#000000;display:inline;overflow:visible;visibility:visible;fill:#ffffff;fill-opacity:1;fill-rule:nonzero;stroke:none;stroke-width:0.99999994px;marker:none;enable-background:accumulate"
       d="m 1382.488,1955.5944 c 4.7665,-107.5994 53.6791,-133.003 221.3291,-130.5092 115.0906,1.712 180.4281,13.3343 174.48,141.4959 -5.9477,128.1612 -141.4285,126.9028 -171.4574,129.3926 -30.0292,2.4901 -170.7608,7.3511 -198.3492,-36.7472 -17.2704,-27.6046 -26.3542,-76.5216 -26.0025,-103.6321 z"
       id="path4546-6"
       inkscape:connector-curvature="0"
       sodipodi:nodetypes="cssssc" />
    <path
       style="color:#000000;display:inline;overflow:visible;visibility:visible;fill:#ffffff;fill-opacity:1;fill-rule:nonzero;stroke:none;stroke-width:1px;marker:none;enable-background:accumulate"
       d="m 1725.1844,1861.3342 c 6.612,11.2759 86.9477,-29.2003 85.8796,-32.4046 0,0 27.5174,7.7754 31.5141,6.9248 1.9994,-6.4636 4.2729,-17.2204 4.2729,-17.2204 l 43.1705,1.271 -34.6999,8.0734 0.1804,21.2585 -36.6531,-7.0896 c -19.044,13.242 -51.208,25.1719 -50.7716,40.3619 z"
       id="path4448"
       inkscape:connector-curvature="0"
       sodipodi:nodetypes="cccccccccc" />
    <path
       style="color:#000000;display:inline;overflow:visible;visibility:visible;fill:#ffffff;fill-opacity:1;fill-rule:nonzero;stroke:none;stroke-width:0.99999988px;marker:none;enable-background:accumulate"
       d="m 28.718254,3124.3304 c 53.899434,10.0983 49.360766,46.9955 34.688447,59.7331 60.311869,-45.5017 98.658269,-31.223 67.952759,14.5259 104.88771,-62.7971 86.72998,-10.1518 79.03599,18.034 49.95988,-59.8622 84.10955,-38.326 104.5638,-1.4284 0.50096,-38.2874 64.02866,-40.421 84.31337,-13.8193 26.31836,-66.0757 53.64617,-45.694 103.93164,-29.3432 -38.19181,-24.8394 -67.07971,-46.6358 35.51338,-78.4207 -54.98656,9.2043 -77.23634,-13.9927 17.29227,-39.684 -93.72257,-1.2349 -100.31252,-37.1574 -0.78913,-53.974 -96.66634,0.1227 -94.39025,-24.0839 -50.27416,-55.068 -67.85389,8.6492 -84.75374,-19.8707 -21.39384,-65.5332 -106.18542,41.081 -111.43159,15.7143 -104.34316,-37.2002 -59.90874,57.9393 -54.96529,30.9443 -66.95654,-23.9529 -12.63513,40.3589 -45.1384,70.5171 -112.26616,23.402 10.34257,26.2294 10.87524,54.9006 -80.82303,24.9716 49.07106,31.5386 17.06746,72.9513 -125.8954788,72.2474 66.7038108,20.8402 146.4206088,64.9605 54.9267338,71.4661 36.586264,6.8545 46.173311,26.0378 43.997003,41.6526 -16.478711,5.0216 -38.368566,9.8827 -66.633536,14.6029 53.294862,14.1829 87.113558,32.4147 3.159642,57.7883 z"
       id="path3549-3-7"
       inkscape:connector-curvature="0"
       sodipodi:nodetypes="ccccccccccccccccccccc" />
    <path
       style="fill:#ffffff;stroke:none;stroke-width:1"
       d="m 1312.0471,2636.6402 c 24.8572,-23.3618 23.0898,-34.098 20.1693,-46.0928 -2.9204,-11.9949 -6.7783,-22.4564 -2.996,-29.6912 3.7822,-7.2345 11.9314,-13.7504 18.5182,-17.7105 6.5867,-3.9602 0.6895,-11.8462 0.1992,-20.4782 -0.4905,-8.632 11.6694,-54.4912 11.6694,-54.4912 0,0 15.4128,29.8223 17.3984,40.7257 1.9857,10.9032 2.7616,14.8752 2.4762,19.5352 -0.2855,4.6599 -2.4809,16.1126 -8.3834,22.0982 -5.9026,5.9855 -13.8607,8.5198 -19.1677,11.9592 -5.307,3.4394 -4.2207,13.2301 -3.7625,22.963 0.4583,9.7331 -0.6146,16.9839 -10.2491,30.0137 -8.2583,11.169 -25.872,21.1689 -25.872,21.1689 z"
       id="path3023-2"
       inkscape:connector-curvature="0"
       sodipodi:nodetypes="csssscssssssc" />
    <path
       style="color:#000000;display:inline;overflow:visible;visibility:visible;fill:#ffffff;fill-opacity:1;fill-rule:nonzero;stroke:none;stroke-width:0.99999994px;marker:none;enable-background:accumulate"
       d="m 1316.0029,3034.7179 c 5.2109,-36.069 14.5234,-83.1655 -40.179,-91.5576 2.7742,1.4246 74.681,-16.1526 71.113,92.3401 -3.568,108.4926 -13.868,120.9339 -13.868,120.9339 z"
       id="path4064"
       inkscape:connector-curvature="0"
       sodipodi:nodetypes="ccscc" />
    <path
       style="color:#000000;display:inline;overflow:visible;visibility:visible;fill:#ffffff;fill-opacity:1;fill-rule:nonzero;stroke:none;stroke-width:1px;marker:none;enable-background:accumulate"
       d="m 1009.7357,3295.7847 c -1.4282,-61.9807 15.8365,-106.7965 25.5146,-110.4287 89.4959,-33.5875 361.5316,-23.5802 405.7476,8.5046 37.1285,26.1698 45.6967,44.0753 41.4125,67.4904 -4.284,23.4149 -27.1325,85.3957 -79.9693,103.3013 -52.8364,17.9055 -175.6462,26.1697 -239.9073,12.3961 -64.261,-13.7735 -158.5103,-27.5469 -152.7981,-81.2637 z"
       id="path3517"
       inkscape:connector-curvature="0"
       sodipodi:nodetypes="cscsccc" />
    <path
       style="color:#000000;display:inline;overflow:visible;visibility:visible;fill:#ffffff;fill-opacity:1;fill-rule:nonzero;stroke:none;stroke-width:1px;marker:none;enable-background:accumulate"
       d="m 1146.2027,3115.7233 c -1.1746,-31.62 21.3289,-64.5566 33.0747,-74.6749 11.7461,-10.1185 83.0232,-20.0204 110.0387,-20.0204 27.0155,0 141.3233,5.6137 161.2914,28.3802 19.9679,22.7664 43.087,39.919 30.1666,77.863 -12.9206,37.9439 -93.9671,56.916 -111.586,60.7103 -17.6188,3.7944 -68.1262,6.324 -84.5704,5.0593 -16.4443,-1.2649 -141.9387,-25.4606 -138.415,-77.3175 z"
       id="path3357"
       inkscape:connector-curvature="0"
       inkscape:transform-center-x="-251.35553"
       inkscape:transform-center-y="-147.27939"
       sodipodi:nodetypes="ccsscccc" />
    <path
       style="fill:#ffffff;fill-rule:evenodd;stroke:none;stroke-width:0.99999988px;stroke-linecap:butt;stroke-linejoin:miter;stroke-opacity:1"
       d="m 1146.2648,2478.7083 c 8.9148,-23.8569 32.9214,-41.9579 59.049,-54.0414 12.4339,-5.8338 26.6461,-10.1089 41.1894,-8.9844 14.448,0.6719 28.5601,4.6835 43.1678,3.2901 17.7627,-0.4602 35.8372,-2.4681 53.3959,0.401 15.609,3.1306 31.6907,4.752 47.7982,4.846 11.3633,-1.9871 21.7614,3.3092 31.9096,6.4769 9.1104,3.4218 18.4159,7.0119 26.0681,12.3048 7.05,7.4302 15.4914,13.8943 22.6237,21.2583 4.6669,4.0258 4.2185,9.5866 4.0035,14.7331 -0.6061,10.5387 -1.6325,21.2437 -5.4423,31.3969 -2.2798,6.4459 -10.7065,8.5792 -17.1814,11.5412 -15.3207,6.2528 -31.5892,10.9944 -46.2109,18.3527 -14.4858,3.7677 -29.8803,2.0054 -44.7362,1.436 -12.4483,-1.1215 -24.9706,-2.6855 -37.5258,-1.3813 -15.9798,0.9544 -31.9111,3.4258 -47.9482,3.1093 -20.0899,-2.1722 -39.3306,-7.5207 -58.7995,-11.8111 -17.4671,-3.7817 -33.387,-10.8926 -48.6624,-18.4995 -8.1596,-4.3197 -16.7975,-9.3407 -19.6772,-17.3014 -2.3606,-5.4816 -2.9168,-11.3511 -3.0213,-17.1272 z"
       id="path4365"
       inkscape:connector-curvature="0" />
    <path
       style="color:#000000;display:inline;overflow:visible;visibility:visible;fill:#ffffff;fill-opacity:1;fill-rule:nonzero;stroke:none;stroke-width:0.99999988px;marker:none;enable-background:accumulate"
       d="m 2429.702,2354.3108 c -223.9644,5.9812 -420.3876,-1.9662 -548.6546,-3.3143 1.037,30.9744 -26.5344,23.5836 -52.6365,8.1507 20.7808,61.6642 -13.681,66.4749 -65.8843,37.1136 52.6902,61.5092 -0.1695,52.6284 -65.0064,13.3713 62.5194,61.2836 111.1544,118.5242 -11.5212,81.3835 72.6923,40.5784 105.1624,60.1057 38.5739,80.6095 64.7972,23.7488 52.7725,53.3478 -11.9336,57.5789 116.0664,36.784 34.1996,54.2113 -13.1923,66.3669 130.9356,20.0914 44.5284,46.4239 -26.3917,96.247 82.0229,-15.3105 160.5686,-34.1017 77.4872,32.023 148.8237,-38.5326 104.3296,-7.3165 21.9371,56.6615 47.0555,-19.3022 170.4008,-50.2665 134.1118,0.226 60.0626,-31.9202 35.0728,11.604 30.6275,37.1757 7.8632,-8.3896 33.5803,-58.5923 41.9858,-24.5929 15.3225,-24.5391 28.2489,-19.7641 26.6146,14.9566 13.2159,-20.1742 44.3526,-41.6364 33.1062,0.8004 19.5771,-42.462 24.3829,-7.7613 15.0126,26.2086 48.9438,-66.0118 56.0184,-69.2683 60.497,4.5357 20.4285,-41.5557 44.8976,-83.9706 84.8282,-13.0396 0.052,-23.5798 7.0098,-63.5412 72.2451,8.9316 -26.2653,-74.5787 38.0799,-60.0996 65.3291,11.5706 -33.2556,-91.3481 9.658,-133.5576 63.6773,-38.0523 5.3113,-125.3955 30.6243,-449.967 29.1872,-554.912 z"
       id="path4024"
       inkscape:connector-curvature="0"
       sodipodi:nodetypes="cccccccccccccccccccccccc" />
    <path
       style="fill:#ffffff;fill-rule:evenodd;stroke:none;stroke-width:0.99999994px;stroke-linecap:butt;stroke-linejoin:miter;stroke-opacity:1"
       d="m 2320.0189,2976.9466 -102.8737,31.1414 30.781,-65.8394 -54.3109,13.511 73.467,-174.0894 -83.4186,10.4305 -22.2012,199.1888 46.5569,-15.7553 -28.3923,68.2411 z"
       id="path5002"
       inkscape:connector-curvature="0"
       sodipodi:nodetypes="cccccccccc" />
    <text
       xml:space="preserve"
       style="font-style:normal;font-variant:normal;font-weight:normal;font-stretch:normal;line-height:0%;font-family:Lavi;-inkscape-font-specification:Lavi;letter-spacing:0px;word-spacing:0px;fill:#ffffff;fill-opacity:1;stroke:#000000;stroke-width:0.6193288;stroke-miterlimit:4;stroke-dasharray:none;stroke-opacity:1;filter:url(#filter4375-4-1-1-1-9)"
       x="787.65729"
       y="1584.5073"
       id="text4580"
       transform="matrix(0.44344346,-0.2146395,-0.08186619,0.56875476,2050.1891,1335.3821)"><tspan
         sodipodi:role="line"
         id="tspan4582"
         x="787.65729"
         y="1584.5073"
         style="font-size:70px;line-height:1.25;letter-spacing:5.62810278px;fill:#ffffff;stroke-width:0.6193288;stroke-miterlimit:4;stroke-dasharray:none"><tspan
           style="font-size:61.46733856px;stroke-width:0.6193288"
           id="tspan896">POFF</tspan><tspan
           style="font-size:80.40014648px;letter-spacing:5.62810278px;fill:#ffffff;stroke-width:0.6193288;stroke-miterlimit:4;stroke-dasharray:none"
           id="tspan4617">!</tspan></tspan></text>
    <path
       style="fill:#ffffff;fill-rule:evenodd;stroke:none;stroke-width:1px;stroke-linecap:butt;stroke-linejoin:miter;stroke-opacity:1"
       d="m 606.64438,688.13568 c 53.77935,-14.71022 46.31957,20.21656 41.32639,53.14407 37.80494,-43.59903 55.26716,-29.85149 61.98961,14.17175 33.62525,-62.22579 59.25693,-30.90893 85.83175,-10.62881 1.02337,-30.58118 16.76245,-46.25269 77.88437,-15.94322 -32.19125,-44.20554 -28.66018,-71.76224 39.73691,-69.08729 -61.86013,-15.97494 -61.03687,-42.11142 -22.25267,-74.4017 -45.37354,26.89223 -74.55312,30.92349 -65.16855,-19.48617 -45.60554,49.76939 -52.18919,18.77197 -60.40013,-8.85734 -18.96237,57.85359 -45.06195,40.93556 -73.11593,3.54293 0.75602,36.0549 -10.20221,57.18925 -60.40012,28.34351 8.5968,26.18958 33.74624,62.31265 -25.43163,47.82967 31.70501,15.40054 43.05808,31.90752 0,51.3726 z"
       id="path907"
       inkscape:connector-curvature="0"
       sodipodi:nodetypes="ccccccccccccc" />
  </g>
  <g
     inkscape:groupmode="layer"
     id="layer1"
     inkscape:label="txt"
     style="display:inline">
    <path
       style="color:#000000;display:inline;overflow:visible;visibility:visible;fill:#ffffff;fill-opacity:1;fill-rule:nonzero;stroke:none;stroke-width:1px;marker:none;enable-background:accumulate"
       d="m 643.30092,3062.9957 c -16.45129,42.7371 -57.34368,52.6864 -79.08413,59.0603 -3.49561,-4.6209 -10.29733,-21.207 -10.29733,-21.207 0,0 -73.99284,20.9972 -91.7304,22.9324 -17.73755,1.9353 -27.60488,-25.996 -27.60488,-25.996 -1.49889,4.9963 104.15858,-3.83 127.4154,-18.4787 8.90084,13.0355 10.12822,16.304 14.99068,21.2359 13.47897,-4.7946 53.36319,-19.1261 66.31066,-37.5469 z"
       id="path4456"
       inkscape:connector-curvature="0"
       sodipodi:nodetypes="cccscccc" />
    <text
       xml:space="preserve"
       style="font-style:normal;font-variant:normal;font-weight:normal;font-stretch:normal;line-height:0%;font-family:Lavi;-inkscape-font-specification:Lavi;text-align:center;letter-spacing:0px;word-spacing:0px;text-anchor:middle;fill:#000000;fill-opacity:1;stroke:none"
       x="728.05444"
       y="500.6228"
       id="text4246"><tspan
         sodipodi:role="line"
         style="font-size:45px;line-height:1.25"
         x="728.05444"
         y="500.6228"
         id="tspan837">Eit</tspan><tspan
         sodipodi:role="line"
         style="font-size:45px;line-height:1.25"
         x="728.05444"
         y="556.8728"
         id="tspan886">samhalds-</tspan><tspan
         sodipodi:role="line"
         style="font-size:45px;line-height:1.25"
         x="728.05444"
         y="613.1228"
         id="tspan880">tre?</tspan></text>
    <text
       xml:space="preserve"
       style="font-style:normal;font-variant:normal;font-weight:normal;font-stretch:normal;line-height:0%;font-family:Lavi;-inkscape-font-specification:Lavi;text-align:center;letter-spacing:0px;word-spacing:0px;text-anchor:middle;fill:#000000;fill-opacity:1;stroke:none"
       x="1573.6025"
       y="1894.7415"
       id="text4246-7"><tspan
         sodipodi:role="line"
         style="font-size:45px;line-height:1.25"
         x="1573.6025"
         y="1894.7415"
         id="tspan934">Me er kaosah-</tspan><tspan
         sodipodi:role="line"
         style="font-size:45px;line-height:1.25"
         x="1573.6025"
         y="1950.9915"
         id="tspan893">hekser, så me</tspan><tspan
         sodipodi:role="line"
         style="font-size:45px;line-height:1.25;-inkscape-font-specification:Lavi;font-family:Lavi;font-weight:normal;font-style:normal;font-stretch:normal;font-variant:normal"
         x="1573.6025"
         y="2007.2415"
         id="tspan895">DRIV IKKJE</tspan><tspan
         sodipodi:role="line"
         style="font-size:45px;line-height:1.25"
         x="1573.6025"
         y="2063.4915"
         id="tspan882">med slikt.</tspan></text>
    <text
       xml:space="preserve"
       style="font-style:normal;font-variant:normal;font-weight:normal;font-stretch:normal;line-height:0%;font-family:Lavi;-inkscape-font-specification:Lavi;text-align:center;letter-spacing:0px;word-spacing:0px;text-anchor:middle;fill:#000000;fill-opacity:1;stroke:none"
       x="284.96054"
       y="2967"
       id="text4246-7-6"><tspan
         sodipodi:role="line"
         style="font-size:45px;line-height:1.25"
         x="284.96054"
         y="2967"
         id="tspan1069">Bruk heller tida</tspan><tspan
         sodipodi:role="line"
         style="font-size:45px;line-height:1.25"
         x="284.96054"
         y="3023.25"
         id="tspan906">på å læra deg</tspan><tspan
         sodipodi:role="line"
         style="font-size:45px;line-height:1.25"
         x="284.96054"
         y="3079.5"
         id="tspan910">øydeleggings-</tspan><tspan
         sodipodi:role="line"
         style="font-size:45px;line-height:1.25"
         x="284.96054"
         y="3135.75"
         id="tspan908">formularane!</tspan></text>
    <text
       xml:space="preserve"
       style="font-style:normal;font-variant:normal;font-weight:normal;font-stretch:normal;line-height:0%;font-family:Lavi;-inkscape-font-specification:Lavi;text-align:center;letter-spacing:0px;word-spacing:0px;text-anchor:middle;fill:#000000;fill-opacity:1;stroke:none"
       x="1307.3973"
       y="2493.7979"
       id="text4246-7-6-2"><tspan
         sodipodi:role="line"
         style="font-size:45px;line-height:1.25"
         x="1307.3973"
         y="2493.7979"
         id="tspan1069-6">Øydelegging?</tspan></text>
    <text
       xml:space="preserve"
       style="font-style:normal;font-variant:normal;font-weight:normal;font-stretch:normal;line-height:0%;font-family:Lavi;-inkscape-font-specification:Lavi;text-align:center;letter-spacing:0px;word-spacing:0px;text-anchor:middle;fill:#000000;fill-opacity:1;stroke:none"
       x="1313.0408"
       y="3084.3787"
       id="text4246-7-6-2-0"><tspan
         sodipodi:role="line"
         style="font-size:45px;line-height:1.25"
         x="1313.0408"
         y="3084.3787"
         id="tspan4434">På denne</tspan><tspan
         sodipodi:role="line"
         style="font-size:45px;line-height:1.25"
         x="1313.0408"
         y="3140.6287"
         id="tspan918">tida av året?</tspan></text>
    <text
       xml:space="preserve"
       style="font-style:normal;font-variant:normal;font-weight:normal;font-stretch:normal;line-height:0%;font-family:Lavi;-inkscape-font-specification:Lavi;text-align:center;letter-spacing:0px;word-spacing:0px;text-anchor:middle;fill:#000000;fill-opacity:1;stroke:none"
       x="1244.27"
       y="3233.5964"
       id="text4246-7-6-2-0-5"><tspan
         sodipodi:role="line"
         style="font-size:45px;line-height:1.25"
         x="1244.27"
         y="3233.5964"
         id="tspan4447">Ville det ikkje vore</tspan><tspan
         sodipodi:role="line"
         style="font-size:45px;line-height:1.25"
         x="1244.27"
         y="3289.8464"
         id="tspan925">betre med skapings-</tspan><tspan
         sodipodi:role="line"
         style="font-size:45px;line-height:1.25"
         x="1244.27"
         y="3346.0964"
         id="tspan931">formularar?</tspan></text>
    <text
       xml:space="preserve"
       style="font-style:normal;font-variant:normal;font-weight:normal;font-stretch:normal;font-family:Lavi;-inkscape-font-specification:Lavi;text-align:center;letter-spacing:0px;word-spacing:0px;text-anchor:middle;fill:#000000;fill-opacity:1;stroke:none;stroke-width:1.60000002;stroke-miterlimit:4;stroke-dasharray:none"
       x="2094.4304"
       y="2453.6047"
       id="text4246-7-6-2-04"><tspan
         sodipodi:role="line"
         style="font-size:45px;stroke:none;stroke-width:1.60000002;stroke-miterlimit:4;stroke-dasharray:none"
         x="2094.4304"
         y="2453.6047"
         id="tspan938">Snart er det tid for neste</tspan><tspan
         sodipodi:role="line"
         style="font-size:45px;stroke:none;stroke-width:1.60000002;stroke-miterlimit:4;stroke-dasharray:none"
         x="2094.4304"
         y="2509.8547"
         id="tspan940">rådsmøte under dei tre</tspan><tspan
         sodipodi:role="line"
         style="font-size:45px;stroke:none;stroke-width:1.60000002;stroke-miterlimit:4;stroke-dasharray:none"
         x="2094.4304"
         y="2566.1047"
         id="tspan942">månane – og for eksamen!</tspan><tspan
         sodipodi:role="line"
         style="font-size:45px;stroke:none;stroke-width:1.60000002;stroke-miterlimit:4;stroke-dasharray:none"
         x="2094.4304"
         y="2592.1118"
         id="tspan883" /><tspan
         sodipodi:role="line"
         style="font-size:45px;stroke:none;stroke-width:1.60000002;stroke-miterlimit:4;stroke-dasharray:none"
         x="2094.4304"
         y="2637.3547"
         id="tspan4986">Så lær! <tspan
   style="stroke:#000000;stroke-width:1.60000002;stroke-miterlimit:4;stroke-dasharray:none;stroke-opacity:1"
   id="tspan874">Pugg! <tspan
   style="font-style:normal;font-variant:normal;font-weight:bold;font-stretch:normal;font-family:Lavi;-inkscape-font-specification:'Lavi Bold'"
   id="tspan889">ØV!!!</tspan></tspan></tspan><tspan
         sodipodi:role="line"
         style="font-size:45px;stroke:none;stroke-width:1.60000002;stroke-miterlimit:4;stroke-dasharray:none"
         x="2094.4304"
         y="2663.3618"
         id="tspan885" /><tspan
         sodipodi:role="line"
         style="font-size:45px;stroke:#000000;stroke-width:1.60000002;stroke-miterlimit:4;stroke-dasharray:none;stroke-opacity:1"
         x="2094.4304"
         y="2708.6047"
         id="tspan4456"
         rotate="0 0 0 0 0 0 0 0 0 0 0 0 0 0 0 0 0 0 0 0 0 0">OG SLUTT MED Å LA DEG</tspan><tspan
         sodipodi:role="line"
         style="font-size:45px;stroke:#000000;stroke-width:1.60000002;stroke-miterlimit:4;stroke-dasharray:none;stroke-opacity:1"
         x="2094.4304"
         y="2764.8547"
         id="tspan955">DISTRAHERA AV DESSE</tspan><tspan
         sodipodi:role="line"
         style="font-size:45px;stroke:#000000;stroke-width:1.60000002;stroke-miterlimit:4;stroke-dasharray:none;stroke-opacity:1"
         x="2094.4304"
         y="2821.1047"
         id="tspan957">TOSKNE INNFALLA!!!</tspan></text>
    <flowRoot
       xml:space="preserve"
       id="flowRoot862"
       style="font-style:normal;font-variant:normal;font-weight:normal;font-stretch:normal;font-size:0.66666669px;line-height:318.00000668%;font-family:Neuropolitical;-inkscape-font-specification:Neuropolitical;text-align:center;letter-spacing:0px;word-spacing:0px;writing-mode:lr-tb;text-anchor:middle;fill:#000000;fill-opacity:1;stroke:none;stroke-width:1px;stroke-linecap:butt;stroke-linejoin:miter;stroke-opacity:1"><flowRegion
         id="flowRegion864"><rect
           id="rect866"
           width="103.5"
           height="5.75"
           x="1181.625"
           y="3275.875" /></flowRegion><flowPara
         id="flowPara868" /></flowRoot>    <text
       xml:space="preserve"
       style="font-style:normal;font-variant:normal;font-weight:normal;font-stretch:normal;font-size:14.71681118px;line-height:0%;font-family:Lavi;-inkscape-font-specification:Lavi;text-align:center;letter-spacing:0px;word-spacing:0px;text-anchor:middle;fill:#000000;fill-opacity:1;stroke:none;stroke-width:1"
       x="874.51355"
       y="686.29504"
       id="text4246-36"
       transform="skewX(-9.9961078)"><tspan
         sodipodi:role="line"
         style="font-size:55.18804169px;line-height:1.25;stroke-width:1"
         x="874.51355"
         y="686.29504"
         id="tspan837-3">Her?!?</tspan></text>
    <text
       xml:space="preserve"
       style="font-style:normal;font-variant:normal;font-weight:normal;font-stretch:normal;font-size:19.04891968px;line-height:0%;font-family:Lavi;-inkscape-font-specification:Lavi;text-align:center;letter-spacing:0px;word-spacing:0px;text-anchor:middle;fill:#000000;fill-opacity:1;stroke:none;stroke-width:1.99999988;stroke-miterlimit:4;stroke-dasharray:none"
       x="1722.1239"
       y="1831.8296"
       id="text4246-3"
       transform="matrix(1.0148714,0,-0.1559129,0.98534652,0,0)"><tspan
         sodipodi:role="line"
         style="font-size:71.43344879px;line-height:1.25;stroke:#000000;stroke-width:1.99999988;stroke-miterlimit:4;stroke-dasharray:none;stroke-opacity:1"
         x="1722.1239"
         y="1831.8296"
         id="tspan4252-6">NEI!</tspan></text>
  </g>
</svg>
