<?xml version="1.0" encoding="UTF-8" standalone="no"?>
<!-- Created with Inkscape (http://www.inkscape.org/) -->

<svg
   xmlns:dc="http://purl.org/dc/elements/1.1/"
   xmlns:cc="http://creativecommons.org/ns#"
   xmlns:rdf="http://www.w3.org/1999/02/22-rdf-syntax-ns#"
   xmlns:svg="http://www.w3.org/2000/svg"
   xmlns="http://www.w3.org/2000/svg"
   xmlns:xlink="http://www.w3.org/1999/xlink"
   xmlns:sodipodi="http://sodipodi.sourceforge.net/DTD/sodipodi-0.dtd"
   xmlns:inkscape="http://www.inkscape.org/namespaces/inkscape"
   id="svg2"
   version="1.1"
   inkscape:version="0.91 r13725"
   width="2481"
   height="3503"
   sodipodi:docname="go_E28P06.svg">
  <metadata
     id="metadata8">
    <rdf:RDF>
      <cc:Work
         rdf:about="">
        <dc:format>image/svg+xml</dc:format>
        <dc:type
           rdf:resource="http://purl.org/dc/dcmitype/StillImage" />
        <dc:title></dc:title>
      </cc:Work>
    </rdf:RDF>
  </metadata>
  <defs
     id="defs6" />
  <sodipodi:namedview
     pagecolor="#ffffff"
     bordercolor="#666666"
     borderopacity="1"
     objecttolerance="10"
     gridtolerance="10"
     guidetolerance="10"
     inkscape:pageopacity="0"
     inkscape:pageshadow="2"
     inkscape:window-width="959"
     inkscape:window-height="576"
     id="namedview4"
     showgrid="false"
     inkscape:zoom="0.26450001"
     inkscape:cx="1311.8282"
     inkscape:cy="1071.5371"
     inkscape:window-x="65"
     inkscape:window-y="24"
     inkscape:window-maximized="1"
     inkscape:current-layer="layer1" />
  <g
     inkscape:groupmode="layer"
     id="layer2"
     inkscape:label="artwork"
     sodipodi:insensitive="true">
    <image
       sodipodi:absref="/home/denez/Docs Activites/Activite 3- Projet Gallo/Projet ADG/AdG 2-Travaux/5-BD pepper trad/go/../gfx_Pepper-and-Carrot_by-David-Revoy_E28P06.png"
       xlink:href="../gfx_Pepper-and-Carrot_by-David-Revoy_E28P06.png"
       y="0"
       x="0"
       id="image10"
       height="3503"
       width="2481" />
  </g>
  <g
     inkscape:groupmode="layer"
     id="layer3"
     inkscape:label="speechbubbles">
    <path
       style="fill:#ffffff;fill-rule:evenodd;stroke:none;stroke-width:1px;stroke-linecap:butt;stroke-linejoin:miter;stroke-opacity:1"
       d="m 177.09218,1834.4118 c 0,-45.5432 42.61653,-54.8854 60.37342,-57.221 17.75689,-2.3355 110.0927,-4.6711 129.03338,0 18.94068,4.6712 48.53549,21.02 48.53549,46.711 0,25.691 -8.28654,52.5499 -47.3517,63.0598 -39.06515,10.51 -124.29821,2.3355 -149.15786,-3.5033 -24.85963,-5.8389 -40.24894,-24.5233 -41.43273,-49.0465 z"
       id="path845"
       inkscape:connector-curvature="0" />
    <path
       style="fill:#ffffff;fill-rule:evenodd;stroke:none;stroke-width:0.99999994px;stroke-linecap:butt;stroke-linejoin:miter;stroke-opacity:1"
       d="m 352.8238,1860.5331 c 1.94468,22.7539 17.89104,36.1625 31.89273,36.5688 14.00168,0.4063 23.72508,-0.4063 22.94721,14.6275 -0.77787,15.0338 4.66723,30.474 21.7804,24.7855 17.11317,-5.6885 24.55788,-5.5709 29.61405,-0.2887 5.05616,5.2821 -1.50347,14.7385 14.67146,21.4164 -8.61418,-6.0374 -6.00236,-11.8397 -6.3913,-15.4966 -0.38894,-3.6568 -0.55638,-19.446 -20.78104,-16.6017 -20.22466,2.8442 -27.2255,0 -25.66975,-14.6275 1.55573,-14.6276 -2.33362,-23.9729 -19.83573,-30.474 -17.5021,-6.5011 -26.44763,-12.5959 -28.78124,-26.8171 -2.33362,-14.2212 -18.27998,-19.9097 -18.27998,-19.9097 z"
       id="path849"
       inkscape:connector-curvature="0"
       sodipodi:nodetypes="cssscccccsscc" />
    <path
       style="fill:#ffffff;fill-rule:evenodd;stroke:none;stroke-width:0.97570735px;stroke-linecap:butt;stroke-linejoin:miter;stroke-opacity:1"
       d="m 1347.9953,1840.1704 c 3.5442,-68.4212 23.0375,-98.3554 36.3283,-101.2062 13.2909,-2.8509 77.087,-8.5527 88.6057,-7.1273 11.5186,1.4255 137.3387,-1.4254 149.7435,0 12.4048,1.4255 48.7331,12.829 58.4797,38.487 9.7467,25.6578 23.9235,68.4211 15.0629,102.6317 -8.8604,34.2105 -35.4421,82.6755 -116.9594,79.8246 -81.517,-2.8509 -169.2368,7.1272 -195.8183,-17.1053 -26.5818,-24.2325 -34.5563,-69.8465 -35.4424,-95.5045 z"
       id="path851"
       inkscape:connector-curvature="0" />
    <path
       style="fill:#ffffff;fill-rule:evenodd;stroke:none;stroke-width:1px;stroke-linecap:butt;stroke-linejoin:miter;stroke-opacity:1"
       d="m 1475.2162,2033.0397 c -52.2036,-22.3729 -69.6048,-103.1642 -44.7459,-169.0401 -1.243,-90.7348 -57.1753,-16.1582 -57.1753,-16.1582 0,0 13.6723,3.7288 13.6723,39.7741 0,36.0453 13.6724,124.2942 88.2489,145.4242 z"
       id="path853"
       inkscape:connector-curvature="0"
       sodipodi:nodetypes="cccsc" />
  </g>
  <g
     inkscape:groupmode="layer"
     id="layer1"
     inkscape:label="txt">
    <text
       xml:space="preserve"
       style="font-style:normal;font-variant:normal;font-weight:normal;font-stretch:normal;line-height:0%;font-family:Lavi;-inkscape-font-specification:Lavi;text-align:center;letter-spacing:0px;word-spacing:0px;text-anchor:middle;fill:#000000;fill-opacity:1;stroke:none"
       x="299.12814"
       y="1847.413"
       id="text4246"><tspan
         sodipodi:role="line"
         style="font-size:45px;line-height:1.20000005"
         x="299.12814"
         y="1847.413"
         id="tspan4252">Pepper ?</tspan></text>
    <text
       xml:space="preserve"
       style="font-style:normal;font-variant:normal;font-weight:normal;font-stretch:normal;line-height:0%;font-family:Lavi;-inkscape-font-specification:Lavi;text-align:center;letter-spacing:0px;word-spacing:0px;text-anchor:middle;fill:#000000;fill-opacity:1;stroke:none"
       x="1520.3032"
       y="1801.8528"
       id="text4246-3"
       sodipodi:linespacing="0%"><tspan
         sodipodi:role="line"
         style="font-size:45px;line-height:1.20000005"
         x="1527.4663"
         y="1801.8528"
         id="tspan5794">J’ae prinz  a </tspan><tspan
         sodipodi:role="line"
         style="font-size:45px;line-height:1.20000005"
         x="1520.3032"
         y="1855.8528"
         id="tspan5796">manjer. Tu</tspan><tspan
         sodipodi:role="line"
         style="font-size:45px;line-height:1.20000005"
         x="1520.3032"
         y="1909.8528"
         id="tspan5804"> n’en veus-ti ?</tspan></text>
  </g>
</svg>
