<?xml version="1.0" encoding="UTF-8" standalone="no"?>
<!-- Created with Inkscape (http://www.inkscape.org/) -->

<svg
   xmlns:dc="http://purl.org/dc/elements/1.1/"
   xmlns:cc="http://creativecommons.org/ns#"
   xmlns:rdf="http://www.w3.org/1999/02/22-rdf-syntax-ns#"
   xmlns:svg="http://www.w3.org/2000/svg"
   xmlns="http://www.w3.org/2000/svg"
   xmlns:xlink="http://www.w3.org/1999/xlink"
   xmlns:sodipodi="http://sodipodi.sourceforge.net/DTD/sodipodi-0.dtd"
   xmlns:inkscape="http://www.inkscape.org/namespaces/inkscape"
   id="svg2"
   version="1.1"
   inkscape:version="0.92.4 5da689c313, 2019-01-14"
   width="2481"
   height="3503"
   sodipodi:docname="E27P06.svg">
  <metadata
     id="metadata8">
    <rdf:RDF>
      <cc:Work
         rdf:about="">
        <dc:format>image/svg+xml</dc:format>
        <dc:type
           rdf:resource="http://purl.org/dc/dcmitype/StillImage" />
        <dc:title />
      </cc:Work>
    </rdf:RDF>
  </metadata>
  <defs
     id="defs6">
    <filter
       style="color-interpolation-filters:sRGB"
       id="filter4375-4-1-1-1-9"
       inkscape:label="deevad outline effect">
      <feFlood
         id="feFlood4377-7-9-0-8-1"
         flood-opacity="1"
         flood-color="rgb(0,0,0)"
         result="flood" />
      <feComposite
         id="feComposite4379-3-8-8-2-77"
         in2="SourceGraphic"
         in="flood"
         operator="in"
         result="composite1" />
      <feMorphology
         id="feMorphology4393-1-0-49-8-9"
         operator="dilate"
         radius="4"
         result="result3" />
      <feComposite
         id="feComposite4385-9-5-7-0-8"
         in2="result3"
         in="SourceGraphic"
         operator="over"
         result="composite2" />
    </filter>
    <filter
       style="color-interpolation-filters:sRGB"
       id="filter4375-4-1-1-1-9-7-7-0-3"
       inkscape:label="deevad outline effect">
      <feFlood
         id="feFlood4377-7-9-0-8-1-4-8-3-2"
         flood-opacity="1"
         flood-color="rgb(0,0,0)"
         result="flood" />
      <feComposite
         id="feComposite4379-3-8-8-2-77-7-8-1-2"
         in2="SourceGraphic"
         in="flood"
         operator="in"
         result="composite1" />
      <feMorphology
         id="feMorphology4393-1-0-49-8-9-3-9-0-1"
         operator="dilate"
         radius="4"
         result="result3" />
      <feComposite
         id="feComposite4385-9-5-7-0-8-0-0-3-5"
         in2="result3"
         in="SourceGraphic"
         operator="over"
         result="composite2" />
    </filter>
    <filter
       style="color-interpolation-filters:sRGB"
       id="filter4375-4-1-1-1-9-7-7-0"
       inkscape:label="deevad outline effect">
      <feFlood
         id="feFlood4377-7-9-0-8-1-4-8-3"
         flood-opacity="1"
         flood-color="rgb(0,0,0)"
         result="flood" />
      <feComposite
         id="feComposite4379-3-8-8-2-77-7-8-1"
         in2="SourceGraphic"
         in="flood"
         operator="in"
         result="composite1" />
      <feMorphology
         id="feMorphology4393-1-0-49-8-9-3-9-0"
         operator="dilate"
         radius="4"
         result="result3" />
      <feComposite
         id="feComposite4385-9-5-7-0-8-0-0-3"
         in2="result3"
         in="SourceGraphic"
         operator="over"
         result="composite2" />
    </filter>
    <filter
       style="color-interpolation-filters:sRGB"
       id="filter4375-4-1-1-1-9-7-7"
       inkscape:label="deevad outline effect">
      <feFlood
         id="feFlood4377-7-9-0-8-1-4-8"
         flood-opacity="1"
         flood-color="rgb(0,0,0)"
         result="flood" />
      <feComposite
         id="feComposite4379-3-8-8-2-77-7-8"
         in2="SourceGraphic"
         in="flood"
         operator="in"
         result="composite1" />
      <feMorphology
         id="feMorphology4393-1-0-49-8-9-3-9"
         operator="dilate"
         radius="4"
         result="result3" />
      <feComposite
         id="feComposite4385-9-5-7-0-8-0-0"
         in2="result3"
         in="SourceGraphic"
         operator="over"
         result="composite2" />
    </filter>
    <filter
       style="color-interpolation-filters:sRGB"
       id="filter4375-4-1-1-1-9-7"
       inkscape:label="deevad outline effect">
      <feFlood
         id="feFlood4377-7-9-0-8-1-4"
         flood-opacity="1"
         flood-color="rgb(0,0,0)"
         result="flood" />
      <feComposite
         id="feComposite4379-3-8-8-2-77-7"
         in2="SourceGraphic"
         in="flood"
         operator="in"
         result="composite1" />
      <feMorphology
         id="feMorphology4393-1-0-49-8-9-3"
         operator="dilate"
         radius="4"
         result="result3" />
      <feComposite
         id="feComposite4385-9-5-7-0-8-0"
         in2="result3"
         in="SourceGraphic"
         operator="over"
         result="composite2" />
    </filter>
    <filter
       style="color-interpolation-filters:sRGB"
       id="filter4375-4-1-1-1-9-75"
       inkscape:label="deevad outline effect">
      <feFlood
         id="feFlood4377-7-9-0-8-1-3"
         flood-opacity="1"
         flood-color="rgb(0,0,0)"
         result="flood" />
      <feComposite
         id="feComposite4379-3-8-8-2-77-5"
         in2="SourceGraphic"
         in="flood"
         operator="in"
         result="composite1" />
      <feMorphology
         id="feMorphology4393-1-0-49-8-9-6"
         operator="dilate"
         radius="4"
         result="result3" />
      <feComposite
         id="feComposite4385-9-5-7-0-8-2"
         in2="result3"
         in="SourceGraphic"
         operator="over"
         result="composite2" />
    </filter>
    <linearGradient
       gradientTransform="matrix(0.9620232,0,0,1.1282469,-764.28464,-38.250005)"
       inkscape:collect="always"
       xlink:href="#linearGradient964"
       id="linearGradient966"
       x1="483.93088"
       y1="252.79726"
       x2="521.5141"
       y2="254.66634"
       gradientUnits="userSpaceOnUse" />
    <linearGradient
       inkscape:collect="always"
       id="linearGradient964">
      <stop
         style="stop-color:#918a6f;stop-opacity:1;"
         offset="0"
         id="stop960" />
      <stop
         style="stop-color:#c2bb9f;stop-opacity:1"
         offset="1"
         id="stop962" />
    </linearGradient>
    <radialGradient
       inkscape:collect="always"
       xlink:href="#linearGradient928"
       id="radialGradient932"
       cx="322.14978"
       cy="230.87151"
       fx="322.14978"
       fy="230.87151"
       r="182.11266"
       gradientTransform="matrix(1.0760297,-0.00865386,0.00801478,1.3707011,-845.99625,-48.45967)"
       gradientUnits="userSpaceOnUse" />
    <linearGradient
       inkscape:collect="always"
       id="linearGradient928">
      <stop
         style="stop-color:#f3efe0;stop-opacity:1"
         offset="0"
         id="stop924" />
      <stop
         style="stop-color:#d9cc9d;stop-opacity:1"
         offset="1"
         id="stop926" />
    </linearGradient>
    <filter
       style="color-interpolation-filters:sRGB"
       id="filter4375-4-1-1-1-9-30-2-7-6"
       inkscape:label="Roughen">
      <feFlood
         id="feFlood4377-7-9-0-8-1-78-6-7-3"
         flood-opacity="1"
         flood-color="rgb(0,0,0)"
         result="flood" />
      <feComposite
         id="feComposite4379-3-8-8-2-77-68-1-1-9"
         in2="SourceGraphic"
         in="flood"
         operator="in"
         result="composite1" />
      <feMorphology
         id="feMorphology4393-1-0-49-8-9-8-0-1-4"
         operator="dilate"
         radius="4"
         result="result3" />
      <feComposite
         id="feComposite4385-9-5-7-0-8-4-6-5-8"
         in2="result3"
         in="SourceGraphic"
         operator="over"
         result="fbSourceGraphic" />
      <feColorMatrix
         result="fbSourceGraphicAlpha"
         in="fbSourceGraphic"
         values="0 0 0 -1 0 0 0 0 -1 0 0 0 0 -1 0 0 0 0 1 0"
         id="feColorMatrix333-3-1-9-1" />
      <feTurbulence
         id="feTurbulence335-1-5-7-2"
         type="fractalNoise"
         numOctaves="5"
         seed="1"
         baseFrequency="0.013 0.013"
         result="turbulence" />
      <feDisplacementMap
         in2="turbulence"
         id="feDisplacementMap337-4-9-7-9"
         in="fbSourceGraphic"
         scale="6.6"
         yChannelSelector="G"
         xChannelSelector="R"
         result="fbSourceGraphic" />
      <feColorMatrix
         result="fbSourceGraphicAlpha"
         in="fbSourceGraphic"
         values="0 0 0 -1 0 0 0 0 -1 0 0 0 0 -1 0 0 0 0 1 0"
         id="feColorMatrix435-92-4-6-3" />
      <feTurbulence
         id="feTurbulence437-06-9-7-9"
         type="fractalNoise"
         numOctaves="5"
         seed="27"
         baseFrequency="0.001 0.4414"
         result="turbulence" />
      <feDisplacementMap
         in2="turbulence"
         id="feDisplacementMap439-8-0-3-0"
         in="fbSourceGraphic"
         scale="4.27461"
         yChannelSelector="G"
         xChannelSelector="R" />
    </filter>
    <filter
       style="color-interpolation-filters:sRGB"
       id="filter4375-4-1-1-1-9-30-2-7"
       inkscape:label="Roughen">
      <feFlood
         id="feFlood4377-7-9-0-8-1-78-6-7"
         flood-opacity="1"
         flood-color="rgb(0,0,0)"
         result="flood" />
      <feComposite
         id="feComposite4379-3-8-8-2-77-68-1-1"
         in2="SourceGraphic"
         in="flood"
         operator="in"
         result="composite1" />
      <feMorphology
         id="feMorphology4393-1-0-49-8-9-8-0-1"
         operator="dilate"
         radius="4"
         result="result3" />
      <feComposite
         id="feComposite4385-9-5-7-0-8-4-6-5"
         in2="result3"
         in="SourceGraphic"
         operator="over"
         result="fbSourceGraphic" />
      <feColorMatrix
         result="fbSourceGraphicAlpha"
         in="fbSourceGraphic"
         values="0 0 0 -1 0 0 0 0 -1 0 0 0 0 -1 0 0 0 0 1 0"
         id="feColorMatrix333-3-1-9" />
      <feTurbulence
         id="feTurbulence335-1-5-7"
         type="fractalNoise"
         numOctaves="5"
         seed="1"
         baseFrequency="0.013 0.013"
         result="turbulence" />
      <feDisplacementMap
         in2="turbulence"
         id="feDisplacementMap337-4-9-7"
         in="fbSourceGraphic"
         scale="6.6"
         yChannelSelector="G"
         xChannelSelector="R"
         result="fbSourceGraphic" />
      <feColorMatrix
         result="fbSourceGraphicAlpha"
         in="fbSourceGraphic"
         values="0 0 0 -1 0 0 0 0 -1 0 0 0 0 -1 0 0 0 0 1 0"
         id="feColorMatrix435-92-4-6" />
      <feTurbulence
         id="feTurbulence437-06-9-7"
         type="fractalNoise"
         numOctaves="5"
         seed="27"
         baseFrequency="0.001 0.4414"
         result="turbulence" />
      <feDisplacementMap
         in2="turbulence"
         id="feDisplacementMap439-8-0-3"
         in="fbSourceGraphic"
         scale="4.27461"
         yChannelSelector="G"
         xChannelSelector="R" />
    </filter>
    <filter
       style="color-interpolation-filters:sRGB"
       id="filter4375-4-1-1-1-9-30-2"
       inkscape:label="Roughen">
      <feFlood
         id="feFlood4377-7-9-0-8-1-78-6"
         flood-opacity="1"
         flood-color="rgb(0,0,0)"
         result="flood" />
      <feComposite
         id="feComposite4379-3-8-8-2-77-68-1"
         in2="SourceGraphic"
         in="flood"
         operator="in"
         result="composite1" />
      <feMorphology
         id="feMorphology4393-1-0-49-8-9-8-0"
         operator="dilate"
         radius="4"
         result="result3" />
      <feComposite
         id="feComposite4385-9-5-7-0-8-4-6"
         in2="result3"
         in="SourceGraphic"
         operator="over"
         result="fbSourceGraphic" />
      <feColorMatrix
         result="fbSourceGraphicAlpha"
         in="fbSourceGraphic"
         values="0 0 0 -1 0 0 0 0 -1 0 0 0 0 -1 0 0 0 0 1 0"
         id="feColorMatrix333-3-1" />
      <feTurbulence
         id="feTurbulence335-1-5"
         type="fractalNoise"
         numOctaves="5"
         seed="1"
         baseFrequency="0.013 0.013"
         result="turbulence" />
      <feDisplacementMap
         in2="turbulence"
         id="feDisplacementMap337-4-9"
         in="fbSourceGraphic"
         scale="6.6"
         yChannelSelector="G"
         xChannelSelector="R"
         result="fbSourceGraphic" />
      <feColorMatrix
         result="fbSourceGraphicAlpha"
         in="fbSourceGraphic"
         values="0 0 0 -1 0 0 0 0 -1 0 0 0 0 -1 0 0 0 0 1 0"
         id="feColorMatrix435-92-4" />
      <feTurbulence
         id="feTurbulence437-06-9"
         type="fractalNoise"
         numOctaves="5"
         seed="27"
         baseFrequency="0.001 0.4414"
         result="turbulence" />
      <feDisplacementMap
         in2="turbulence"
         id="feDisplacementMap439-8-0"
         in="fbSourceGraphic"
         scale="4.27461"
         yChannelSelector="G"
         xChannelSelector="R" />
    </filter>
    <filter
       style="color-interpolation-filters:sRGB"
       id="filter4375-4-1-1-1-9-30"
       inkscape:label="Roughen">
      <feFlood
         id="feFlood4377-7-9-0-8-1-78"
         flood-opacity="1"
         flood-color="rgb(0,0,0)"
         result="flood" />
      <feComposite
         id="feComposite4379-3-8-8-2-77-68"
         in2="SourceGraphic"
         in="flood"
         operator="in"
         result="composite1" />
      <feMorphology
         id="feMorphology4393-1-0-49-8-9-8"
         operator="dilate"
         radius="4"
         result="result3" />
      <feComposite
         id="feComposite4385-9-5-7-0-8-4"
         in2="result3"
         in="SourceGraphic"
         operator="over"
         result="fbSourceGraphic" />
      <feColorMatrix
         result="fbSourceGraphicAlpha"
         in="fbSourceGraphic"
         values="0 0 0 -1 0 0 0 0 -1 0 0 0 0 -1 0 0 0 0 1 0"
         id="feColorMatrix333-3" />
      <feTurbulence
         id="feTurbulence335-1"
         type="fractalNoise"
         numOctaves="5"
         seed="1"
         baseFrequency="0.013 0.013"
         result="turbulence" />
      <feDisplacementMap
         in2="turbulence"
         id="feDisplacementMap337-4"
         in="fbSourceGraphic"
         scale="6.6"
         yChannelSelector="G"
         xChannelSelector="R"
         result="fbSourceGraphic" />
      <feColorMatrix
         result="fbSourceGraphicAlpha"
         in="fbSourceGraphic"
         values="0 0 0 -1 0 0 0 0 -1 0 0 0 0 -1 0 0 0 0 1 0"
         id="feColorMatrix435-92" />
      <feTurbulence
         id="feTurbulence437-06"
         type="fractalNoise"
         numOctaves="5"
         seed="27"
         baseFrequency="0.001 0.4414"
         result="turbulence" />
      <feDisplacementMap
         in2="turbulence"
         id="feDisplacementMap439-8"
         in="fbSourceGraphic"
         scale="4.27461"
         yChannelSelector="G"
         xChannelSelector="R" />
    </filter>
    <filter
       style="color-interpolation-filters:sRGB"
       id="filter4375-4-1-1-1-9-3"
       inkscape:label="Roughen">
      <feFlood
         id="feFlood4377-7-9-0-8-1-6"
         flood-opacity="1"
         flood-color="rgb(0,0,0)"
         result="flood" />
      <feComposite
         id="feComposite4379-3-8-8-2-77-75"
         in2="SourceGraphic"
         in="flood"
         operator="in"
         result="composite1" />
      <feMorphology
         id="feMorphology4393-1-0-49-8-9-35"
         operator="dilate"
         radius="4"
         result="result3" />
      <feComposite
         id="feComposite4385-9-5-7-0-8-6"
         in2="result3"
         in="SourceGraphic"
         operator="over"
         result="fbSourceGraphic" />
      <feColorMatrix
         result="fbSourceGraphicAlpha"
         in="fbSourceGraphic"
         values="0 0 0 -1 0 0 0 0 -1 0 0 0 0 -1 0 0 0 0 1 0"
         id="feColorMatrix333" />
      <feTurbulence
         id="feTurbulence335"
         type="fractalNoise"
         numOctaves="5"
         seed="1"
         baseFrequency="0.013 0.013"
         result="turbulence" />
      <feDisplacementMap
         in2="turbulence"
         id="feDisplacementMap337"
         in="fbSourceGraphic"
         scale="6.6"
         yChannelSelector="G"
         xChannelSelector="R"
         result="fbSourceGraphic" />
      <feColorMatrix
         result="fbSourceGraphicAlpha"
         in="fbSourceGraphic"
         values="0 0 0 -1 0 0 0 0 -1 0 0 0 0 -1 0 0 0 0 1 0"
         id="feColorMatrix435" />
      <feTurbulence
         id="feTurbulence437"
         type="fractalNoise"
         numOctaves="5"
         seed="27"
         baseFrequency="0.001 0.4414"
         result="turbulence" />
      <feDisplacementMap
         in2="turbulence"
         id="feDisplacementMap439"
         in="fbSourceGraphic"
         scale="4.27461"
         yChannelSelector="G"
         xChannelSelector="R" />
    </filter>
    <filter
       inkscape:collect="always"
       style="color-interpolation-filters:sRGB"
       id="filter4210-3"
       x="-0.0015578248"
       width="1.0031157"
       y="-0.0045528179"
       height="1.0091056">
      <feGaussianBlur
         inkscape:collect="always"
         stdDeviation="0.2079876"
         id="feGaussianBlur4212-9" />
    </filter>
    <filter
       inkscape:collect="always"
       style="color-interpolation-filters:sRGB"
       id="filter4210"
       x="-0.0015578248"
       width="1.0031157"
       y="-0.0045528179"
       height="1.0091056">
      <feGaussianBlur
         inkscape:collect="always"
         stdDeviation="0.2079876"
         id="feGaussianBlur4212" />
    </filter>
  </defs>
  <sodipodi:namedview
     pagecolor="#ffffff"
     bordercolor="#666666"
     borderopacity="1"
     objecttolerance="10"
     gridtolerance="10"
     guidetolerance="10"
     inkscape:pageopacity="0"
     inkscape:pageshadow="2"
     inkscape:window-width="1920"
     inkscape:window-height="1024"
     id="namedview4"
     showgrid="false"
     inkscape:zoom="0.45225171"
     inkscape:cx="1440.0496"
     inkscape:cy="2073.1528"
     inkscape:window-x="0"
     inkscape:window-y="24"
     inkscape:window-maximized="1"
     inkscape:current-layer="layer1"
     inkscape:snap-global="false" />
  <g
     inkscape:groupmode="layer"
     id="layer2"
     inkscape:label="artwork"
     sodipodi:insensitive="true">
    <image
       sodipodi:absref="/home/midgard/git/peppercarrot/comics/ep27_Coriander-s-Invention/lang/kr/../gfx_Pepper-and-Carrot_by-David-Revoy_E27P06.png"
       xlink:href="../gfx_Pepper-and-Carrot_by-David-Revoy_E27P06.png"
       y="0"
       x="0"
       id="image10"
       height="3503"
       width="2481" />
  </g>
  <g
     inkscape:groupmode="layer"
     id="layer3"
     inkscape:label="speechbubbles">
    <path
       style="fill:#ffffff;fill-rule:evenodd;stroke:none;stroke-width:0.94204932px;stroke-linecap:butt;stroke-linejoin:miter;stroke-opacity:1"
       d="m 124.51579,232.96198 c 0,-45.22261 13.81676,-65.6457 32.23908,-75.85726 18.42234,-10.21155 82.9005,-17.50552 113.60439,-13.12913 30.70389,4.37637 59.87258,-2.91759 72.15414,-2.91759 12.28155,0 78.29491,1.45879 104.39321,7.29396 26.09831,5.83517 47.59104,-2.91758 61.4078,2.91759 13.81674,5.83517 52.1966,49.59897 52.1966,70.02208 0,20.4231 -16.88713,80.23363 -36.84467,88.98639 -19.95753,8.75276 -87.50608,21.8819 -121.28036,21.8819 -33.77427,0 -87.50607,0 -138.16749,-5.83517 -50.66142,-5.83518 -95.18206,-11.67034 -115.13959,-35.01105 -19.95753,-23.34069 -23.02792,-29.17586 -24.56311,-58.35172 z"
       id="path1055"
       inkscape:connector-curvature="0" />
    <path
       style="fill:#ffffff;fill-rule:evenodd;stroke:none;stroke-width:1px;stroke-linecap:butt;stroke-linejoin:miter;stroke-opacity:1"
       d="m 331.00243,306.49609 c 0,0 -11.34439,15.12497 -17.23952,40.59312 -5.89513,25.46814 -7.35913,39.49755 -2.53393,61.15161 3.67951,16.51251 22.29674,57.72327 31.08248,67.32511 -23.57697,-24.17146 -47.44853,-51.19112 -54.87711,-89.33367 -3.46351,-17.78368 11.1671,-71.13643 15.72728,-83.70363 4.56019,-12.56722 27.8408,3.96746 27.8408,3.96746 z"
       id="path1057"
       inkscape:connector-curvature="0"
       sodipodi:nodetypes="csscssc" />
    <g
       transform="matrix(0.7237654,0,0,0.88633082,888.37104,-4.1908013)"
       id="g975">
      <path
         inkscape:connector-curvature="0"
         id="path101"
         d="m 524.22751,191.63146 c -3.54348,-0.0348 -7.29462,0.1157 -11.15995,0.53804 0,0 -30.0934,62.27058 -34.39246,76.5103 11.46417,0 17.19658,2.58826 28.66075,3.88278 11.46419,1.29452 32.95953,-2.58907 41.55766,-3.23633 8.59813,-0.64726 15.76193,2.58904 44.42238,0 -2.86603,0.64726 -12.18043,-6.47148 -16.47949,-9.06051 -4.29907,-2.58904 -2.86564,-7.7685 -5.73169,-13.59384 -7.1651,4.53081 -12.18133,-3e-5 -15.76388,-3.23633 -3.58256,-3.2363 0,-6.73429 0,-6.73429 l 12.77953,-8.85507 c -3.1956,-18.67125 -9.78598,-23.87711 1.97813,-29.67315 l 19.34646,-0.64645 10.74778,-5.82622 -16.48174,0.64645 c -12.78626,1.01278 -21.80405,1.84038 -32.66837,1.29495 0,0 -11.46004,-1.8597 -26.81511,-2.01033 z m 14.40511,17.99219 c 0,0 11.92148,1.46891 13.54683,3.42659 1.62535,1.95768 4.33226,0.4895 6.4994,1.95776 2.16714,1.46826 4.87786,9.7878 2.71073,10.76663 -2.16714,0.97885 -5.41927,3.42554 -7.58642,2.44669 -2.16713,-0.97883 -4.87568,-5.87327 -4.87568,-5.87327 -0.54179,-4.40479 0,-6.85113 0,-6.85113 z"
         style="fill:url(#linearGradient966);fill-opacity:1;fill-rule:evenodd;stroke:none;stroke-width:0.99999994px;stroke-linecap:butt;stroke-linejoin:miter;stroke-opacity:1"
         sodipodi:nodetypes="cccsscscccccccccccssccccc" />
      <path
         inkscape:connector-curvature="0"
         id="path958"
         d="m 479.1379,267.64029 c 0,0 8.1984,-5.23752 15.06909,-6.63932 6.87069,-1.40181 24.66762,-6.18478 30.68906,-7.94356 6.02146,-1.75878 6.02146,-1.75878 6.02146,-1.75878 l -4.64731,-30.01543 -8.70287,-22.89613 -30.68908,2.80361 -5.49655,49.06313 z"
         style="fill:#6c6753;fill-rule:evenodd;stroke:#6c6753;stroke-width:1px;stroke-linecap:butt;stroke-linejoin:miter;stroke-opacity:1" />
      <path
         inkscape:connector-curvature="0"
         id="path99"
         d="m 541.89921,152.34375 c -0.14714,0.0194 -0.29648,0.0584 -0.44937,0.11719 -4.89222,1.87969 -40.11706,-0.93945 -46.96617,3.75976 -6.84911,4.69921 -102.98621,-0.94062 -119.61976,-2.82031 -16.63354,-1.87968 -98.82297,7.8e-4 -112.52117,2.82031 -13.69822,2.81953 -48.9227,6.57969 -91.97424,2.82032 l 2.93411,9.39843 0.98007,7.51758 -3.91418,7.51953 h 2.93411 l 15.65675,5.63867 v 8.45899 l -6.85034,6.57812 -10.76248,1.88086 c 0,16.44857 -8.57201,31.59947 -15.89192,50.34227 18.59043,-1.87969 21.76302,-3.75937 44.26723,-4.69922 22.50421,-0.93984 93.93032,10.33789 108.60698,10.33789 14.67666,0 46.9658,-2.81915 67.51312,-5.63867 20.54732,-2.81953 105.92276,1.14917 116.68564,0.20932 10.76288,-0.93985 24.46114,-7.51873 39.1378,-4.69921 l 10.76249,-41.15316 c 0,-4.69921 4.89223,-6.58008 4.89223,-6.58008 l -4.89223,-9.39843 c 0,0 3.91378,-12.21799 4.89223,-18.79688 0.94786,-6.37331 -0.85928,-24.21344 -5.4209,-23.61328 z m -352.27346,74.98942 c 1.88302,0.02 3.3984,0.6712 3.61122,2.30664 0.48646,3.73815 2.43327,8.87803 -0.97194,11.68164 -3.40522,2.80361 -12.16143,-0.46687 -12.16143,-2.33594 0,-1.86907 2.43188,-9.3457 2.43188,-9.3457 1.64181,-1.31419 4.66925,-2.33231 7.09027,-2.30664 z"
         style="fill:url(#radialGradient932);fill-opacity:1;fill-rule:evenodd;stroke:none;stroke-width:0.99999994px;stroke-linecap:butt;stroke-linejoin:miter;stroke-opacity:1"
         sodipodi:nodetypes="ccsssccccccccccsssscccccccccscc" />
      <path
         inkscape:connector-curvature="0"
         id="path111"
         d="m 515.27248,172.97336 c 7.29689,-4.20541 14.59379,-4.20541 16.05316,0.93454 1.45939,5.13994 4.8646,8.87808 0.48646,10.74716 -4.37813,1.86907 -10.7021,9.81262 -13.62086,4.20541 -2.91876,-5.60722 -9.72919,-8.41082 -8.75627,-9.81263 0.97291,-1.4018 5.83751,-6.07448 5.83751,-6.07448 z"
         style="opacity:0.53299997;vector-effect:none;fill:#cbc29a;fill-opacity:1;fill-rule:evenodd;stroke:none;stroke-width:0.99999994px;stroke-linecap:butt;stroke-linejoin:miter;stroke-miterlimit:4;stroke-dasharray:none;stroke-dashoffset:0;stroke-opacity:1" />
      <path
         inkscape:connector-curvature="0"
         id="path113"
         d="m 508.02036,204.75351 c 4.8646,-2.80361 8.75627,0 8.75627,3.27087 0,3.27088 2.4323,6.54175 -2.91875,6.54175 -5.35106,0 -9.72919,0.46727 -9.72919,-3.27087 0,-3.73814 3.89167,-6.54175 3.89167,-6.54175 z"
         style="opacity:0.53299997;vector-effect:none;fill:#cbc29a;fill-opacity:1;fill-rule:evenodd;stroke:none;stroke-width:0.99999994px;stroke-linecap:butt;stroke-linejoin:miter;stroke-miterlimit:4;stroke-dasharray:none;stroke-dashoffset:0;stroke-opacity:1" />
      <path
         inkscape:connector-curvature="0"
         id="path115"
         d="m 487.65472,226.68348 c 3.40522,-6.07449 6.81043,-4.67268 6.81043,-4.67268 l 4.37813,4.67268 -5.35104,5.60721 z"
         style="opacity:0.53299997;vector-effect:none;fill:#cbc29a;fill-opacity:1;fill-rule:evenodd;stroke:none;stroke-width:0.99999994px;stroke-linecap:butt;stroke-linejoin:miter;stroke-miterlimit:4;stroke-dasharray:none;stroke-dashoffset:0;stroke-opacity:1" />
    </g>
    <path
       style="fill:#ffffff;fill-rule:evenodd;stroke:none;stroke-width:1px;stroke-linecap:butt;stroke-linejoin:miter;stroke-opacity:1"
       d="m 192.38578,1169.5119 c 24.85883,-24.8589 149.15301,-34.5862 174.01185,-34.5862 24.85883,0 146.99138,3.2424 159.9612,49.7176 12.96983,46.4752 6.48492,63.7683 -25.93965,83.2231 -32.42457,19.4547 -95.11207,43.2327 -136.18319,42.1519 -41.07112,-1.0808 -137.26401,-17.2931 -161.04203,-36.7478 -23.77801,-19.4548 -36.74784,-59.4451 -10.80818,-103.7586 z"
       id="path1095"
       inkscape:connector-curvature="0" />
    <path
       style="fill:#ffffff;fill-rule:evenodd;stroke:none;stroke-width:1px;stroke-linecap:butt;stroke-linejoin:miter;stroke-opacity:1"
       d="m 482.13924,1201.3255 c 0,0 -8.62566,-5.3172 28.0282,-19.4148 36.65386,-14.0977 107.9013,-25.0538 135.15673,-23.1741 27.25544,1.8796 110.30926,1.2359 170.45918,31.3108 60.14993,30.075 115.60064,56.3906 153.19434,105.2624 -49.81165,-46.0523 -134.66245,-85.1159 -164.66532,-93.6365 -53.48105,-15.1883 -115.40776,-21.0243 -146.42257,-21.0243 -31.0148,0 -99.62331,14.0976 -140.03654,27.2554 -40.41323,13.1578 -69.54835,14.0977 -69.54835,14.0977 z"
       id="path1097"
       inkscape:connector-curvature="0"
       sodipodi:nodetypes="cccccssscc" />
    <path
       style="fill:#ffffff;fill-rule:evenodd;stroke:none;stroke-width:1px;stroke-linecap:butt;stroke-linejoin:miter;stroke-opacity:1"
       d="m 2258.0739,1501.5439 c 18.7969,6.5381 45.7663,17.1624 49.0353,28.6039 3.269,11.4416 20.4314,32.6902 14.7106,51.4871 -5.7208,18.7968 -22.0659,37.5937 -37.5937,48.218 -15.5279,10.6243 -44.949,18.7968 -63.7459,20.4313 -18.7968,1.6346 -67.0148,-9.807 -80.9081,-6.538 -13.8934,3.269 -64.5631,4.9035 -89.898,-3.269 -25.3349,-8.1726 -53.9388,-38.411 -58.0251,-57.2078 -4.0863,-18.7969 13.8933,-56.3906 17.1623,-66.1976 3.2691,-9.8071 17.1624,-13.0761 17.1624,-13.0761 38.7893,-5.6098 174.943,-10.8872 232.1002,-2.4518 z"
       id="path1099"
       inkscape:connector-curvature="0"
       sodipodi:nodetypes="ccccccccccc" />
    <path
       style="fill:#ffffff;fill-rule:evenodd;stroke:none;stroke-width:1.07755888px;stroke-linecap:butt;stroke-linejoin:miter;stroke-opacity:1"
       d="m 2016.6342,1513.8738 c -24.7549,-11.3705 -47.0345,-16.3451 -56.1113,-24.1623 -9.0768,-7.8172 -14.853,-25.5836 -14.0278,-31.2688 0.8251,-5.6853 9.9019,-30.5583 20.6292,-33.4009 10.7271,-2.8426 46.2092,-17.7664 62.7125,-22.0303 16.5035,-4.2639 84.9922,-4.2639 101.4955,-1.4213 16.5033,2.8426 28.8808,7.1065 33.0067,7.1065 4.1257,0 18.1536,-1.4213 28.0556,0 9.902,1.4213 26.4054,5.6853 33.8319,6.3959 7.4265,0.7107 14.8529,-3.5532 26.4053,0.7107 11.5522,4.2639 27.2304,9.2385 35.4821,20.609 8.2516,11.3705 20.6292,14.9238 15.6781,35.5328 -4.9509,20.609 -14.1104,26.5074 -24.3837,29.5988 -10.2732,3.0914 -51.5315,11.6193 -66.3845,10.9086 -14.853,-0.7106 -127.0757,-2.8426 -127.0757,-2.8426 l -49.5099,3.5533 z"
       id="path1101"
       inkscape:connector-curvature="0" />
    <path
       style="fill:#ffffff;fill-rule:evenodd;stroke:none;stroke-width:1px;stroke-linecap:butt;stroke-linejoin:miter;stroke-opacity:1"
       d="m 2009.0245,1445.6508 c -21.3196,-32.6901 -31.2688,-43.35 -49.7459,-55.4311 -18.477,-12.0812 -45.482,-11.3705 -78.8828,-5.6853 54.7205,-1.4213 65.3804,11.3705 73.9082,17.7664 8.5279,6.3959 29.1369,31.2689 35.5328,50.4566 6.3959,19.1877 19.1877,-7.1066 19.1877,-7.1066 z"
       id="path1103"
       inkscape:connector-curvature="0" />
    <path
       style="fill:#ffffff;fill-rule:evenodd;stroke:none;stroke-width:1px;stroke-linecap:butt;stroke-linejoin:miter;stroke-opacity:1"
       d="m 610.28443,1888.9622 11.18647,8.7006 -22.37295,6.2147 6.21471,43.503 -2.48588,31.0735 1.24294,24.8589 -3.72883,7.4576 17.40119,1.2429 29.8306,-1.2429 73.33357,1.2429 16.15824,-7.4576 54.68944,3.7288 55.93238,-12.4294 47.23179,2.4859 -4.97177,-8.7006 11.18648,-11.1865 -8.70059,-52.2035 4.97176,-19.8871 -4.97176,-4.9718 6.2147,-7.4576 -93.22063,-4.9718 h -22.37295 l -6.21471,-3.7288 -18.64413,2.4859 -37.28825,3.7288 -19.88707,-3.7288 -22.37295,8.7006 -19.88707,1.2429 z"
       id="path1105"
       inkscape:connector-curvature="0" />
    <path
       style="fill:#ffffff;fill-rule:evenodd;stroke:none;stroke-width:1px;stroke-linecap:butt;stroke-linejoin:miter;stroke-opacity:1"
       d="m 721.50177,2030.7094 58.41827,-11.1864 36.04531,1.2429 60.90415,-6.2147 79.54827,1.2429 13.67236,1.243 -2.48588,33.5594 -26.10178,2.4859 28.58766,9.9435 -4.97177,29.8306 -8.70059,3.7289 12.42942,4.9717 -8.70059,4.9718 h -70.84769 l -43.50296,-2.4859 -26.10178,1.243 -49.71767,6.2147 -19.88707,1.2429 -28.58766,-7.4576 4.97177,-31.0736 17.40118,-8.7006 -21.13001,-4.9718 z"
       id="path1107"
       inkscape:connector-curvature="0" />
    <path
       style="fill:#ffffff;fill-rule:evenodd;stroke:none;stroke-width:1.06220114px;stroke-linecap:butt;stroke-linejoin:miter;stroke-opacity:1"
       d="m 738.56883,2142.0957 58.22278,3.4993 2.07939,-5.249 13.51601,2.6246 h 75.89755 l 40.54801,-7.8734 18.71446,-3.4993 10.3969,7.8734 46.78627,-9.623 7.2777,-2.6246 51.9847,1.7496 -2.0794,6.1239 32.2305,4.3741 -1.0397,9.623 -2.0794,10.4978 -17.6748,2.6246 -2.0793,4.374 22.8732,3.4993 -2.0793,12.2474 -2.0795,5.249 -15.5954,2.6245 15.5954,5.2489 2.0795,9.6229 -1.0398,31.4936 v 30.6187 l 4.1588,14.872 v 7.8734 l -10.3969,-1.7497 5.1984,9.623 -48.8656,-0.8748 -44.70673,3.4993 h -19.75416 l -38.46861,-0.8749 -25.9923,5.249 -38.46863,-4.3741 -32.23047,0.8748 -35.34956,1.7497 -59.26248,-0.8748 -10.39692,1.7495 v -10.4977 l 5.19847,-1.7496 -5.19847,-4.3741 -3.11907,-28.8693 15.59539,-6.1237 -2.0794,-6.9984 -10.39692,-0.8749 -5.19846,-24.495 2.07939,-6.1237 14.55569,-3.4993 v -3.4993 l -18.71446,-6.1237 2.07938,-6.9986 6.23815,-28.869 z"
       id="path1109"
       inkscape:connector-curvature="0" />
    <path
       style="fill:#ffffff;fill-rule:evenodd;stroke:none;stroke-width:1px;stroke-linecap:butt;stroke-linejoin:miter;stroke-opacity:1"
       d="m 1192.053,2451.3632 -38.9095,-116.7285 -20.5355,-3.2425 -1.0808,35.6671 -159.9612,-194.5474 -27.02047,37.8286 -86.46552,-154.5571 -20.53556,19.4548 -32.42457,-110.2436 -50.79849,-8.6465 77.81896,143.7489 16.33097,-14.4505 85.04421,161.7527 40.21211,-44.6244 154.55706,190.2241 12.9698,3.2425 3.2425,-25.9397 z"
       id="path1111"
       inkscape:connector-curvature="0"
       sodipodi:nodetypes="cccccccccccccccccc" />
  </g>
  <g
     inkscape:groupmode="layer"
     id="layer1"
     inkscape:label="txt">
    <text
       xml:space="preserve"
       style="font-style:normal;font-variant:normal;font-weight:normal;font-stretch:normal;line-height:0%;font-family:Lavi;-inkscape-font-specification:Lavi;letter-spacing:0px;word-spacing:0px;fill:#000000;fill-opacity:1;stroke:#000000;stroke-width:0;stroke-linecap:square;stroke-miterlimit:4;stroke-dasharray:none;stroke-opacity:1;filter:url(#filter4375-4-1-1-1-9-30-2-7)"
       x="787.65729"
       y="1584.5073"
       id="text4580-9-9-6"
       transform="matrix(0.79978398,-0.46065546,0.26803503,1.1297963,538.53638,-881.29232)"><tspan
         sodipodi:role="line"
         id="tspan4582-26-1-5"
         x="787.65729"
         y="1588.0048"
         style="font-style:normal;font-variant:normal;font-weight:normal;font-stretch:normal;font-size:70px;line-height:1.25;font-family:ComicSpice;-inkscape-font-specification:ComicSpice;fill:#ffffff;stroke-width:0;stroke-linecap:square;stroke-miterlimit:4;stroke-dasharray:none" /></text>
    <text
       id="text983"
       y="227.22218"
       x="336.94312"
       style="font-style:normal;font-variant:normal;font-weight:normal;font-stretch:normal;font-size:14.9554472px;line-height:100%;font-family:'Nanum Pen Script OTF';-inkscape-font-specification:'Nanum Pen Script OTF';text-align:center;letter-spacing:0px;word-spacing:0px;text-anchor:middle;fill:#000000;fill-opacity:1;stroke:none;stroke-width:1.24628723"
       xml:space="preserve"><tspan
         y="227.22218"
         x="336.94312"
         style="font-style:normal;font-variant:normal;font-weight:normal;font-stretch:normal;font-size:56.0829277px;line-height:100%;font-family:'Nanum Pen Script OTF';-inkscape-font-specification:'Nanum Pen Script OTF';stroke-width:1.24628723"
         sodipodi:role="line"
         id="tspan1092">이 버그를 써먹을 수 있는</tspan><tspan
         y="283.30511"
         x="336.94312"
         style="font-style:normal;font-variant:normal;font-weight:normal;font-stretch:normal;font-size:56.0829277px;line-height:100%;font-family:'Nanum Pen Script OTF';-inkscape-font-specification:'Nanum Pen Script OTF';stroke-width:1.24628723"
         sodipodi:role="line"
         id="tspan1096">좋은 생각이 났어.</tspan></text>
    <text
       transform="matrix(0.97080398,-0.36126844,-0.37798228,1.3085238,509.23301,-1048.0619)"
       id="text989"
       y="1584.5073"
       x="787.65729"
       style="font-style:normal;font-variant:normal;font-weight:normal;font-stretch:normal;line-height:0%;font-family:'Nanum Pen Script OTF';-inkscape-font-specification:'Nanum Pen Script OTF';letter-spacing:0px;word-spacing:0px;fill:#000000;fill-opacity:1;stroke:#000000;stroke-width:0.99236238;stroke-miterlimit:4;stroke-dasharray:none;stroke-opacity:1;filter:url(#filter4375-4-1-1-1-9)"
       xml:space="preserve"><tspan
         style="font-style:normal;font-variant:normal;font-weight:normal;font-stretch:normal;font-size:80.40014648px;line-height:1.25;font-family:'Nanum Pen Script OTF';-inkscape-font-specification:'Nanum Pen Script OTF';fill:#ffffff"
         y="1584.5073"
         x="787.65729"
         sodipodi:role="line"
         id="tspan1098">탕!</tspan></text>
    <text
       id="text993"
       y="194.75328"
       x="1189.9501"
       style="font-style:normal;font-variant:normal;font-weight:normal;font-stretch:normal;font-size:14.14646626px;line-height:100%;font-family:'Nanum Pen Script OTF';-inkscape-font-specification:'Nanum Pen Script OTF';text-align:center;letter-spacing:0px;word-spacing:0px;text-anchor:middle;fill:#000000;fill-opacity:1;stroke:none;stroke-width:1.17887211"
       xml:space="preserve"
       transform="skewX(-11.497738)"><tspan
         id="tspan991"
         y="194.75328"
         x="1189.9501"
         style="font-style:normal;font-variant:normal;font-weight:normal;font-stretch:normal;font-size:53.04924774px;line-height:100%;font-family:'Nanum Pen Script OTF';-inkscape-font-specification:'Nanum Pen Script OTF';stroke-width:1.17887211"
         sodipodi:role="line">그날 밤...</tspan></text>
    <text
       id="text999"
       y="1218.0831"
       x="352.47192"
       style="font-style:normal;font-variant:normal;font-weight:normal;font-stretch:normal;font-size:16.57261658px;line-height:100%;font-family:'Nanum Pen Script OTF';-inkscape-font-specification:'Nanum Pen Script OTF';text-align:center;letter-spacing:0px;word-spacing:0px;text-anchor:middle;fill:#000000;fill-opacity:1;stroke:none;stroke-width:1.3810513"
       xml:space="preserve"><tspan
         id="tspan997"
         y="1218.0831"
         x="352.47192"
         style="font-style:normal;font-variant:normal;font-weight:normal;font-stretch:normal;font-size:62.14730835px;line-height:100%;font-family:'Nanum Pen Script OTF';-inkscape-font-specification:'Nanum Pen Script OTF';stroke-width:1.3810513"
         sodipodi:role="line">후추, 너 정말</tspan><tspan
         y="1280.2305"
         x="352.47192"
         style="font-style:normal;font-variant:normal;font-weight:normal;font-stretch:normal;font-size:62.14730835px;line-height:100%;font-family:'Nanum Pen Script OTF';-inkscape-font-specification:'Nanum Pen Script OTF';stroke-width:1.3810513"
         sodipodi:role="line"
         id="tspan1116">천재다!</tspan></text>
    <text
       id="text1003"
       y="1475.5365"
       x="2129.3511"
       style="font-style:normal;font-variant:normal;font-weight:normal;font-stretch:normal;font-size:15.66392994px;line-height:0%;font-family:'Nanum Pen Script OTF';-inkscape-font-specification:'Nanum Pen Script OTF';text-align:center;letter-spacing:0px;word-spacing:0px;text-anchor:middle;fill:#000000;fill-opacity:1;stroke:none;stroke-width:1.30532753"
       xml:space="preserve"><tspan
         id="tspan1001"
         y="1475.5365"
         x="2129.3511"
         style="font-style:normal;font-variant:normal;font-weight:normal;font-stretch:normal;font-size:58.73974228px;line-height:1.20000005;font-family:'Nanum Pen Script OTF';-inkscape-font-specification:'Nanum Pen Script OTF';stroke-width:1.30532753"
         sodipodi:role="line">아니, 천재는 너지.</tspan></text>
    <text
       id="text1011"
       y="1557.2716"
       x="2158.6489"
       style="font-style:normal;font-variant:normal;font-weight:normal;font-stretch:normal;font-size:14.5249815px;line-height:100%;font-family:'Nanum Pen Script OTF';-inkscape-font-specification:'Nanum Pen Script OTF';text-align:center;letter-spacing:0px;word-spacing:0px;text-anchor:middle;fill:#000000;fill-opacity:1;stroke:none;stroke-width:1.21041512"
       xml:space="preserve"><tspan
         id="tspan1009"
         y="1557.2716"
         x="2158.6489"
         style="font-style:normal;font-variant:normal;font-weight:normal;font-stretch:normal;font-size:54.46868134px;line-height:100%;font-family:'Nanum Pen Script OTF';-inkscape-font-specification:'Nanum Pen Script OTF';stroke-width:1.21041512"
         sodipodi:role="line">이건 <tspan
   style="stroke:#000000;stroke-opacity:1"
   id="tspan1143">네</tspan></tspan><tspan
         y="1611.7402"
         x="2158.6489"
         style="font-style:normal;font-variant:normal;font-weight:normal;font-stretch:normal;font-size:54.46868134px;line-height:100%;font-family:'Nanum Pen Script OTF';-inkscape-font-specification:'Nanum Pen Script OTF';stroke-width:1.21041512"
         sodipodi:role="line"
         id="tspan1123">발명품이잖아!</tspan></text>
    <text
       id="text1017"
       y="1961.3204"
       x="751.36029"
       style="font-style:normal;font-variant:normal;font-weight:normal;font-stretch:normal;font-size:14.83637524px;line-height:0%;font-family:Bandal;-inkscape-font-specification:Bandal;text-align:center;letter-spacing:0px;word-spacing:0px;text-anchor:middle;fill:#000000;fill-opacity:1;stroke:none;stroke-width:1.2363646"
       xml:space="preserve"><tspan
         y="1961.3204"
         x="751.36029"
         style="font-style:normal;font-variant:normal;font-weight:normal;font-stretch:normal;font-size:39.5636673px;line-height:1.39999998;font-family:Bandal;-inkscape-font-specification:Bandal;stroke-width:1.2363646"
         sodipodi:role="line"
         id="tspan1073">다음 분 오세요.</tspan></text>
    <text
       id="text1021"
       y="2074.2458"
       x="849.57751"
       style="font-style:normal;font-variant:normal;font-weight:normal;font-stretch:normal;font-size:14.90308952px;line-height:0%;font-family:Bandal;-inkscape-font-specification:Bandal;text-align:center;letter-spacing:0px;word-spacing:0px;text-anchor:middle;fill:#000000;fill-opacity:1;stroke:none;stroke-width:1.24192417"
       xml:space="preserve"><tspan
         id="tspan1019"
         y="2074.2458"
         x="849.57751"
         style="font-style:normal;font-variant:normal;font-weight:normal;font-stretch:normal;font-size:39.74157333px;line-height:1.39999998;font-family:Bandal;-inkscape-font-specification:Bandal;stroke-width:1.24192417"
         sodipodi:role="line">안녕하세요,</tspan></text>
    <text
       id="text1031"
       y="2204.6777"
       x="916.14032"
       style="font-style:normal;font-variant:normal;font-weight:normal;font-stretch:normal;font-size:15.23687649px;line-height:0%;font-family:Bandal;-inkscape-font-specification:Bandal;text-align:center;letter-spacing:0px;word-spacing:0px;text-anchor:middle;fill:#000000;fill-opacity:1;stroke:none;stroke-width:1.26973975"
       xml:space="preserve"><tspan
         id="tspan1029"
         y="2204.6777"
         x="916.14032"
         style="font-style:normal;font-variant:normal;font-weight:normal;font-stretch:normal;font-size:40.63167191px;line-height:1.39999998;font-family:Bandal;-inkscape-font-specification:Bandal;stroke-width:1.26973975"
         sodipodi:role="line">오늘 밤 암살을</tspan><tspan
         y="2261.562"
         x="916.14032"
         style="font-style:normal;font-variant:normal;font-weight:normal;font-stretch:normal;font-size:40.63167191px;line-height:1.39999998;font-family:Bandal;-inkscape-font-specification:Bandal;stroke-width:1.26973975"
         sodipodi:role="line"
         id="tspan1086">계획하고 계십니까?</tspan></text>
    <text
       transform="matrix(0.96049651,0,-0.32716292,1.0411282,0,0)"
       id="text1035"
       y="3339.8386"
       x="2430.0684"
       style="font-style:normal;font-variant:normal;font-weight:normal;font-stretch:normal;font-size:70.05633545px;line-height:0%;font-family:'Nanum Pen Script OTF';-inkscape-font-specification:'Nanum Pen Script OTF';font-variant-ligatures:normal;font-variant-caps:normal;font-variant-numeric:normal;font-feature-settings:normal;text-align:center;letter-spacing:0px;word-spacing:0px;writing-mode:lr-tb;text-anchor:middle;display:inline;fill:#241c1c;fill-opacity:1;stroke:#000000;stroke-width:1.31303716;stroke-miterlimit:4;stroke-dasharray:none;stroke-opacity:1"
       xml:space="preserve"><tspan
         style="font-style:normal;font-variant:normal;font-weight:normal;font-stretch:normal;font-size:70.05633545px;line-height:1.25;font-family:'Nanum Pen Script OTF';-inkscape-font-specification:'Nanum Pen Script OTF';font-variant-ligatures:normal;font-variant-caps:normal;font-variant-numeric:normal;font-feature-settings:normal;text-align:center;writing-mode:lr-tb;text-anchor:middle;stroke-width:1.31303716"
         y="3339.8386"
         x="2430.0684"
         id="tspan1033"
         sodipodi:role="line">다음 화에 계속...</tspan></text>
    <text
       transform="matrix(1.1613654,-0.69321719,0.44569052,1.6077045,-160.70286,-1433.0862)"
       id="text1039"
       y="1584.5073"
       x="787.65729"
       style="font-style:normal;font-variant:normal;font-weight:normal;font-stretch:normal;line-height:0%;font-family:'Nanum Pen Script OTF';-inkscape-font-specification:'Nanum Pen Script OTF';letter-spacing:0px;word-spacing:0px;fill:#000000;fill-opacity:1;stroke:#000000;stroke-width:0;stroke-linecap:square;stroke-miterlimit:4;stroke-dasharray:none;stroke-opacity:1;filter:url(#filter4375-4-1-1-1-9-3)"
       xml:space="preserve"><tspan
         style="font-style:normal;font-variant:normal;font-weight:normal;font-stretch:normal;font-size:70px;line-height:1.25;font-family:'Nanum Pen Script OTF';-inkscape-font-specification:'Nanum Pen Script OTF';fill:#ffffff;stroke-width:0;stroke-linecap:square;stroke-miterlimit:4;stroke-dasharray:none"
         y="1584.5073"
         x="787.65729"
         id="tspan1037"
         sodipodi:role="line">파</tspan></text>
    <text
       transform="matrix(1.0231831,-0.61448535,0.39266108,1.4251102,81.385407,-1213.691)"
       id="text1043"
       y="1584.5073"
       x="787.65729"
       style="font-style:normal;font-variant:normal;font-weight:normal;font-stretch:normal;line-height:0%;font-family:'Nanum Pen Script OTF';-inkscape-font-specification:'Nanum Pen Script OTF';letter-spacing:0px;word-spacing:0px;fill:#000000;fill-opacity:1;stroke:#000000;stroke-width:0;stroke-linecap:square;stroke-miterlimit:4;stroke-dasharray:none;stroke-opacity:1;filter:url(#filter4375-4-1-1-1-9-30)"
       xml:space="preserve"><tspan
         style="font-style:normal;font-variant:normal;font-weight:normal;font-stretch:normal;font-size:70px;line-height:1.25;font-family:'Nanum Pen Script OTF';-inkscape-font-specification:'Nanum Pen Script OTF';fill:#ffffff;stroke-width:0;stroke-linecap:square;stroke-miterlimit:4;stroke-dasharray:none"
         y="1584.5073"
         x="787.65729"
         id="tspan1041"
         sodipodi:role="line">지</tspan></text>
    <text
       transform="matrix(0.96706972,-0.54046136,0.32409822,1.325527,277.0066,-1122.6108)"
       id="text1047"
       y="1584.5073"
       x="787.65729"
       style="font-style:normal;font-variant:normal;font-weight:normal;font-stretch:normal;line-height:0%;font-family:'Nanum Pen Script OTF';-inkscape-font-specification:'Nanum Pen Script OTF';letter-spacing:0px;word-spacing:0px;fill:#000000;fill-opacity:1;stroke:#000000;stroke-width:0;stroke-linecap:square;stroke-miterlimit:4;stroke-dasharray:none;stroke-opacity:1;filter:url(#filter4375-4-1-1-1-9-30-2)"
       xml:space="preserve"><tspan
         style="font-style:normal;font-variant:normal;font-weight:normal;font-stretch:normal;font-size:70px;line-height:1.25;font-family:'Nanum Pen Script OTF';-inkscape-font-specification:'Nanum Pen Script OTF';fill:#ffffff;stroke-width:0;stroke-linecap:square;stroke-miterlimit:4;stroke-dasharray:none"
         y="1584.5073"
         x="787.65729"
         id="tspan1045"
         sodipodi:role="line">지</tspan></text>
    <text
       transform="matrix(0.79978398,-0.46065546,0.26803503,1.1297963,538.53638,-881.29232)"
       id="text1051"
       y="1584.5073"
       x="787.65729"
       style="font-style:normal;font-variant:normal;font-weight:normal;font-stretch:normal;line-height:0%;font-family:'Nanum Pen Script OTF';-inkscape-font-specification:'Nanum Pen Script OTF';letter-spacing:0px;word-spacing:0px;fill:#000000;fill-opacity:1;stroke:#000000;stroke-width:0;stroke-linecap:square;stroke-miterlimit:4;stroke-dasharray:none;stroke-opacity:1;filter:url(#filter4375-4-1-1-1-9-30-2-7)"
       xml:space="preserve"><tspan
         style="font-style:normal;font-variant:normal;font-weight:normal;font-stretch:normal;font-size:70px;line-height:1.25;font-family:'Nanum Pen Script OTF';-inkscape-font-specification:'Nanum Pen Script OTF';fill:#ffffff;stroke-width:0;stroke-linecap:square;stroke-miterlimit:4;stroke-dasharray:none"
         y="1584.5073"
         x="787.65729"
         id="tspan1049"
         sodipodi:role="line">직</tspan></text>
    <text
       transform="matrix(1.2353491,-0.45667938,0.06126805,1.7149541,559.73632,-1837.3338)"
       id="text1055"
       y="1584.5073"
       x="787.65729"
       style="font-style:normal;font-variant:normal;font-weight:normal;font-stretch:normal;line-height:0%;font-family:'Nanum Pen Script OTF';-inkscape-font-specification:'Nanum Pen Script OTF';letter-spacing:0px;word-spacing:0px;fill:#000000;fill-opacity:1;stroke:#000000;stroke-width:0;stroke-linecap:square;stroke-miterlimit:4;stroke-dasharray:none;stroke-opacity:1;filter:url(#filter4375-4-1-1-1-9-30-2-7-6);"
       xml:space="preserve"><tspan
         style="font-style:normal;font-variant:normal;font-weight:normal;font-stretch:normal;font-size:70px;line-height:1.25;font-family:'Nanum Pen Script OTF';-inkscape-font-specification:'Nanum Pen Script OTF';fill:#ffffff;stroke-width:0;stroke-linecap:square;stroke-miterlimit:4;stroke-dasharray:none;"
         y="1584.5073"
         x="787.65729"
         id="tspan1053"
         sodipodi:role="line">!</tspan></text>
    <text
       transform="matrix(0.74143042,-0.08882821,-0.00357706,1.1015744,1094.9726,-675.45884)"
       id="text1063"
       y="1085.962"
       x="1174.0292"
       style="font-style:normal;font-variant:normal;font-weight:normal;font-stretch:normal;line-height:61.00000143%;font-family:'Nanum Pen Script OTF';-inkscape-font-specification:'Nanum Pen Script OTF';text-align:center;letter-spacing:0px;word-spacing:0px;text-anchor:middle;display:inline;opacity:0.6;fill:#c9bbb2;fill-opacity:1;stroke:#c9bbb2;stroke-width:1.58341682;stroke-miterlimit:4;stroke-dasharray:none;stroke-opacity:1;filter:url(#filter4210)"
       xml:space="preserve"><tspan
         id="tspan1061"
         y="1085.962"
         x="1174.0292"
         style="font-style:normal;font-variant:normal;font-weight:normal;font-stretch:normal;font-size:45.00812149px;line-height:80.00000119%;font-family:'Nanum Pen Script OTF';-inkscape-font-specification:'Nanum Pen Script OTF';fill:#c9bbb2;fill-opacity:1;stroke:#c9bbb2;stroke-width:1.58341682;stroke-miterlimit:4;stroke-dasharray:none;stroke-opacity:1"
         sodipodi:role="line">고수</tspan><tspan
         y="1121.9685"
         x="1174.0292"
         style="font-style:normal;font-variant:normal;font-weight:normal;font-stretch:normal;font-size:45.00812149px;line-height:80.00000119%;font-family:'Nanum Pen Script OTF';-inkscape-font-specification:'Nanum Pen Script OTF';fill:#c9bbb2;fill-opacity:1;stroke:#c9bbb2;stroke-width:1.58341682;stroke-miterlimit:4;stroke-dasharray:none;stroke-opacity:1"
         sodipodi:role="line"
         id="tspan1110">여왕 폐하</tspan></text>
    <text
       transform="matrix(0.64293304,-0.04497023,-0.01652458,0.93646041,1220.7529,-235.67708)"
       id="text1069"
       y="1085.962"
       x="1174.0292"
       style="font-style:normal;font-variant:normal;font-weight:normal;font-stretch:normal;line-height:100%;font-family:'Nanum Pen Script OTF';-inkscape-font-specification:'Nanum Pen Script OTF';text-align:center;letter-spacing:0px;word-spacing:0px;text-anchor:middle;display:inline;opacity:0.6;fill:#fff6d5;fill-opacity:1;stroke:#fff6d5;stroke-width:1.93091281;stroke-miterlimit:4;stroke-dasharray:none;filter:url(#filter4210-3);"
       xml:space="preserve"><tspan
         id="tspan1067"
         y="1085.962"
         x="1174.0292"
         style="font-style:normal;font-variant:normal;font-weight:normal;font-stretch:normal;font-size:45.00812149px;line-height:100%;font-family:'Nanum Pen Script OTF';-inkscape-font-specification:'Nanum Pen Script OTF';fill:#fff6d5;stroke:#fff6d5;stroke-width:1.93091281;stroke-miterlimit:4;stroke-dasharray:none;stroke-opacity:1;"
         sodipodi:role="line">대관식</tspan></text>
  </g>
</svg>
