<?xml version="1.0" encoding="UTF-8" standalone="no"?>
<!-- Created with Inkscape (http://www.inkscape.org/) -->

<svg
   xmlns:dc="http://purl.org/dc/elements/1.1/"
   xmlns:cc="http://creativecommons.org/ns#"
   xmlns:rdf="http://www.w3.org/1999/02/22-rdf-syntax-ns#"
   xmlns:svg="http://www.w3.org/2000/svg"
   xmlns="http://www.w3.org/2000/svg"
   xmlns:xlink="http://www.w3.org/1999/xlink"
   xmlns:sodipodi="http://sodipodi.sourceforge.net/DTD/sodipodi-0.dtd"
   xmlns:inkscape="http://www.inkscape.org/namespaces/inkscape"
   id="svg2"
   version="1.1"
   inkscape:version="0.92.3 (2405546, 2018-03-11)"
   width="2481"
   height="3503"
   sodipodi:docname="E18P01.svg">
  <metadata
     id="metadata8">
    <rdf:RDF>
      <cc:Work
         rdf:about="">
        <dc:format>image/svg+xml</dc:format>
        <dc:type
           rdf:resource="http://purl.org/dc/dcmitype/StillImage" />
        <dc:title />
      </cc:Work>
    </rdf:RDF>
  </metadata>
  <defs
     id="defs6">
    <linearGradient
       id="linearGradient3019"
       y2="333.89001"
       gradientUnits="userSpaceOnUse"
       x2="490.53"
       gradientTransform="matrix(0.20187592,0.09241655,-0.07984984,0.24283868,615.57455,904.2578)"
       y1="489.14001"
       x1="382.34">
      <stop
         id="stop3015"
         style="stop-color:#000000;stop-opacity:.82639"
         offset="0" />
      <stop
         id="stop3017"
         style="stop-color:#000000"
         offset="1" />
    </linearGradient>
    <linearGradient
       id="linearGradient3019-7"
       y2="333.89001"
       gradientUnits="userSpaceOnUse"
       x2="490.53"
       gradientTransform="matrix(0.21507991,-0.05509392,0.09062436,0.23902687,11.968951,1014.6599)"
       y1="489.14001"
       x1="382.34">
      <stop
         id="stop3015-5"
         style="stop-color:#000000;stop-opacity:.82639"
         offset="0" />
      <stop
         id="stop3017-3"
         style="stop-color:#000000"
         offset="1" />
    </linearGradient>
    <linearGradient
       id="linearGradient3019-7-6"
       y2="333.89001"
       gradientUnits="userSpaceOnUse"
       x2="490.53"
       gradientTransform="matrix(0.16377945,-0.04106767,0.06900881,0.17817348,115.12807,1082.4856)"
       y1="489.14001"
       x1="382.34">
      <stop
         id="stop3015-5-2"
         style="stop-color:#000000;stop-opacity:.82639"
         offset="0" />
      <stop
         id="stop3017-3-9"
         style="stop-color:#000000"
         offset="1" />
    </linearGradient>
    <linearGradient
       id="linearGradient3019-1"
       y2="333.89001"
       gradientUnits="userSpaceOnUse"
       x2="490.53"
       gradientTransform="matrix(0.1274621,0.07141009,-0.05041626,0.18764099,668.08105,966.69231)"
       y1="489.14001"
       x1="382.34">
      <stop
         id="stop3015-2"
         style="stop-color:#000000;stop-opacity:.82639"
         offset="0" />
      <stop
         id="stop3017-7"
         style="stop-color:#000000"
         offset="1" />
    </linearGradient>
    <linearGradient
       id="linearGradient3793"
       y2="490.82999"
       gradientUnits="userSpaceOnUse"
       y1="490.82999"
       gradientTransform="matrix(0.10444363,0.05662842,-0.04775185,0.09060169,151.89064,972.55798)"
       x2="881.5"
       x1="598.60999"
       inkscape:collect="always">
      <stop
         id="stop3015-9"
         style="stop-color:#000000;stop-opacity:.82639"
         offset="0" />
      <stop
         id="stop3017-0"
         style="stop-color:#000000"
         offset="1" />
    </linearGradient>
    <linearGradient
       id="linearGradient3019-0"
       y2="333.89001"
       gradientUnits="userSpaceOnUse"
       x2="490.53"
       gradientTransform="matrix(2.0779,0,0,2.0779,-518.08,-281.8)"
       y1="489.14001"
       x1="382.34">
      <stop
         id="stop3015-93"
         style="stop-color:#000000;stop-opacity:.82639"
         offset="0" />
      <stop
         id="stop3017-6"
         style="stop-color:#000000"
         offset="1" />
    </linearGradient>
    <linearGradient
       inkscape:collect="always"
       xlink:href="#linearGradient3019-0"
       id="linearGradient4292"
       gradientUnits="userSpaceOnUse"
       gradientTransform="matrix(0.16056651,0.03689458,-0.02716161,0.15798833,488.73618,960.00607)"
       x1="382.34"
       y1="489.14001"
       x2="490.53"
       y2="333.89001" />
    <filter
       inkscape:collect="always"
       style="color-interpolation-filters:sRGB"
       id="filter4666"
       x="-0.012092819"
       width="1.0241856"
       y="-0.056169166"
       height="1.1123383">
      <feGaussianBlur
         inkscape:collect="always"
         stdDeviation="0.72856737"
         id="feGaussianBlur4668" />
    </filter>
  </defs>
  <sodipodi:namedview
     pagecolor="#ffffff"
     bordercolor="#666666"
     borderopacity="1"
     objecttolerance="10"
     gridtolerance="10"
     guidetolerance="10"
     inkscape:pageopacity="0"
     inkscape:pageshadow="2"
     inkscape:window-width="1920"
     inkscape:window-height="1017"
     id="namedview4"
     showgrid="false"
     inkscape:zoom="0.48045143"
     inkscape:cx="1240.5"
     inkscape:cy="901.00716"
     inkscape:window-x="1672"
     inkscape:window-y="-8"
     inkscape:window-maximized="1"
     inkscape:current-layer="layer7"
     showguides="false" />
  <g
     inkscape:groupmode="layer"
     id="layer2"
     inkscape:label="artwork"
     sodipodi:insensitive="true">
    <image
       sodipodi:absref="C:\Users\ato\OneDrive - Høgskulen i Volda\Vevsida\Teikneseriesida\Pepar &amp; Gulrot\ep18_The-Encounter_lang-pack\lang\nn\../gfx_Pepper-and-Carrot_by-David-Revoy_E18P01.png"
       xlink:href="../gfx_Pepper-and-Carrot_by-David-Revoy_E18P01.png"
       y="0"
       x="0"
       id="image10"
       height="3503"
       width="2481" />
  </g>
  <g
     inkscape:groupmode="layer"
     id="layer4"
     inkscape:label="translatornotes"
     style="display:inline"
     sodipodi:insensitive="true">
    <path
       style="color:#000000;clip-rule:nonzero;display:inline;overflow:visible;visibility:visible;opacity:0.481;isolation:auto;mix-blend-mode:normal;color-interpolation:sRGB;color-interpolation-filters:linearRGB;solid-color:#000000;solid-opacity:1;fill:#ffe680;fill-opacity:1;fill-rule:nonzero;stroke:#565656;stroke-width:1.20000005;stroke-linecap:butt;stroke-linejoin:miter;stroke-miterlimit:4;stroke-dasharray:none;stroke-dashoffset:0;stroke-opacity:1;marker:none;color-rendering:auto;image-rendering:auto;shape-rendering:auto;text-rendering:auto;enable-background:accumulate"
       d="m 2760.063,2340.0176 0,-189.0352 -203.8301,0 0,90.9805 -10,0 0,-15.6308 -30.9824,26.9824 30.9824,26.9804 0,-16.6171 10,0 0,76.3398 203.8301,0 z"
       id="rect4191-6"
       inkscape:connector-curvature="0" />
    <flowRoot
       xml:space="preserve"
       id="flowRoot4212-7"
       style="font-style:normal;font-variant:normal;font-weight:normal;font-stretch:normal;line-height:0.01%;font-family:Lavi;-inkscape-font-specification:'Lavi, Normal';text-align:center;letter-spacing:0px;word-spacing:0px;writing-mode:lr-tb;text-anchor:middle;display:inline;opacity:0.481;fill:#000000;fill-opacity:1;stroke:none;stroke-width:1px;stroke-linecap:butt;stroke-linejoin:miter;stroke-opacity:1"
       transform="translate(2781.7685,1141.6796)"><flowRegion
         id="flowRegion4214-5"><rect
           id="rect4216-3"
           width="291.95547"
           height="247.52747"
           x="-275.14545"
           y="1061.6674" /></flowRegion><flowPara
         id="flowPara4218-5"
         style="font-size:25.3241539px;line-height:1.25">&quot;Hippiah&quot;</flowPara><flowPara
         id="flowPara4204"
         style="font-size:25.3241539px;line-height:1.25">subtle on the</flowPara><flowPara
         id="flowPara4206"
         style="font-size:25.3241539px;line-height:1.25">box</flowPara></flowRoot>  </g>
  <g
     inkscape:groupmode="layer"
     id="layer3"
     inkscape:label="speechbubbles">
    <path
       style="color:#000000;display:inline;overflow:visible;visibility:visible;fill:#ffffff;fill-opacity:1;fill-rule:nonzero;stroke:none;stroke-width:0.92998433px;marker:none;enable-background:accumulate"
       d="m 436.70827,537.05498 c -2.05695,-64.72154 98.73584,-84.94645 125.47677,-88.99144 24.66229,-11.76811 255.67164,0.23815 252.27059,81.3723 -2.65591,63.35787 -89.24398,84.20552 -213.18763,80.43157 -131.4475,-4.00244 -166.75058,-46.38293 -164.55973,-72.81243 z"
       id="path3145"
       inkscape:connector-curvature="0"
       sodipodi:nodetypes="ccssc" />
    <path
       style="fill:#ffffff;stroke:none"
       d="m 895.53596,1454.6217 c 40.34053,6.9686 62.07878,12.5225 86.04577,40.2809 14.44404,16.7289 18.15004,37.0391 67.19257,37.251 -25.5397,9.1269 -68.20111,8.7691 -91.4074,-26.2585 -6.81295,-10.2836 -32.78697,-21.4689 -44.07769,-7.9958 -10.4354,12.4524 -32.05082,10.0209 -32.05082,10.0209 z"
       id="path3276"
       inkscape:connector-curvature="0"
       sodipodi:nodetypes="cscsscc" />
    <path
       inkscape:connector-curvature="0"
       style="fill:#ffffff;fill-rule:evenodd;stroke:none;stroke-width:1px;stroke-linecap:butt;stroke-linejoin:miter;stroke-opacity:1"
       d="m 435.88948,1175.2011 c 114.99645,0.5452 230.23746,-0.1084 238.83237,-1.3849 9.72604,-1.4448 26.212,-11.5291 42.17041,-23.9519 l 9.47059,0.5778 -5.94136,-3.3749 c 0.6627,-0.5328 1.32407,-1.0669 1.98232,-1.6057 l 31.62246,7.7055 -22.70415,-15.3091 c 6.84355,-6.0799 13.10869,-12.2414 18.08272,-17.8804 -3.31517,-30.2371 -5.91974,-48.8141 -15.01939,-63.7122 l 5.81236,-10.522 -14.74488,-0.8983 c -0.0958,-0.099 -0.19595,-0.1963 -0.29262,-0.2945 l 10.32502,-11.9194 -17.90481,5.0979 c -0.0391,-0.031 -0.0746,-0.062 -0.11348,-0.094 l 22.89302,-27.6819 -24.84825,7.7628 29.69908,-25.20203 -56.7463,26.49033 c -0.84459,-0.4665 -1.6663,-0.9266 -2.53707,-1.4005 -0.49684,-0.2704 -1.02556,-0.5355 -1.571,-0.7974 l 0.65685,-7.9357 -13.17273,3.6126 c -68.54643,-17.77183 -285.4213,-8.5184 -383.37988,-0.7903 l -19.46952,-19.24073 3.75464,13.98103 -28.53553,-21.05832 14.18861,27.98852 -15.22549,-9.661 5.678,10.4973 -15.24527,-5.2949 1.68255,8.936 c -43.72182,8.9343 -67.30715,29.0071 -74.47241,48.4007 -7.72959,20.921 -4.04322,49.7423 -2.18205,60.2245 0.94883,5.3438 7.34554,14.5616 15.39928,23.2511 l -10.7819,10.8106 16.69184,-4.8158 c 6.26488,5.9494 12.93845,11.073 18.57843,13.679 7.61879,3.5208 122.3712,5.2646 237.36754,5.8099 z"
       id="path4212" />
    <path
       style="color:#000000;display:inline;overflow:visible;visibility:visible;fill:#ffffff;fill-opacity:1;fill-rule:nonzero;stroke:none;stroke-width:0.81770068px;marker:none;enable-background:accumulate"
       d="m 249.87345,1224.0346 c 5.57405,-61.5309 92.29819,-106.5427 235.76089,-94.9508 76.84634,6.209 164.15754,10.2857 156.88478,100.4242 -7.27287,90.1384 -148.182,87.8076 -174.14733,89.9126 -25.96534,2.1053 -176.19696,-7.3622 -199.27841,-38.0269 -14.44845,-19.1954 -19.9758,-38.3026 -19.21993,-57.3591 z"
       id="path4546-6"
       inkscape:connector-curvature="0"
       sodipodi:nodetypes="cssssc" />
    <path
       style="fill:#ffffff;stroke:none;stroke-width:0.98764479"
       d="m 277.76711,1414.4836 c 9.28549,-88.1008 106.46971,-101.556 148.83997,-119.0479 52.88998,-21.8348 247.82141,-21.8157 307.14882,-18.4986 76.2542,4.2636 142.90217,23.9266 172.3062,70.5681 29.40414,46.6415 60.52076,196.0876 -7.57302,225.8864 -68.09353,29.7988 -436.39335,45.5498 -532.18385,19.3222 -96.9096,-26.534 -81.6466,-60.5507 -88.53812,-178.2302 z"
       id="path3021"
       inkscape:connector-curvature="0"
       sodipodi:nodetypes="csssssc" />
    <path
       style="fill:#ffffff;stroke:none"
       d="m 551.83922,2917.5899 c -28.0754,-14.3263 -28.0705,-24.1088 -27.1393,-35.2675 0.931,-11.1588 3.0258,-21.2089 -1.8373,-26.595 -4.8629,-5.386 -13.8837,-9.0868 -20.965,-10.9398 -7.0813,-1.8531 -2.5775,-10.1539 -3.484,-17.7934 -0.9066,-7.6396 -20.1711,-44.6458 -20.1711,-44.6458 0,0 -10.2917,29.7203 -10.4833,39.7014 -0.1918,9.981 -0.313,13.6298 0.7147,17.6205 1.0279,3.9908 5.0156,13.4366 11.7527,17.2202 6.7371,3.7836 14.9313,4.0618 20.6767,5.7715 5.7455,1.7096 6.255,10.5032 7.37,19.0942 1.1149,8.591 3.3294,14.6482 14.8496,23.6641 9.8749,7.7284 28.7163,12.1696 28.7163,12.1696 z"
       id="path3023-2"
       inkscape:connector-curvature="0"
       sodipodi:nodetypes="csssscssssssc" />
    <path
       style="fill:#ffffff;stroke:none"
       d="m 137.56224,2735.3308 c -2.16913,-32.8199 32.27359,-106.4985 221.98931,-100.3185 189.71582,6.1799 233.07482,42.2807 238.63435,100.6181 8.7948,92.2882 -110.4141,119.3663 -253.91034,119.5451 -209.15053,0.2606 -209.00631,-60.5442 -206.71332,-119.8447 z"
       id="path3280-8"
       inkscape:connector-curvature="0"
       sodipodi:nodetypes="csssc" />
  </g>
  <g
     inkscape:groupmode="layer"
     id="layer1"
     inkscape:label="txt"
     style="display:inline">
    <text
       xml:space="preserve"
       style="font-style:normal;font-variant:normal;font-weight:normal;font-stretch:normal;line-height:0%;font-family:Lavi;-inkscape-font-specification:Lavi;text-align:center;letter-spacing:0px;word-spacing:0px;text-anchor:middle;opacity:0.8;fill:#756b4a;fill-opacity:1;stroke:none;stroke-width:1.60000002;stroke-miterlimit:4;stroke-dasharray:none;filter:url(#filter4666)"
       x="2176.2036"
       y="1681.5674"
       id="text4246-7-2"
       transform="matrix(0.86912926,0.02259503,-0.19378922,0.97539956,251.76358,557.50996)"><tspan
         sodipodi:role="line"
         style="font-style:normal;font-variant:normal;font-weight:normal;font-stretch:normal;font-size:34.05346298px;line-height:1.25;font-family:Fondamento;-inkscape-font-specification:Fondamento;fill:#756b4a;fill-opacity:1;stroke:#756b4a;stroke-width:1.2107898;stroke-miterlimit:4;stroke-dasharray:none;stroke-opacity:1"
         x="2176.2036"
         y="1681.5674"
         id="tspan4342-8">HIPPIAH</tspan></text>
    <g
       inkscape:groupmode="layer"
       id="layer5"
       inkscape:label="frame01">
      <text
         xml:space="preserve"
         style="font-style:normal;font-variant:normal;font-weight:normal;font-stretch:normal;line-height:0%;font-family:Lavi;-inkscape-font-specification:Lavi;text-align:center;letter-spacing:0px;word-spacing:0px;text-anchor:middle;fill:#000000;fill-opacity:1;stroke:none"
         x="619.9389"
         y="519.21808"
         id="text4246"><tspan
           sodipodi:role="line"
           style="font-size:45px;line-height:1.25"
           x="626.97015"
           y="519.21808"
           id="tspan4144">OK, no kan </tspan><tspan
           sodipodi:role="line"
           style="font-size:45px;line-height:1.25"
           x="619.9389"
           y="575.46808"
           id="tspan6472">du sjå!</tspan></text>
    </g>
    <g
       inkscape:groupmode="layer"
       id="layer6"
       inkscape:label="frame02">
      <text
         xml:space="preserve"
         style="font-style:normal;font-variant:normal;font-weight:normal;font-stretch:normal;line-height:0%;font-family:Lavi;-inkscape-font-specification:Lavi;text-align:center;letter-spacing:0px;word-spacing:0px;text-anchor:middle;fill:#000000;fill-opacity:1;stroke:none;stroke-width:2.5;stroke-miterlimit:4;stroke-dasharray:none"
         x="484.70694"
         y="1031.3483"
         id="text4246-3"
         transform="scale(0.92423441,1.0819766)"><tspan
           sodipodi:role="line"
           style="font-style:italic;font-variant:normal;font-weight:normal;font-stretch:normal;font-size:68.68051147px;line-height:1.25;font-family:Lavi;-inkscape-font-specification:'Lavi Italic';stroke:#000000;stroke-width:3.81558394;stroke-miterlimit:4;stroke-dasharray:none;stroke-opacity:1"
           x="484.70694"
           y="1031.3483"
           id="tspan4252-6">TA~DAA~~A !</tspan></text>
      <path
         inkscape:connector-curvature="0"
         id="path3"
         style="fill:url(#linearGradient3019-1);fill-rule:evenodd;stroke:#000000;stroke-width:0.47293448;stroke-linecap:round;stroke-linejoin:round"
         d="m 713.07544,1045.2137 c 0.36559,2.4007 0.19625,4.9647 0.88529,7.2474 0.6211,3.2398 1.71859,6.2502 2.31985,9.5134 0.45224,2.2982 0.96384,4.7581 0.62709,7.1418 -0.0597,3.2659 -1.2334,6.3125 -2.746,8.6951 -1.26229,1.0347 -1.32076,-1.2524 -0.75603,-2.3316 0.48611,-1.6534 0.91805,-3.332 0.90676,-5.1573 0.25028,-2.5876 0.14589,-5.2274 -0.5707,-7.6305 -0.67213,-1.9039 -1.05416,-5.4836 -2.89323,-5.3551 -1.29385,0.3804 -1.36431,2.5748 -1.87788,4.0089 -2.5352,9.172 -5.01391,18.3797 -7.58702,27.5283 -1.11511,3.823 -4.08166,5.1449 -6.65204,5.6144 -2.34312,0.6163 -4.86146,0.2858 -6.85765,-1.6923 -1.96001,-1.4531 -3.48344,-4.8327 -2.65343,-8.1052 0.87584,-3.8429 3.66612,-6.3151 6.34058,-6.5281 2.73653,-0.6227 5.66888,0.553 7.71167,3.247 1.02816,1.2051 1.78621,-0.2171 2.34774,-1.6789 3.28432,-11.6426 6.54155,-23.3004 9.71842,-35.0053 0.33722,-1.1589 1.71018,-0.7187 1.73624,0.4885 z" />
      <path
         inkscape:connector-curvature="0"
         id="path3-5"
         style="fill:url(#linearGradient3019-7-6);fill-rule:evenodd;stroke:#000000;stroke-width:0.51012397;stroke-linecap:round;stroke-linejoin:round"
         d="m 205.98221,1107.9774 c 1.8306,1.5293 3.2608,3.5782 5.32153,4.7788 2.59023,1.9689 5.48497,3.4121 8.0711,5.4134 1.8483,1.3881 3.85255,2.8534 5.01395,4.8913 1.96798,2.494 2.75544,5.6505 2.8136,8.5606 -0.5425,1.7132 -2.01465,0.041 -2.15391,-1.1876 -0.56882,-1.6011 -1.20406,-3.1808 -2.34581,-4.5415 -1.3689,-2.1267 -3.10276,-4.0293 -5.26394,-5.2997 -1.81019,-0.929 -4.38684,-3.3304 -6.03175,-1.8687 -0.97759,1.2459 0.3163,2.9441 0.72347,4.4011 3.30673,8.7617 6.68861,17.5084 9.94533,26.2808 1.32353,3.6954 -0.63905,6.8893 -2.75842,9.1498 -1.81527,2.2018 -4.38161,3.8236 -7.47937,3.8219 -2.7385,0.3652 -6.26145,-1.0387 -7.51119,-4.1095 -1.56026,-3.5327 -0.4758,-7.4586 1.9001,-9.6039 2.18026,-2.4987 5.65859,-3.7939 9.24372,-3.2898 1.71096,0.1406 1.54047,-1.489 1.16112,-3.0022 -4.13541,-11.1711 -8.3056,-22.3335 -12.58037,-33.4716 -0.40197,-1.1196 1.1583,-1.8086 1.93086,-0.9225 z" />
      <path
         id="path11"
         style="clip-rule:evenodd;fill:url(#linearGradient3793);fill-rule:evenodd;stroke:#000000;stroke-width:0.11030359"
         inkscape:connector-curvature="0"
         d="m 181.00815,1082.1382 c -1.13704,2.1574 0.3933,6.1699 2.40192,7.722 0,0 2.08276,1.7832 4.2317,2.4252 0.31365,0.2575 6.66983,2.5048 10.37861,-4.2462 l 3.13408,-8.964 c 0.88851,0.3251 4.17102,0.6582 5.22638,0.6812 2.89622,0.062 4.78553,-1.0907 6.3333,-1.8624 1.98832,-1.3414 3.25163,-2.3081 4.33127,-4.3565 2.73071,-5.1811 0.1042,-12.0051 -5.86571,-15.2419 -0.8605,-0.4665 -1.74308,-0.8314 -2.63337,-1.1018 l 2.44101,-7.2343 c 6.0939,-1.7058 12.71373,-4.2746 16.40222,-7.9178 4.40394,-5.0664 5.82298,-9.3321 3.13125,-12.949 -2.93443,-2.441 -8.97017,-0.7113 -14.27798,3.6359 -3.1056,2.174 -4.18502,8.959 -4.55313,11.7854 -9.24281,1.8598 -17.65574,2.2256 -23.20167,11.1275 -3.82264,7.2529 -0.14546,16.8056 8.2117,21.3367 0.79833,0.4334 2.10908,1.1644 3.69862,1.8093 l -3.65919,8.6649 c 0,0 -2.92193,6.2046 -8.66927,4.1438 -2.28092,-0.8181 -4.5141,-1.5439 -3.29044,-2.4377 2.03524,0.1484 4.57371,0 5.59755,-1.9397 1.27419,-2.4176 0.20945,-5.5149 -2.37698,-6.9173 -2.58751,-1.4029 -5.71826,-0.5803 -6.99241,1.8372 z m 29.03894,-31.917 -2.28204,6.7581 c -5.03309,-1.2079 -10.11749,0.6216 -12.33887,4.8363 -2.51411,4.7702 2.88763,10.5592 3.30616,9.3305 -2.05744,-2.349 -2.43901,-3.9419 -1.08164,-6.5173 1.53423,-2.911 5.1162,-4.1124 8.58702,-3.1265 l -5.43591,16.0886 c -0.59823,-0.1638 -1.22859,-0.3692 -1.89554,-0.6224 -8.9256,-5.0407 -10.96792,-11.4954 -7.14547,-18.7479 2.1417,-4.063 10.12725,-5.7595 18.28536,-7.9988 z m -8.45752,27.5628 5.41271,-16.0279 c 0.38678,0.1472 0.77322,0.3203 1.15028,0.5264 3.97933,2.1575 5.7302,6.7071 3.91029,10.1601 -1.54422,2.7355 -3.87743,6.7902 -10.47295,5.3406 z m 11.34546,-33.7716 c 0.8811,-5.6333 3.59749,-7.2062 5.51019,-8.5101 4.51827,-3.0781 7.32366,-3.5669 10.07699,-3.8683 2.1534,2.3156 -2.38566,8.0385 -2.77959,7.8248 -3.21484,3.0852 -9.22132,3.6668 -12.80766,4.5535 z" />
      <path
         style="fill:url(#linearGradient4292);fill-rule:evenodd;stroke:#000000;stroke-width:0.46296775;stroke-linecap:round;stroke-linejoin:round"
         d="m 580.51736,1011.6445 c -0.34729,-0.063 -0.74315,-0.01 -1.02436,0.1657 l -25.63358,3.1311 c -0.58399,-0.1964 -1.44764,-0.025 -1.57241,0.5923 -1.73156,9.8604 -3.56481,19.696 -5.43207,29.5235 -0.40827,1.2575 -1.05194,2.5139 -2.45305,1.7134 -2.83422,-1.8301 -6.44985,-2.3049 -9.53415,-1.3738 -3.08093,0.5941 -5.91605,3.012 -6.2897,6.2228 -0.41633,2.7476 1.92804,5.208 4.45689,6.0591 2.65938,1.2652 5.64999,1.1303 8.27689,0.2663 2.91644,-0.7823 6.1505,-2.3086 6.80637,-5.5414 2.11591,-11.2846 4.06775,-21.6876 5.69315,-32.7 l 24.405,-2.2217 c -1.45512,8.1214 -2.96755,16.2292 -4.50682,24.3303 -0.40824,1.2575 -1.05193,2.514 -2.45304,1.7135 -2.83422,-1.8301 -6.44986,-2.305 -9.53414,-1.3738 -3.08092,0.5939 -5.91605,3.0119 -6.2897,6.2227 -0.41633,2.7475 1.92803,5.2081 4.45687,6.0593 2.65939,1.265 5.64999,1.1301 8.2769,0.2663 2.91645,-0.7825 6.1505,-2.3088 6.80639,-5.5416 2.37392,-12.6607 4.54387,-24.2057 6.27494,-36.754 l -6.3e-4,-2e-4 c 0.0655,-0.4173 -0.29075,-0.6793 -0.72969,-0.7597 z"
         id="path3-6"
         inkscape:connector-curvature="0" />
      <text
         xml:space="preserve"
         style="font-style:normal;font-variant:normal;font-weight:normal;font-stretch:normal;line-height:0%;font-family:Lavi;-inkscape-font-specification:Lavi;text-align:center;letter-spacing:0px;word-spacing:0px;text-anchor:middle;fill:#000000;fill-opacity:1;stroke:none"
         x="439.35831"
         y="1212.3701"
         id="text4246-7"><tspan
           sodipodi:role="line"
           style="font-size:45px;line-height:1.25"
           x="439.35831"
           y="1212.3701"
           id="tspan4311">Ekte hippiah-</tspan><tspan
           sodipodi:role="line"
           style="font-size:45px;line-height:1.25"
           x="439.35831"
           y="1268.6201"
           id="tspan6476">hekseklede!</tspan></text>
      <text
         xml:space="preserve"
         style="font-style:normal;font-variant:normal;font-weight:normal;font-stretch:normal;line-height:0%;font-family:Lavi;-inkscape-font-specification:Lavi;text-align:center;letter-spacing:0px;word-spacing:0px;text-anchor:middle;fill:#000000;fill-opacity:1;stroke:none"
         x="605.74054"
         y="1381.9879"
         id="text4246-7-0"><tspan
           sodipodi:role="line"
           style="font-size:45px;line-height:1.25"
           x="612.77179"
           y="1381.9879"
           id="tspan6489">Det var det einaste dei </tspan><tspan
           sodipodi:role="line"
           style="font-size:45px;line-height:1.25"
           x="612.77179"
           y="1438.2379"
           id="tspan6493">hadde att i butikken, så eg </tspan><tspan
           sodipodi:role="line"
           style="font-size:45px;line-height:1.25"
           x="612.77179"
           y="1494.4879"
           id="tspan6495">tok dei medan eg ventar på </tspan><tspan
           sodipodi:role="line"
           style="font-size:45px;line-height:1.25"
           x="605.74054"
           y="1550.7379"
           id="tspan6497">dei nye kleda mine.</tspan></text>
      <flowRoot
         xml:space="preserve"
         id="flowRoot4271"
         style="font-style:normal;font-weight:normal;line-height:0.01%;font-family:sans-serif;letter-spacing:0px;word-spacing:4.05000019px;fill:#000000;fill-opacity:1;stroke:none;stroke-width:1px;stroke-linecap:butt;stroke-linejoin:miter;stroke-opacity:1"><flowRegion
           id="flowRegion4273"><rect
             id="rect4275"
             width="726.41528"
             height="256.75021"
             x="751.46405"
             y="1309.1423" /></flowRegion><flowPara
           id="flowPara4277"
           style="font-size:35px;line-height:1.25"> </flowPara></flowRoot>    </g>
    <g
       inkscape:groupmode="layer"
       id="layer7"
       inkscape:label="frame03">
      <text
         xml:space="preserve"
         style="font-style:normal;font-variant:normal;font-weight:normal;font-stretch:normal;line-height:0%;font-family:Lavi;-inkscape-font-specification:Lavi;text-align:center;letter-spacing:0px;word-spacing:0px;text-anchor:middle;fill:#000000;fill-opacity:1;stroke:none"
         x="363.69086"
         y="2694.7598"
         id="text4246-7-7"><tspan
           sodipodi:role="line"
           style="font-size:45px;line-height:1.25"
           x="370.72211"
           y="2694.7598"
           id="tspan4325">Vel? </tspan><tspan
           sodipodi:role="line"
           style="font-size:45px;line-height:1.25"
           x="370.72211"
           y="2751.0098"
           id="tspan6510">Minner dei deg ikkje </tspan><tspan
           sodipodi:role="line"
           style="font-size:45px;line-height:1.25"
           x="363.69086"
           y="2807.2598"
           id="tspan1031">om noko? ...</tspan></text>
      <path
         style="fill:#ffaaaa;fill-opacity:1;fill-rule:evenodd;stroke:none"
         d="m 287.82165,2701.5823 c -6.16611,-0.6043 -12.28289,-1.2282 -17.64595,-4.4763 -5.36306,-3.2479 -10.44782,-6.9343 -12.64824,-11.7348 -2.20042,-4.8005 -1.95875,-9.1873 0.49792,-12.6343 4.39147,-6.1618 11.06428,-7.0426 18.46462,-2.5465 0.50734,-8.0462 5.52625,-11.8792 11.88868,-11.5028 4.00868,0.2372 7.65038,1.8768 9.96626,6.0403 2.31589,4.1636 3.28269,10.0903 1.8717,16.6196 -1.41098,6.5293 -9.24073,15.5895 -12.39499,20.2348 z"
         id="path4714"
         inkscape:connector-curvature="0"
         sodipodi:nodetypes="cssscsssc" />
      <path
         style="fill:#ffaaaa;fill-opacity:1;fill-rule:evenodd;stroke:none"
         d="m 504.79107,2803.0616 c -2.96566,-2.9376 -5.89807,-5.865 -7.41796,-9.9012 -1.51989,-4.0359 -2.72471,-8.1927 -1.99865,-11.7354 0.72604,-3.5426 2.55883,-5.8267 5.17566,-6.6625 4.67772,-1.4942 8.48442,0.85 10.57612,6.4269 3.39487,-4.1626 7.49197,-4.1243 10.64826,-1.2275 1.98859,1.8251 3.2409,4.2579 2.82268,7.5027 -0.41825,3.2449 -2.22303,6.8782 -5.4966,9.8333 -3.2736,2.955 -10.86423,4.5712 -14.30951,5.7637 z"
         id="path4714-3"
         inkscape:connector-curvature="0"
         sodipodi:nodetypes="cssscsssc" />
    </g>
  </g>
</svg>
