<?xml version="1.0" encoding="UTF-8" standalone="no"?>
<!-- Created with Inkscape (http://www.inkscape.org/) -->

<svg
   xmlns:dc="http://purl.org/dc/elements/1.1/"
   xmlns:cc="http://creativecommons.org/ns#"
   xmlns:rdf="http://www.w3.org/1999/02/22-rdf-syntax-ns#"
   xmlns:svg="http://www.w3.org/2000/svg"
   xmlns="http://www.w3.org/2000/svg"
   xmlns:xlink="http://www.w3.org/1999/xlink"
   xmlns:sodipodi="http://sodipodi.sourceforge.net/DTD/sodipodi-0.dtd"
   xmlns:inkscape="http://www.inkscape.org/namespaces/inkscape"
   id="svg2"
   version="1.1"
   inkscape:version="0.92.3 (2405546, 2018-03-11)"
   width="2481"
   height="663"
   sodipodi:docname="E18P00.svg">
  <metadata
     id="metadata8">
    <rdf:RDF>
      <cc:Work
         rdf:about="">
        <dc:format>image/svg+xml</dc:format>
        <dc:type
           rdf:resource="http://purl.org/dc/dcmitype/StillImage" />
        <dc:title />
      </cc:Work>
    </rdf:RDF>
  </metadata>
  <defs
     id="defs6">
    <filter
       id="filter4140"
       style="color-interpolation-filters:sRGB;"
       inkscape:label="Dark And Glow"
       inkscape:menu="Shadows and Glows"
       inkscape:menu-tooltip="Darkens the edge with an inner blur and adds a flexible glow"
       height="1.5"
       y="-0.25">
      <feGaussianBlur
         id="feGaussianBlur4142"
         result="result6"
         stdDeviation="4.6710210876803542" />
      <feComposite
         stdDeviation="4.7000000000000002"
         id="feComposite4144"
         in2="result6"
         operator="atop"
         in="SourceGraphic"
         result="result8" />
      <feComposite
         id="feComposite4146"
         in="result8"
         in2="SourceAlpha"
         operator="over"
         result="result9" />
      <feColorMatrix
         id="feColorMatrix4148"
         result="result10"
         values="1 0 0 0 0 0 1 0 0 0 0 0 1 0 0 0 0 0 1 0 " />
      <feBlend
         id="feBlend4150"
         in2="result6"
         mode="normal"
         in="result10" />
    </filter>
  </defs>
  <sodipodi:namedview
     pagecolor="#ffffff"
     bordercolor="#666666"
     borderopacity="1"
     objecttolerance="10"
     gridtolerance="10"
     guidetolerance="10"
     inkscape:pageopacity="0"
     inkscape:pageshadow="2"
     inkscape:window-width="1680"
     inkscape:window-height="987"
     id="namedview4"
     showgrid="false"
     inkscape:zoom="0.48156789"
     inkscape:cx="1175.773"
     inkscape:cy="452.45133"
     inkscape:window-x="-8"
     inkscape:window-y="24"
     inkscape:window-maximized="1"
     inkscape:current-layer="layer1" />
  <g
     inkscape:groupmode="layer"
     id="layer2"
     inkscape:label="artwork"
     sodipodi:insensitive="true">
    <image
       sodipodi:absref="C:\Users\ato\OneDrive - Høgskulen i Volda\Vevsida\Teikneseriesida\Pepar &amp; Gulrot\ep18_The-Encounter_lang-pack\lang\nn\../gfx_Pepper-and-Carrot_by-David-Revoy_E18P00.png"
       xlink:href="../gfx_Pepper-and-Carrot_by-David-Revoy_E18P00.png"
       y="0"
       x="0"
       id="image10"
       height="663"
       width="2481" />
  </g>
  <g
     inkscape:groupmode="layer"
     id="layer1"
     inkscape:label="txt"
     style="display:inline">
    <text
       xml:space="preserve"
       style="font-style:normal;font-variant:normal;font-weight:normal;font-stretch:normal;line-height:0%;font-family:Arial;-inkscape-font-specification:Arial;letter-spacing:0px;word-spacing:0px;display:inline;fill:#2b1100;fill-opacity:1;stroke:#000000;stroke-width:2;stroke-miterlimit:4;stroke-dasharray:none;stroke-opacity:1"
       x="1239.438"
       y="582.47577"
       id="episode-title"><tspan
         sodipodi:role="line"
         id="tspan4180"
         style="font-style:normal;font-variant:normal;font-weight:normal;font-stretch:normal;font-size:72.5px;line-height:1.25;font-family:Lavi;-inkscape-font-specification:Lavi;text-align:center;text-anchor:middle;fill:#2b1100;stroke:none"
         x="1239.438"
         y="582.47577">Episode 18: Det fyrste møtet</tspan></text>
    <flowRoot
       transform="translate(1089.1939,-4310.1621)"
       xml:space="preserve"
       id="flowRoot2987-3"
       style="font-style:normal;font-variant:normal;font-weight:normal;font-stretch:normal;line-height:0.01%;font-family:Lavi;-inkscape-font-specification:Lavi;letter-spacing:0px;word-spacing:0px;fill:#000000;fill-opacity:1;stroke:none;stroke-width:1px;stroke-linecap:butt;stroke-linejoin:miter;stroke-opacity:1"><flowRegion
         id="flowRegion2989-5"><rect
           id="rect2991-6"
           width="721.75812"
           height="55.156185"
           x="502.10858"
           y="-1050.8098"
           style="font-style:normal;font-variant:normal;font-weight:normal;font-stretch:normal;font-family:Lavi;-inkscape-font-specification:Lavi" /></flowRegion><flowPara
         id="flowPara2993-2"
         style="font-size:8.52000046px;line-height:1.25"> </flowPara></flowRoot>    <path
       style="display:inline;opacity:1;fill:#2b1100;fill-opacity:1;stroke-width:1.06920087;enable-background:new"
       d="m 735.4412,506.29453 c -5.43513,-5.43514 -5.81088,-6.14566 -5.81088,-10.9887 0,-6.49275 2.0814,-9.54477 7.50539,-11.00528 2.40556,-0.64777 4.79734,-2.15476 5.56375,-3.50558 0.96426,-1.69963 1.4501,-10.85347 1.71863,-32.38251 l 0.37437,-30.01316 -6.24458,-1.36556 c -8.60502,-1.88172 -15.33276,-4.95777 -15.33276,-7.01043 0,-0.93361 -0.72172,-1.97444 -1.6038,-2.31291 -0.8821,-0.3385 -1.6038,-1.30748 -1.6038,-2.15331 0,-1.20647 0.864,-1.3655 4.0095,-0.73806 5.83275,1.16345 8.07813,0.87862 14.69548,-1.86411 l 5.93636,-2.46049 -0.38755,-39.62067 c -0.21315,-21.79137 -0.75836,-41.17249 -1.21154,-43.06917 -0.97596,-4.08451 -3.78141,-4.92053 -16.89148,-5.03363 -10.30662,-0.0889 -10.77482,-1.5546 -2.67587,-8.37659 6.37134,-5.36677 8.17697,-6.40074 21.91106,-12.54723 6.88779,-3.08254 10.61382,-4.20098 12.2958,-3.69084 3.44521,1.04494 7.17607,4.73592 8.86728,8.77247 l 1.45589,3.47489 h 12.29516 c 18.82653,0 32.0343,4.63454 48.4417,16.99793 13.1239,9.88909 17.4239,17.68547 17.4239,31.59108 0,9.18451 -2.0484,16.68621 -7.3151,26.78967 -5.0415,9.67135 -20.19104,25.14243 -30.70759,31.35933 -7.65995,4.5282 -31.83876,14.08169 -35.6392,14.08169 -5.53716,0 -5.45898,-0.34728 -5.45898,24.24168 0,13.69152 0.44397,23.77323 1.1009,25.00077 1.28072,2.39299 6.42979,5.28677 9.40712,5.28677 1.13331,0 2.6379,0.69564 3.34351,1.54586 0.92027,1.10884 1.98582,1.27861 3.76928,0.60054 1.46098,-0.55547 5.43186,-0.5282 9.62848,0.0661 5.90102,0.83567 7.78533,0.7062 10.84387,-0.74516 2.69507,-1.27892 5.31652,-1.58995 9.63938,-1.14379 3.26571,0.33705 7.15993,0.14809 8.65382,-0.41989 3.32981,-1.26598 4.00631,-0.72979 2.53871,2.0123 -1.1814,2.20752 -6.53422,3.90016 -6.53422,2.06624 0,-0.58697 -2.38508,1.16372 -5.3002,3.89049 -2.91511,2.72673 -6.00814,4.9577 -6.87342,4.9577 -0.8653,0 -2.31246,0.73921 -3.21596,1.64268 -2.10469,2.10473 -7.651,4.41585 -14.02543,5.84441 -2.76005,0.61854 -6.54588,2.28978 -8.41294,3.71385 -3.98798,3.04181 -12.13855,6.11285 -22.5819,8.50868 -4.11643,0.94435 -7.64478,2.18855 -7.8408,2.76489 -0.19602,0.57635 -2.51282,1.04791 -5.14843,1.04791 -4.37597,0 -5.29657,-0.50455 -10.60291,-5.81087 z m 46.39517,-112.31912 c 17.54707,-8.40919 34.82288,-24.0231 41.47714,-37.48712 3.4568,-6.99442 3.8311,-8.54718 3.3777,-14.0144 -0.4722,-5.69362 -0.8763,-6.48019 -5.46324,-10.633 -6.13197,-5.55161 -12.65323,-7.39802 -25.84181,-7.31673 -10.3664,0.0639 -22.18432,2.62018 -25.3475,5.48283 -1.7612,1.59384 -1.91711,4.31252 -1.91711,33.43141 0,32.57926 0.20899,34.26255 4.25352,34.26255 0.92807,0 5.18566,-1.67651 9.4613,-3.72554 z m 367.45523,83.50945 c -15.3013,-4.99939 -22.1235,-10.01379 -27.4903,-20.2057 -1.8298,-3.47511 -2.3853,-6.36047 -2.4123,-12.53339 -0.049,-11.31479 4.0581,-19.76336 15.1509,-31.16221 l 8.2312,-8.45834 -3.4352,-6.96601 c -2.6627,-5.39984 -3.1917,-7.42064 -2.353,-8.98786 1.6389,-3.06225 1.3123,-4.3008 -1.134,-4.3008 h -2.216 l 2.216,-2.81722 c 2.8763,-3.6566 2.8531,-6.83918 -0.055,-7.59981 -2.0589,-0.53841 -2.2163,-1.13004 -1.6808,-6.3183 1.6786,-16.26308 16.3938,-32.08427 31.7515,-34.13797 5.639,-0.75404 13.9352,1.97022 21.7368,7.13778 7.0588,4.67553 12.8555,14.47774 12.8518,21.7324 -0.01,9.98557 -3.0862,17.29561 -11.6276,27.58605 -3.2197,3.87879 -5.8538,7.78046 -5.8538,8.67038 0,0.88994 -1.9954,3.32611 -4.4344,5.4138 l -4.4345,3.79576 7.3747,8.18734 c 4.0562,4.50307 8.7329,9.809 10.3929,11.791 1.6601,1.98197 3.4172,3.6036 3.905,3.6036 0.9485,0 3.2343,-5.78008 3.2343,-8.17856 0,-0.98423 -1.4474,-1.44846 -4.5441,-1.45748 -4.0287,-0.0118 -4.8244,-0.44588 -7.016,-3.82806 -3.5426,-5.46755 -2.4885,-9.33871 3.1582,-11.59805 10.9664,-4.3879 25.011,-7.16361 38.3395,-7.57725 7.3509,-0.22812 16.2519,-0.72884 19.7803,-1.11269 l 6.4151,-0.69795 -7.4843,7.90084 c -4.1165,4.34547 -8.4075,8.36789 -9.5355,8.93873 -1.1279,0.57081 -2.5713,2.00013 -3.2076,3.17627 -0.6361,1.17612 -1.2763,2.33822 -1.4225,2.58248 -0.1462,0.24426 -3.5141,0.97613 -7.4843,1.62639 l -7.2185,1.18232 -0.7194,7.25326 c -0.3955,3.98931 -1.6668,9.16866 -2.825,11.50969 l -2.106,4.2564 6.5675,4.39511 c 10.7879,7.21977 10.5386,6.8696 8.1126,11.39588 -1.1441,2.13445 -2.08,4.47276 -2.08,5.19629 0,0.7235 -1.4272,2.77549 -3.1715,4.55992 -3.6821,3.7667 -7.4698,4.17433 -11.6322,1.25189 -1.5609,-1.09591 -5.0614,-2.96595 -7.7788,-4.15563 -2.7173,-1.18968 -5.2867,-2.72281 -5.7095,-3.40696 -0.5396,-0.87295 -1.7764,-0.47678 -4.1475,1.32838 -5.0535,3.84732 -10.9714,6.61214 -20.4859,9.57074 -13.0959,4.07231 -15.1332,4.19853 -23.5224,1.45754 z m 25.7681,-27.39267 c 2.2933,-1.38059 4.3461,-2.6433 4.5619,-2.80605 0.2159,-0.16275 -5.0605,-5.59832 -11.7253,-12.07906 l -12.1179,-11.7832 -2.5083,2.35639 c -1.3794,1.29602 -3.4797,3.92831 -4.6672,5.84954 -1.1872,1.92123 -2.7667,3.49315 -3.5096,3.49315 -2.1786,0 -5.2145,4.02732 -4.4796,5.94227 0.3683,0.95985 1.5699,1.98058 2.6701,2.26829 1.1004,0.28773 2.6252,1.69014 3.3885,3.11641 0.7633,1.42632 2.8678,3.54237 4.6765,4.70234 4.7698,3.05891 17.8397,2.47455 23.7109,-1.06008 z m -7.6823,-64.78061 c 13.2613,-11.31518 15.4769,-17.3478 8.9115,-24.26436 -4.1096,-4.32935 -10.02,-5.87227 -14.4027,-3.75984 -4.3057,2.07534 -8.9986,9.44236 -9.64,15.13337 -0.833,7.38933 2.9398,19.9342 5.9951,19.9342 0.4847,0 4.596,-3.16954 9.1361,-7.04337 z m 196.2889,63.03969 c -9.5485,-1.88997 -19.6816,-5.42247 -25.7259,-8.96829 -17.1512,-10.0616 -28.9049,-21.84934 -36.231,-36.33603 -4.721,-9.33529 -6.4681,-15.02201 -10.0438,-32.69362 -2.467,-12.19106 -2.5336,-13.44701 -1.1908,-22.45322 3.4298,-23.00466 11.4516,-52.07341 18.5819,-67.33629 8.897,-19.04459 27.9524,-46.47883 42.3137,-60.91973 11.3108,-11.37334 19.3023,-17.34234 31.2528,-23.3433 l 9.8688,-4.95559 11.5153,0.006 c 10.8769,0.005 12.1248,0.24269 22.5108,4.2768 14.7893,5.7443 14.8193,5.74022 15.733,-2.13176 0.4493,-3.87219 1.5968,-7.4882 2.9036,-9.14942 2.0151,-2.56165 2.5668,-2.69722 8.1829,-2.01098 7.0192,0.85766 17.364,5.67583 22.3275,10.39901 2.9497,2.80695 3.4679,4.04255 3.4283,8.17565 -0.087,9.06789 -1.6139,13.91213 -5.7074,18.10427 -4.4674,4.5751 -5.0475,7.60245 -1.463,7.63788 1.3231,0.0131 3.5588,0.91044 4.9684,1.99414 l 2.5626,1.97038 -1.7645,19.13729 c -3.13,33.94713 -13.938,80.58683 -18.6745,80.58683 -1.2897,0 -2.3283,-5.32126 -2.3283,-11.92919 0,-2.88568 -0.6753,-6.86266 -1.5004,-8.83771 -0.8429,-2.01707 -1.8435,-9.85168 -2.2831,-17.87479 -0.7135,-13.01843 -1.203,-15.51291 -5.5275,-28.15958 -9.1456,-26.74551 -19.1828,-42.27122 -27.3121,-42.24675 -8.5767,0.0259 -23.1274,9.59398 -37.8651,24.89914 -8.4814,8.80785 -11.3471,11.1648 -13.0374,10.72276 -1.4279,-0.37344 -3.0985,0.36528 -4.8999,2.16675 -2.9339,2.93391 -3.3581,5.01138 -1.6679,8.16936 1.4368,2.68471 0.3285,5.15614 -2.4923,5.55797 -1.7489,0.24913 -2.3479,1.11447 -2.4487,3.53741 -0.073,1.76418 -4.1099,11.62755 -8.9702,21.91862 -11.1093,23.52205 -19.8195,49.36257 -20.9034,62.01366 -0.6162,7.1907 -1.3182,9.79747 -3.3626,12.48539 -2.4367,3.20361 -2.4909,3.57714 -0.9509,6.55516 0.8982,1.73686 3.0179,4.32315 4.7103,5.74729 1.6925,1.42413 4.4318,4.9697 6.0873,7.87905 4.1913,7.36607 11.8586,15.12538 18.1111,18.32839 5.0176,2.57048 5.9483,2.68049 18.711,2.21215 12.2995,-0.45132 14.4665,-0.85795 25.7266,-4.82739 6.7627,-2.38401 14.0847,-5.10315 16.271,-6.04251 2.1863,-0.93935 5.2908,-1.70792 6.8988,-1.70792 1.7252,0 4.2598,-1.23704 6.1824,-3.01754 1.7921,-1.65966 6.6907,-4.32648 10.8859,-5.92632 4.1949,-1.5998 8.524,-3.89971 9.6201,-5.11092 1.0962,-1.21116 3.2747,-2.86499 4.8414,-3.67507 3.3372,-1.72575 3.1065,-4.25204 -0.7707,-8.43552 -2.358,-2.54414 -3.1338,-2.70305 -13.1996,-2.70305 -8.9651,0 -11.8693,-0.45187 -17.9602,-2.79438 -17.9055,-6.88641 -21.2903,-7.84295 -27.8478,-7.87001 -3.6754,-0.0151 -6.6659,-0.38848 -6.6454,-0.82954 0.02,-0.44103 4.6045,-3.85944 10.1873,-7.59647 5.9261,-3.96691 12.6643,-9.64021 16.1909,-13.63231 3.3222,-3.76074 6.6241,-6.83773 7.3374,-6.83773 0.7132,0 5.7909,2.95101 11.2838,6.55778 l 9.9869,6.55775 9.1085,-0.69921 c 5.0096,-0.38458 12.172,-1.36314 15.9163,-2.17461 6.4265,-1.3927 7.2169,-1.33629 14.1062,1.007 4.0144,1.3653 8.2824,2.22511 9.4846,1.91072 3.211,-0.8397 3.7656,1.93733 1.6556,8.28988 -1.4865,4.47585 -2.4931,5.77049 -5.445,7.00389 -4.1133,1.71868 -4.3366,2.9259 -1.8406,9.95367 l 1.7807,5.01404 -5.9819,10.65795 c -8.2396,14.68048 -21.367,27.1804 -28.5452,27.1804 -1.6098,0 -2.9852,1.59474 -5.1082,5.92347 -2.6994,5.50412 -3.7609,6.44984 -14.9929,13.35771 -8.357,5.1397 -15.6244,8.62186 -23.5459,11.28212 -10.4901,3.52273 -12.6779,3.87875 -25.8924,4.21301 -7.9389,0.2008 -15.6371,0.12701 -17.1072,-0.16399 z M 475.84192,429.35828 c -8.0812,-3.03407 -14.1738,-11.33068 -15.2993,-20.83388 -0.50988,-4.30516 -0.21626,-5.51473 1.95011,-8.03327 2.07601,-2.41351 3.7965,-3.11191 9.25018,-3.75496 9.453,-1.11457 10.2866,-2.24566 10.73778,-14.56959 0.35899,-9.80596 0.44221,-10.09744 2.71979,-9.5258 1.57407,0.39508 3.0249,-0.15669 4.39611,-1.67188 2.4373,-2.69316 1.47569,-4.88592 -3.30422,-7.53448 l -3.1128,-1.72482 -0.28244,-32.57844 -0.28246,-32.57843 3.62557,0.42326 c 2.86986,0.33504 3.99419,-0.0993 5.39409,-2.08402 1.65634,-2.34825 1.64607,-2.60904 -0.16196,-4.11111 -1.06177,-0.88208 -3.55689,-3.87952 -5.54473,-6.66096 l -3.61424,-5.05717 0.90382,-17.39604 c 0.49712,-9.56784 0.93257,-21.80876 0.9677,-27.20204 0.0578,-8.87537 -0.17516,-10.06021 -2.45453,-12.48466 -1.38511,-1.47329 -5.23423,-3.75208 -8.55361,-5.06402 -3.31937,-1.31193 -7.07891,-3.31913 -8.35451,-4.46044 -3.66939,-3.28307 -6.85276,-11.92362 -7.05286,-19.14345 -0.1671,-6.02849 0.057,-6.69391 3.19844,-9.50087 7.30786,-6.52957 41.08268,-14.42257 66.97857,-15.65252 14.30113,-0.67925 32.54353,0.70359 46.1152,3.49569 9.94999,2.04702 27.36256,10.76824 34.88386,17.47186 9.77578,8.71301 22.08341,28.10191 28.26737,44.5312 12.21445,32.45081 -2.64852,64.70294 -41.88821,90.89593 -14.28358,9.53448 -47.71062,24.15625 -64.61156,28.26264 -12.41243,3.01581 -14.84724,4.11626 -15.58162,7.04222 -1.00994,4.02399 0.0132,29.07239 1.23737,30.29601 0.6123,0.61196 3.3962,1.53915 6.18644,2.06045 2.79027,0.52127 5.93573,1.72834 6.98996,2.6824 1.32796,1.20179 3.92425,1.73466 8.45197,1.73466 3.59438,0 6.76863,0.37765 7.05392,0.83926 0.64861,1.04949 32.95676,0.89082 34.67368,-0.17029 0.69185,-0.42759 2.94459,-0.31172 5.00607,0.25748 2.15042,0.59378 3.99731,0.63181 4.33262,0.0892 0.50895,-0.82353 6.71955,-0.2587 7.87101,0.71582 1.14409,0.96828 -2.69393,3.64188 -6.1404,4.27743 -2.14613,0.39579 -5.54294,1.59207 -7.54844,2.65843 -2.0055,1.06637 -4.01711,1.70972 -4.47022,1.42968 -0.4531,-0.28004 -2.02132,0.60066 -3.48495,1.95706 -1.52779,1.41595 -6.45421,3.50608 -11.56778,4.90784 -4.89867,1.3429 -10.48672,3.12779 -12.41787,3.96643 -1.93113,0.83864 -4.98976,1.52481 -6.79694,1.52481 -1.80716,0 -6.24139,1.38977 -9.85382,3.08838 -13.68498,6.43487 -49.2405,10.7786 -58.81216,7.18493 z M 547.86623,313.2668 c 2.64627,-0.72919 7.86233,-2.70855 11.59127,-4.39855 6.11562,-2.77172 7.05842,-2.93048 9.62282,-1.62059 5.27206,2.69301 9.66716,-1.10808 8.17155,-7.06713 -0.93412,-3.72177 3.01333,-7.17248 6.04156,-5.28131 3.15045,1.96748 5.59141,-0.30216 4.76562,-4.43115 -0.53427,-2.6714 0.21529,-4.02507 5.36154,-9.68268 7.2375,-7.95668 14.84845,-20.54904 17.13953,-28.35744 2.35567,-8.02849 1.58902,-18.30072 -1.93501,-25.92745 -8.43642,-18.25811 -26.01178,-25.49827 -53.32928,-21.96897 -12.2829,1.58691 -15.98322,1.16632 -15.98322,-1.81667 0,-0.76204 -1.25452,-2.05691 -2.78784,-2.87752 -2.57004,-1.37545 -2.95282,-1.28827 -4.89942,1.11568 -1.32879,1.64099 -1.95213,3.69401 -1.68147,5.53815 0.34866,2.37557 -0.11704,3.15713 -2.45937,4.12736 -4.62709,1.9166 -8.66648,6.90344 -9.66173,11.92793 -1.1602,5.85721 -2.62164,88.19507 -1.63516,92.12552 0.40467,1.61232 1.72453,3.29725 2.93304,3.74429 2.05325,0.75955 17.05286,-1.92747 28.74557,-5.14947 z m 108.52385,113.62593 c -15.70174,-2.08256 -21.53613,-7.22071 -28.31157,-24.9332 -4.54743,-11.88798 -4.71064,-12.73432 -5.1427,-26.66987 -0.83152,-26.81866 4.5018,-45.00575 18.82463,-64.19397 9.43938,-12.64593 15.17356,-17.7664 25.38013,-22.66385 15.57229,-7.4721 20.78513,-6.88091 33.77041,3.82993 7.68027,6.33506 12.74049,14.5827 14.70351,23.96524 1.49751,7.15761 1.53537,31.5223 0.0572,36.84491 -1.45509,5.23969 -4.11068,6.84034 -13.84261,8.34375 -11.35247,1.75375 -53.54358,12.7628 -56.14492,14.65007 -2.60401,1.88923 -3.25687,7.09228 -1.50485,11.99323 2.70957,7.57953 3.367,8.86562 6.09966,11.93255 6.41869,7.20391 15.34223,6.87505 31.51855,-1.16154 16.59729,-8.24574 21.98002,-11.26795 24.81904,-13.93509 1.56929,-1.47423 3.27724,-2.16962 4.3335,-1.76431 2.07375,0.79577 1.48334,4.76286 -1.89394,12.72587 -1.67051,3.93885 -2.59308,4.96955 -4.03767,4.51106 -2.32427,-0.73769 -7.75189,5.33071 -7.04782,7.87986 0.26575,0.96217 0.79574,2.83631 1.17776,4.16482 0.62818,2.18449 -0.25819,2.87523 -9.27066,7.22446 -13.17676,6.3588 -23.45742,8.58641 -33.48767,7.25608 z m 8.01902,-78.42152 c 18.97031,-4.23953 27.43402,-7.08967 29.40356,-9.90158 1.20825,-1.72502 1.5906,-5.32546 1.55188,-14.61415 -0.062,-14.87599 -1.70222,-19.6144 -6.96803,-20.12967 -7.88794,-0.77184 -28.13759,18.00286 -37.06711,34.3672 -2.78338,5.10085 -5.38027,10.54754 -5.77086,12.10378 -0.64911,2.58626 -0.48978,2.76807 1.85308,2.11487 1.40979,-0.39306 9.05865,-2.16627 16.99748,-3.94045 z m 269.43861,76.29453 c -3.1573,-1.20837 -5.3728,-3.94782 -6.46099,-7.98898 -0.60821,-2.25885 -1.7034,-4.10701 -2.4336,-4.10701 -0.73031,0 -5.40291,1.71935 -10.38351,3.82081 -37.5538,15.84471 -63.8074,6.99495 -61.7158,-20.80376 1.0149,-13.4889 9.1333,-26.90549 21.0907,-34.85477 10.4448,-6.94365 27.9551,-15.00923 38.2222,-17.60579 4.8352,-1.22283 10.0686,-2.70897 11.6298,-3.30254 l 2.8385,-1.07919 -0.72159,-8.79571 c -0.84681,-10.32313 -3.13491,-19.1861 -5.44891,-21.10655 -0.9039,-0.75019 -2.9536,-1.33047 -4.5549,-1.28947 -1.6012,0.041 -5.23,0.12759 -8.064,0.19247 -6.5338,0.14952 -18.0255,5.62416 -28.4051,13.53218 -4.1554,3.16594 -8.0028,5.75626 -8.5498,5.75626 -0.547,0 -2.7801,2.48547 -4.9626,5.52329 -3.405,4.73957 -4.1145,5.26162 -5.0001,3.67912 -1.1811,-2.11048 2.5458,-12.42274 7.8659,-21.76477 6.333,-11.1208 23.4014,-22.69201 36.6539,-24.84892 14.2311,-2.31617 29.0002,4.81798 35.3352,17.06859 3.90171,7.54498 6.8791,32.20464 6.94221,57.49742 0.022,8.7776 0.69199,10.27483 3.22969,7.21713 0.732,-0.88211 2.0553,-1.6038 2.9405,-1.6038 2.4232,0 0.9189,7.74915 -2.9609,15.25172 -2.87869,5.56689 -4.1922,11.47828 -2.5504,11.47828 0.35031,0 1.914,-0.89941 3.4749,-1.99868 1.5609,-1.09926 5.7249,-3.297 9.2533,-4.88387 3.5283,-1.58685 7.6923,-3.5743 9.2531,-4.41653 1.5609,-0.84222 3.1246,-1.53132 3.475,-1.53132 1.63151,0 0.2799,3.59483 -3.489,9.2799 -4.52029,6.81831 -5.70349,9.77702 -6.02629,15.06902 -0.28781,4.72045 -3.60051,7.95105 -12.69281,12.37859 -7.6021,3.70183 -14.7397,5.40224 -17.7846,4.23688 z m -37.6443,-24.45608 c 13.767,-2.78654 27.4145,-10.16558 30.7575,-16.63022 3.6318,-7.02316 0.3551,-16.9853 -5.5868,-16.9853 -1.7963,0 -2.882,-0.71338 -3.2547,-2.13842 -0.6732,-2.57454 -2.1718,-2.71995 -4.6759,-0.45375 -1.0238,0.92655 -2.5051,1.7988 -3.2918,1.93834 -6.0464,1.0725 -13.7249,4.26019 -15.914,6.60657 -1.4429,1.54663 -5.3916,4.75989 -8.7748,7.14061 -7.7831,5.47669 -12.9515,12.89019 -12.0789,17.32569 0.3414,1.73497 1.2148,3.53186 1.941,3.99313 2.1534,1.3678 12.0506,0.99013 20.8784,-0.79665 z m 612.74709,23.18697 c -2.7161,-0.95627 -7.0465,-3.48547 -9.6228,-5.62047 -3.8052,-3.15339 -5.0355,-5.10081 -6.5554,-10.3784 -2.2686,-7.87695 -2.3812,-13.99062 -0.3472,-18.8586 0.838,-2.00593 2.0747,-7.40329 2.7479,-11.99417 0.6731,-4.59087 1.8832,-12.43676 2.6892,-17.43529 1.4175,-8.79269 1.962,-14.9635 3.3747,-38.25675 0.3669,-6.04568 1.068,-11.24018 1.5586,-11.54334 0.4906,-0.30318 1.8874,-0.0184 3.1042,0.63275 1.8636,0.99733 2.8009,0.66715 5.9463,-2.09462 3.2852,-2.88447 4.275,-3.20292 8.2345,-2.64918 2.4754,0.34619 5.102,0.81476 5.837,1.04131 2.2652,0.6981 1.5194,9.20579 -1.7874,20.38749 -1.7182,5.81005 -3.4524,14.65342 -3.8539,19.65194 -0.4013,4.99852 -1.8656,14.62132 -3.2538,21.384 -2.9609,14.42344 -4.2089,25.49829 -3.2875,29.16992 1.8556,7.39351 23.0874,5.71188 40.5095,-3.20858 5.1416,-2.63261 10.4801,-6.13151 11.8633,-7.77534 2.5646,-3.0478 4.1547,-10.34257 5.6542,-25.9377 0.3814,-3.9694 1.1086,-7.2171 1.6155,-7.2171 1.3693,0 1.1165,-6.16839 -0.2883,-7.0366 -1.5124,-0.93472 -0.5901,-30.12104 1.1327,-35.84168 l 1.16,-3.85249 11.3717,-0.73521 c 10.7904,-0.6976 11.5007,-0.61411 13.8927,1.63315 3.0698,2.88379 3.2142,6.17211 0.4269,9.71564 -1.7114,2.17578 -2.2075,4.98699 -2.7128,15.3803 -0.3402,6.99485 -1.0436,15.60473 -1.5632,19.13309 -0.5196,3.52836 -1.2749,11.70774 -1.6782,18.17643 -0.4555,7.30595 -1.5,13.78632 -2.7572,17.10722 -2.4526,6.47869 -2.5266,8.01899 -0.3856,8.01899 1.8791,0 11.4238,-4.65328 15.633,-7.62152 1.561,-1.1007 4.0871,-2.00127 5.6133,-2.00127 3.8557,0 3.6558,3.25186 -0.6078,9.89617 -1.8606,2.89962 -3.7505,7.59685 -4.1998,10.4383 -0.449,2.84145 -1.6244,6.39929 -2.612,7.90634 -3.5586,5.43124 -18.9024,12.35222 -27.4401,12.37724 -3.2352,0.01 -4.4513,-0.63911 -6.6825,-3.56428 -1.5,-1.96669 -2.7274,-4.31348 -2.7274,-5.21507 0,-3.8708 -2.6833,-4.13435 -10.2705,-1.00876 -14.7741,6.08628 -24.1248,8.52662 -34.6358,9.03933 -7.66,0.37366 -11.3718,0.068 -15.096,-1.24319 z m -530.01249,-3.2807 c -2.4025,-2.4756 -4.68649,-5.54711 -5.0755,-6.82555 -0.3891,-1.27844 -1.3076,-3.04616 -2.0411,-3.92823 -2.2705,-2.73032 -2.84269,-7.1791 -1.14199,-8.87977 1.21189,-1.21196 3.6336,-1.43121 11.10379,-1.00528 l 9.55381,0.54473 0.40781,-22.55772 c 0.28909,-15.99324 0.79179,-22.94181 1.72749,-23.87751 0.9349,-0.93499 1.3198,-6.22132 1.3198,-18.13109 0,-16.19212 -0.095,-16.92385 -2.5698,-19.86537 -1.783,-2.11889 -2.4069,-3.90622 -2.0377,-5.83729 0.7029,-3.67731 -1.2476,-4.71608 -4.65879,-2.48099 -2.10171,1.37708 -3.29782,1.54375 -5.03172,0.70125 -1.251,-0.60789 -4.0789,-1.65721 -6.2841,-2.33186 -4.71739,-1.44317 -5.007,-2.97934 -1.26649,-6.7198 3.1554,-3.15534 19.0267,-9.22234 26.12538,-9.98668 9.9222,-1.0684 16.0333,5.40305 16.0364,16.9822 8e-4,3.38136 0.3974,6.14791 0.881,6.14791 0.4836,0 3.6383,-3.12312 7.0104,-6.94024 7.5443,-8.54009 13.9087,-12.47253 20.3431,-12.56979 6.6633,-0.10072 11.2449,1.95322 10.5221,4.71716 -0.4872,1.86297 -0.1175,2.10828 2.7274,1.80988 4.7037,-0.49341 8.0644,3.12606 13.673,14.72601 5.2747,10.90948 5.368,11.41322 3.116,16.80308 -0.8821,2.11114 -1.6038,5.77846 -1.6038,8.14957 0,3.18073 -0.4345,4.31114 -1.6569,4.31114 -2.3703,0 -8.0453,3.02679 -11.2035,5.9754 -2.4858,2.32084 -3.0444,2.42191 -6.9498,1.25732 -2.3357,-0.6965 -4.4874,-1.52621 -4.7813,-1.84385 -0.2941,-0.3176 -1.497,-1.10583 -2.6731,-1.7516 -3.1634,-1.737 -4.9089,-5.73408 -3.5845,-8.20868 0.9962,-1.8614 1.2396,-1.73142 2.8711,1.53295 1.8888,3.77937 4.0325,4.71404 8.3348,3.63424 2.8827,-0.72351 6.8129,-8.25192 6.8129,-13.05051 0,-3.73153 -2.0041,-7.0712 -3.8243,-6.37275 -0.9864,0.37856 -1.5218,-0.12911 -1.5218,-1.44327 0,-3.3973 -5.0243,-6.46107 -10.5689,-6.44465 -2.714,0.009 -6.0404,0.31084 -7.3922,0.67292 -2.6533,0.71069 -6.2367,6.91498 -10.388,17.98561 -3.0761,8.20334 -8.0097,37.42747 -8.1195,48.09465 -0.1007,9.79665 1.4194,12.70032 8.225,15.7107 3.2579,1.44115 4.7212,2.7357 4.7212,4.17679 0,2.50721 2.406,2.73878 4.3328,0.417 1.2581,-1.51565 1.4744,-1.51565 2.3225,0 1.1658,2.083 4.4322,2.16769 6.1,0.1582 1.5058,-1.81446 7.389,-0.51889 9.2813,2.04389 0.6528,0.88424 2.2165,1.6077 3.4749,1.6077 2.7098,0 3.0019,2.35308 0.5451,4.39204 -2.263,1.87811 -12.9117,5.19478 -16.7436,5.21502 -1.6406,0.009 -5.0086,1.06631 -7.4845,2.35033 -3.4705,1.7999 -7.3175,2.51146 -16.7973,3.10684 -6.7627,0.42477 -16.6844,1.12255 -22.04828,1.55066 l -9.7526,0.77836 z m 717.64809,2.3186 c -3.6011,-2.92234 -8.952,-11.032 -8.952,-13.56737 0,-3.34558 5.2002,-7.77133 10.1575,-8.64497 8.442,-1.48774 8.019,0.79934 8.019,-43.36397 0,-24.15585 -0.4462,-41.4223 -1.156,-44.7312 -1.2987,-6.05664 -4.1395,-8.94327 -10.7501,-10.92384 -4.2095,-1.26123 -5.1941,-2.99304 -2.7954,-4.91765 1.3339,-1.07044 19.8459,-4.53546 24.2308,-4.53546 3.473,0 10.8156,7.38045 11.7143,11.77478 1.141,5.57835 3.3942,5.06149 8.7261,-2.00157 3.6421,-4.82458 6.3549,-7.11269 11.4015,-9.61619 6.4677,-3.20857 6.7422,-3.24953 11.7696,-1.75654 6.5337,1.9403 13.2629,6.86515 15.7887,11.55504 1.8633,3.46012 1.8807,4.36669 0.3437,17.96098 -1.6088,14.22793 -1.652,14.37009 -6.9599,22.87053 -2.9376,4.7045 -6.011,8.5536 -6.8297,8.5536 -1.1352,0 -1.6246,-2.54084 -2.0594,-10.69201 -0.6594,-12.36021 -2.2632,-16.2637 -8.0972,-19.70584 -6.3922,-3.77146 -7.9648,-2.86458 -11.8443,6.83011 -5.5241,13.80528 -11.9228,54.55581 -9.5666,60.92589 2.7679,7.48297 2.3118,7.2973 14.6607,5.96866 6.1276,-0.6593 12.9563,-1.59225 15.175,-2.07329 2.4474,-0.53052 4.2865,-0.4665 4.6753,0.1628 0.3527,0.57055 -2.7459,4.47608 -6.8861,8.67894 -4.1396,4.20286 -8.2332,9.37248 -9.0965,11.48806 -2.735,6.70272 -6.4648,8.06385 -25.872,9.44205 -9.409,0.6682 -18.5506,1.42849 -20.3148,1.6896 -2.0383,0.30166 -4.0367,-0.19811 -5.4822,-1.37114 z m 262.6249,0.82691 c -14.6737,-1.25709 -23.6401,-10.23027 -27.1416,-27.16281 -1.3436,-6.49627 -1.7267,-14.82989 -1.7267,-37.55044 0,-16.06066 -0.2921,-29.96227 -0.6491,-30.89245 -0.5145,-1.34128 -2.367,-1.69126 -8.952,-1.69126 h -8.303 l -4.5002,-4.88214 c -2.7403,-2.9729 -4.2599,-5.50819 -3.886,-6.48294 0.3379,-0.88042 -0.1005,-2.98323 -0.9744,-4.67292 -0.8736,-1.68967 -1.3399,-3.72007 -1.0361,-4.51201 0.8229,-2.14429 15.3112,-9.1278 20.6623,-9.95928 8.6821,-1.34914 8.7999,-1.71971 8.6652,-27.23195 -0.071,-13.54749 -0.5882,-23.6274 -1.309,-25.53727 -1.3386,-3.54595 0.2197,-6.56458 3.3534,-6.4966 2.7307,0.0592 14.7711,7.80254 17.472,11.2363 2.2284,2.83279 2.4947,4.55881 3.0838,19.97665 0.5416,14.17697 0.9533,17.21695 2.574,19.00805 2.4737,2.73328 4.1355,2.67239 10.7175,-0.39267 3.4767,-1.61896 8.5665,-2.78211 14.4017,-3.29111 4.9634,-0.43299 10.2422,-1.40481 11.7301,-2.15961 1.488,-0.75478 5.734,-1.65878 9.4354,-2.00884 5.6048,-0.53011 6.8408,-0.34656 7.3952,1.09797 0.4578,1.1929 -0.6377,2.76758 -3.5087,5.04312 -2.2957,1.81974 -9.7305,8.16716 -16.5217,14.10537 -9.1275,7.98153 -13.9461,11.39501 -18.4797,13.09119 -3.3728,1.26194 -8.4558,3.47187 -11.2957,4.91091 l -5.1634,2.61646 -0.7027,31.33718 c -0.7933,35.36954 -0.2118,42.4553 3.8139,46.48103 2.5517,2.55155 2.869,2.61202 5.7822,1.10134 1.6954,-0.87916 9.4735,-7.66057 17.2849,-15.06974 15.0227,-14.2491 19.2425,-16.61306 17.8433,-9.99634 -1.7125,8.10009 -4.7271,14.68334 -8.1063,17.70259 -3.1389,2.8047 -3.4101,3.46501 -2.3652,5.75881 1.9105,4.19261 -2.6737,12.45641 -10.5695,19.05403 -8.9092,7.44437 -10.7731,8.1762 -19.0239,7.46938 z m -138.7074,-1.63518 c -5.5037,-1.73288 -14.5282,-8.08257 -19.7097,-13.86791 -4.8581,-5.42412 -10.9588,-17.56288 -12.5203,-24.91153 -1.6294,-7.669 -1.4562,-26.75476 0.332,-36.56752 1.4254,-7.82052 6.303,-22.31722 9.7559,-28.99449 4.1603,-8.04475 15.3689,-17.45262 28.8033,-24.17566 15.5985,-7.80596 41.4855,-3.46488 50.9339,8.54124 1.551,1.97079 4.2549,6.44342 6.0087,9.93918 9.9301,19.79294 12.2364,38.72761 7.3504,60.35056 -1.823,8.06738 -3.389,12.6635 -4.5538,13.36502 -0.9766,0.58804 -2.9032,2.03147 -4.281,3.2076 -2.3981,2.04667 -2.4339,2.28276 -0.834,5.50561 1.6006,3.22396 1.5489,3.56159 -1.2129,7.93666 -4.4655,7.07355 -12.001,14.59376 -18.1474,18.1104 -5.5454,3.17281 -5.7037,3.19556 -21.4945,3.09061 -9.9814,-0.0663 -17.5927,-0.63622 -20.4306,-1.52977 z m 30.9369,-23.10069 c 9.8381,-2.17996 17.1124,-13.96492 18.5737,-30.09029 0.3983,-4.39467 0.3497,-16.83098 -0.108,-27.63625 l -0.8321,-19.64595 -8.9185,-6.68249 c -9.926,-7.43761 -11.9023,-7.88878 -21.8374,-4.98538 -9.5528,2.7917 -19.2141,14.05933 -21.8771,25.51425 -0.8083,3.47771 -3.0313,8.00038 -5.7236,11.64491 -4.9679,6.72468 -5.243,8.14476 -2.3714,12.24133 1.1169,1.59335 2.296,5.41451 2.6204,8.49146 0.7434,7.05226 9.6641,25.58614 13.7045,28.47221 6.415,4.58258 14.5128,5.39214 26.7695,2.6762 z m -223.6733,19.3992 c -2.3307,-2.52461 -4.5459,-5.60428 -4.9225,-6.84371 -0.3767,-1.23945 -1.285,-2.97524 -2.0186,-3.85731 -2.3799,-2.86207 -2.8398,-7.18199 -0.9638,-9.05789 1.3133,-1.31326 2.8365,-1.56193 6.3452,-1.03578 l 4.6169,0.69235 1.2671,-4.65485 c 0.6968,-2.56017 1.1857,-8.60131 1.0863,-13.42476 -0.1274,-6.19825 0.315,-9.72832 1.5095,-12.0382 1.3101,-2.53323 1.4223,-3.76858 0.4993,-5.49315 -1.6284,-3.04262 -1.482,-9.21497 0.5108,-21.53397 0.9263,-5.72725 1.6842,-12.40641 1.6842,-14.8426 0,-2.67064 0.9158,-5.91099 2.3062,-8.16076 2.019,-3.26664 2.1469,-4.17112 1.0292,-7.26274 -1.4623,-4.04373 -0.1394,-17.96706 2.5489,-26.82838 0.8673,-2.85888 1.5821,-7.76697 1.5885,-10.90689 0.01,-3.13994 1.4093,-11.80047 3.1173,-19.24562 1.7081,-7.44517 3.1422,-15.94239 3.1871,-18.88269 0.045,-2.9403 0.4569,-10.23685 0.9153,-16.21456 l 0.8338,-10.86857 -2.8816,1.70217 c -2.0814,1.22952 -3.2721,1.38706 -4.2882,0.56732 -0.7736,-0.62416 -2.937,-1.4619 -4.8076,-1.86164 -10.2473,-2.18986 -4.7257,-8.8483 11.913,-14.36567 9.0143,-2.98903 11.5274,-3.41586 16.5609,-2.81262 7.6407,0.91573 17.475,3.70361 18.4726,5.23675 1.1547,1.77436 -0.1497,5.03393 -3.5946,8.98371 -1.685,1.93165 -3.0636,4.23217 -3.0636,5.11226 0,0.88008 -0.8418,1.9161 -1.8709,2.30223 -4.36,1.63595 -5.9759,7.63788 -2.955,10.97582 1.7416,1.9244 1.7727,1.65541 -3.2144,27.81542 -1.4013,7.35076 -3.078,18.17643 -3.7258,24.05702 -2.6845,24.36655 -5.5879,45.7558 -8.0603,59.37866 -1.8003,9.91837 -2.6267,18.34912 -2.6267,26.79297 0,9.17794 -0.4003,12.85014 -1.5697,14.39618 -2.2325,2.95155 -2.2124,15.77109 0.029,17.63012 0.9161,0.76027 2.3187,2.94561 3.1169,4.85628 1.9057,4.56056 5.2885,6.4107 8.7978,4.81171 3.4784,-1.58489 4.5961,-0.70318 4.5961,3.62596 0,2.98727 -0.9208,4.40178 -5.4392,8.35423 -5.9251,5.18316 -6.7552,5.39492 -26.7021,6.81078 l -9.5882,0.68059 z m -566.952,-6.16534 c -2.1816,-0.48465 -2.2438,-0.77235 -0.7642,-3.53678 1.0514,-1.96459 5.2511,-2.83819 6.6964,-1.39294 0.9004,0.90045 -0.9758,4.29966 -2.6949,4.88232 -0.7514,0.25469 -2.2081,0.27601 -3.2373,0.0474 z"
       id="path8305"
       inkscape:connector-curvature="0" />
  </g>
</svg>
