<?xml version="1.0" encoding="UTF-8" standalone="no"?>
<!-- Created with Inkscape (http://www.inkscape.org/) -->

<svg
   xmlns:dc="http://purl.org/dc/elements/1.1/"
   xmlns:cc="http://creativecommons.org/ns#"
   xmlns:rdf="http://www.w3.org/1999/02/22-rdf-syntax-ns#"
   xmlns:svg="http://www.w3.org/2000/svg"
   xmlns="http://www.w3.org/2000/svg"
   xmlns:xlink="http://www.w3.org/1999/xlink"
   xmlns:sodipodi="http://sodipodi.sourceforge.net/DTD/sodipodi-0.dtd"
   xmlns:inkscape="http://www.inkscape.org/namespaces/inkscape"
   id="svg2"
   version="1.1"
   inkscape:version="0.92.2 2405546, 2018-03-11"
   width="2481"
   height="3503"
   sodipodi:docname="E26P04.svg">
  <metadata
     id="metadata8">
    <rdf:RDF>
      <cc:Work
         rdf:about="">
        <dc:format>image/svg+xml</dc:format>
        <dc:type
           rdf:resource="http://purl.org/dc/dcmitype/StillImage" />
        <dc:title />
      </cc:Work>
    </rdf:RDF>
  </metadata>
  <defs
     id="defs6" />
  <sodipodi:namedview
     pagecolor="#ffffff"
     bordercolor="#666666"
     borderopacity="1"
     objecttolerance="10"
     gridtolerance="10"
     guidetolerance="10"
     inkscape:pageopacity="0"
     inkscape:pageshadow="2"
     inkscape:window-width="1920"
     inkscape:window-height="1033"
     id="namedview4"
     showgrid="false"
     inkscape:zoom="0.84880128"
     inkscape:cx="1605.4648"
     inkscape:cy="1235.0693"
     inkscape:window-x="0"
     inkscape:window-y="47"
     inkscape:window-maximized="0"
     inkscape:current-layer="layer1" />
  <g
     inkscape:groupmode="layer"
     id="layer2"
     inkscape:label="artwork"
     sodipodi:insensitive="true">
    <image
       sodipodi:absref="/home/midgard/git/peppercarrot/comics/new-ep26_Books-Are-Great/lang/nl/../gfx_Pepper-and-Carrot_by-David-Revoy_E26P04.png"
       xlink:href="../gfx_Pepper-and-Carrot_by-David-Revoy_E26P04.png"
       width="2481"
       height="3503"
       id="image10"
       x="0"
       y="0" />
  </g>
  <g
     inkscape:groupmode="layer"
     id="layer3"
     inkscape:label="speechbubbles">
    <path
       style="color:#000000;display:inline;overflow:visible;visibility:visible;fill:#ffffff;fill-opacity:1;fill-rule:nonzero;stroke:none;stroke-width:2.00550461px;marker:none;enable-background:accumulate"
       d="m 77.903977,1506.9232 c -5.509508,-67.4656 -3.795531,-126.5765 5.377264,-182.4591 5.696637,-34.7051 184.742439,-42.9783 246.550909,-36.6628 52.75141,5.3902 172.34862,20.0737 198.07252,68.4983 25.72403,48.4244 17.95989,100.2365 1.46795,152.5035 -14.29756,45.3124 -10.69541,57.3541 -58.8819,97.2147 -24.62644,20.3713 -144.59224,51.0221 -202.24505,54.0559 -59.44544,3.132 -142.2407,0.576 -171.54588,-31.0665 -29.709737,-32.079 -13.28646,-54.6183 -18.795813,-122.084 z"
       id="path3373"
       inkscape:connector-curvature="0"
       sodipodi:nodetypes="zsssssssz" />
    <path
       style="color:#000000;display:inline;overflow:visible;visibility:visible;fill:#ffffff;fill-opacity:1;fill-rule:nonzero;stroke:none;stroke-width:0.92846394px;marker:none;enable-background:accumulate"
       d="m 760.75243,1017.8265 c -22.47857,-11.219 -27.79905,-26.61133 -25.55111,-33.02225 2.24784,-6.41084 22.47847,-39.26666 47.20477,-43.27347 24.72641,-4.00682 88.79012,-8.81495 103.40117,-4.80813 14.6111,4.00673 56.19637,30.45171 56.19637,44.07478 0,13.62316 -7.86752,40.06807 -30.34602,48.08167 -22.47851,8.0136 -123.93104,0.7406 -150.90518,-11.0526 z"
       id="path3349"
       inkscape:connector-curvature="0"
       sodipodi:nodetypes="ccscssc" />
    <path
       style="color:#000000;display:inline;overflow:visible;visibility:visible;fill:#ffffff;fill-opacity:1;fill-rule:nonzero;stroke:none;stroke-width:0.62015647px;marker:none;enable-background:accumulate"
       d="m 781.18184,1035.792 c 16.28578,-21.7031 153.7564,-45.26056 202.07238,-0.5349 48.31598,44.7257 16.59612,108.0506 -11.12625,125.1277 -27.72225,17.077 -105.34764,21.3342 -144.11848,11.4889 -51.42865,-13.0596 -66.22461,-36.5175 -68.11762,-81.3195 -0.7726,-18.2852 5.0041,-33.0588 21.28997,-54.7622 z"
       id="path4040"
       inkscape:connector-curvature="0"
       sodipodi:nodetypes="zssssz" />
    <path
       style="color:#000000;display:inline;overflow:visible;visibility:visible;fill:#ffffff;fill-opacity:1;fill-rule:nonzero;stroke:none;stroke-width:0.94275308px;marker:none;enable-background:accumulate"
       d="m 1544.7046,1175.5375 c -3.7447,-31.2152 6.2409,-114.1306 83.0054,-107.3023 76.7643,6.8283 89.2464,45.8472 91.1186,57.553 1.8723,11.7056 18.099,78.0381 -41.8146,95.5968 -59.9138,17.5585 -113.5864,-0.9756 -132.3094,-45.8475 z"
       id="path3525"
       inkscape:connector-curvature="0" />
    <path
       style="color:#000000;display:inline;overflow:visible;visibility:visible;fill:#ffffff;fill-opacity:1;fill-rule:nonzero;stroke:none;stroke-width:1px;marker:none;enable-background:accumulate"
       d="m 938.35118,1086.2126 c 69.98612,31.0197 98.42482,29.5718 151.73632,-4.4587 -31.1182,24.6589 -43.6342,55.9553 -145.08715,33.1222 -40.4073,-9.0941 -6.64917,-28.6635 -6.64917,-28.6635 z"
       id="path4480"
       inkscape:connector-curvature="0"
       sodipodi:nodetypes="ccsc" />
    <path
       style="color:#000000;display:inline;overflow:visible;visibility:visible;fill:#ffffff;fill-opacity:1;fill-rule:nonzero;stroke:none;stroke-width:1px;marker:none;enable-background:accumulate"
       d="m 1473.718,1133.0834 c 34.6297,22.4436 48.151,28.3727 87.526,0.3521 39.375,-28.0207 48.7701,-12.382 48.7701,-12.382 l -12.8989,31.2148 c 0,0 -87.8568,53.5997 -123.3972,-19.1849 z"
       id="path3072"
       inkscape:connector-curvature="0" />
    <path
       style="color:#000000;display:inline;overflow:visible;visibility:visible;fill:#ffffff;fill-opacity:1;fill-rule:nonzero;stroke:none;stroke-width:0.74193799px;marker:none;enable-background:accumulate"
       d="m 1921.2747,183.12255 c -0.7336,-19.20925 5.8514,-26.39203 36.6602,-38.93681 30.809,-12.54478 60.0351,-6.41212 87.8924,-3.85385 32.0305,2.94151 66.1693,7.50842 77.1725,21.62136 11.0032,14.11286 19.8057,19.60121 16.1379,32.93007 -3.6677,13.32878 -7.3354,27.44172 -20.5392,32.14599 -13.2039,4.70434 -107.0977,10.97669 -122.5021,7.84051 -15.4046,-3.13617 -40.3451,-3.92026 -53.5488,-13.32886 -13.3861,-9.53839 -20.5394,-19.20917 -21.2729,-38.41841 z"
       id="path3373-0"
       inkscape:connector-curvature="0"
       sodipodi:nodetypes="zsssssssz" />
    <path
       style="color:#000000;display:inline;overflow:visible;visibility:visible;fill:#ffffff;fill-opacity:1;fill-rule:nonzero;stroke:none;stroke-width:1.05252004px;marker:none;enable-background:accumulate"
       d="m 1893.5238,275.99898 c 2.6846,-45.42743 36.6881,-55.43685 72.4814,-57.74673 35.7933,-2.30988 50.1107,4.61975 59.9539,6.1596 9.8431,1.53995 102.0109,-4.61974 114.5385,-3.07979 12.5277,1.53994 71.5867,22.32874 68.9021,58.51664 -2.6844,36.18791 -42.9519,51.58702 -84.1143,53.89689 -41.1623,2.30988 -125.2765,0 -145.8576,4.61975 -20.5812,4.61975 -79.6402,-3.0798 -85.904,-62.36645 z"
       id="path5034"
       inkscape:connector-curvature="0" />
    <path
       style="color:#000000;display:inline;overflow:visible;visibility:visible;fill:#ffffff;fill-opacity:1;fill-rule:nonzero;stroke:none;stroke-width:1px;marker:none;enable-background:accumulate"
       d="m 2014.1421,464.34286 c -57.0243,-41.23372 -60.4397,-86.77108 -49.5441,-144.9504 10.8956,-58.17932 39.6811,-24.31559 39.6811,-24.31559 0,0 -65.1914,100.00192 9.863,169.26599 z"
       id="path5002"
       inkscape:connector-curvature="0"
       sodipodi:nodetypes="cscc" />
    <path
       style="color:#000000;display:inline;overflow:visible;visibility:visible;fill:#ffffff;fill-opacity:1;fill-rule:nonzero;stroke:none;stroke-width:0.77728993px;marker:none;enable-background:accumulate"
       d="m 1700.4279,2220.4771 c 1.9548,12.6252 -20.2332,66.0408 -111.3756,61.8839 -91.1424,-4.157 -112.9427,-36.8339 -112.8192,-53.7968 0.1234,-16.963 21.4964,-44.2602 34.7426,-49.1276 13.2461,-4.8673 52.126,-15.6749 87.6192,-10.6767 39.5028,5.5627 74.284,12.3263 88.2445,26.9259 13.9604,14.5994 11.9752,21.4764 13.5885,24.7913 z"
       id="path3365"
       inkscape:connector-curvature="0"
       sodipodi:nodetypes="ccccscc" />
    <path
       style="color:#000000;display:inline;overflow:visible;visibility:visible;fill:#ffffff;fill-opacity:1;fill-rule:nonzero;stroke:none;stroke-width:1.44378185px;marker:none;enable-background:accumulate"
       d="m 1453.9561,2296.1996 c 36.8774,-60.6611 239.0481,-60.8887 301.1793,-33.9828 62.1311,26.9056 71.1145,59.8325 73.5022,75.9906 2.3874,16.1578 -7.4605,110.579 -40.1978,124.9892 -32.7373,14.4098 -125.3168,21.0055 -157.56,20.7478 -32.2431,-0.2577 -134.8557,-10.4167 -160.1779,-32.0911 -24.2233,-20.7341 -53.6231,-94.9926 -16.7458,-155.6537 z"
       id="path3330"
       inkscape:connector-curvature="0"
       sodipodi:nodetypes="zsssssz" />
    <path
       style="color:#000000;display:inline;overflow:visible;visibility:visible;fill:#ffffff;fill-opacity:1;fill-rule:nonzero;stroke:none;stroke-width:0.95484036px;marker:none;enable-background:accumulate"
       d="m 1712.2292,2441.3746 c -66.9879,41.9758 8.5265,133.4692 126.8018,157.4815 -152.1758,-16.0491 -205.6497,-106.5748 -176.3834,-149.9061 -11.6394,-21.7406 49.5816,-7.5754 49.5816,-7.5754 z"
       id="path4008"
       inkscape:connector-curvature="0"
       sodipodi:nodetypes="cccc" />
    <path
       style="color:#000000;display:inline;overflow:visible;visibility:visible;fill:#ffffff;fill-opacity:1;fill-rule:nonzero;stroke:none;stroke-width:0.8444829px;marker:none;enable-background:accumulate"
       d="M 96.739715,66.985769 C 125.8199,48.020976 383.76163,57.899177 445.60279,109.49995 c 61.841,51.60074 -1.3857,121.65632 -46.43857,134.29941 -45.05274,12.64311 -215.49618,20.45514 -270.95209,4.79486 -73.560988,-20.773 -89.757023,-54.02109 -82.540277,-98.5996 2.945435,-18.19407 21.987501,-64.043842 51.067862,-83.008851 z"
       id="path4040-0"
       inkscape:connector-curvature="0"
       sodipodi:nodetypes="zssssz" />
    <path
       style="color:#000000;display:inline;overflow:visible;visibility:visible;fill:#ffffff;fill-opacity:1;fill-rule:nonzero;stroke:none;stroke-width:0.98174369px;marker:none;enable-background:accumulate"
       d="m 377.52025,298.84522 c 3.0434,16.75599 -20.4116,89.18623 -129.36169,88.23811 -108.95008,-0.94827 -136.79579,-43.4715 -137.6047,-66.12328 -0.80903,-22.6519 23.14617,-60.1728 38.672,-67.33953 15.52573,-7.1666 61.29291,-23.55767 103.91138,-18.67693 47.433,5.43192 89.3017,12.70541 106.77697,31.49114 17.47512,18.78548 15.4948,28.06652 17.60604,32.41049 z"
       id="path3365-6"
       inkscape:connector-curvature="0"
       sodipodi:nodetypes="ccccscc" />
    <path
       style="color:#000000;display:inline;overflow:visible;visibility:visible;fill:#ffffff;fill-opacity:1;fill-rule:nonzero;stroke:none;stroke-width:1.17923069px;marker:none;enable-background:accumulate"
       d="m 421.00062,1204.9587 c -82.04637,41.839 -98.69807,91.9551 -101.02486,156.986 -2.32681,65.0308 42.64616,29.4851 42.64616,29.4851 0,0 -53.69551,-114.8291 58.3787,-186.4711 z"
       id="path5002-1"
       inkscape:connector-curvature="0"
       sodipodi:nodetypes="cscc" />
    <path
       style="color:#000000;display:inline;overflow:visible;visibility:visible;fill:#ffffff;fill-opacity:1;fill-rule:nonzero;stroke:none;stroke-width:1px;marker:none;enable-background:accumulate"
       d="m 259.1461,549.09118 c -61.51077,-34.18208 -70.301,-78.99333 -66.37999,-138.05409 3.92101,-59.06076 36.51837,-28.84868 36.51837,-28.84868 0,0 -52.87537,107.02569 29.86162,166.90277 z"
       id="path5002-3"
       inkscape:connector-curvature="0"
       sodipodi:nodetypes="cscc" />
  </g>
  <g
     inkscape:groupmode="layer"
     id="layer1"
     inkscape:label="txt">
    <text
       xml:space="preserve"
       style="font-style:normal;font-variant:normal;font-weight:normal;font-stretch:normal;line-height:0%;font-family:Lavi;-inkscape-font-specification:Lavi;text-align:center;letter-spacing:0px;word-spacing:0px;text-anchor:middle;fill:#000000;fill-opacity:1;stroke:none"
       x="129.66629"
       y="1365.2563"
       id="text4246-5-5"><tspan
         sodipodi:role="line"
         style="font-style:italic;font-variant:normal;font-weight:normal;font-stretch:normal;font-size:45px;line-height:1.25;font-family:Lavi;-inkscape-font-specification:'Lavi Italic';text-align:start;text-anchor:start"
         x="129.66629"
         y="1365.2563"
         id="tspan89">“Omdat je een</tspan><tspan
         sodipodi:role="line"
         style="font-style:italic;font-variant:normal;font-weight:normal;font-stretch:normal;font-size:45px;line-height:1.25;font-family:Lavi;-inkscape-font-specification:'Lavi Italic';text-align:start;text-anchor:start"
         x="129.66629"
         y="1421.5063"
         id="tspan75">stuk afgesneden</tspan><tspan
         sodipodi:role="line"
         style="font-style:italic;font-variant:normal;font-weight:normal;font-stretch:normal;font-size:45px;line-height:1.25;font-family:Lavi;-inkscape-font-specification:'Lavi Italic';text-align:start;text-anchor:start"
         x="129.66629"
         y="1477.7563"
         id="tspan77">hebt, kom je nu bij</tspan><tspan
         sodipodi:role="line"
         style="font-style:italic;font-variant:normal;font-weight:normal;font-stretch:normal;font-size:45px;line-height:1.25;font-family:Lavi;-inkscape-font-specification:'Lavi Italic';text-align:start;text-anchor:start"
         x="129.66629"
         y="1534.0063"
         id="tspan91">de kamer van</tspan><tspan
         sodipodi:role="line"
         style="font-style:italic;font-variant:normal;font-weight:normal;font-stretch:normal;font-size:45px;line-height:1.25;font-family:Lavi;-inkscape-font-specification:'Lavi Italic';text-align:start;text-anchor:start"
         x="129.66629"
         y="1590.2563"
         id="tspan478">De Bewaker.”</tspan></text>
    <text
       xml:space="preserve"
       style="font-style:normal;font-variant:normal;font-weight:normal;font-stretch:normal;line-height:0%;font-family:Lavi;-inkscape-font-specification:Lavi;text-align:center;letter-spacing:0px;word-spacing:0px;text-anchor:middle;fill:#000000;fill-opacity:1;stroke:none"
       x="841.59772"
       y="995.02594"
       id="text4246-5"><tspan
         sodipodi:role="line"
         style="font-size:45px;line-height:1.25"
         x="841.59772"
         y="995.02594"
         id="tspan859">Hmm …</tspan></text>
    <text
       xml:space="preserve"
       style="font-style:normal;font-variant:normal;font-weight:normal;font-stretch:normal;line-height:0%;font-family:Lavi;-inkscape-font-specification:Lavi;text-align:center;letter-spacing:0px;word-spacing:0px;text-anchor:middle;fill:#000000;fill-opacity:1;stroke:none"
       x="883.56506"
       y="1040.9454"
       id="text4246-5-3"><tspan
         sodipodi:role="line"
         style="font-size:45px;line-height:1.25"
         x="883.56506"
         y="1044.4429"
         id="tspan890" /><tspan
         sodipodi:role="line"
         style="font-size:45px;line-height:1.25"
         x="883.56506"
         y="1082.1859"
         id="tspan482">De grote</tspan><tspan
         sodipodi:role="line"
         style="font-size:45px;line-height:1.25"
         x="883.56506"
         y="1138.4359"
         id="tspan917">baas?!?</tspan></text>
    <text
       xml:space="preserve"
       style="font-style:normal;font-variant:normal;font-weight:normal;font-stretch:normal;line-height:0%;font-family:Lavi;-inkscape-font-specification:Lavi;text-align:center;letter-spacing:0px;word-spacing:0px;text-anchor:middle;fill:#000000;fill-opacity:1;stroke:none"
       x="1633.467"
       y="1096.7792"
       id="text4246-5-3-7"><tspan
         sodipodi:role="line"
         style="font-size:45px;line-height:1.25"
         x="1633.467"
         y="1100.2766"
         id="tspan890-5" /><tspan
         sodipodi:role="line"
         style="font-size:45px;line-height:1.25"
         x="1633.467"
         y="1138.0197"
         id="tspan950">Waar</tspan><tspan
         sodipodi:role="line"
         style="font-size:45px;line-height:1.25"
         x="1633.467"
         y="1194.2697"
         id="tspan917-6">dan?</tspan></text>
    <text
       xml:space="preserve"
       style="font-style:normal;font-variant:normal;font-weight:normal;font-stretch:normal;line-height:0%;font-family:Lavi;-inkscape-font-specification:Lavi;text-align:center;letter-spacing:0px;word-spacing:0px;text-anchor:middle;fill:#000000;fill-opacity:1;stroke:none"
       x="2031.5693"
       y="160.21571"
       id="text4246-5-3-7-2"><tspan
         sodipodi:role="line"
         style="font-size:45px;line-height:1.25"
         x="2031.5693"
         y="163.71317"
         id="tspan890-5-9" /><tspan
         sodipodi:role="line"
         style="font-size:45px;line-height:1.25"
         x="2031.5693"
         y="201.45618"
         id="tspan917-6-7">AHA …</tspan></text>
    <text
       xml:space="preserve"
       style="font-style:normal;font-variant:normal;font-weight:normal;font-stretch:normal;line-height:0%;font-family:Lavi;-inkscape-font-specification:Lavi;text-align:center;letter-spacing:0px;word-spacing:0px;text-anchor:middle;fill:#000000;fill-opacity:1;stroke:none"
       x="2052.343"
       y="246.80626"
       id="text4246-5-3-7-2-0"><tspan
         sodipodi:role="line"
         style="font-size:45px;line-height:1.25"
         x="2052.343"
         y="250.30371"
         id="tspan890-5-9-9" /><tspan
         sodipodi:role="line"
         style="font-style:normal;font-variant:normal;font-weight:bold;font-stretch:normal;font-size:53.33333206px;line-height:1.25;font-family:Lavi;-inkscape-font-specification:'Lavi Bold'"
         x="2052.343"
         y="295.68384"
         id="tspan917-6-7-6">Gevonden!</tspan></text>
    <text
       xml:space="preserve"
       style="font-style:normal;font-variant:normal;font-weight:normal;font-stretch:normal;line-height:0%;font-family:Lavi;-inkscape-font-specification:Lavi;text-align:center;letter-spacing:0px;word-spacing:0px;text-anchor:middle;fill:#000000;fill-opacity:1;stroke:none"
       x="1587.4655"
       y="2192.7827"
       id="text4246-5-3-7-6"><tspan
         sodipodi:role="line"
         style="font-size:45px;line-height:1.25"
         x="1587.4655"
         y="2196.2803"
         id="tspan890-5-2" /><tspan
         sodipodi:role="line"
         style="font-style:italic;font-variant:normal;font-weight:normal;font-stretch:normal;font-size:45px;line-height:1.25;font-family:Lavi;-inkscape-font-specification:'Lavi Italic'"
         x="1587.4655"
         y="2234.0232"
         id="tspan917-6-8">Pfff …</tspan></text>
    <text
       xml:space="preserve"
       style="font-style:normal;font-variant:normal;font-weight:normal;font-stretch:normal;line-height:0%;font-family:Lavi;-inkscape-font-specification:Lavi;text-align:center;letter-spacing:0px;word-spacing:0px;text-anchor:middle;fill:#000000;fill-opacity:1;stroke:none"
       x="1631.9534"
       y="2286.5515"
       id="text4246-5-3-79"><tspan
         sodipodi:role="line"
         style="font-size:45px;line-height:1.25"
         x="1631.9534"
         y="2290.0491"
         id="tspan890-2" /><tspan
         sodipodi:role="line"
         style="font-size:45px;line-height:1.25"
         x="1631.9534"
         y="2327.792"
         id="tspan919-2">Veel te simpel</tspan><tspan
         sodipodi:role="line"
         style="font-size:45px;line-height:1.25"
         x="1631.9534"
         y="2384.042"
         id="tspan72">als je zijn zwakke</tspan><tspan
         sodipodi:role="line"
         style="font-size:45px;line-height:1.25"
         x="1631.9534"
         y="2440.292"
         id="tspan73">plek kent!</tspan></text>
    <text
       xml:space="preserve"
       style="font-style:normal;font-variant:normal;font-weight:normal;font-stretch:normal;line-height:0%;font-family:Lavi;-inkscape-font-specification:Lavi;text-align:center;letter-spacing:0px;word-spacing:0px;text-anchor:middle;fill:#000000;fill-opacity:1;stroke:none"
       x="124.21524"
       y="161.71936"
       id="text4246-5-5-3"><tspan
         sodipodi:role="line"
         style="font-style:italic;font-variant:normal;font-weight:normal;font-stretch:normal;font-size:45px;line-height:1.25;font-family:Lavi;-inkscape-font-specification:'Lavi Italic';text-align:start;text-anchor:start"
         x="124.21524"
         y="161.71936"
         id="tspan940">“Pak onderweg</tspan><tspan
         sodipodi:role="line"
         style="font-style:italic;font-variant:normal;font-weight:normal;font-stretch:normal;font-size:45px;line-height:1.25;font-family:Lavi;-inkscape-font-specification:'Lavi Italic';text-align:start;text-anchor:start"
         x="124.21524"
         y="217.96936"
         id="tspan85">een veer mee.”</tspan></text>
    <text
       xml:space="preserve"
       style="font-style:normal;font-variant:normal;font-weight:normal;font-stretch:normal;font-size:11.12393284px;line-height:0%;font-family:Lavi;-inkscape-font-specification:Lavi;text-align:center;letter-spacing:0px;word-spacing:0px;text-anchor:middle;fill:#000000;fill-opacity:1;stroke:none;stroke-width:0.92699438"
       x="243.4929"
       y="304.39349"
       id="text4246-5-3-9"><tspan
         sodipodi:role="line"
         style="font-size:41.71474838px;line-height:1.25;stroke-width:0.92699438"
         x="243.4929"
         y="304.39349"
         id="tspan995">Veren zat</tspan><tspan
         sodipodi:role="line"
         style="font-size:41.71474838px;line-height:1.25;stroke-width:0.92699438"
         x="243.4929"
         y="356.53693"
         id="tspan78">hier!</tspan></text>
    <text
       xml:space="preserve"
       style="font-style:normal;font-variant:normal;font-weight:normal;font-stretch:normal;font-size:9.62365437px;line-height:0%;font-family:Lavi;-inkscape-font-specification:Lavi;text-align:center;letter-spacing:0px;word-spacing:0px;text-anchor:middle;fill:#000000;fill-opacity:1;stroke:none;stroke-width:0.80197126"
       x="13.33729"
       y="2107.6648"
       id="text4246-5-5-8"
       transform="matrix(0.90354167,-0.46833278,0.47503417,0.86053134,0,0)"><tspan
         sodipodi:role="line"
         style="font-style:italic;font-variant:normal;font-weight:normal;font-stretch:normal;font-size:36.08870697px;line-height:1.25;font-family:Lavi;-inkscape-font-specification:'Lavi Italic';text-align:start;text-anchor:start;fill:#ffffff;fill-opacity:1;stroke-width:0.80197126"
         x="13.33729"
         y="2107.6648"
         id="tspan478-2">kietel</tspan></text>
    <text
       xml:space="preserve"
       style="font-style:normal;font-variant:normal;font-weight:normal;font-stretch:normal;font-size:9.62365437px;line-height:0%;font-family:Lavi;-inkscape-font-specification:Lavi;text-align:center;letter-spacing:0px;word-spacing:0px;text-anchor:middle;fill:#000000;fill-opacity:1;stroke:none;stroke-width:0.80197126"
       x="50.222191"
       y="2071.1909"
       id="text4246-5-5-8-3"
       transform="matrix(0.90354167,-0.46833278,0.47503417,0.86053134,0,0)"
       inkscape:transform-center-x="-64.107832"
       inkscape:transform-center-y="11.506534"><tspan
         sodipodi:role="line"
         style="font-style:italic;font-variant:normal;font-weight:normal;font-stretch:normal;font-size:36.08870697px;line-height:1.25;font-family:Lavi;-inkscape-font-specification:'Lavi Italic';text-align:start;text-anchor:start;fill:#ffffff;fill-opacity:1;stroke-width:0.80197126"
         x="50.222191"
         y="2071.1909"
         id="tspan478-2-7">kietel</tspan></text>
  </g>
</svg>
