<?xml version="1.0" encoding="UTF-8" standalone="no"?>
<!-- Created with Inkscape (http://www.inkscape.org/) -->

<svg
   xmlns:osb="http://www.openswatchbook.org/uri/2009/osb"
   xmlns:dc="http://purl.org/dc/elements/1.1/"
   xmlns:cc="http://creativecommons.org/ns#"
   xmlns:rdf="http://www.w3.org/1999/02/22-rdf-syntax-ns#"
   xmlns:svg="http://www.w3.org/2000/svg"
   xmlns="http://www.w3.org/2000/svg"
   xmlns:xlink="http://www.w3.org/1999/xlink"
   xmlns:sodipodi="http://sodipodi.sourceforge.net/DTD/sodipodi-0.dtd"
   xmlns:inkscape="http://www.inkscape.org/namespaces/inkscape"
   id="svg2"
   version="1.1"
   inkscape:version="0.92.3 (2405546, 2018-03-11)"
   width="2481"
   height="3503"
   sodipodi:docname="E03P03.svg"
   enable-background="new">
  <metadata
     id="metadata8">
    <rdf:RDF>
      <cc:Work
         rdf:about="">
        <dc:format>image/svg+xml</dc:format>
        <dc:type
           rdf:resource="http://purl.org/dc/dcmitype/StillImage" />
        <dc:title />
      </cc:Work>
    </rdf:RDF>
  </metadata>
  <defs
     id="defs6">
    <linearGradient
       id="linearGradient5427">
      <stop
         style="stop-color:#ad5d0f;stop-opacity:1;"
         offset="0"
         id="stop5429" />
      <stop
         id="stop5437"
         offset="0.25"
         style="stop-color:#84470b;stop-opacity:1;" />
      <stop
         id="stop5435"
         offset="0.5"
         style="stop-color:#8a4a0c;stop-opacity:1;" />
      <stop
         style="stop-color:#7a420b;stop-opacity:1;"
         offset="1"
         id="stop5431" />
    </linearGradient>
    <linearGradient
       id="linearGradient5350"
       osb:paint="solid">
      <stop
         style="stop-color:#9a530e;stop-opacity:1;"
         offset="0"
         id="stop5352" />
    </linearGradient>
    <linearGradient
       inkscape:collect="always"
       xlink:href="#linearGradient5427"
       id="linearGradient5433"
       x1="618.94147"
       y1="2316.8098"
       x2="1024.5358"
       y2="1619.6255"
       gradientUnits="userSpaceOnUse" />
    <linearGradient
       inkscape:collect="always"
       xlink:href="#linearGradient5427"
       id="linearGradient5443"
       gradientUnits="userSpaceOnUse"
       x1="618.94147"
       y1="2316.8098"
       x2="1024.5358"
       y2="1619.6255" />
    <linearGradient
       inkscape:collect="always"
       xlink:href="#linearGradient5427"
       id="linearGradient5445"
       gradientUnits="userSpaceOnUse"
       x1="618.94147"
       y1="2316.8098"
       x2="1024.5358"
       y2="1619.6255" />
    <linearGradient
       inkscape:collect="always"
       xlink:href="#linearGradient5427"
       id="linearGradient5447"
       gradientUnits="userSpaceOnUse"
       x1="618.94147"
       y1="2316.8098"
       x2="1024.5358"
       y2="1619.6255" />
    <linearGradient
       inkscape:collect="always"
       xlink:href="#linearGradient5427"
       id="linearGradient5449"
       gradientUnits="userSpaceOnUse"
       x1="618.94147"
       y1="2316.8098"
       x2="1024.5358"
       y2="1619.6255" />
    <linearGradient
       inkscape:collect="always"
       xlink:href="#linearGradient5427"
       id="linearGradient5451"
       gradientUnits="userSpaceOnUse"
       x1="618.94147"
       y1="2316.8098"
       x2="1024.5358"
       y2="1619.6255" />
    <linearGradient
       inkscape:collect="always"
       xlink:href="#linearGradient5427"
       id="linearGradient5453"
       gradientUnits="userSpaceOnUse"
       x1="618.94147"
       y1="2316.8098"
       x2="1024.5358"
       y2="1619.6255" />
    <linearGradient
       inkscape:collect="always"
       xlink:href="#linearGradient5427"
       id="linearGradient5455"
       gradientUnits="userSpaceOnUse"
       x1="618.94147"
       y1="2316.8098"
       x2="1024.5358"
       y2="1619.6255" />
    <linearGradient
       inkscape:collect="always"
       xlink:href="#linearGradient5427"
       id="linearGradient5457"
       gradientUnits="userSpaceOnUse"
       x1="618.94147"
       y1="2316.8098"
       x2="1024.5358"
       y2="1619.6255" />
    <linearGradient
       id="linearGradient5427-1">
      <stop
         style="stop-color:#ad5d0f;stop-opacity:1;"
         offset="0"
         id="stop5429-2" />
      <stop
         id="stop5437-1"
         offset="0.25"
         style="stop-color:#84470b;stop-opacity:1;" />
      <stop
         id="stop5435-6"
         offset="0.5"
         style="stop-color:#8a4a0c;stop-opacity:1;" />
      <stop
         style="stop-color:#7a420b;stop-opacity:1;"
         offset="1"
         id="stop5431-8" />
    </linearGradient>
    <linearGradient
       inkscape:collect="always"
       xlink:href="#linearGradient5427-1"
       id="linearGradient5443-3"
       gradientUnits="userSpaceOnUse"
       x1="618.94147"
       y1="2316.8098"
       x2="1024.5358"
       y2="1619.6255" />
    <linearGradient
       inkscape:collect="always"
       xlink:href="#linearGradient5427-1"
       id="linearGradient5445-2"
       gradientUnits="userSpaceOnUse"
       x1="618.94147"
       y1="2316.8098"
       x2="1024.5358"
       y2="1619.6255" />
    <linearGradient
       inkscape:collect="always"
       xlink:href="#linearGradient5427-1"
       id="linearGradient5449-7"
       gradientUnits="userSpaceOnUse"
       x1="618.94147"
       y1="2316.8098"
       x2="1024.5358"
       y2="1619.6255" />
    <linearGradient
       inkscape:collect="always"
       xlink:href="#linearGradient5427-1"
       id="linearGradient5451-9"
       gradientUnits="userSpaceOnUse"
       x1="618.94147"
       y1="2316.8098"
       x2="1024.5358"
       y2="1619.6255" />
    <linearGradient
       inkscape:collect="always"
       xlink:href="#linearGradient5427-1"
       id="linearGradient5455-2"
       gradientUnits="userSpaceOnUse"
       x1="618.94147"
       y1="2316.8098"
       x2="1024.5358"
       y2="1619.6255" />
    <linearGradient
       inkscape:collect="always"
       xlink:href="#linearGradient5427-1"
       id="linearGradient5457-0"
       gradientUnits="userSpaceOnUse"
       x1="618.94147"
       y1="2316.8098"
       x2="1024.5358"
       y2="1619.6255" />
    <linearGradient
       y2="1619.6255"
       x2="1024.5358"
       y1="2316.8098"
       x1="618.94147"
       gradientUnits="userSpaceOnUse"
       id="linearGradient5608"
       xlink:href="#linearGradient5427-1"
       inkscape:collect="always" />
    <linearGradient
       y2="1619.6255"
       x2="1024.5358"
       y1="2316.8098"
       x1="618.94147"
       gradientUnits="userSpaceOnUse"
       id="linearGradient5608-2"
       xlink:href="#linearGradient5427-1-2"
       inkscape:collect="always" />
    <linearGradient
       id="linearGradient5427-1-2">
      <stop
         style="stop-color:#ad5d0f;stop-opacity:1;"
         offset="0"
         id="stop5429-2-5" />
      <stop
         id="stop5437-1-2"
         offset="0.25"
         style="stop-color:#84470b;stop-opacity:1;" />
      <stop
         id="stop5435-6-0"
         offset="0.5"
         style="stop-color:#8a4a0c;stop-opacity:1;" />
      <stop
         style="stop-color:#7a420b;stop-opacity:1;"
         offset="1"
         id="stop5431-8-6" />
    </linearGradient>
    <linearGradient
       inkscape:collect="always"
       xlink:href="#linearGradient5427-1-2"
       id="linearGradient5441"
       gradientUnits="userSpaceOnUse"
       x1="618.94147"
       y1="2316.8098"
       x2="1024.5358"
       y2="1619.6255" />
    <linearGradient
       id="linearGradient3064">
      <stop
         style="stop-color:#ad5d0f;stop-opacity:1;"
         offset="0"
         id="stop3066" />
      <stop
         id="stop3068"
         offset="0.25"
         style="stop-color:#84470b;stop-opacity:1;" />
      <stop
         id="stop3070"
         offset="0.5"
         style="stop-color:#8a4a0c;stop-opacity:1;" />
      <stop
         style="stop-color:#7a420b;stop-opacity:1;"
         offset="1"
         id="stop3072" />
    </linearGradient>
    <linearGradient
       id="linearGradient3075">
      <stop
         style="stop-color:#ad5d0f;stop-opacity:1;"
         offset="0"
         id="stop3077" />
      <stop
         id="stop3079"
         offset="0.25"
         style="stop-color:#84470b;stop-opacity:1;" />
      <stop
         id="stop3081"
         offset="0.5"
         style="stop-color:#8a4a0c;stop-opacity:1;" />
      <stop
         style="stop-color:#7a420b;stop-opacity:1;"
         offset="1"
         id="stop3083" />
    </linearGradient>
    <linearGradient
       id="linearGradient3086">
      <stop
         style="stop-color:#ad5d0f;stop-opacity:1;"
         offset="0"
         id="stop3088" />
      <stop
         id="stop3090"
         offset="0.25"
         style="stop-color:#84470b;stop-opacity:1;" />
      <stop
         id="stop3092"
         offset="0.5"
         style="stop-color:#8a4a0c;stop-opacity:1;" />
      <stop
         style="stop-color:#7a420b;stop-opacity:1;"
         offset="1"
         id="stop3094" />
    </linearGradient>
    <linearGradient
       id="linearGradient3097">
      <stop
         style="stop-color:#ad5d0f;stop-opacity:1;"
         offset="0"
         id="stop3099" />
      <stop
         id="stop3101"
         offset="0.25"
         style="stop-color:#84470b;stop-opacity:1;" />
      <stop
         id="stop3103"
         offset="0.5"
         style="stop-color:#8a4a0c;stop-opacity:1;" />
      <stop
         style="stop-color:#7a420b;stop-opacity:1;"
         offset="1"
         id="stop3105" />
    </linearGradient>
    <linearGradient
       id="linearGradient3108">
      <stop
         style="stop-color:#ad5d0f;stop-opacity:1;"
         offset="0"
         id="stop3110" />
      <stop
         id="stop3112"
         offset="0.25"
         style="stop-color:#84470b;stop-opacity:1;" />
      <stop
         id="stop3114"
         offset="0.5"
         style="stop-color:#8a4a0c;stop-opacity:1;" />
      <stop
         style="stop-color:#7a420b;stop-opacity:1;"
         offset="1"
         id="stop3116" />
    </linearGradient>
    <linearGradient
       id="linearGradient3119">
      <stop
         style="stop-color:#ad5d0f;stop-opacity:1;"
         offset="0"
         id="stop3121" />
      <stop
         id="stop3123"
         offset="0.25"
         style="stop-color:#84470b;stop-opacity:1;" />
      <stop
         id="stop3125"
         offset="0.5"
         style="stop-color:#8a4a0c;stop-opacity:1;" />
      <stop
         style="stop-color:#7a420b;stop-opacity:1;"
         offset="1"
         id="stop3127" />
    </linearGradient>
    <linearGradient
       inkscape:collect="always"
       xlink:href="#linearGradient5427-1-2"
       id="linearGradient5451-9-2"
       gradientUnits="userSpaceOnUse"
       x1="618.94147"
       y1="2316.8098"
       x2="1024.5358"
       y2="1619.6255" />
    <linearGradient
       id="linearGradient3130">
      <stop
         style="stop-color:#ad5d0f;stop-opacity:1;"
         offset="0"
         id="stop3132" />
      <stop
         id="stop3134"
         offset="0.25"
         style="stop-color:#84470b;stop-opacity:1;" />
      <stop
         id="stop3136"
         offset="0.5"
         style="stop-color:#8a4a0c;stop-opacity:1;" />
      <stop
         style="stop-color:#7a420b;stop-opacity:1;"
         offset="1"
         id="stop3138" />
    </linearGradient>
    <linearGradient
       id="linearGradient3141">
      <stop
         style="stop-color:#ad5d0f;stop-opacity:1;"
         offset="0"
         id="stop3143" />
      <stop
         id="stop3145"
         offset="0.25"
         style="stop-color:#84470b;stop-opacity:1;" />
      <stop
         id="stop3147"
         offset="0.5"
         style="stop-color:#8a4a0c;stop-opacity:1;" />
      <stop
         style="stop-color:#7a420b;stop-opacity:1;"
         offset="1"
         id="stop3149" />
    </linearGradient>
    <linearGradient
       id="linearGradient3152">
      <stop
         style="stop-color:#ad5d0f;stop-opacity:1;"
         offset="0"
         id="stop3154" />
      <stop
         id="stop3156"
         offset="0.25"
         style="stop-color:#84470b;stop-opacity:1;" />
      <stop
         id="stop3158"
         offset="0.5"
         style="stop-color:#8a4a0c;stop-opacity:1;" />
      <stop
         style="stop-color:#7a420b;stop-opacity:1;"
         offset="1"
         id="stop3160" />
    </linearGradient>
    <linearGradient
       id="linearGradient3163">
      <stop
         style="stop-color:#ad5d0f;stop-opacity:1;"
         offset="0"
         id="stop3165" />
      <stop
         id="stop3167"
         offset="0.25"
         style="stop-color:#84470b;stop-opacity:1;" />
      <stop
         id="stop3169"
         offset="0.5"
         style="stop-color:#8a4a0c;stop-opacity:1;" />
      <stop
         style="stop-color:#7a420b;stop-opacity:1;"
         offset="1"
         id="stop3171" />
    </linearGradient>
    <filter
       inkscape:collect="always"
       id="filter3347">
      <feBlend
         inkscape:collect="always"
         mode="multiply"
         in2="BackgroundImage"
         id="feBlend3349" />
    </filter>
    <linearGradient
       inkscape:collect="always"
       xlink:href="#linearGradient5427-1-2"
       id="linearGradient3375"
       gradientUnits="userSpaceOnUse"
       x1="618.94147"
       y1="2316.8098"
       x2="1024.5358"
       y2="1619.6255" />
    <linearGradient
       inkscape:collect="always"
       xlink:href="#linearGradient5427-1-2"
       id="linearGradient3419"
       gradientUnits="userSpaceOnUse"
       x1="618.94147"
       y1="2316.8098"
       x2="1024.5358"
       y2="1619.6255" />
  </defs>
  <sodipodi:namedview
     pagecolor="#ffffff"
     bordercolor="#666666"
     borderopacity="1"
     objecttolerance="10"
     gridtolerance="10"
     guidetolerance="10"
     inkscape:pageopacity="0"
     inkscape:pageshadow="2"
     inkscape:window-width="1920"
     inkscape:window-height="1025"
     id="namedview4"
     showgrid="false"
     inkscape:zoom="0.31343545"
     inkscape:cx="1209.2137"
     inkscape:cy="2488.7278"
     inkscape:window-x="0"
     inkscape:window-y="26"
     inkscape:window-maximized="1"
     inkscape:current-layer="layer3" />
  <g
     inkscape:groupmode="layer"
     id="layer2"
     inkscape:label="artwork"
     sodipodi:insensitive="true">
    <image
       sodipodi:absref="/home/deevad/peppercarrot/webcomics/ep03_The-secret-ingredients/lang/vi/../gfx_Pepper-and-Carrot_by-David-Revoy_E03P03.png"
       xlink:href="../gfx_Pepper-and-Carrot_by-David-Revoy_E03P03.png"
       y="0"
       x="0"
       id="image10"
       height="3503"
       width="2481" />
    <flowRoot
       xml:space="preserve"
       id="flowRoot5790"
       style="font-style:normal;font-variant:normal;font-weight:normal;font-stretch:normal;line-height:0.01%;font-family:Lavi;-inkscape-font-specification:Lavi;letter-spacing:0px;word-spacing:0px;fill:#000000;fill-opacity:1;stroke:none"><flowRegion
         id="flowRegion5792"><rect
           id="rect5794"
           width="698.64941"
           height="222.5463"
           x="1276.9049"
           y="2673.0117"
           style="font-style:normal;font-variant:normal;font-weight:normal;font-stretch:normal;font-size:48px;font-family:Lavi;-inkscape-font-specification:Lavi" /></flowRegion><flowPara
         id="flowPara5796"
         style="font-size:48px;line-height:1.25"> </flowPara></flowRoot>  </g>
  <g
     inkscape:groupmode="layer"
     id="layer3"
     inkscape:label="speechbubbles">
    <path
       style="fill:#ffffff;fill-opacity:1;stroke:none;stroke-width:1px;stroke-linecap:butt;stroke-linejoin:miter;stroke-opacity:1"
       d="m 1172.2676,3056.4811 c 34.0907,9.5231 47.2024,18.3659 41.0837,23.8078 13.9859,2.7208 19.2306,73.4637 6.1187,86.3878 -0.874,1.3606 -6.9929,5.4418 -4.3707,6.1221 2.6225,0.6802 18.3567,-1.3605 20.9791,1.3603 2.6223,2.7209 -23.6013,41.4935 -20.1049,42.854 3.4965,1.3604 83.9156,-24.4879 95.2791,-18.366 11.3636,6.1219 5.2447,21.767 8.7413,22.4473 3.4963,0.6802 35.8389,-3.4011 40.2095,-2.7209 4.3706,0.6802 12.2376,21.0867 16.6082,21.7671 4.3706,0.6802 24.4754,-8.843 27.9719,-8.1628 3.4965,0.6804 1.7481,17.6858 6.1188,18.366 4.3707,0.6802 23.6012,-14.2845 26.2237,-13.6044 2.6222,0.6803 12.2376,34.6913 16.6082,36.7319 4.3706,2.0407 32.3425,-37.412 34.9648,-38.0923 2.6224,-0.6803 19.2306,46.2549 22.7271,46.9353 3.4965,0.6801 20.9789,-31.9705 23.6013,-31.2903 2.6223,0.6803 19.2307,19.7265 22.7271,21.0868 3.4965,1.3605 26.2237,-42.1735 29.7201,-42.1735 3.4965,0 33.2166,18.3659 35.8389,21.767 2.6223,3.4012 5.2447,-17.6858 8.7411,-17.6858 3.4966,0 43.7061,12.244 44.5802,11.5638 0.8742,-0.6802 -6.1189,-13.6045 -3.4965,-13.6045 2.6224,0 43.706,17.0056 45.4542,13.6045 1.7482,-3.4012 89.1603,17.0055 95.2793,14.2847 6.1187,-2.721 -39.3355,-55.7782 -34.9651,-59.8594 4.3707,-4.0814 20.105,0.6802 20.9791,-1.3605 0.8741,-2.0407 -9.6154,-10.8835 -6.993,-13.6044 2.6224,-2.721 32.3424,-13.6044 34.9647,-17.0054 2.6224,-3.4012 -13.1117,-12.2441 -9.6153,-14.2847 3.4965,-2.0407 55.0696,-14.9649 55.9438,-18.3659 0.874,-3.4012 -26.2236,-19.7264 -22.7272,-24.4879 3.4965,-4.7617 13.1118,-6.8023 12.2377,-10.2034 -0.8741,-3.4011 -17.4824,-7.4824 -16.6084,-10.8836 0.8743,-3.401 9.6154,-20.4065 12.2378,-23.1274 2.6223,-2.7209 -18.3565,-1.3605 -18.3565,-4.0814 0,-2.7209 76.9226,-75.5044 75.1743,-95.9109 -27.0977,12.9241 -119.7544,36.0515 -148.6004,30.6098 -28.846,-5.4418 -17.4824,-39.4527 -21.8529,-41.4933 -4.3707,-2.0408 -36.7131,11.5636 -41.0838,6.8021 -4.3706,-4.7615 -6.1188,-13.6044 -9.6153,-13.6044 -3.4964,0 -23.6013,19.0461 -27.9717,18.3659 -4.3707,-0.6801 -45.4544,-30.6099 -51.5731,-31.29 -6.1189,-0.6803 -29.7201,11.5637 -34.9648,12.2439 -5.2448,0.6802 -9.6154,-16.3253 -13.986,-14.9648 -4.3706,1.3603 -32.3425,13.6044 -36.713,12.2438 -4.3706,-1.3603 -7.8672,-6.802 -11.3637,-5.4417 -3.4964,1.3605 -19.2306,6.8023 -19.2306,6.8023 0,0 -11.3635,-4.0814 -16.6082,-4.0814 -5.2447,0 -41.0837,22.4472 -45.4542,23.8078 -4.3706,1.3603 -41.9579,-51.6969 -39.3354,-55.7781 2.6223,-4.0814 -39.3354,56.4582 -45.4543,58.499 -6.1189,2.0406 -24.4754,-4.0815 -26.2236,-2.0408 -1.7482,2.0408 -6.9929,12.9241 -12.2377,13.6045 -5.2447,0.6802 -17.4824,3.401 -17.4824,3.401 l 1.7482,4.0815 c 0,0 -36.713,-10.8836 -41.0836,-14.9649 -4.3706,-4.0813 2.6223,17.6856 5.2447,23.1275 -15.7342,-5.4419 -62.0625,-17.0056 -65.5589,-20.4067 -3.4966,-3.4012 6.1188,12.2441 11.3635,17.0056 -6.9931,-2.0408 -13.1119,-2.721 -13.1119,-2.721 l 20.1047,16.3253 -6.1187,1.3605 c 0,0 13.1119,7.4825 13.1119,10.8835 0,3.401 -34.0908,7.4825 -34.0908,7.4825 0,0 13.986,6.1218 10.4895,9.523 -3.4966,3.4011 -12.2378,5.4417 -12.2378,5.4417 l -1.7482,8.843 z"
       id="path5888"
       inkscape:connector-curvature="0" />
    <path
       style="color:#000000;fill:#ffffff;fill-opacity:1;fill-rule:nonzero;stroke:none;stroke-width:1px;marker:none;visibility:visible;display:inline;overflow:visible;enable-background:accumulate"
       d="m 1309.514,3089.1554 c -23.8527,25.0454 -75.7324,71.5582 -90.044,77.5213 -14.908,-23.2564 -51.2833,-56.0538 -55.4576,-53.0723 -4.1742,2.9816 -42.3385,78.1177 -50.0907,77.5214 -7.7521,-0.5964 -32.2011,-11.3301 -39.3569,-19.0822 23.2564,20.2748 42.3385,33.9901 53.6686,31.6048 7.7521,-1.1926 36.9717,-60.2281 38.7606,-64.4023 18.4859,15.5043 53.0723,51.2834 62.0171,54.265 11.33,-4.1742 54.8612,-20.2749 98.3924,-59.0355 43.5312,-38.7607 -17.8895,-45.3202 -17.8895,-45.3202 z"
       id="path5901"
       inkscape:connector-curvature="0"
       sodipodi:nodetypes="ccccccccsc" />
    <path
       style="fill:#ffffff;stroke:none;stroke-width:1px;stroke-linecap:butt;stroke-linejoin:miter;stroke-opacity:1;color:#000000;fill-opacity:1;fill-rule:nonzero;marker:none;visibility:visible;display:inline;overflow:visible;enable-background:accumulate"
       d="m 1294.1424,2775.8828 c 8.6749,-44.9519 41.0088,-71.7653 59.1473,-81.2289 18.1385,-9.4636 227.9142,-20.5044 273.6547,-22.0817 45.7406,-1.5772 178.2305,-2.3659 235.8005,25.2362 57.57,27.6021 78.863,64.6677 79.6517,85.9607 0.7886,21.293 -20.5044,78.0744 -129.3354,95.4243 -108.831,17.3499 -221.6052,14.984 -263.4026,11.8294 -41.7974,-3.1545 -170.3441,-5.5204 -209.7756,-42.586 -39.4316,-37.0656 -44.952,-45.7406 -45.7406,-72.554 z"
       id="path5909"
       inkscape:connector-curvature="0" />
    <path
       style="color:#000000;fill:#ffffff;fill-opacity:1;fill-rule:nonzero;stroke:none;stroke-width:1px;marker:none;visibility:visible;display:inline;overflow:visible;enable-background:accumulate"
       d="m 1534.3348,2988.0244 c 9.2065,-24.4476 30.9671,-78.8631 20.0868,-113.5628 -10.8803,-34.6997 26.7822,-22.0816 26.7822,-22.0816 0,0 -2.5108,-7.0977 -0.8369,16.5612 1.6739,23.6589 -9.2064,100.9447 -38.4995,122.2377 -29.2931,21.2931 -7.5326,-3.1545 -7.5326,-3.1545 z"
       id="path5917"
       inkscape:connector-curvature="0"
       sodipodi:nodetypes="cscssc" />
  </g>
  <g
     inkscape:groupmode="layer"
     id="layer1"
     inkscape:label="txt">
    <flowRoot
       xml:space="preserve"
       id="flowRoot5798"
       style="font-style:normal;font-variant:normal;font-weight:normal;font-stretch:normal;line-height:0.01%;font-family:Arial;-inkscape-font-specification:Arial;letter-spacing:0px;word-spacing:0px;fill:#000000;fill-opacity:1;stroke:none"
       transform="translate(100.73864,53.488632)"><flowRegion
         id="flowRegion5800"><rect
           id="rect5802"
           width="729.65997"
           height="244.4361"
           x="1291.4982"
           y="2671.1877" /></flowRegion><flowPara
         style="font-style:normal;font-variant:normal;font-weight:500;font-stretch:normal;font-size:48px;line-height:1.25;font-family:ComicSpice;-inkscape-font-specification:'ComicSpice Medium'"
         id="flowPara5806">Thật may mắn, mình vẫn</flowPara><flowPara
         style="font-style:normal;font-variant:normal;font-weight:500;font-stretch:normal;font-size:48px;line-height:1.25;font-family:ComicSpice;-inkscape-font-specification:'ComicSpice Medium'"
         id="flowPara3506"> còn 1 ngày để chuẩn bị!</flowPara></flowRoot>    <flowRoot
       xml:space="preserve"
       id="flowRoot5798-2"
       style="font-style:normal;font-variant:normal;font-weight:normal;font-stretch:normal;line-height:0.01%;font-family:Arial;-inkscape-font-specification:Arial;letter-spacing:0px;word-spacing:0px;fill:#000000;fill-opacity:1;stroke:none"
       transform="matrix(1.2105727,0,0,1.3236545,-471.20034,-537.92031)"><flowRegion
         id="flowRegion5800-2"><rect
           id="rect5802-6"
           width="729.65997"
           height="244.4361"
           x="1291.4982"
           y="2671.1877" /></flowRegion><flowPara
         style="font-style:normal;font-variant:normal;font-weight:500;font-stretch:normal;font-size:48px;line-height:1.25;font-family:ComicSpice;-inkscape-font-specification:'ComicSpice Medium';text-align:center;text-anchor:middle"
         id="flowPara5840">Chúng ta sẽ</flowPara><flowPara
         style="font-style:normal;font-variant:normal;font-weight:500;font-stretch:normal;font-size:48px;line-height:1.25;font-family:ComicSpice;-inkscape-font-specification:'ComicSpice Medium';text-align:center;text-anchor:middle"
         id="flowPara3510">giành lấy giải thưởng</flowPara><flowPara
         style="font-style:normal;font-variant:normal;font-weight:500;font-stretch:normal;font-size:48px;line-height:1.25;font-family:ComicSpice;-inkscape-font-specification:'ComicSpice Medium';text-align:center;text-anchor:middle"
         id="flowPara3512">lần này.</flowPara></flowRoot>  </g>
  <g
     inkscape:groupmode="layer"
     id="layer4"
     inkscape:label="fx"
     style="filter:url(#filter3347);opacity:0.7265625">
    <flowRoot
       xml:space="preserve"
       id="flowRoot3755"
       style="color:#000000;font-style:normal;font-variant:normal;font-weight:normal;font-stretch:normal;line-height:0.01%;font-family:Arial;-inkscape-font-specification:Arial;text-align:center;letter-spacing:0px;word-spacing:0px;text-anchor:middle;clip-rule:nonzero;display:inline;overflow:visible;visibility:visible;opacity:1;isolation:auto;mix-blend-mode:normal;color-interpolation:sRGB;color-interpolation-filters:linearRGB;solid-color:#000000;solid-opacity:1;fill:#ba894f;fill-opacity:1;fill-rule:nonzero;stroke:#7b441d;stroke-width:5.05978775;stroke-linecap:butt;stroke-linejoin:miter;stroke-miterlimit:4;stroke-dasharray:none;stroke-dashoffset:0;stroke-opacity:1;color-rendering:auto;image-rendering:auto;shape-rendering:auto;text-rendering:auto;enable-background:accumulate"
       transform="matrix(0.84085831,-0.16262053,0.48805902,0.9220907,-813.65508,316.14428)"><flowRegion
         id="flowRegion3757"
         style="fill:url(#linearGradient5441);fill-opacity:1"><rect
           id="rect3759"
           width="943.26337"
           height="841.94098"
           x="296.72992"
           y="1655.0723"
           style="color:#000000;font-size:67.07809448px;text-align:center;text-anchor:middle;clip-rule:nonzero;display:inline;overflow:visible;visibility:visible;isolation:auto;mix-blend-mode:normal;color-interpolation:sRGB;color-interpolation-filters:linearRGB;solid-color:#000000;solid-opacity:1;fill:#ba894f;fill-opacity:1;fill-rule:nonzero;stroke:#7b441d;stroke-width:5.05978775;stroke-linecap:butt;stroke-linejoin:miter;stroke-miterlimit:4;stroke-dasharray:none;stroke-dashoffset:0;stroke-opacity:1;color-rendering:auto;image-rendering:auto;shape-rendering:auto;text-rendering:auto;enable-background:accumulate" /></flowRegion><flowPara
         style="color:#000000;font-style:normal;font-variant:normal;font-weight:normal;font-stretch:normal;font-size:67.07809448px;line-height:1.25;font-family:Fondamento;-inkscape-font-specification:Fondamento;clip-rule:nonzero;display:inline;overflow:visible;visibility:visible;isolation:auto;mix-blend-mode:normal;color-interpolation:sRGB;color-interpolation-filters:linearRGB;solid-color:#000000;solid-opacity:1;fill:#ba894f;fill-opacity:1;fill-rule:nonzero;stroke:#7b441d;stroke-width:5.05978775;stroke-linecap:butt;stroke-linejoin:miter;stroke-miterlimit:4;stroke-dasharray:none;stroke-dashoffset:0;stroke-opacity:1;color-rendering:auto;image-rendering:auto;shape-rendering:auto;text-rendering:auto;enable-background:accumulate"
         id="flowPara3474">Cuộc Thi</flowPara><flowPara
         style="color:#000000;font-style:normal;font-variant:normal;font-weight:normal;font-stretch:normal;font-size:67.07809448px;line-height:1.25;font-family:Fondamento;-inkscape-font-specification:Fondamento;clip-rule:nonzero;display:inline;overflow:visible;visibility:visible;isolation:auto;mix-blend-mode:normal;color-interpolation:sRGB;color-interpolation-filters:linearRGB;solid-color:#000000;solid-opacity:1;fill:#ba894f;fill-opacity:1;fill-rule:nonzero;stroke:#7b441d;stroke-width:5.05978775;stroke-linecap:butt;stroke-linejoin:miter;stroke-miterlimit:4;stroke-dasharray:none;stroke-dashoffset:0;stroke-opacity:1;color-rendering:auto;image-rendering:auto;shape-rendering:auto;text-rendering:auto;enable-background:accumulate"
         id="flowPara3478">Thần Dược Komona </flowPara></flowRoot>    <flowRoot
       transform="matrix(0.7080212,-0.14309456,0.51212683,0.7689921,-652.54601,757.31947)"
       style="color:#000000;font-style:normal;font-variant:normal;font-weight:normal;font-stretch:normal;line-height:0.01%;font-family:Arial;-inkscape-font-specification:Arial;text-align:center;letter-spacing:0px;word-spacing:0px;text-anchor:middle;clip-rule:nonzero;display:inline;overflow:visible;visibility:visible;opacity:1;isolation:auto;mix-blend-mode:normal;color-interpolation:sRGB;color-interpolation-filters:linearRGB;solid-color:#000000;solid-opacity:1;fill:#ba894f;fill-opacity:1;fill-rule:nonzero;stroke:#7b441d;stroke-width:5.37446117;stroke-linecap:butt;stroke-linejoin:miter;stroke-miterlimit:4;stroke-dasharray:none;stroke-dashoffset:0;stroke-opacity:1;color-rendering:auto;image-rendering:auto;shape-rendering:auto;text-rendering:auto;enable-background:accumulate"
       id="flowRoot3351"
       xml:space="preserve"><flowRegion
         style="fill:url(#linearGradient3375);fill-opacity:1"
         id="flowRegion3353"><rect
           style="color:#000000;font-size:67.07809448px;text-align:center;text-anchor:middle;clip-rule:nonzero;display:inline;overflow:visible;visibility:visible;isolation:auto;mix-blend-mode:normal;color-interpolation:sRGB;color-interpolation-filters:linearRGB;solid-color:#000000;solid-opacity:1;fill:#ba894f;fill-opacity:1;fill-rule:nonzero;stroke:#7b441d;stroke-width:5.37446117;stroke-linecap:butt;stroke-linejoin:miter;stroke-miterlimit:4;stroke-dasharray:none;stroke-dashoffset:0;stroke-opacity:1;color-rendering:auto;image-rendering:auto;shape-rendering:auto;text-rendering:auto;enable-background:accumulate"
           y="1655.0723"
           x="296.72992"
           height="841.94098"
           width="943.26337"
           id="rect3355" /></flowRegion><flowPara
         style="color:#000000;font-style:normal;font-variant:normal;font-weight:normal;font-stretch:normal;font-size:67.07809448px;line-height:1.25;font-family:Fondamento;-inkscape-font-specification:Fondamento;clip-rule:nonzero;display:inline;overflow:visible;visibility:visible;isolation:auto;mix-blend-mode:normal;color-interpolation:sRGB;color-interpolation-filters:linearRGB;solid-color:#000000;solid-opacity:1;fill:#ba894f;fill-opacity:1;fill-rule:nonzero;stroke:#7b441d;stroke-width:5.37446117;stroke-linecap:butt;stroke-linejoin:miter;stroke-miterlimit:4;stroke-dasharray:none;stroke-dashoffset:0;stroke-opacity:1;color-rendering:auto;image-rendering:auto;shape-rendering:auto;text-rendering:auto;enable-background:accumulate"
         id="flowPara3363">Giải thưởng tới</flowPara><flowPara
         style="color:#000000;font-style:normal;font-variant:normal;font-weight:normal;font-stretch:normal;font-size:67.07809448px;line-height:1.25;font-family:Fondamento;-inkscape-font-specification:Fondamento;clip-rule:nonzero;display:inline;overflow:visible;visibility:visible;isolation:auto;mix-blend-mode:normal;color-interpolation:sRGB;color-interpolation-filters:linearRGB;solid-color:#000000;solid-opacity:1;fill:#ba894f;fill-opacity:1;fill-rule:nonzero;stroke:#7b441d;stroke-width:5.37446117;stroke-linecap:butt;stroke-linejoin:miter;stroke-miterlimit:4;stroke-dasharray:none;stroke-dashoffset:0;stroke-opacity:1;color-rendering:auto;image-rendering:auto;shape-rendering:auto;text-rendering:auto;enable-background:accumulate"
         id="flowPara3484">50 000Ko </flowPara><flowPara
         style="color:#000000;font-style:normal;font-variant:normal;font-weight:normal;font-stretch:normal;font-size:67.07809448px;line-height:1.25;font-family:Fondamento;-inkscape-font-specification:Fondamento;clip-rule:nonzero;display:inline;overflow:visible;visibility:visible;isolation:auto;mix-blend-mode:normal;color-interpolation:sRGB;color-interpolation-filters:linearRGB;solid-color:#000000;solid-opacity:1;fill:#ba894f;fill-opacity:1;fill-rule:nonzero;stroke:#7b441d;stroke-width:5.37446117;stroke-linecap:butt;stroke-linejoin:miter;stroke-miterlimit:4;stroke-dasharray:none;stroke-dashoffset:0;stroke-opacity:1;color-rendering:auto;image-rendering:auto;shape-rendering:auto;text-rendering:auto;enable-background:accumulate"
         id="flowPara3371">CHO THẦN </flowPara><flowPara
         style="color:#000000;font-style:normal;font-variant:normal;font-weight:normal;font-stretch:normal;font-size:67.07809448px;line-height:1.25;font-family:Fondamento;-inkscape-font-specification:Fondamento;clip-rule:nonzero;display:inline;overflow:visible;visibility:visible;isolation:auto;mix-blend-mode:normal;color-interpolation:sRGB;color-interpolation-filters:linearRGB;solid-color:#000000;solid-opacity:1;fill:#ba894f;fill-opacity:1;fill-rule:nonzero;stroke:#7b441d;stroke-width:5.37446117;stroke-linecap:butt;stroke-linejoin:miter;stroke-miterlimit:4;stroke-dasharray:none;stroke-dashoffset:0;stroke-opacity:1;color-rendering:auto;image-rendering:auto;shape-rendering:auto;text-rendering:auto;enable-background:accumulate"
         id="flowPara3490"><flowSpan
   id="flowSpan3498"
   style="color:#000000;font-style:normal;font-variant:normal;font-weight:normal;font-stretch:normal;font-size:67.07809448px;font-family:Fondamento;-inkscape-font-specification:Fondamento;clip-rule:nonzero;display:inline;overflow:visible;visibility:visible;isolation:auto;mix-blend-mode:normal;color-interpolation:sRGB;color-interpolation-filters:linearRGB;solid-color:#000000;solid-opacity:1;fill:#ba894f;fill-opacity:1;fill-rule:nonzero;stroke:#7b441d;stroke-width:5.37446117;stroke-linecap:butt;stroke-linejoin:miter;stroke-miterlimit:4;stroke-dasharray:none;stroke-dashoffset:0;stroke-opacity:1;color-rendering:auto;image-rendering:auto;shape-rendering:auto;text-rendering:auto;enable-background:accumulate">DƯỢC T</flowSpan>ỐT NHẤT</flowPara></flowRoot>    <flowRoot
       xml:space="preserve"
       id="flowRoot3395"
       style="color:#000000;font-style:normal;font-variant:normal;font-weight:normal;font-stretch:normal;line-height:0.01%;font-family:Arial;-inkscape-font-specification:Arial;text-align:center;letter-spacing:0px;word-spacing:0px;text-anchor:middle;clip-rule:nonzero;display:inline;overflow:visible;visibility:visible;opacity:1;isolation:auto;mix-blend-mode:normal;color-interpolation:sRGB;color-interpolation-filters:linearRGB;solid-color:#000000;solid-opacity:1;fill:#ba894f;fill-opacity:1;fill-rule:nonzero;stroke:#7b441d;stroke-width:5.44102478;stroke-linecap:butt;stroke-linejoin:miter;stroke-miterlimit:4;stroke-dasharray:none;stroke-dashoffset:0;stroke-opacity:1;color-rendering:auto;image-rendering:auto;shape-rendering:auto;text-rendering:auto;enable-background:accumulate"
       transform="matrix(0.70173676,-0.15106122,0.55516733,0.73939256,-504.92279,1123.4675)"><flowRegion
         id="flowRegion3397"
         style="fill:url(#linearGradient3419);fill-opacity:1"><rect
           id="rect3399"
           width="943.26337"
           height="841.94098"
           x="296.72992"
           y="1655.0723"
           style="color:#000000;font-size:67.07809448px;text-align:center;text-anchor:middle;clip-rule:nonzero;display:inline;overflow:visible;visibility:visible;isolation:auto;mix-blend-mode:normal;color-interpolation:sRGB;color-interpolation-filters:linearRGB;solid-color:#000000;solid-opacity:1;fill:#ba894f;fill-opacity:1;fill-rule:nonzero;stroke:#7b441d;stroke-width:5.44102478;stroke-linecap:butt;stroke-linejoin:miter;stroke-miterlimit:4;stroke-dasharray:none;stroke-dashoffset:0;stroke-opacity:1;color-rendering:auto;image-rendering:auto;shape-rendering:auto;text-rendering:auto;enable-background:accumulate" /></flowRegion><flowPara
         id="flowPara3413"
         style="color:#000000;font-style:normal;font-variant:normal;font-weight:normal;font-stretch:normal;font-size:59.89115143px;line-height:1.25;font-family:Fondamento;-inkscape-font-specification:Fondamento;clip-rule:nonzero;display:inline;overflow:visible;visibility:visible;isolation:auto;mix-blend-mode:normal;color-interpolation:sRGB;color-interpolation-filters:linearRGB;solid-color:#000000;solid-opacity:1;fill:#ba894f;fill-opacity:1;fill-rule:nonzero;stroke:#7b441d;stroke-width:5.44102478;stroke-linecap:butt;stroke-linejoin:miter;stroke-miterlimit:4;stroke-dasharray:none;stroke-dashoffset:0;stroke-opacity:1;color-rendering:auto;image-rendering:auto;shape-rendering:auto;text-rendering:auto;enable-background:accumulate"> Đường Azarday, 3 Pinkmoon</flowPara><flowPara
         id="flowPara3415"
         style="color:#000000;font-style:normal;font-variant:normal;font-weight:normal;font-stretch:normal;font-size:59.89115143px;line-height:1.25;font-family:Fondamento;-inkscape-font-specification:Fondamento;clip-rule:nonzero;display:inline;overflow:visible;visibility:visible;isolation:auto;mix-blend-mode:normal;color-interpolation:sRGB;color-interpolation-filters:linearRGB;solid-color:#000000;solid-opacity:1;fill:#ba894f;fill-opacity:1;fill-rule:nonzero;stroke:#7b441d;stroke-width:5.44102478;stroke-linecap:butt;stroke-linejoin:miter;stroke-miterlimit:4;stroke-dasharray:none;stroke-dashoffset:0;stroke-opacity:1;color-rendering:auto;image-rendering:auto;shape-rendering:auto;text-rendering:auto;enable-background:accumulate">Grand Plaza of Komona</flowPara></flowRoot>  </g>
</svg>
