<?xml version="1.0" encoding="UTF-8" standalone="no"?>
<!-- Created with Inkscape (http://www.inkscape.org/) -->

<svg
   xmlns:dc="http://purl.org/dc/elements/1.1/"
   xmlns:cc="http://creativecommons.org/ns#"
   xmlns:rdf="http://www.w3.org/1999/02/22-rdf-syntax-ns#"
   xmlns:svg="http://www.w3.org/2000/svg"
   xmlns="http://www.w3.org/2000/svg"
   xmlns:xlink="http://www.w3.org/1999/xlink"
   xmlns:sodipodi="http://sodipodi.sourceforge.net/DTD/sodipodi-0.dtd"
   xmlns:inkscape="http://www.inkscape.org/namespaces/inkscape"
   id="svg2"
   version="1.1"
   inkscape:version="0.92.4 (5da689c313, 2019-01-14)"
   width="2481"
   height="3503"
   sodipodi:docname="E11P02.svg">
  <sodipodi:namedview
     pagecolor="#ffffff"
     bordercolor="#666666"
     inkscape:pageopacity="0"
     inkscape:pageshadow="2"
     inkscape:window-width="1600"
     inkscape:window-height="900"
     id="namedview70"
     showgrid="false"
     inkscape:zoom="0.4"
     inkscape:cx="1284.4231"
     inkscape:cy="2128.2466"
     inkscape:current-layer="layer1"
     inkscape:window-x="0"
     inkscape:window-y="0"
     inkscape:window-maximized="0" />
  <metadata
     id="metadata8">
    <rdf:RDF>
      <cc:Work
         rdf:about="">
        <dc:format>image/svg+xml</dc:format>
        <dc:type
           rdf:resource="http://purl.org/dc/dcmitype/StillImage" />
        <dc:title />
      </cc:Work>
    </rdf:RDF>
  </metadata>
  <defs
     id="defs6">
    <filter
       style="color-interpolation-filters:sRGB"
       id="filter4375-4-1-1-1"
       inkscape:label="deevad outline effect">
      <feFlood
         id="feFlood4377-7-9-0-8"
         flood-opacity="1"
         flood-color="rgb(55,104,53)"
         result="flood" />
      <feComposite
         id="feComposite4379-3-8-8-2"
         in2="SourceGraphic"
         in="flood"
         operator="in"
         result="composite1" />
      <feMorphology
         id="feMorphology4393-1-0-49-8"
         operator="dilate"
         radius="4"
         result="result3" />
      <feComposite
         id="feComposite4385-9-5-7-0"
         in2="result3"
         in="SourceGraphic"
         operator="over"
         result="composite2" />
    </filter>
  </defs>
  <sodipodi:namedview
     pagecolor="#ffffff"
     bordercolor="#666666"
     borderopacity="1"
     objecttolerance="10"
     gridtolerance="10"
     guidetolerance="10"
     inkscape:pageopacity="0"
     inkscape:pageshadow="2"
     inkscape:window-width="1920"
     inkscape:window-height="1025"
     id="namedview4"
     showgrid="false"
     inkscape:zoom="0.40000002"
     inkscape:cx="868.936"
     inkscape:cy="1108.9305"
     inkscape:window-x="0"
     inkscape:window-y="26"
     inkscape:window-maximized="1"
     inkscape:current-layer="layer1" />
  <g
     inkscape:groupmode="layer"
     id="layer2"
     inkscape:label="artwork"
     sodipodi:insensitive="true">
    <image
       sodipodi:absref="D:\Pepper&amp;Carrot\ep11_The-Witches-of-Chaosah_lang-pack\lang\ro\../gfx_Pepper-and-Carrot_by-David-Revoy_E11P02.png"
       xlink:href="../gfx_Pepper-and-Carrot_by-David-Revoy_E11P02.png"
       width="2481"
       height="3503"
       id="image10"
       x="0"
       y="0" />
  </g>
  <g
     inkscape:groupmode="layer"
     id="layer3"
     inkscape:label="speechbubbles">
    <path
       style="fill:#ffffff;fill-opacity:1;stroke:none"
       d="m 117.17998,239.95798 c -7.55953,-97.53786 34.48866,-98.95842 79.05752,-112.26118 46.50386,-13.88031 387.05548,-38.876004 448.45603,27.20485 33.71184,36.28155 32.21868,174.92474 -58.1503,215.59755 -59.39781,26.73346 -289.48669,47.08716 -381.76011,3.11032 -29.93827,-14.26836 -76.0862,-56.90094 -87.60314,-133.65154 z"
       id="path3659"
       inkscape:connector-curvature="0"
       sodipodi:nodetypes="cssssc" />
    <path
       style="fill:#ffffff;fill-opacity:1;stroke:none;stroke-width:1.07152748"
       d="m 860.66799,479.26479 c 7.38509,89.20019 -25.32109,124.25298 -69.53634,136.37428 -46.13489,12.64756 -395.14111,41.13744 -455.95768,-19.34943 -33.39121,-33.21017 -76.72947,-175.8934 12.93821,-212.99853 58.93687,-24.38849 329.61326,-29.6769 448.32008,-4.46107 32.23937,6.84832 52.90215,30.2395 64.23573,100.43475 z"
       id="path3659-3"
       inkscape:connector-curvature="0"
       sodipodi:nodetypes="cssssc" />
    <path
       style="color:#000000;display:inline;overflow:visible;visibility:visible;fill:#ffffff;fill-opacity:1;fill-rule:nonzero;stroke:none;stroke-width:1px;marker:none;enable-background:accumulate"
       d="m 763.26198,583.12095 c 15.2137,41.75381 60.90819,86.34357 149.80787,69.67515 -89.85178,-4.43964 -113.17241,-40.85544 -119.9781,-76.16592 -6.8056,-35.31052 -14.65449,-50.62321 -14.65449,-50.62321 z"
       id="path4440"
       inkscape:connector-curvature="0"
       sodipodi:nodetypes="ccscc" />
    <path
       style="fill:#ffffff;fill-opacity:1;stroke:none;stroke-width:0.93065226"
       d="m 1550.7318,838.29638 c 35.899,7.12388 49.8595,14.19789 43.6276,18.90247 14.6927,1.93025 22.2659,60.98972 8.9494,72.12769 -0.8731,1.16011 -1.4887,1.75181 -4.3853,5.23042 7.0366,-0.99298 19.1382,-1.59259 21.9586,0.61887 2.8202,2.21173 -23.4302,35.30113 -19.7369,36.35287 3.6934,1.05162 86.9485,-22.56593 99.0018,-17.72501 12.0536,4.84082 9.356,14.93277 9.7969,18.5649 4.4811,-1.09215 37.9491,-4.25773 41.9295,-3.272 4.3844,1.86072 17.0455,14.54062 17.996,17.80097 2.9703,-2.16349 26.9258,-7.12962 28.9829,-7.52191 2.461,1.70739 6.39,11.77974 6.9361,15.21493 3.7784,-3.21334 24.2353,-12.53579 26.9954,-12.0317 2.7597,0.50426 16.4385,26.79812 18.4388,30.32172 2.2026,-3.1248 32.6836,-32.10246 35.4032,-32.73657 2.7196,-0.63409 23.6825,32.62587 25.1337,38.70717 3.0672,-5.641 20.972,-27.26835 23.7321,-26.76412 2.7599,0.50416 21.2814,14.45412 24.3685,17.08032 0.4612,-5.422 26.15,-35.93493 29.8029,-36.02148 3.6532,-0.0865 35.2474,14.54419 38.088,17.32487 -0.7959,-6.14257 4.956,-14.92713 8.6091,-15.01368 3.6531,-0.0865 42.5911,7.41274 46.9185,8.57167 -2.3391,-2.34047 -6.7955,-11.2311 -4.0558,-11.29603 2.7399,-0.0649 39.7019,6.3227 47.8923,10.2574 -2.9205,-7.96291 85.9792,7.64695 99.9679,9.59322 -8.4345,-7.32724 -42.7473,-45.69485 -38.3019,-49.21777 4.4456,-3.52303 16.7831,-1.85326 21.8782,-1.65759 -6.3159,-5.51563 -10.3679,-8.86804 -7.7089,-11.2095 2.6595,-2.34138 19.9106,-14.41488 36.0272,-15.0936 -11.1552,-6.62757 -10.4686,-11.71385 -10.4686,-11.71385 0,0 47.5983,-13.53407 57.9054,-16.75128 -8.1058,-2.75064 -27.9815,-15.85539 -24.4695,-19.92588 3.5121,-4.07048 4.4587,-5.59158 12.4837,-8.83988 -5.8622,-1.42429 -18.4867,-5.82773 -17.674,-8.69501 0.8127,-2.8673 2.5736,-16.26202 12.1012,-19.65321 -8.0475,1.15785 -19.2187,-0.68388 -19.2992,-2.96044 -0.081,-2.27646 16.6393,-44.14332 30.3697,-54.70011 -27.9285,11.48419 -47.6738,-12.27821 -77.8113,-11.56417 -30.1379,0.71405 -18.3022,-0.61243 -22.8684,-0.50424 -4.5664,0.10818 -38.3511,1.08015 -42.9174,1.18833 -4.5662,0.10817 -6.4048,-0.19122 -10.058,-0.10467 -3.6528,0.0865 -24.6416,1.04686 -29.2078,1.15505 -4.5662,0.10818 -47.5174,0.33701 -53.9104,0.48847 -6.3927,0.15147 -31.0397,1.0441 -36.5195,1.17394 -5.4795,0.12983 -10.059,-0.13894 -14.6254,-0.0307 -4.5663,0.10818 -33.7796,1.10903 -38.3458,1.2172 -4.5663,0.10819 -11.9125,-0.86778 -15.5656,-0.78122 -3.6529,0.0865 -16.3974,1.57283 -16.3974,1.57283 0,0 -11.876,0.17849 -17.3556,0.30831 -5.4795,0.12984 -42.9019,1.61669 -47.4681,1.72488 -4.5664,0.10819 -45.0412,1.42956 -42.3015,1.36465 2.7399,-0.0649 -39.8897,0.65132 -46.2824,0.8028 -6.3927,0.15148 -18.2469,0.99072 -20.0734,1.034 -1.8265,0.0433 -14.6202,0.0795 -20.0998,0.20934 -5.4795,0.12985 -18.2621,0.51844 -18.2621,0.51844 l 1.8301,0.0595 c 0,0 -38.3702,0.53186 -42.9366,0.64005 -4.5662,0.10817 2.7606,0.51762 5.5002,0.45273 -16.4386,0.38945 -64.8596,1.02227 -68.5124,1.10881 -3.6532,0.0865 6.4077,0.27691 11.8873,0.14707 -7.306,0.17311 -13.7015,0.25611 -13.7015,0.25611 l 21.0198,-0.0864 -6.3918,0.18576 c 0,0 -16.9718,28.21341 -16.8711,31.05906 0.1006,2.84556 -35.3956,7.10428 -35.3956,7.10428 0,0 14.7932,4.77581 11.2408,7.70801 -3.5525,2.93222 -12.6247,4.85597 -12.6247,4.85597 l -1.5646,7.44203 z"
       id="path5888"
       inkscape:connector-curvature="0"
       sodipodi:nodetypes="ccccccccccccccccccscscsccscccccccccscscsscccccccssccccccsccccccsccccc" />
    <path
       style="color:#000000;display:inline;overflow:visible;visibility:visible;fill:#ffffff;fill-opacity:1;fill-rule:nonzero;stroke:none;stroke-width:1px;marker:none;enable-background:accumulate"
       d="m 1967.4603,1256.7971 c 10.3698,-12.3606 78.3192,-47.8623 82.137,0.7246 48.8703,-59.1692 79.4318,-42.0203 120.4846,0.037 5.1116,-41.0197 36.5109,-41.1115 80.5928,-13.7223 -12.3359,-29.8532 14.9365,-28.4203 51.785,-31.7865 -45.0271,-15.4948 -51.53,-27.2591 38.232,-29.7017 -66.328,-8.1574 -127.9722,-17.0355 -42.0381,-48.6168 -24.3052,-3.5505 -88.9762,23.5465 -42.6962,-70.8469 -48.2625,26.6867 -104.6584,11.7789 -148.1526,-59.3916 -11.6554,55.1545 -45.4418,113.6193 -89.5919,56.5989 -28.4431,66.6788 -78.8245,9.7032 -94.2823,-18.4058 6.8392,40.1017 17.1,65.4703 -44.001,61.834 91.3903,62.2584 -3.8341,49.6096 -22.7805,60.9486 76.2364,26.1802 45.383,40.6004 26.8465,61.1039 62.4403,-18.6985 85.1423,2.7269 83.4647,31.2248 z"
       id="path3549-3"
       inkscape:connector-curvature="0"
       sodipodi:nodetypes="cccccccccccccccc" />
    <path
       style="color:#000000;display:inline;overflow:visible;visibility:visible;fill:#ffffff;fill-opacity:1;fill-rule:nonzero;stroke:none;stroke-width:1px;marker:none;enable-background:accumulate"
       d="m 2203.9792,1109.7454 c 31.2445,-19.0795 65.3939,-45.1286 72.8188,-52.0388 -12.6929,-4.9848 -23.0556,-11.472 -31.2287,-16.3975 15.0721,-11.6274 88.769,-61.68328 111.5806,-65.98197 -56.9232,8.44886 -115.9924,42.49157 -138.9231,63.43247 9.6363,8.2294 16.5681,12.0437 21.5327,16.4887 -10.8446,11.026 -54.7604,38.6986 -54.7604,38.6986 z"
       id="path5066"
       inkscape:connector-curvature="0" />
    <flowRoot
       transform="matrix(0.90617713,0,-0.22078013,1.6225798,1676.8105,681.53838)"
       style="font-style:normal;font-variant:normal;font-weight:normal;font-stretch:normal;line-height:0.01%;font-family:Lavi;-inkscape-font-specification:Lavi;text-align:center;letter-spacing:0px;word-spacing:0px;text-anchor:middle;fill:#000000;fill-opacity:1;stroke:#000000;stroke-width:2.30830574;stroke-miterlimit:4;stroke-dasharray:none;stroke-opacity:1"
       id="flowRoot4212-3-7-8-6"
       xml:space="preserve"><flowRegion
         id="flowRegion4214-6-7-8-3"><rect
           style="font-style:normal;font-variant:normal;font-weight:normal;font-stretch:normal;font-family:Lavi;-inkscape-font-specification:Lavi;text-align:center;text-anchor:middle;stroke:#000000;stroke-width:2.30830574;stroke-miterlimit:4;stroke-dasharray:none;stroke-opacity:1"
           y="265.53046"
           x="120.55251"
           height="355.03918"
           width="798.1947"
           id="rect4216-4-0-26-5" /></flowRegion><flowPara
         style="font-size:48px;line-height:1.25;text-align:center;letter-spacing:5.20896292px;text-anchor:middle;stroke:#000000;stroke-width:2.30830574;stroke-miterlimit:4;stroke-dasharray:none;stroke-opacity:1"
         id="flowPara4358-7-1">LINIȘTE!</flowPara></flowRoot>    <path
       style="color:#000000;display:inline;overflow:visible;visibility:visible;fill:#ffffff;fill-opacity:1;fill-rule:nonzero;stroke:none;stroke-width:1px;marker:none;enable-background:accumulate"
       d="m 1656.6816,860.45168 c -13.9641,31.64222 -47.0315,92.97319 -58.4788,103.42969 -21.9016,-16.83532 -67.233,-35.37975 -70.1513,-31.16101 -2.9182,4.21879 -13.389,87.83874 -20.8852,89.90244 -7.4962,2.0635 -34.1354,0.2416 -43.4933,-4.6298 28.7475,11.2032 51.3462,17.6477 61.1996,11.5672 6.8904,-3.7469 14.3961,-69.18877 14.6661,-73.72212 22.6435,8.32968 67.3012,30.28541 76.7272,30.0624 9.2475,-7.76375 44.7564,-37.65222 72.5931,-88.86226 27.8366,-51.21011 -32.1774,-36.58654 -32.1774,-36.58654 z"
       id="path5901"
       inkscape:connector-curvature="0"
       sodipodi:nodetypes="ccccccccsc" />
    <path
       style="color:#000000;display:inline;overflow:visible;visibility:visible;fill:#ffffff;fill-opacity:1;fill-rule:nonzero;stroke:none;stroke-width:1px;marker:none;enable-background:accumulate"
       d="m 173.03708,1751.9276 c 9.61629,5.6784 24.66304,4.5425 16.50574,-10.4759 14.485,7.9832 18.75083,9.5897 12.40977,-4.3098 11.06229,7.2851 23.09247,8.1327 21.41018,-8.3375 31.65168,18.4815 126.22531,5.2077 166.4753,7.3406 40.24998,2.1327 148.19325,0.4266 159.17052,0 10.97729,-0.4265 95.13622,0 102.45455,0 7.31812,0 36.59082,4.6921 45.73851,7.2513 13.72149,-3.4124 30.67479,-12.8164 30.67479,-12.8164 0,0 0.42733,25.1865 3.17168,26.4662 2.74437,1.2797 15.8552,-1.5097 23.91096,-2.5641 -5.32914,4.2573 -23.91096,17.4935 -21.16659,17.9199 2.74417,0.4267 22.14966,1.5068 29.58561,2.1505 -5.94861,2.6968 -22.26747,14.4851 -21.35289,14.9118 12.65211,13.8916 20.05845,11.3367 30.66787,8.1765 -5.07575,7.3827 -17.76357,11.7884 -20.22916,15.6821 1.77456,3.847 3.94734,5.604 13.72145,14.0764 -11.07176,-5.6607 -13.48376,-1.7474 -16.27922,1.8455 1.28377,8.9617 3.57681,18.1964 2.06224,33.3638 -1.78816,17.907 -3.51909,36.1347 -11.75211,45.5188 4.57396,4.2655 9.82011,11.9974 17.55014,15.139 -7.16157,1.1747 -15.74121,11.6525 -14.82623,13.785 0.9148,2.133 7.23261,10.1442 17.1178,14.2428 -9.39249,0.4032 -16.30119,1.6836 -21.78973,3.8163 -0.91516,3.4125 5.58673,12.077 7.27784,18.8743 -4.89507,-2.6813 -29.61635,-10.908 -33.708,-11.34 -1.52163,1.817 -2.68209,9.3175 -1.47273,18.6798 -145.87018,-47.5589 -459.17014,-12.5734 -477.36292,-11.0836 -8.23291,0 -22.72349,0.7972 -37.96571,10.1771 9.72225,-12.9243 13.31277,-22.8184 13.31277,-22.8184 0,0 -21.7982,-2.055 -35.45866,1.6624 9.51492,-7.039 15.10327,-14.433 14.18847,-15.7127 -0.91479,-1.2796 -16.89764,-1.7626 -29.04456,1.2222 4.70465,-4.4519 21.71803,-14.6349 20.80324,-16.7676 -9.46128,0.4682 -35.07359,-33.1811 -20.43734,-132.9945 -0.65597,-8.7898 -7.35315,-13.9595 -19.30164,-18.722 20.36844,-5.0093 48.89052,-7.7989 33.93806,-24.3598 z"
       id="path3915"
       inkscape:connector-curvature="0"
       sodipodi:nodetypes="ccccsssccsccccccccscccccccccccccccccc" />
    <path
       style="color:#000000;display:inline;overflow:visible;visibility:visible;fill:#ffffff;fill-opacity:1;fill-rule:nonzero;stroke:none;stroke-width:1px;marker:none;enable-background:accumulate"
       d="m 1105.0928,1799.5625 c -91.2283,-62.9886 -159.18424,-107.2113 -244.09747,-102.7556 -84.91309,4.4557 -100.49843,21.9951 -109.53087,27.7757 5.18785,12.9068 23.75593,31.6134 30.75182,34.7014 -22.33894,2.4552 -76.54188,62.7404 -110.47938,56.3411 -64.61909,-12.1847 -273.97666,-3.5558 -101.72794,36.5684 172.24873,40.1242 192.34114,-78.0027 263.45059,-85.6848 -16.89501,-9.5809 -49.34755,-27.5154 -45.74516,-34.2065 3.60245,-6.6909 69.55744,-22.806 102.86379,-16.4917 33.30653,6.3141 121.98932,17.5367 214.51462,83.752 z"
       id="path3923"
       inkscape:connector-curvature="0"
       sodipodi:nodetypes="csccszccsc" />
    <path
       style="fill:#ffffff;fill-rule:evenodd;stroke:none;stroke-width:1px;stroke-linecap:butt;stroke-linejoin:miter;stroke-opacity:1"
       d="m 206.04914,1667.4613 c 1.89036,73.724 51.0397,194.707 109.64083,189.0359 58.60114,-5.6711 34.02647,-28.3554 34.02647,-28.3554 0,0 -83.1758,26.465 -117.20227,-160.6805 -34.02646,-187.1456 -26.46503,0 -26.46503,0 z"
       id="path4413"
       inkscape:connector-curvature="0" />
    <path
       style="fill:#ffffff;stroke:none"
       d="m 1375.5352,3211.3901 c -2.4876,45.6378 38.0321,56.4926 79.2493,63.5302 41.217,7.0375 169.9799,1.8141 161.9069,-54.1964 -8.0731,-56.0106 -70.0989,-64.673 -121.5638,-62.9624 -51.4653,1.7105 -111.0706,10.4766 -119.5924,53.6286 z"
       id="path3938"
       inkscape:connector-curvature="0"
       sodipodi:nodetypes="csssc" />
    <path
       style="color:#000000;display:inline;overflow:visible;visibility:visible;fill:#ffffff;fill-opacity:1;fill-rule:nonzero;stroke:none;stroke-width:1px;marker:none;enable-background:accumulate"
       d="m 1540.2936,3223.4008 c 69.6255,-26.0651 66.8892,-87.8398 67.0296,-99.678 -16.9624,16.0862 -19.0601,54.2993 -76.9475,76.9629 -25.1607,9.8509 9.9179,22.7151 9.9179,22.7151 z"
       id="path3940"
       inkscape:connector-curvature="0"
       sodipodi:nodetypes="ccsc" />
    <flowRoot
       xml:space="preserve"
       id="flowRoot3056-6"
       style="font-style:normal;font-variant:normal;font-weight:normal;font-stretch:normal;line-height:0.01%;font-family:Arial;-inkscape-font-specification:Arial;letter-spacing:0px;word-spacing:0px;fill:#000000;fill-opacity:1;stroke:none"
       transform="matrix(0.92403899,-0.0431397,-0.21669727,0.91096764,408.69829,2651.2462)"><flowRegion
         id="flowRegion3058-8"><rect
           id="rect3060-0"
           width="343.2529"
           height="151.69978"
           x="1244.4525"
           y="652.80212" /></flowRegion><flowPara
         id="flowPara3062-10"
         style="font-style:normal;font-variant:normal;font-weight:normal;font-stretch:normal;font-size:48px;line-height:1.25;font-family:Lavi;-inkscape-font-specification:Lavi">Ta-daaa!</flowPara></flowRoot>    <path
       style="fill:#ffffff;stroke:none;stroke-width:0.94851696"
       d="m 113.13265,2847.2715 c -40.701871,-207.3131 47.8659,-142.6602 320.45634,-148.8709 213.15159,-4.8565 326.82653,42.1458 330.76661,138.269 3.81638,93.1054 -90.56,168.5419 -290.68665,170.6623 -200.12666,2.1203 -358.97708,-23.6892 -360.5363,-160.0604 z"
       id="path3270"
       inkscape:connector-curvature="0"
       sodipodi:nodetypes="csssc" />
    <path
       style="fill:#ffffff;stroke:none"
       d="m 740.22487,3021.0768 c -63.31546,24.471 -150.43401,11.8981 -179.52399,-58.4059 -17.62562,-42.5973 -22.73968,-69.8786 -22.73968,-69.8786 l -34.70784,34.4178 16.75558,49.0193 c 0,0 76.59683,114.726 220.21593,44.8474 z"
       id="path3063"
       inkscape:connector-curvature="0"
       sodipodi:nodetypes="cscccc" />
    <path
       style="color:#000000;display:inline;overflow:visible;visibility:visible;fill:#ffffff;fill-opacity:1;fill-rule:nonzero;stroke:none;stroke-width:0.81945837px;marker:none;enable-background:accumulate"
       d="m 622.66653,1666.7249 c -8.66408,-4.1192 -22.16029,-3.2146 -14.74902,7.7625 -13.04724,-5.7868 -16.88515,-6.9449 -11.11055,3.22 -9.97145,-5.2909 -20.77256,-5.8555 -19.16322,6.2172 -28.51628,-13.4055 -113.30712,-3.2201 -149.4407,-4.5933 -36.13356,-1.3731 -132.99239,0.3911 -142.8409,0.7562 -9.84853,0.3651 -85.37601,0.452 -91.94354,0.4868 -6.56734,0.035 -32.86528,-3.2678 -41.08997,-5.1014 -12.29313,2.5681 -27.45028,9.5464 -27.45028,9.5464 0,0 -0.53584,-18.4719 -3.00639,-19.3975 -2.47056,-0.9256 -14.21945,1.1827 -21.44237,1.9943 4.75665,-3.148 21.35206,-12.9448 18.88667,-13.2445 -2.46523,-0.3 -19.886404,-1 -26.563378,-1.4368 5.322013,-2.0063 19.895378,-10.7303 19.072048,-11.0391 -11.43814,-10.1291 -18.069191,-8.2199 -27.571027,-5.8516 4.510349,-5.4392 15.869837,-8.7309 18.058917,-11.5987 -5.473945,-2.5675 -14.073886,-8.1827 -12.398879,-10.2596 1.674908,-2.0766 12.947439,2.34 21.520579,2.1382 -2.54584,-1.8275 -18.439729,-7.8411 -6.76012,-26.9161 7.22702,-11.8032 0.72445,-27.6361 8.05607,-34.5583 -4.13052,-3.107 -8.88523,-8.7533 -15.841215,-11.0208 6.419735,-0.8957 14.055795,-8.6218 13.221785,-10.1816 -0.83385,-1.5602 -6.55197,-7.4062 -15.447806,-10.3656 8.426456,-0.3403 14.618626,-1.3122 19.531186,-2.9026 0.80064,-2.5074 -5.08663,-8.8318 -6.64537,-13.8095 4.4091,1.9435 26.64394,7.8602 30.31844,8.1575 1.35453,-1.3399 2.35056,-6.8469 1.20864,-13.7083 131.19277,34.1907 412.13905,7.0409 428.45638,5.8618 7.38829,-0.039 20.38743,-0.6928 34.00917,-7.6452 -8.64664,9.526 -11.80896,16.8002 -11.80896,16.8002 0,0 19.57431,1.4038 31.81084,-1.3878 -8.49619,5.2082 -13.46649,10.6581 -12.63779,11.5924 0.82867,0.9343 15.17473,1.2126 26.05742,-1.0345 -4.19506,3.2878 -19.40141,10.8378 -18.56756,12.3976 8.48779,-0.3883 31.67603,24.1713 19.14514,97.4524 0.64185,6.4441 6.68321,10.2042 17.4347,13.6406 -18.24851,3.771 -43.82758,5.9527 -30.30894,18.0287 z"
       id="path3915-2"
       inkscape:connector-curvature="0"
       sodipodi:nodetypes="ccccsssccsccccccccscccccccccccccccccc" />
  </g>
  <g
     inkscape:groupmode="layer"
     id="layer1"
     inkscape:label="txt">
    <flowRoot
       xml:space="preserve"
       id="flowRoot2987-4-9-3"
       style="font-style:normal;font-variant:normal;font-weight:normal;font-stretch:normal;line-height:0.01%;font-family:Lavi;-inkscape-font-specification:Lavi;text-align:center;letter-spacing:0px;word-spacing:0px;text-anchor:middle;fill:#000000;fill-opacity:1;stroke:none"
       transform="translate(30.338554,-121.63334)"><flowRegion
         id="flowRegion2989-5-4-5"><rect
           id="rect2991-7-9-6"
           width="468.18622"
           height="276.71347"
           x="120.55251"
           y="265.53046"
           style="font-style:normal;font-variant:normal;font-weight:normal;font-stretch:normal;font-family:Lavi;-inkscape-font-specification:Lavi;text-align:center;text-anchor:middle" /></flowRegion><flowPara
         style="font-size:45px;line-height:1.25;text-align:center;text-anchor:middle"
         id="flowPara3030-8">Pepper, ești cu siguranță talentată, dar ești și singura noastră urmașă.</flowPara></flowRoot>    <flowRoot
       xml:space="preserve"
       id="flowRoot2987-4-9-3-5"
       style="font-style:normal;font-variant:normal;font-weight:normal;font-stretch:normal;line-height:0.01%;font-family:Lavi;-inkscape-font-specification:Lavi;text-align:center;letter-spacing:0px;word-spacing:0px;text-anchor:middle;fill:#000000;fill-opacity:1;stroke:none"
       transform="translate(229.04252,126.47206)"><flowRegion
         id="flowRegion2989-5-4-5-8"><rect
           id="rect2991-7-9-6-5"
           width="471.78256"
           height="303.4809"
           x="120.55251"
           y="265.53046"
           style="font-style:normal;font-variant:normal;font-weight:normal;font-stretch:normal;font-family:Lavi;-inkscape-font-specification:Lavi;text-align:center;text-anchor:middle" /></flowRegion><flowPara
         style="font-size:45px;line-height:1.25;text-align:center;text-anchor:middle"
         id="flowPara3030-8-1">Este datoria noastră să facem din tine o adevarată vrăjitoare rea din Chaosah.</flowPara></flowRoot>    <flowRoot
       xml:space="preserve"
       id="flowRoot2987-4-9-3-5-9"
       style="font-style:normal;font-variant:normal;font-weight:normal;font-stretch:normal;line-height:0.01%;font-family:Lavi;-inkscape-font-specification:Lavi;text-align:center;letter-spacing:0px;word-spacing:0px;text-anchor:middle;fill:#000000;fill-opacity:1;stroke:none"
       transform="translate(1519.8735,526.25598)"><flowRegion
         id="flowRegion2989-5-4-5-8-9"><rect
           id="rect2991-7-9-6-5-7"
           width="568.84778"
           height="193.91568"
           x="120.55251"
           y="265.53046"
           style="font-style:normal;font-variant:normal;font-weight:normal;font-stretch:normal;font-family:Lavi;-inkscape-font-specification:Lavi;text-align:center;text-anchor:middle" /></flowRegion><flowPara
         style="font-size:45px;line-height:1.25;text-align:center;text-anchor:middle"
         id="flowPara3030-8-1-8">Dar... Eu nu vreau să fiu rea! Este... este contrar cu tot ce...</flowPara></flowRoot>    <flowRoot
       xml:space="preserve"
       id="flowRoot2987-4-9-3-5-9-8"
       style="font-style:normal;font-variant:normal;font-weight:normal;font-stretch:normal;line-height:0.01%;font-family:Lavi;-inkscape-font-specification:Lavi;text-align:center;letter-spacing:0px;word-spacing:0px;text-anchor:middle;fill:#000000;fill-opacity:1;stroke:none"
       transform="translate(-37.157499,1272.1126)"><flowRegion
         id="flowRegion2989-5-4-5-8-9-5"><rect
           id="rect2991-7-9-6-5-7-5"
           width="568.84778"
           height="193.91568"
           x="120.55251"
           y="265.53046"
           style="font-style:normal;font-variant:normal;font-weight:normal;font-stretch:normal;font-family:Lavi;-inkscape-font-specification:Lavi;text-align:center;text-anchor:middle" /></flowRegion><flowPara
         style="font-size:45px;line-height:1.25;text-align:center;text-anchor:middle"
         id="flowPara3348">...sau o să îți retragem toate puterile!</flowPara></flowRoot>    <flowRoot
       xml:space="preserve"
       id="flowRoot2987-4-9-3-5-9-8-3"
       style="font-style:normal;font-variant:normal;font-weight:normal;font-stretch:normal;line-height:0.01%;font-family:Lavi;-inkscape-font-specification:Lavi;text-align:center;letter-spacing:0px;word-spacing:0px;text-anchor:middle;fill:#000000;fill-opacity:1;stroke:none"
       transform="translate(80.552501,1505.8893)"><flowRegion
         id="flowRegion2989-5-4-5-8-9-5-4"><rect
           id="rect2991-7-9-6-5-7-5-4"
           width="525.72278"
           height="228.41568"
           x="114.80251"
           y="256.90546"
           style="font-style:normal;font-variant:normal;font-weight:normal;font-stretch:normal;font-family:Lavi;-inkscape-font-specification:Lavi;text-align:center;text-anchor:middle"
           ry="0" /></flowRegion><flowPara
         style="font-size:45px;line-height:1.25;text-align:center;text-anchor:middle"
         id="flowPara3030-8-1-8-7-8">Și o să devii din nou doar o orfană mică și idioată din Capătul Veveriței.</flowPara></flowRoot>    <flowRoot
       xml:space="preserve"
       id="flowRoot2987-4-9-3-5-9-8-3-5"
       style="font-style:normal;font-variant:normal;font-weight:normal;font-stretch:normal;line-height:0.01%;font-family:Lavi;-inkscape-font-specification:Lavi;text-align:center;letter-spacing:0px;word-spacing:0px;text-anchor:middle;fill:#000000;fill-opacity:1;stroke:none"
       transform="translate(-6.644787,2467.2102)"><flowRegion
         id="flowRegion2989-5-4-5-8-9-5-4-2"><rect
           id="rect2991-7-9-6-5-7-5-4-9"
           width="596.31714"
           height="278.33615"
           x="120.55251"
           y="265.53046"
           style="font-style:normal;font-variant:normal;font-weight:normal;font-stretch:normal;font-family:Lavi;-inkscape-font-specification:Lavi;text-align:center;text-anchor:middle" /></flowRegion><flowPara
         style="font-size:45px;line-height:1.25;text-align:center;text-anchor:middle"
         id="flowPara70">Cumin o să te însoțească de acum peste tot, ajutându-te să te antrenezi, și pe noi o să ne țină la curent.</flowPara></flowRoot>    <flowRoot
       xml:space="preserve"
       id="flowRoot2987-7-9-9-7-0-3-4-1"
       style="font-style:normal;font-variant:normal;font-weight:normal;font-stretch:normal;line-height:0.01%;font-family:Lavi;-inkscape-font-specification:Lavi;letter-spacing:0px;word-spacing:0px;fill:#000000;fill-opacity:1;stroke:#000000;stroke-width:0.99236238;stroke-miterlimit:4;stroke-dasharray:none;stroke-opacity:1;filter:url(#filter4375-4-1-1-1)"
       transform="matrix(1.1967542,-0.56289093,0.22908574,2.2717035,1801.2719,2593.0489)"><flowRegion
         id="flowRegion2989-4-5-8-7-41-7-62-2"
         style="stroke-width:5.40286207"><rect
           id="rect2991-45-1-3-3-8-0-4-6"
           width="319.66232"
           height="56.089447"
           x="120.55251"
           y="265.53046"
           style="font-style:normal;font-variant:normal;font-weight:normal;font-stretch:normal;font-family:Lavi;-inkscape-font-specification:Lavi;fill:#000000;fill-opacity:1;stroke:#000000;stroke-width:0.99236238;stroke-miterlimit:4;stroke-dasharray:none;stroke-opacity:1" /></flowRegion><flowPara
         id="flowPara2995-4-1-5-0-7-2-6-4"
         style="font-weight:normal;font-size:48px;line-height:1.25;-inkscape-font-specification:Lavi;letter-spacing:7.06853437px;fill:#ffffff;fill-opacity:1;stroke:#ffffff;stroke-width:0.99236238;stroke-linejoin:miter;stroke-miterlimit:4;stroke-dasharray:none;stroke-opacity:1">Puf!</flowPara></flowRoot>  </g>
</svg>
