<?xml version="1.0" encoding="UTF-8" standalone="no"?>
<!-- Created with Inkscape (http://www.inkscape.org/) -->

<svg
   xmlns:dc="http://purl.org/dc/elements/1.1/"
   xmlns:cc="http://creativecommons.org/ns#"
   xmlns:rdf="http://www.w3.org/1999/02/22-rdf-syntax-ns#"
   xmlns:svg="http://www.w3.org/2000/svg"
   xmlns="http://www.w3.org/2000/svg"
   xmlns:xlink="http://www.w3.org/1999/xlink"
   xmlns:sodipodi="http://sodipodi.sourceforge.net/DTD/sodipodi-0.dtd"
   xmlns:inkscape="http://www.inkscape.org/namespaces/inkscape"
   id="svg2"
   version="1.1"
   inkscape:version="0.92.3 (2405546, 2018-03-11)"
   width="2481"
   height="3503"
   sodipodi:docname="E19P06.svg">
  <sodipodi:namedview
     pagecolor="#ffffff"
     bordercolor="#666666"
     inkscape:pageopacity="0"
     inkscape:pageshadow="2"
     inkscape:window-width="1813"
     inkscape:window-height="955"
     id="namedview70"
     showgrid="false"
     inkscape:zoom="0.4"
     inkscape:cx="1485.5355"
     inkscape:cy="834.03738"
     inkscape:current-layer="layer1"
     inkscape:window-x="0"
     inkscape:window-y="0"
     inkscape:window-maximized="0" />
  <metadata
     id="metadata8">
    <rdf:RDF>
      <cc:Work
         rdf:about="">
        <dc:format>image/svg+xml</dc:format>
        <dc:type
           rdf:resource="http://purl.org/dc/dcmitype/StillImage" />
        <dc:title />
      </cc:Work>
    </rdf:RDF>
  </metadata>
  <defs
     id="defs6" />
  <sodipodi:namedview
     pagecolor="#ffffff"
     bordercolor="#666666"
     borderopacity="1"
     objecttolerance="10"
     gridtolerance="10"
     guidetolerance="10"
     inkscape:pageopacity="0"
     inkscape:pageshadow="2"
     inkscape:window-width="1920"
     inkscape:window-height="1025"
     id="namedview4"
     showgrid="false"
     inkscape:zoom="0.42482639"
     inkscape:cx="1380.8946"
     inkscape:cy="2114.6111"
     inkscape:window-x="0"
     inkscape:window-y="26"
     inkscape:window-maximized="1"
     inkscape:current-layer="layer1" />
  <g
     inkscape:groupmode="layer"
     id="layer2"
     inkscape:label="artwork"
     sodipodi:insensitive="true">
    <image
       xlink:href="../gfx_Pepper-and-Carrot_by-David-Revoy_E19P06.png"
       y="0"
       x="0"
       id="image10"
       height="3503"
       width="2481" />
  </g>
  <g
     inkscape:groupmode="layer"
     id="layer3"
     inkscape:label="speechbubbles">
    <path
       style="fill:#ffffff;stroke:none;stroke-width:1.02662015"
       d="m 481.27782,802.37173 -20.91977,13.6623 c -46.25534,-5.31244 -174.08164,-12.59516 -239.31966,-8.78452 l -26.58596,9.34902 -14.3811,-17.25956 -6.53867,21.57283 -13.07337,-15.10078 -13.86853,13.80245 -15.68884,-10.06718 5.66618,21.57284 -8.71689,12.94413 -17.43381,-9.34903 9.58938,38.83243 c 10e-6,0 -5.34057,4.24644 -11.44219,4.24644 15.30764,31.2802 17.33499,193.1576 12.23291,248.6955 l -12.24637,9.7287 12.23846,12.2685 4.88075,4.5525 -20.5142,15.4099 15.36438,-1.025 -11.94172,17.1355 12.6401,10.0695 -0.87248,12.9418 -1.74299,7.9128 10.10773,8.6265 -17.42731,18.9942 24.46256,-5.2949 0.72608,0.6855 c 0,0 -16.54338,26.0917 -21.08602,35.8936 13.30441,-5.9504 34.16106,-15.0401 35.90435,-15.7593 0.13984,-0.057 0.48458,-0.024 0.91601,0.045 l -10.94262,20.193 26.39207,-15.6577 c 1.80177,0.5479 3.61718,1.0913 5.39712,1.5928 l -5.05808,18.2384 28.27479,-14.6933 c 9.08248,1.7301 20.3198,4.891 23.00899,5.3839 3.92244,0.7193 24.84253,-7.1913 29.63667,-6.472 4.79414,0.719 48.81223,8.6286 52.73467,8.6286 3.92245,0 27.89271,-2.8759 33.12265,-3.595 5.22992,-0.719 32.68697,3.595 37.4811,3.595 4.79404,0 13.07556,-7.1914 17.43379,-7.9105 4.35836,-0.7191 16.56119,4.3158 19.61204,5.7539 3.05077,1.4385 24.842,3.5952 30.07193,3.5952 5.22993,0 42.7511,-7.5328 52.29943,-4.3155 6.93673,2.3372 70.15596,0.2092 104.11414,-2.3046 l -3.57104,17.0333 22.02571,-18.8788 c 1.81226,-0.3066 2.86501,-0.6036 2.94982,-0.8835 0,0 6.97308,13.6645 9.15215,13.6645 2.17916,0 5.66644,-11.508 6.97392,-12.9462 1.30749,-1.4383 10.46083,6.473 12.6401,5.7538 2.17917,-0.7191 3.05072,-15.1009 3.05072,-15.1009 l 2.17823,-7.1922 c 0,0 6.10193,-2.1569 8.71691,-5.0337 2.61495,-2.8764 -0.43653,-15.1016 -3.92321,-20.8546 3.05087,-2.8765 10.46013,-7.9091 11.76763,-10.7855 1.30756,-2.8767 -3.05072,-12.2259 -3.05072,-12.2259 0,0 2.61563,-5.033 3.9232,-8.6285 1.30749,-3.596 -8.16063,-15.5957 -8.16063,-15.5957 0,0 8.16008,-11.7319 8.59588,-16.0466 0.38519,-3.814 -1.95584,-7.6225 -5.81457,-8.4568 l 12.1178,-7.5384 -13.70844,-2.5505 c -1.05752,-40.195 -1.76711,-174.1138 5.86008,-208.19991 l 16.46042,-14.10842 -16.04694,-6.62659 c -1.11733,-1.65731 -2.3318,-3.36174 -3.59676,-5.05534 l 16.04353,-19.47667 -23.50556,-9.7081 9.05981,-15.27036 -13.35729,-8.73703 1.19176,-6.59578 15.44781,-27.6709 -26.9884,13.99872 -5.74525,1.76776 c -10.36608,-1.87989 -25.56163,-6.46103 -25.56163,-6.46103 l 16.6687,-44.86035 -51.00213,42.6961 -2.17824,-13.6623 -13.5106,12.94415 -4.35846,-20.85469 -13.5106,15.82109 -11.33237,-8.21808 -2.54913,2.54208 -10.45989,-9.34903 -10.45988,8.6287 -20.83867,4.52183 -6.10144,-20.13436 z"
       id="path3894"
       inkscape:connector-curvature="0"
       sodipodi:nodetypes="ccccccccccccccccccccccccccccccccccccccscsscssccccscccccccccccccccccccccccccccccccccccccccc" />
    <path
       style="color:#000000;display:inline;overflow:visible;visibility:visible;fill:#ffffff;fill-opacity:1;fill-rule:nonzero;stroke:none;stroke-width:1px;marker:none;enable-background:accumulate"
       d="m 535.70109,744.59499 c 38.34876,34.92863 35.4166,55.61846 35.05492,70.73951 -5.21085,0.99543 -14.03945,4.31409 -14.03945,4.31409 0,0 2.34858,29.8366 -0.92638,41.34315 -3.27496,11.50653 -19.13613,8.37057 -19.13613,8.37057 0,0 -6.17597,-57.93992 -11.57097,-70.14779 14.42663,-2.21185 21.11631,-4.94055 26.71433,-3.83376 3.38923,-8.44544 -2.96428,-38.06103 -16.09632,-50.78577 z"
       id="path4456"
       inkscape:connector-curvature="0" />
    <path
       style="color:#000000;display:inline;overflow:visible;visibility:visible;fill:#ffffff;fill-opacity:1;fill-rule:nonzero;stroke:none;stroke-width:1.02260292px;marker:none;enable-background:accumulate"
       d="m 779.76336,170.4513 -42.0378,-14.4857 23.35778,43.1826 -39.52025,-15.59213 30.97739,43.18563 -39.04648,-2.37969 26.91518,31.03324 -22.20003,6.16968 22.6186,26.91083 -23.35594,8.04774 21.00924,28.39761 -23.17929,19.67094 13.82551,18.76891 -16.76575,16.50418 15.20246,11.07509 -13.36667,25.29958 18.05667,4.48582 -18.76594,26.02461 29.073,-8.25588 -9.13083,29.93945 33.92186,-17.1664 -14.73384,37.28917 29.73768,-0.34352 -41.11901,84.34754 64.52531,-52.02452 4.91443,44.60217 31.96697,-39.18252 0.81011,27.33209 28.2433,-34.48494 -0.60649,34.19236 31.20457,-40.27109 0.0768,127.90182 52.7509,-109.03143 9.36465,45.03406 8.56402,-42.05768 9.17367,18.48756 8.89653,-23.24516 8.62113,36.68388 15.7776,-42.30565 62.1152,61.96957 -10.8575,-74.35262 51.5535,10.09267 -17.2866,-36.48564 74.2793,19.40909 -34.9919,-33.63496 63.093,18.19599 -70.5824,-59.9351 64.9078,15.57238 -48.1455,-47.77556 44.8221,-4.06925 -41.2573,-32.92053 73.6876,-5.37473 -67.2721,-27.41869 60.4099,-14.20615 -45.5349,-28.69708 52.5624,-23.73661 -56.2428,-18.34698 41.4156,-61.13892 -57.8431,15.44447 6.6618,-41.7903 -54.1104,31.28307 25.3513,-74.58043 -68.8947,66.06949 3.4401,-21.16581 -24.4422,17.39263 15.0677,-47.81134 -46.1182,45.2297 4.69,-20.9601 -14.0699,19.85704 3.1265,-27.57928 -24.23139,33.09507 2.23092,-28.83564 -14.80535,15.55426 -0.381,-14.76521 -13.62117,11.49906 -18.36184,-50.11731 -27.3956,51.68476 -13.46868,-22.23072 -15.59117,21.29161 -10.8293,-25.04386 -16.30451,29.92649 -26.52498,-40.5666 1.73422,40.25227 -63.98424,-43.60513 z"
       id="path4024"
       inkscape:connector-curvature="0"
       sodipodi:nodetypes="ccccccccccccccccccccccccccccccccccccccccccccccccccccccccccccccccccccccccccccccccccccc" />
    <path
       style="color:#000000;display:inline;overflow:visible;visibility:visible;fill:#ffffff;fill-opacity:1;fill-rule:nonzero;stroke:none;stroke-width:1px;marker:none;enable-background:accumulate"
       d="m 981.87504,489.07837 c 15.79816,16.30726 34.68336,141.58053 227.57366,231.14516 -154.1725,-93.5024 -173.4435,-224.61445 -180.0947,-249.55706 -53.90514,-8.39388 -24.7768,9.78373 -47.47896,18.4119 z"
       id="path4024-3"
       inkscape:connector-curvature="0"
       sodipodi:nodetypes="cccc" />
    <path
       style="color:#000000;display:inline;overflow:visible;visibility:visible;fill:#ffffff;fill-opacity:1;fill-rule:nonzero;stroke:none;stroke-width:1.11579299px;marker:none;enable-background:accumulate"
       d="m 1277.2741,845.74078 c 36.0562,44.03488 36.6109,142.86717 26.5479,162.84892 -10.063,19.9817 -23.8816,49.9462 -72.3747,50.2525 -48.4933,0.3064 -416.6608,45.9096 -444.09942,-16.4508 -26.36013,-59.90927 -40.67645,-133.19282 2.3146,-187.68608 42.99105,-54.49326 275.32932,-44.89527 275.32932,-44.89527 0,0 156.9944,-20.15482 212.2823,35.93073 z"
       id="path3992"
       inkscape:connector-curvature="0"
       sodipodi:nodetypes="cccsscc" />
    <path
       style="display:inline;fill:#ffffff;fill-rule:evenodd;stroke:none;stroke-width:1.08800066px;stroke-linecap:butt;stroke-linejoin:miter;stroke-opacity:1"
       d="m 732.96032,996.89136 c 88.62229,73.60324 122.85922,3.96944 121.55761,-66.62566 36.17714,76.2866 61.28244,93.3483 76.17148,55.7614 47.89611,32.3075 77.81129,23.245 101.56189,0 8.8525,29.8947 27.8366,17.8312 44.2664,16.3462 5.4115,6.7635 -13.1742,23.5669 61.9118,1.1789 4.8638,8.9521 11.4158,16.6614 55.3974,-3.1864 11.3944,36.3357 47.9524,-2.01383 85.4045,-43.01599 -23.3337,50.40869 -24.7206,52.65279 5.0951,33.36049 -4.4931,8.56916 -11.8092,25.7196 18.338,7.14359 -17.7307,38.31631 42.2615,-11.18964 117.3458,-66.22169 -37.5584,40.67928 -125.013,136.6484 -59.4135,130.9639 -9.1482,11.9924 -39.8556,26.098 52.5115,36.547 -18.1415,8.1378 -73.5275,-3.7539 -27.3256,30.7017 6.1901,4.0276 -14.5329,6.4871 25.0174,17.0938 -23.347,-0.7216 -37.665,1.8562 -16.1575,17.525 -42.6169,-0.8472 -26.6715,15.6287 4.6164,36.6432 -61.7152,-26.9556 -65.1115,-17.1588 -66.9385,-6.3727 -77.3474,-36.7496 -81.8877,-25.1792 -92.3289,-17.5251 -37.7011,0.2868 -75.4021,-4.3411 -113.1032,36.6433 -9.8734,-25.4912 -29.6683,-45.1128 -113.1028,-27.0841 36.634,-32.4293 -15.48281,-11.7684 -55.39742,1.5931 21.85803,-40.5122 -33.61482,-13.9241 -103.87025,25.491 39.34276,-44.7368 -42.6483,-48.3517 -108.86197,-16.5884 46.23127,-34.6799 59.7684,-43.5858 -37.60867,-45.2956 46.60767,-15.8531 35.59925,-37.6472 -12.79679,-73.5366 54.55615,10.5678 70.82947,0.7517 32.31508,-38.2364 59.50622,32.0011 28.61274,-0.3644 5.39474,-43.30394 z"
       id="path4508"
       inkscape:connector-curvature="0"
       sodipodi:nodetypes="cccccccccccccccccccccccccccc" />
    <path
       style="color:#000000;display:inline;overflow:visible;visibility:visible;fill:#ffffff;fill-opacity:1;fill-rule:nonzero;stroke:none;stroke-width:1.11579299px;marker:none;enable-background:accumulate"
       d="m 776.01966,1192.5775 c 9.9674,-57.0318 93.56937,-96.8019 304.00654,-80.6312 112.7216,8.6619 235.3421,-4.4536 235.2831,94.9884 -0.047,78.77 -206.9195,76.1504 -245.128,77.1337 -38.2085,0.9834 -233.78778,-3.0717 -266.81238,-32.4653 -20.67264,-18.3996 -29.01048,-41.326 -27.34926,-59.0256 z"
       id="path4546-6-3"
       inkscape:connector-curvature="0"
       sodipodi:nodetypes="cssssc" />
    <path
       style="color:#000000;display:inline;overflow:visible;visibility:visible;fill:#ffffff;fill-opacity:1;fill-rule:nonzero;stroke:none;stroke-width:0.84451848px;marker:none;enable-background:accumulate"
       d="m 139.92716,1514.2911 c 38.50476,-34.0172 252.02205,-28.8147 318.43462,-20.0531 72.47738,9.5617 94.79201,23.11 98.03297,52.8038 1.00107,9.1717 -4.86144,50.7636 -40.51247,58.9513 -35.65088,8.1877 -137.74206,12.2815 -173.39309,12.2815 -35.65087,0 -149.45648,-5.2114 -178.25484,-17.1941 -27.54847,-11.4628 -62.81212,-52.7724 -24.30719,-86.7894 z"
       id="path3330"
       inkscape:connector-curvature="0"
       sodipodi:nodetypes="zsssssz" />
    <path
       style="color:#000000;display:inline;overflow:visible;visibility:visible;fill:#ffffff;fill-opacity:1;fill-rule:nonzero;stroke:none;stroke-width:1.06185079px;marker:none;enable-background:accumulate"
       d="m 265.76142,1670.9214 c -1.00912,-32.7012 4.13675,-54.3868 27.24676,-71.7607 21.03848,-15.8165 67.36577,-20.1872 98.27821,-20.1872 49.96563,-0.2233 178.2246,-6.1091 163.08985,96.0541 -0.59776,48.4562 -75.12988,50.5689 -90.26705,54.4931 -15.13717,3.9241 -75.65003,4.7894 -89.77807,3.4814 -51.93832,2.3778 -106.76576,-22.2267 -108.5697,-62.0807 z"
       id="path3357"
       inkscape:connector-curvature="0"
       sodipodi:nodetypes="csccscc" />
    <path
       style="color:#000000;display:inline;overflow:visible;visibility:visible;fill:#ffffff;fill-opacity:1;fill-rule:nonzero;stroke:none;stroke-width:1px;marker:none;enable-background:accumulate"
       d="m 453.45684,1711.8886 c -0.37144,57.0275 25.35707,95.1396 67.76656,103.3368 -67.9487,-0.4363 -102.57173,-72.2713 -100.82948,-96.6104 1.70602,-23.8329 33.06292,-6.7264 33.06292,-6.7264 z"
       id="path5010"
       inkscape:connector-curvature="0"
       sodipodi:nodetypes="ccsc" />
    <path
       style="color:#000000;display:inline;overflow:visible;visibility:visible;fill:#ffffff;fill-opacity:1;fill-rule:nonzero;stroke:none;stroke-width:1px;marker:none;enable-background:accumulate"
       d="m 232.60887,2112.7468 c 28.82884,-21.6901 278.41375,-34.8028 344.5222,0.8436 55.17978,29.7537 33.65046,103.8509 -15.42321,120.9177 -49.0735,17.0669 -212.3232,15.086 -283.87185,7.3484 -68.12416,-7.3674 -79.56334,-29.6049 -82.91431,-74.38 -1.36765,-18.2745 8.85821,-33.0393 37.68717,-54.7297 z"
       id="path4040-4"
       inkscape:connector-curvature="0"
       sodipodi:nodetypes="zssssz" />
    <path
       style="color:#000000;display:inline;overflow:visible;visibility:visible;fill:#ffffff;fill-opacity:1;fill-rule:nonzero;stroke:none;stroke-width:1px;marker:none;enable-background:accumulate"
       d="m 535.00775,1986.8306 c -11.22357,-11.0259 -34.07155,-13.8129 -52.41966,-13.1663 -5.21231,0.2939 -10.58546,0.9606 -15.40703,2.9669 -4.5497,3.204 -5.8508,9.2452 -4.71647,14.4517 1.1116,7.6336 5.4512,15.1923 3.33691,23.0221 -1.67716,5.6622 -7.62933,7.7967 -12.46033,10.0265 -12.42532,5.4417 -25.66044,9.2324 -37.15366,16.6288 -13.48154,7.4861 -27.12386,16.3412 -35.233,29.8576 -3.11895,5.4019 -5.62626,11.4889 -5.13528,17.8477 0.51982,16.3695 10.44001,32.6806 25.75127,39.1373 10.15783,3.1917 22.85144,-2.6898 25.43476,-13.369 1.44801,-5.6168 -1.12924,-11.3042 -4.7776,-15.4765 -5.27333,-8.9228 -5.03206,-20.3779 -0.31332,-29.473 3.77147,-7.5698 9.88065,-13.877 17.08927,-18.2489 8.233,-8.5339 20.53978,-9.9068 31.26386,-13.4482 4.87531,-1.6909 9.9467,-3.8199 13.48797,-7.6632 3.74598,-6.6816 1.05856,-14.5289 -1.98107,-20.9052 -2.96548,-6.6569 -7.15746,-14.0436 -4.63677,-21.5174 1.0509,-5.4219 7.54846,-5.1616 11.76803,-6.5249 14.15942,-2.6164 28.95507,-0.7769 42.45081,4.0015 1.25162,0.5512 2.45101,1.1992 3.65131,1.8525 z"
       id="path4496"
       inkscape:connector-curvature="0"
       sodipodi:nodetypes="ccccccccccccccccccccc" />
    <path
       style="color:#000000;display:inline;overflow:visible;visibility:visible;fill:#ffffff;fill-opacity:1;fill-rule:nonzero;stroke:none;stroke-width:1px;marker:none;enable-background:accumulate"
       d="m 215.29356,2528.0155 c 9.655,-78.4304 99.91909,-134.4262 329.5865,-115.8152 123.02226,9.969 262.8327,17.4924 250.11894,132.4111 -12.7139,114.9186 -213.80757,108.6096 -255.42473,110.6088 -41.61715,1.9992 -257.55967,-13.6708 -294.1705,-53.444 -22.91755,-24.8968 -31.54594,-49.4446 -30.11021,-73.7607 z"
       id="path4546-6"
       inkscape:connector-curvature="0"
       sodipodi:nodetypes="cssssc" />
    <path
       style="fill:#ffffff;stroke:none"
       d="m 694.38649,2534.9643 c 31.16173,50.5895 56.21292,58.6934 72.83219,79.5631 16.61925,20.8701 -4.22375,65.3135 0.2296,80.4242 5.36252,14.254 23.11118,27.2288 57.37772,44.4988 -73.16324,-15.6884 -73.36945,-34.9149 -78.29883,-48.1564 -6.77646,-18.203 5.60657,-39.7648 -12.3168,-56.2686 -17.36077,-15.9861 -80.58056,-61.1983 -92.85364,-95.1241 -12.2733,-33.9259 -18.60006,-35.9967 -18.60006,-35.9967 z"
       id="path3282"
       inkscape:connector-curvature="0"
       sodipodi:nodetypes="csccssscc" />
  </g>
  <g
     inkscape:groupmode="layer"
     id="layer1"
     inkscape:label="txt">
    <text
       xml:space="preserve"
       style="font-style:normal;font-variant:normal;font-weight:normal;font-stretch:normal;line-height:0%;font-family:Lavi;-inkscape-font-specification:Lavi;text-align:center;letter-spacing:0px;word-spacing:0px;text-anchor:middle;fill:#000000;fill-opacity:1;stroke:none"
       x="386.09131"
       y="890.58612"
       id="text4246"><tspan
         sodipodi:role="line"
         style="font-size:55.28661346px;line-height:1.25"
         x="386.09134"
         y="890.58612"
         id="tspan4176">Ach an <tspan
   style="font-style:normal;font-variant:normal;font-weight:bold;font-stretch:normal;font-family:Lavi;-inkscape-font-specification:'Lavi Bold'"
   id="tspan70">àrainneachd</tspan>!</tspan><tspan
         sodipodi:role="line"
         style="font-size:55.28661346px;line-height:1.25"
         x="386.09131"
         y="959.6944"
         id="tspan66">An <tspan
   style="font-style:normal;font-variant:normal;font-weight:bold;font-stretch:normal;font-family:Lavi;-inkscape-font-specification:'Lavi Bold'"
   id="tspan68">nàdar</tspan>!</tspan></text>
    <text
       xml:space="preserve"
       style="font-style:normal;font-variant:normal;font-weight:normal;font-stretch:normal;line-height:0%;font-family:Lavi;-inkscape-font-specification:Lavi;text-align:center;letter-spacing:0px;word-spacing:0px;text-anchor:middle;fill:#000000;fill-opacity:1;stroke:none"
       x="393.99847"
       y="1024.822"
       id="text4246-70"><tspan
         sodipodi:role="line"
         style="font-size:45px;line-height:1.25"
         x="401.02972"
         y="1024.822"
         id="tspan3630">Chan urrainn dhuinn </tspan><tspan
         sodipodi:role="line"
         style="font-size:45px;line-height:1.25"
         x="401.02972"
         y="1081.072"
         id="tspan83">cumail oirnn ris an </tspan><tspan
         sodipodi:role="line"
         style="font-size:45px;line-height:1.25"
         x="401.02972"
         y="1137.322"
         id="tspan85">truailleadh oir ’s daor </tspan><tspan
         sodipodi:role="line"
         style="font-size:45px;line-height:1.25"
         x="401.02972"
         y="1193.572"
         id="tspan89">a’ cheannachd a bhios </tspan><tspan
         sodipodi:role="line"
         style="font-size:45px;line-height:1.25"
         x="393.99847"
         y="1249.822"
         id="tspan91">againn air!!</tspan></text>
    <text
       xml:space="preserve"
       style="font-style:normal;font-variant:normal;font-weight:normal;font-stretch:normal;line-height:0%;font-family:Lavi;-inkscape-font-specification:Lavi;text-align:center;letter-spacing:0px;word-spacing:0px;text-anchor:middle;fill:#000000;fill-opacity:1;stroke:none"
       x="982.77441"
       y="258.2467"
       id="text4246-7"
       transform="scale(0.97469088,1.0259663)"><tspan
         sodipodi:role="line"
         style="font-size:53.33333206px;line-height:1.25;stroke:#000000;stroke-width:1.89999998;stroke-miterlimit:4;stroke-dasharray:none;stroke-opacity:1"
         x="982.77441"
         y="258.2467"
         id="tspan3649">Cha do dh’adhbh-</tspan><tspan
         sodipodi:role="line"
         style="font-size:53.33333206px;line-height:1.25;stroke:#000000;stroke-width:1.89999998;stroke-miterlimit:4;stroke-dasharray:none;stroke-opacity:1"
         x="991.10773"
         y="324.91336"
         id="tspan102">raich e trioblaid </tspan><tspan
         sodipodi:role="line"
         style="font-size:53.33333206px;line-height:1.25;stroke:#000000;stroke-width:1.89999998;stroke-miterlimit:4;stroke-dasharray:none;stroke-opacity:1"
         x="991.10773"
         y="391.58005"
         id="tspan104">sam bith oirnn </tspan><tspan
         sodipodi:role="line"
         style="font-size:53.33333206px;line-height:1.25;stroke:#000000;stroke-width:1.89999998;stroke-miterlimit:4;stroke-dasharray:none;stroke-opacity:1"
         x="982.77441"
         y="458.2467"
         id="tspan106">gu ruige seo!</tspan></text>
    <text
       xml:space="preserve"
       style="font-style:normal;font-variant:normal;font-weight:normal;font-stretch:normal;line-height:0%;font-family:Lavi;-inkscape-font-specification:Lavi;text-align:center;letter-spacing:0px;word-spacing:0px;text-anchor:middle;fill:#000000;fill-opacity:1;stroke:none"
       x="1045.5825"
       y="880.27979"
       id="text4246-70-2"><tspan
         sodipodi:role="line"
         style="font-size:45px;line-height:1.25"
         x="1052.6138"
         y="880.27979"
         id="tspan3657">’S e bana-bhuidsichean </tspan><tspan
         sodipodi:role="line"
         style="font-size:45px;line-height:1.25"
         x="1052.6138"
         y="936.52979"
         id="tspan127">na Dubh-choimeasgachd </tspan><tspan
         sodipodi:role="line"
         style="font-size:45px;line-height:1.25"
         x="1052.6138"
         y="992.77979"
         id="tspan123">a th’ annainn ’s thèid ar </tspan><tspan
         sodipodi:role="line"
         style="font-size:45px;line-height:1.25"
         x="1045.5825"
         y="1049.0298"
         id="tspan131">duilgheadasan adhlacadh</tspan></text>
    <text
       xml:space="preserve"
       style="font-style:normal;font-variant:normal;font-weight:normal;font-stretch:normal;line-height:0%;font-family:Lavi;-inkscape-font-specification:Lavi;text-align:center;letter-spacing:0px;word-spacing:0px;text-anchor:middle;fill:#000000;fill-opacity:1;stroke:none"
       x="1078.2897"
       y="1095.874"
       id="text4246-7-9"
       transform="scale(0.97469088,1.0259663)"><tspan
         sodipodi:role="line"
         style="font-size:58.48145294px;line-height:1.25;stroke:#000000;stroke-width:2.24178886;stroke-miterlimit:4;stroke-dasharray:none;stroke-opacity:1"
         x="1087.4274"
         y="1095.874"
         id="tspan4221-2">gu domhainn! </tspan></text>
    <text
       xml:space="preserve"
       style="font-style:normal;font-variant:normal;font-weight:normal;font-stretch:normal;line-height:0%;font-family:Lavi;-inkscape-font-specification:Lavi;text-align:center;letter-spacing:0px;word-spacing:0px;text-anchor:middle;fill:#000000;fill-opacity:1;stroke:none"
       x="1049.313"
       y="1191.8076"
       id="text4246-70-2-8"><tspan
         sodipodi:role="line"
         style="font-size:45px;line-height:1.25"
         x="1056.3442"
         y="1191.8076"
         id="tspan3661">Na biodh deasbad </tspan><tspan
         sodipodi:role="line"
         style="font-size:45px;line-height:1.25"
         x="1049.313"
         y="1248.0576"
         id="tspan121">againn mun dualchas!</tspan></text>
    <text
       xml:space="preserve"
       style="font-style:normal;font-variant:normal;font-weight:normal;font-stretch:normal;line-height:0%;font-family:Lavi;-inkscape-font-specification:Lavi;text-align:center;letter-spacing:0px;word-spacing:0px;text-anchor:middle;fill:#000000;fill-opacity:1;stroke:none"
       x="338.31299"
       y="1567.3076"
       id="text4246-70-2-2"><tspan
         sodipodi:role="line"
         style="font-size:45px;line-height:1.25"
         x="338.31299"
         y="1567.3076"
         id="tspan3668">Saoil dè lorg mi!</tspan></text>
    <text
       xml:space="preserve"
       style="font-style:normal;font-variant:normal;font-weight:normal;font-stretch:normal;line-height:0%;font-family:Lavi;-inkscape-font-specification:Lavi;text-align:center;letter-spacing:0px;word-spacing:0px;text-anchor:middle;fill:#000000;fill-opacity:1;stroke:none"
       x="407.20337"
       y="1650.1035"
       id="text4246-70-2-2-2"><tspan
         sodipodi:role="line"
         style="font-size:45px;line-height:1.25"
         x="414.23462"
         y="1650.1035"
         id="tspan3670">Cha chreid </tspan><tspan
         sodipodi:role="line"
         style="font-size:45px;line-height:1.25"
         x="407.20337"
         y="1706.3535"
         id="tspan137">mi e!</tspan></text>
    <text
       xml:space="preserve"
       style="font-style:normal;font-variant:normal;font-weight:normal;font-stretch:normal;line-height:0%;font-family:Lavi;-inkscape-font-specification:Lavi;text-align:center;letter-spacing:0px;word-spacing:0px;text-anchor:middle;fill:#000000;fill-opacity:1;stroke:none"
       x="400.75806"
       y="2160.8105"
       id="text4246-70-2-2-2-7"><tspan
         sodipodi:role="line"
         style="font-size:45px;line-height:1.25"
         x="407.78931"
         y="2160.8105"
         id="tspan3674">Gu duda a dh’fhàg </tspan><tspan
         sodipodi:role="line"
         style="font-size:45px;line-height:1.25"
         x="400.75806"
         y="2217.0605"
         id="tspan141">e shìos an-seo?</tspan></text>
    <text
       xml:space="preserve"
       style="font-style:normal;font-variant:normal;font-weight:normal;font-stretch:normal;line-height:0%;font-family:Lavi;-inkscape-font-specification:Lavi;text-align:center;letter-spacing:0px;word-spacing:0px;text-anchor:middle;fill:#000000;fill-opacity:1;stroke:none"
       x="509.49463"
       y="2487.7622"
       id="text4246-70-2-2-2-7-6"><tspan
         sodipodi:role="line"
         style="font-size:45px;line-height:1.25"
         x="516.52588"
         y="2487.7622"
         id="tspan3683">Bidh e feumach air </tspan><tspan
         sodipodi:role="line"
         style="font-size:45px;line-height:1.25"
         x="516.52588"
         y="2544.0122"
         id="tspan148">beagan gleusaidh ach tha </tspan><tspan
         sodipodi:role="line"
         style="font-size:45px;line-height:1.25"
         x="509.49463"
         y="2600.2622"
         id="tspan150">e ag obair fhathast.</tspan></text>
  </g>
</svg>
