<?xml version="1.0" encoding="UTF-8" standalone="no"?>
<!-- Created with Inkscape (http://www.inkscape.org/) -->

<svg
   xmlns:dc="http://purl.org/dc/elements/1.1/"
   xmlns:cc="http://creativecommons.org/ns#"
   xmlns:rdf="http://www.w3.org/1999/02/22-rdf-syntax-ns#"
   xmlns:svg="http://www.w3.org/2000/svg"
   xmlns="http://www.w3.org/2000/svg"
   xmlns:xlink="http://www.w3.org/1999/xlink"
   xmlns:sodipodi="http://sodipodi.sourceforge.net/DTD/sodipodi-0.dtd"
   xmlns:inkscape="http://www.inkscape.org/namespaces/inkscape"
   id="svg2"
   version="1.1"
   inkscape:version="0.92.4 (5da689c313, 2019-01-14)"
   width="2481"
   height="3503"
   sodipodi:docname="E31P06.svg">
  <metadata
     id="metadata8">
    <rdf:RDF>
      <cc:Work
         rdf:about="">
        <dc:format>image/svg+xml</dc:format>
        <dc:type
           rdf:resource="http://purl.org/dc/dcmitype/StillImage" />
        <dc:title />
      </cc:Work>
    </rdf:RDF>
  </metadata>
  <defs
     id="defs6">
    <filter
       style="color-interpolation-filters:sRGB"
       id="filter4375-4-1-1-1-9-5-8-3-8"
       inkscape:label="Drop Shadow">
      <feFlood
         id="feFlood4377-7-9-0-8-1-7-3-8-3"
         flood-opacity="1"
         flood-color="rgb(39,39,39)"
         result="flood" />
      <feComposite
         id="feComposite4379-3-8-8-2-77-4-1-8-7"
         in2="SourceGraphic"
         in="flood"
         operator="in"
         result="composite1" />
      <feMorphology
         id="feMorphology4393-1-0-49-8-9-3-0-31-8"
         operator="dilate"
         radius="6.2000000000000002"
         result="result3" />
      <feComposite
         id="feComposite4385-9-5-7-0-8-8-7-8-2"
         in2="result3"
         in="SourceGraphic"
         operator="over"
         result="fbSourceGraphic" />
      <feColorMatrix
         result="fbSourceGraphicAlpha"
         in="fbSourceGraphic"
         values="0 0 0 -1 0 0 0 0 -1 0 0 0 0 -1 0 0 0 0 1 0"
         id="feColorMatrix4544-96-1" />
      <feTurbulence
         id="feTurbulence4546-4-0"
         type="fractalNoise"
         numOctaves="3"
         seed="37"
         baseFrequency="0.129 0.0050000000000000001"
         result="turbulence" />
      <feDisplacementMap
         id="feDisplacementMap4548-3-5"
         in2="turbulence"
         in="fbSourceGraphic"
         scale="6.6"
         yChannelSelector="G"
         xChannelSelector="R"
         result="fbSourceGraphic" />
      <feColorMatrix
         result="fbSourceGraphicAlpha"
         in="fbSourceGraphic"
         values="0 0 0 -1 0 0 0 0 -1 0 0 0 0 -1 0 0 0 0 1 0"
         id="feColorMatrix4670-33-8" />
      <feFlood
         id="feFlood4672-8-5"
         flood-opacity="0.40999999999999998"
         flood-color="rgb(0,0,0)"
         result="flood"
         in="fbSourceGraphic" />
      <feComposite
         id="feComposite4674-6-5"
         in2="fbSourceGraphic"
         in="flood"
         operator="in"
         result="composite1" />
      <feGaussianBlur
         id="feGaussianBlur4676-0-0"
         in="composite1"
         stdDeviation="0"
         result="blur" />
      <feOffset
         id="feOffset4678-4-7"
         dx="6"
         dy="6"
         result="offset" />
      <feComposite
         id="feComposite4680-8-3"
         in2="offset"
         in="fbSourceGraphic"
         operator="over"
         result="composite2" />
    </filter>
    <filter
       style="color-interpolation-filters:sRGB"
       id="filter4375-4-1-1-1-9-0"
       inkscape:label="deevad outline effect">
      <feFlood
         id="feFlood4377-7-9-0-8-1-9"
         flood-opacity="1"
         flood-color="rgb(0,0,0)"
         result="flood" />
      <feComposite
         id="feComposite4379-3-8-8-2-77-1"
         in2="SourceGraphic"
         in="flood"
         operator="in"
         result="composite1" />
      <feMorphology
         id="feMorphology4393-1-0-49-8-9-9"
         operator="dilate"
         radius="3"
         result="result3" />
      <feComposite
         id="feComposite4385-9-5-7-0-8-6"
         in2="result3"
         in="SourceGraphic"
         operator="over"
         result="composite2" />
    </filter>
    <filter
       style="color-interpolation-filters:sRGB"
       id="filter4375-4-1-1-1-9-0-5"
       inkscape:label="deevad outline effect">
      <feFlood
         id="feFlood4377-7-9-0-8-1-9-6"
         flood-opacity="1"
         flood-color="rgb(0,0,0)"
         result="flood" />
      <feComposite
         id="feComposite4379-3-8-8-2-77-1-2"
         in2="SourceGraphic"
         in="flood"
         operator="in"
         result="composite1" />
      <feMorphology
         id="feMorphology4393-1-0-49-8-9-9-9"
         operator="dilate"
         radius="3"
         result="result3" />
      <feComposite
         id="feComposite4385-9-5-7-0-8-6-1"
         in2="result3"
         in="SourceGraphic"
         operator="over"
         result="composite2" />
    </filter>
  </defs>
  <sodipodi:namedview
     pagecolor="#ffffff"
     bordercolor="#666666"
     borderopacity="1"
     objecttolerance="10"
     gridtolerance="10"
     guidetolerance="10"
     inkscape:pageopacity="0"
     inkscape:pageshadow="2"
     inkscape:window-width="1920"
     inkscape:window-height="1027"
     id="namedview4"
     showgrid="false"
     inkscape:zoom="1.2937299"
     inkscape:cx="2088.1491"
     inkscape:cy="2824.5868"
     inkscape:window-x="-8"
     inkscape:window-y="-8"
     inkscape:window-maximized="1"
     inkscape:current-layer="layer3"
     inkscape:snap-global="false" />
  <g
     inkscape:groupmode="layer"
     id="layer2"
     inkscape:label="artwork"
     sodipodi:insensitive="true">
    <image
       sodipodi:absref="C:\Users\rumiko\Desktop\ep31_The-Fight_lang-pack\lang\ja\../gfx_Pepper-and-Carrot_by-David-Revoy_E31P06.png"
       xlink:href="../gfx_Pepper-and-Carrot_by-David-Revoy_E31P06.png"
       width="2481"
       height="3503"
       id="image10"
       x="0"
       y="0" />
  </g>
  <g
     inkscape:groupmode="layer"
     id="layer3"
     inkscape:label="speechbubbles">
    <path
       style="color:#000000;display:inline;overflow:visible;visibility:visible;fill:#ffffff;fill-opacity:1;fill-rule:nonzero;stroke:none;stroke-width:1.13598561px;marker:none;enable-background:accumulate"
       d="m 859.75494,2925.6926 c -14.80028,-3.0753 -58.45766,-31.0327 -6.72605,-31.992 -38.6631,-10.7706 -34.90211,-36.1548 -4.41813,-52.3649 -40.82017,5.0058 -71.54896,0.2287 -51.76978,-26.7489 -59.75395,19.5804 -86.47836,24.2844 -75.75637,-12.7729 -26.37374,31.4363 -53.44242,27.1345 -62.14965,-7.7042 -4.94369,26.527 -45.87541,36.8922 -94.6941,4.185 16.63089,30.8416 26.07486,46.8938 -60.70537,42.3823 33.65993,16.7365 55.04665,27.4574 -0.22941,37.9391 28.79808,6.861 47.46713,17.1507 4.1581,37.0684 28.9419,4.2054 74.18851,0.3429 20.88649,36.9929 35.46738,-17.8244 96.60337,-9.1912 71.84071,17.9721 69.62268,-32.5667 83.69967,-25.4803 95.5098,-5.1642 24.87407,-31.8112 76.75374,-37.7434 99.89334,-21.0916 -12.19597,-26.5151 31.503,-17.1146 64.16042,-18.7011 z"
       id="path3549-3-78-5-3"
       inkscape:connector-curvature="0"
       sodipodi:nodetypes="ccccccccccccccc" />
    <path
       style="color:#000000;display:inline;overflow:visible;visibility:visible;fill:#ffffff;fill-opacity:1;fill-rule:nonzero;stroke:none;stroke-width:1.13598561px;marker:none;enable-background:accumulate"
       d="m 843.02907,2994.1713 c -11.89713,-2.9785 -24.17157,-22.306 -4.83933,-35.2868 -16.04099,-0.688 -25.22109,-7.3316 -10.09016,-20.9326 -33.63592,17.0282 -42.55262,-6.109 -31.54836,-33.2935 -49.36943,13.0575 -71.28017,15.72 -61.02027,-12.9191 -22.7425,23.6321 -44.55674,19.2215 -50.17625,-8.4238 -5.12498,20.6058 -16.0656,31.8674 -48.67807,5.9229 -2.4006,7.5606 8.64658,32.4271 -61.67596,25.5615 26.65036,14.4116 42.6399,17.0575 -2.71109,23.1541 23.11252,6.4833 53.82905,16.2056 17.80741,30.1585 23.34031,4.4069 45.22812,8.7539 0.38797,35.4404 29.56268,-12.6127 61.01949,-4.4394 39.76453,15.9049 57.9305,-22.8594 69.07237,-16.7642 77.8197,-0.3847 21.53965,-23.9836 52.66833,-21.2672 70.7742,-7.3256 -8.80189,-21.2539 37.58447,-17.5851 64.18568,-17.5762 z"
       id="path3549-3-78-5"
       inkscape:connector-curvature="0"
       sodipodi:nodetypes="ccccccccccccccc" />
    <path
       style="fill:#ffffff;fill-opacity:1;stroke:none;stroke-width:1.09036469"
       d="m 2336.0954,607.49643 c -18.7292,3.86007 -25.9382,7.46431 -22.5847,9.6977 -7.6825,1.09817 -10.642,30.03928 -3.457,35.3413 0.4782,0.55806 3.8336,2.23433 2.3926,2.50979 -1.4403,0.27548 -10.0773,-0.5762 -11.5201,0.53413 -1.443,1.11089 12.912,17.00347 10.9905,17.5563 -1.9213,0.55338 -46.0482,-10.10974 -52.2944,-7.61678 -6.2463,2.49298 -2.9042,8.9012 -4.8247,9.17575 -1.9204,0.27454 -19.6745,-1.42978 -22.0749,-1.15616 -2.4006,0.2736 -6.7431,8.61487 -9.1435,8.88847 -2.4008,0.27362 -13.4289,-3.64446 -15.3494,-3.36991 -1.9207,0.27454 -0.9799,7.23467 -3.3803,7.50829 -2.4007,0.2736 -12.9428,-5.86981 -14.3835,-5.59434 -1.4405,0.27548 -6.7584,14.1817 -9.1604,15.01188 -2.4022,0.83018 -17.716,-15.34253 -19.1554,-15.62363 -1.439,-0.28165 -10.611,18.90564 -12.5314,19.18018 -1.921,0.27454 -11.483,-13.1041 -12.9238,-12.82862 -1.4407,0.27548 -10.5811,8.05138 -12.5024,8.60421 -1.9213,0.55283 -14.3511,-17.28455 -16.2711,-17.28829 -1.9198,-0.004 -18.2589,7.47929 -19.7026,8.86791 -1.4438,1.38917 -2.8598,-7.24215 -4.7796,-7.24589 -1.9197,-0.004 -24.0116,4.96349 -24.4907,4.68427 -0.4793,-0.27923 3.3751,-5.56029 1.9352,-5.56309 -1.4397,-0.003 -24.0167,6.9115 -24.9731,5.5182 6.5854,-20.42315 -48.6929,6.15199 -52.331,5.74316 -3.3567,-1.12024 21.6608,-22.78124 19.2658,-24.45617 -2.3954,-1.6744 -11.0401,0.25676 -11.5178,-0.57903 -0.4774,-0.83579 5.292,-4.44284 3.8552,-5.55878 -1.4368,-1.1165 -17.7429,-5.60143 -19.1789,-6.99566 -1.4361,-1.3948 7.213,-4.99624 5.2954,-5.83483 -1.9176,-0.83915 -30.2203,-6.18233 -30.6965,-7.57524 -0.476,-1.39237 14.4212,-8.04334 12.5066,-9.99509 -1.9143,-1.95229 -7.1918,-2.79743 -6.7079,-4.18848 0.4839,-1.39049 9.6075,-3.04299 9.1315,-4.43535 -0.4761,-1.39238 -5.2566,-8.36054 -6.6933,-9.47648 -1.4369,-1.11595 10.0806,-0.53694 10.0836,-1.65008 0,-1.11369 -2.2198,-23.5183 -19.2437,-33.66701 29.806,6.75864 42.3674,3.53587 58.2122,1.34045 15.8448,-2.19598 9.6434,-16.12464 12.0456,-16.95484 9.7468,5.17921 25.364,27.89768 27.8451,1.91714 -0.4929,-1.85524 17.1622,11.16727 19.5626,10.89366 2.4006,-0.27361 22.1886,-14.7864 25.549,-15.05814 3.3604,-0.27174 16.3055,4.76377 19.1843,5.04767 2.8791,0.2839 5.2979,-6.66969 7.6963,-6.10843 2.3983,0.56124 17.7429,5.60143 20.1441,5.04953 2.4014,-0.55245 4.3273,-2.775 6.2458,-2.21468 1.9179,0.56031 10.5511,2.80399 10.5511,2.80399 0,0 6.2442,-1.65812 9.1238,-1.65251 2.8797,0.006 22.5326,9.22905 24.9308,9.79031 2.3982,0.56124 27.0629,-9.43403 25.6277,-11.10655 3.0376,7.31416 17.801,0.65375 20.9249,1.02589 3.3571,0.84196 13.4432,-1.64353 14.4009,-0.80679 0.9574,0.83672 3.825,5.29601 6.7039,5.57991 2.8791,0.2839 9.5952,1.41013 9.5952,1.41013 l -0.9643,1.6684 c 0,0 20.1702,6.87013 22.5749,5.20508 8.6376,-0.92566 8.2539,1.56665 30.4265,-6.34533 -17.7607,16.83134 -29.5499,35.87639 7.4297,28.12884 -30.7502,7.40389 -17.1325,13.68463 8.6056,12.26364 z"
       id="path5888-3-2"
       inkscape:connector-curvature="0"
       sodipodi:nodetypes="cccsccsscccccccsccscscsccsccccccsccscsccccsccscsccccccccccc" />
    <path
       style="fill:#ffffff;fill-opacity:1;stroke:none;stroke-width:0.97598988"
       d="m 2205.9686,406.59234 c -0.055,0.004 -0.1102,0.0176 -0.1646,0.041 -1.7441,0.75002 -8.262,7.90828 -10.006,7.15827 -1.7441,-0.75076 -9.7191,-7.40689 -11.1145,-6.65688 -1.3952,0.75001 -6.5115,11.06376 -6.5115,11.06376 0,0 -8.4589,-4.96527 -17.2903,-11.01838 -2.6049,5.91093 -4.9574,17.08211 -6.7016,17.83213 -1.744,0.75002 -19.6495,-12.78316 -26.7309,-17.47112 -2.6094,6.19133 -4.8335,18.47784 -7.1045,18.97112 -2.4417,1.12577 -17.895,-13.22067 -18.5925,-12.09564 -0.6977,1.12502 5.3367,18.09759 3.2438,18.4726 -2.093,0.37501 -6.976,1.875 -6.976,1.875 l 0.6967,2.25 c 0,0 -14.6505,-6.00192 -16.3946,-8.25196 -1.744,-2.25078 1.0472,9.75311 2.0937,12.75391 -6.2789,-3.0008 -24.766,-9.37813 -26.1612,-11.25391 -1.3952,-1.87503 2.442,6.75193 4.5349,9.37696 -2.7905,-1.12501 -5.2333,-1.5 -5.2333,-1.5 l 8.0236,9.00195 -2.4412,0.75 c 0,0 5.2317,4.12498 5.2317,6 0,1.87579 -13.6044,4.12695 -13.6044,4.12695 15.433,11.23691 5.7103,14.55335 -6.2776,16.50391 6.5123,2.51362 11.0836,4.93804 13.8354,7.11523 l -13.29,3.7168 13.8023,7.56445 -7.3618,3.24219 7.3618,5.4043 -20.2444,8.64648 21.1656,5.4043 -15.6447,9.72851 15.6447,5.4043 -8.283,7.56446 18.5433,1.45312 c 0,3.14332 -5.3993,19.04189 -8.0886,23.27148 10.5928,-0.0303 28.2031,0.13477 41.0045,0.13477 0.024,1.16441 0.1,2.00665 0.5037,2.11523 0.6854,0.18421 4.1615,-0.26823 7.7144,-0.72851 l 11.3028,4.42578 c 1.3322,3.15354 2.7028,6.59956 3.6568,6.80469 1.0902,0.23437 4.6321,-1.72876 7.4764,-3.14258 6e-4,-2.5e-4 0,2.5e-4 0,0 l 4.0758,-0.9082 c 0.8747,1.91909 0.5011,9.34263 2.0503,9.67578 1.7442,0.37502 9.4184,-7.87501 10.4648,-7.5 1.0464,0.375 4.8829,19.12886 6.6267,20.2539 1.7443,1.12501 12.9072,-20.6289 13.9538,-21.0039 1.0463,-0.37576 7.6725,25.5039 9.0677,25.8789 1.3954,0.37502 8.3723,-17.62892 9.4189,-17.2539 1.0465,0.37499 7.6744,10.87889 9.0695,11.6289 1.3954,0.75002 10.4646,-23.25586 11.86,-23.25586 1.3952,0 13.2547,10.12693 14.3012,12.00196 1.0465,1.87579 2.0935,-9.75196 3.4887,-9.75196 1.3954,0 17.4394,6.75197 17.7883,6.37696 0.3489,-0.37501 -2.4417,-7.50196 -1.3952,-7.50196 1.0464,0 17.4416,9.37698 18.1392,7.50196 0.6975,-1.87578 29.9488,3.46603 38.0209,7.87695 -6.2598,-9.56114 -15.6976,-30.75508 -13.9536,-33.00586 1.7441,-2.25003 8.0241,0.37502 8.3729,-0.75 0.3488,-1.12502 -3.8367,-6.00194 -2.7903,-7.50195 1.0465,-1.50078 12.9055,-7.50191 13.9518,-9.37696 1.0464,-1.87577 -5.2315,-6.74999 -3.8363,-7.875 1.3952,-1.12576 21.9758,-8.25313 22.3247,-10.1289 0.3487,-1.87504 -10.4649,-10.87691 -9.0696,-13.50195 1.3953,-2.62579 5.2329,-3.74922 4.884,-5.625 -0.3488,-1.87502 -6.9772,-4.12694 -6.6283,-6.00196 0.3487,-1.87503 3.8376,-11.25193 4.8839,-12.75195 1.0466,-1.50003 -7.3251,-0.74998 -7.3251,-2.25 0,-1.50078 -19.1404,-9.73512 2.3708,-31.94263 -30.7941,4.74119 -20.1606,-1.06318 -31.6715,-4.06323 -11.5111,-3.0008 -6.9763,-21.75584 -8.7203,-22.88086 -1.7442,-1.12577 -14.6508,6.377 -16.3948,3.75195 -1.7441,-2.62579 -2.4427,-7.50195 -3.8381,-7.50195 -1.395,0 -16.3842,8.06404 -18.1283,7.68903 -1.7441,-0.37501 -11.1717,-14.44098 -13.6135,-14.81598 -2.4417,-0.37502 -11.8607,6.37695 -13.9536,6.75195 -2.0274,0.36329 -3.726,-8.42522 -5.4161,-8.29297 z"
       id="path5888-3"
       inkscape:connector-curvature="0"
       sodipodi:nodetypes="ccccccccccscccccccccscccccccccccccccscccccccccccccscsssccccccccccccsccccsccccc" />
    <path
       style="color:#000000;display:inline;overflow:visible;visibility:visible;fill:#ffffff;fill-opacity:1;fill-rule:nonzero;stroke:none;stroke-width:0.99999994px;marker:none;enable-background:accumulate"
       d="m 1272.5449,3077.9523 c -78.231,15.2781 -158.5825,23.1124 -234.3525,47.042 l 48.6913,-38.9221 c -31.113,-0.2775 -62.6052,11.89 -93.96922,19.832 l 24.81112,-26.6421 c -73.62433,-0.043 -140.93978,19.5825 -211.30464,29.7017 l 48.37788,-44.8304 c 71.35729,-4.7997 140.74069,-1.8479 214.31916,-15.3676 l -20.5535,27.1733 c 25.7084,-2.3825 51.5171,-5.4463 77.7719,-11.5491 l -30.1046,33.1547 z"
       id="path4032-1"
       inkscape:connector-curvature="0"
       sodipodi:nodetypes="cccccccccccc" />
    <path
       style="display:inline;fill:#ffffff;fill-rule:evenodd;stroke:none;stroke-width:0.95866078px;stroke-linecap:butt;stroke-linejoin:miter;stroke-opacity:1"
       d="m 518.03764,2979.2366 c 47.45441,23.355 88.44603,41.0773 56.26585,-25.083 38.32299,49.4296 53.77977,27.5103 63.09757,-1.3936 29.97418,24.8442 50.67193,46.8027 65.53548,28.9276 5.53998,22.9883 17.42065,13.7115 27.70267,12.5694 3.38641,5.2017 -21.09131,-11.802 25.89867,-29.0181 -5.85003,-33.0161 29.87274,3.8352 57.39717,-11.4276 7.13071,27.9419 3.16074,45.2359 43.56546,5.8228 -14.60266,38.7644 -8.54754,44.2395 10.11166,29.404 -8.53084,15.9636 -13.63315,28.3211 18.77867,1.2247 -11.09619,29.4655 28.10871,9.9952 66.4456,-20.2566 -36.48263,33.5457 -87.27539,71.1845 -46.22216,66.8129 -5.72515,9.2221 -26.14632,17.2571 34.66843,31.8543 -11.3533,6.2577 -46.01455,-2.8874 -17.10083,23.6089 3.87385,3.0977 -9.09489,4.9888 15.6563,13.1458 -14.61089,-0.555 -23.57142,1.4268 -10.11168,13.4765 -26.6703,-0.6517 -16.69144,12.0185 2.88908,28.1785 -50.0161,-31.6245 -66.04535,-37.3865 -41.89121,-4.9004 -48.40512,-28.2604 -65.44372,-24.6432 -59.27522,-1.4092 -20.60499,-24.6694 -44.19888,-28.9832 -63.30952,-0.4832 -20.37612,-29.4078 -34.25857,-26.3948 -76.7593,-4.2335 22.92622,-24.9384 -9.68928,-9.0501 -34.66856,1.2247 13.67914,-31.1535 -21.03656,-10.707 -65.00354,19.6024 24.6213,-34.4018 -3.34271,-21.9748 -44.78025,2.4502 15.65639,-33.7969 -9.84147,-50.1411 -70.7816,-51.4559 29.16775,-12.1912 46.17688,-27.5334 15.88983,-55.1323 34.1421,8.1266 44.32618,0.5779 20.22328,-29.4033 37.23996,24.6085 20.30833,-11.0852 5.77815,-44.106 z"
       id="path4508-9"
       inkscape:connector-curvature="0"
       sodipodi:nodetypes="cccccccccccccccccccccccccccc" />
    <path
       style="color:#000000;display:inline;overflow:visible;visibility:visible;fill:#ffffff;fill-opacity:1;fill-rule:nonzero;stroke:none;stroke-width:1px;marker:none;enable-background:accumulate"
       d="m 2279.1877,625.34512 c -0.091,3.76817 51.831,-6.4041 51.831,-6.4041 0,0 1.5665,29.95657 4.6782,32.0986 11.0733,-0.0391 21.0624,-5.37296 21.0624,-5.37296 l 18.0133,48.73793 -20.0054,-31.72225 c -9.8867,-0.91886 -20.0127,-0.88091 -32.7339,9.5382 l -4.3594,-32.26765 -34.1656,7.80769 z"
       id="path4448"
       inkscape:connector-curvature="0"
       sodipodi:nodetypes="cccccccccc" />
  </g>
  <g
     inkscape:groupmode="layer"
     id="layer1"
     inkscape:label="txt">
    <text
       xml:space="preserve"
       style="font-style:normal;font-variant:normal;font-weight:500;font-stretch:normal;font-size:46.66666794px;line-height:0%;font-family:'Rounded M+ 1c';-inkscape-font-specification:'Rounded M+ 1c, Medium';font-variant-ligatures:normal;font-variant-caps:normal;font-variant-numeric:normal;font-feature-settings:normal;text-align:center;letter-spacing:0px;word-spacing:0px;writing-mode:lr-tb;text-anchor:middle;fill:#000000;fill-opacity:1;stroke:none;stroke-width:1.17751098"
       x="2192.574"
       y="506.93103"
       id="text4246-1-3-2-8"
       transform="scale(0.99789912,1.0021053)"><tspan
         sodipodi:role="line"
         style="font-style:normal;font-variant:normal;font-weight:500;font-stretch:normal;font-size:46.66666794px;line-height:1.25;font-family:'Rounded M+ 1c';-inkscape-font-specification:'Rounded M+ 1c, Medium';font-variant-ligatures:normal;font-variant-caps:normal;font-variant-numeric:normal;font-feature-settings:normal;text-align:center;writing-mode:lr-tb;text-anchor:middle;stroke-width:1.17751098"
         x="2192.574"
         y="506.93103"
         id="tspan65">やめなさい!</tspan></text>
    <text
       xml:space="preserve"
       style="font-style:normal;font-variant:normal;font-weight:500;font-stretch:normal;font-size:46.66666794px;line-height:0%;font-family:'Rounded M+ 1c';-inkscape-font-specification:'Rounded M+ 1c, Medium';font-variant-ligatures:normal;font-variant-caps:normal;font-variant-numeric:normal;font-feature-settings:normal;text-align:center;letter-spacing:0px;word-spacing:0px;writing-mode:lr-tb;text-anchor:middle;fill:#000000;fill-opacity:1;stroke:none;stroke-width:1.17751098"
       x="2144.4634"
       y="637.91968"
       id="text4246-1-3-2-8-3"
       transform="scale(0.99789912,1.0021053)"><tspan
         sodipodi:role="line"
         style="font-style:normal;font-variant:normal;font-weight:500;font-stretch:normal;font-size:46.66666794px;line-height:1.25;font-family:'Rounded M+ 1c';-inkscape-font-specification:'Rounded M+ 1c, Medium';font-variant-ligatures:normal;font-variant-caps:normal;font-variant-numeric:normal;font-feature-settings:normal;text-align:center;writing-mode:lr-tb;text-anchor:middle;stroke-width:1.17751098"
         x="2144.4634"
         y="637.91968"
         id="tspan829-7">もう十分じゃ!</tspan></text>
    <text
       xml:space="preserve"
       style="font-style:normal;font-variant:normal;font-weight:500;font-stretch:normal;font-size:55.34947586px;line-height:0%;font-family:'Rounded M+ 1c';-inkscape-font-specification:'Rounded M+ 1c, Medium';font-variant-ligatures:normal;font-variant-caps:normal;font-variant-numeric:normal;font-feature-settings:normal;text-align:start;letter-spacing:0px;word-spacing:0px;writing-mode:lr-tb;text-anchor:start;fill:#000000;fill-opacity:1;stroke:#ffffff;stroke-width:2.66678286;stroke-miterlimit:4;stroke-dasharray:none;stroke-opacity:1;filter:url(#filter4375-4-1-1-1-9-0)"
       x="787.65729"
       y="1584.5073"
       id="text4580-25"
       transform="matrix(0.55718765,-0.37423929,0.21813977,1.0749149,-120.92735,-234.76499)"><tspan
         sodipodi:role="line"
         id="tspan4582-4"
         x="787.65729"
         y="1584.5073"
         style="font-style:normal;font-variant:normal;font-weight:500;font-stretch:normal;font-size:55.34947586px;line-height:100%;font-family:'Rounded M+ 1c';-inkscape-font-specification:'Rounded M+ 1c, Medium';font-variant-ligatures:normal;font-variant-caps:normal;font-variant-numeric:normal;font-feature-settings:normal;text-align:start;letter-spacing:4.88345098px;writing-mode:lr-tb;text-anchor:start;fill:#ffffff;stroke:#ffffff;stroke-width:2.66678286;stroke-miterlimit:4;stroke-dasharray:none;stroke-opacity:1">パチン!</tspan></text>
    <text
       xml:space="preserve"
       style="font-style:normal;font-variant:normal;font-weight:500;font-stretch:normal;font-size:81.11308289px;line-height:0%;font-family:'Rounded M+ 1c';-inkscape-font-specification:'Rounded M+ 1c, Medium';font-variant-ligatures:normal;font-variant-caps:normal;font-variant-numeric:normal;font-feature-settings:normal;text-align:start;letter-spacing:0px;word-spacing:0px;writing-mode:lr-tb;text-anchor:start;display:inline;fill:#ffffff;fill-opacity:1;stroke:#000000;stroke-width:0.48148537;stroke-miterlimit:4;stroke-dasharray:none;stroke-opacity:1;filter:url(#filter4375-4-1-1-1-9-5-8-3-8)"
       x="787.65729"
       y="1584.5073"
       id="text4580-6-0-8-8"
       transform="matrix(1.5492299,-0.0813593,-0.87667877,1.9075458,1570.733,-1836.1775)"><tspan
         sodipodi:role="line"
         id="tspan4582-1-1-8-2"
         x="787.65729"
         y="1584.5073"
         style="font-style:normal;font-variant:normal;font-weight:500;font-stretch:normal;font-size:81.11308289px;line-height:1.25;font-family:'Rounded M+ 1c';-inkscape-font-specification:'Rounded M+ 1c, Medium';font-variant-ligatures:normal;font-variant-caps:normal;font-variant-numeric:normal;font-feature-settings:normal;text-align:start;letter-spacing:5.87610865px;writing-mode:lr-tb;text-anchor:start;fill:#ffffff;fill-opacity:1;stroke:#000000;stroke-width:0.48148537;stroke-opacity:1"><tspan
           style="font-style:normal;font-variant:normal;font-weight:500;font-stretch:normal;font-size:81.11308289px;font-family:'Rounded M+ 1c';-inkscape-font-specification:'Rounded M+ 1c, Medium';font-variant-ligatures:normal;font-variant-caps:normal;font-variant-numeric:normal;font-feature-settings:normal;text-align:start;letter-spacing:5.87610865px;writing-mode:lr-tb;text-anchor:start;fill:#ffffff;fill-opacity:1;stroke:#000000;stroke-width:0.48148537;stroke-opacity:1"
           id="tspan4315-8-97-3">ポンッ</tspan><tspan
           style="font-style:normal;font-variant:normal;font-weight:500;font-stretch:normal;font-size:81.11308289px;font-family:'Rounded M+ 1c';-inkscape-font-specification:'Rounded M+ 1c, Medium';font-variant-ligatures:normal;font-variant-caps:normal;font-variant-numeric:normal;font-feature-settings:normal;text-align:start;letter-spacing:5.87610865px;writing-mode:lr-tb;text-anchor:start;fill:#ffffff;fill-opacity:1;stroke:#000000;stroke-width:0.48148537;stroke-opacity:1"
           id="tspan4313-2-76-0">!</tspan></tspan></text>
    <text
       xml:space="preserve"
       style="font-style:normal;font-variant:normal;font-weight:500;font-stretch:normal;font-size:80.40118408px;line-height:0%;font-family:'Rounded M+ 1c';-inkscape-font-specification:'Rounded M+ 1c, Medium';font-variant-ligatures:normal;font-variant-caps:normal;font-variant-numeric:normal;font-feature-settings:normal;text-align:start;letter-spacing:0px;word-spacing:0px;writing-mode:lr-tb;text-anchor:start;fill:#000000;fill-opacity:1;stroke:#ffffff;stroke-width:4.21925974;stroke-miterlimit:4;stroke-dasharray:none;stroke-opacity:1;filter:url(#filter4375-4-1-1-1-9-0-5)"
       x="787.65729"
       y="1584.5073"
       id="text4580-25-2"
       transform="matrix(0.37191843,0.11061463,-0.38324889,0.61702867,2371.8774,1301.4149)"><tspan
         sodipodi:role="line"
         id="tspan4582-4-7"
         x="787.65729"
         y="1584.5073"
         style="font-style:normal;font-variant:normal;font-weight:500;font-stretch:normal;font-size:80.40118408px;line-height:100%;font-family:'Rounded M+ 1c';-inkscape-font-specification:'Rounded M+ 1c, Medium';font-variant-ligatures:normal;font-variant-caps:normal;font-variant-numeric:normal;font-feature-settings:normal;text-align:start;letter-spacing:4.88345098px;writing-mode:lr-tb;text-anchor:start;fill:#ffffff;stroke:#ffffff;stroke-width:4.21925974;stroke-miterlimit:4;stroke-dasharray:none;stroke-opacity:1">タッ!</tspan></text>
    <text
       xml:space="preserve"
       style="font-style:normal;font-variant:normal;font-weight:500;font-stretch:normal;font-size:46.66666794px;line-height:0%;font-family:'Rounded M+ 1c';-inkscape-font-specification:'Rounded M+ 1c, Medium';font-variant-ligatures:normal;font-variant-caps:normal;font-variant-numeric:normal;font-feature-settings:normal;text-align:center;letter-spacing:0px;word-spacing:0px;writing-mode:lr-tb;text-anchor:middle;fill:#000000;fill-opacity:1;stroke:none;stroke-width:1.17751098"
       x="685.59564"
       y="2895.5073"
       id="text4246-1-3-2-8-3-3"
       transform="scale(0.99789912,1.0021053)"><tspan
         sodipodi:role="line"
         style="font-style:normal;font-variant:normal;font-weight:500;font-stretch:normal;font-size:46.66666794px;line-height:1.25;font-family:'Rounded M+ 1c';-inkscape-font-specification:'Rounded M+ 1c, Medium';font-variant-ligatures:normal;font-variant-caps:normal;font-variant-numeric:normal;font-feature-settings:normal;text-align:center;writing-mode:lr-tb;text-anchor:middle;stroke-width:1.17751098"
         x="685.59564"
         y="2895.5073"
         id="tspan829-7-6">二人とも</tspan></text>
    <text
       xml:space="preserve"
       style="font-style:normal;font-variant:normal;font-weight:500;font-stretch:normal;font-size:46.66666794px;line-height:0%;font-family:'Rounded M+ 1c';-inkscape-font-specification:'Rounded M+ 1c, Medium';font-variant-ligatures:normal;font-variant-caps:normal;font-variant-numeric:normal;font-feature-settings:normal;text-align:center;letter-spacing:0px;word-spacing:0px;writing-mode:lr-tb;text-anchor:middle;fill:#000000;fill-opacity:1;stroke:none;stroke-width:1.17751098"
       x="719.39069"
       y="2985.6943"
       id="text4246-1-3-2-8-3-3-7"
       transform="scale(0.99789912,1.0021053)"><tspan
         sodipodi:role="line"
         style="font-style:normal;font-variant:normal;font-weight:500;font-stretch:normal;font-size:46.66666794px;line-height:1.25;font-family:'Rounded M+ 1c';-inkscape-font-specification:'Rounded M+ 1c, Medium';font-variant-ligatures:normal;font-variant-caps:normal;font-variant-numeric:normal;font-feature-settings:normal;text-align:center;writing-mode:lr-tb;text-anchor:middle;stroke-width:1.17751098"
         x="719.39069"
         y="2985.6943"
         id="tspan829-7-6-5">ここへ</tspan></text>
    <text
       xml:space="preserve"
       style="font-style:normal;font-variant:normal;font-weight:500;font-stretch:normal;font-size:46.66666794px;line-height:0%;font-family:'Rounded M+ 1c';-inkscape-font-specification:'Rounded M+ 1c, Medium';font-variant-ligatures:normal;font-variant-caps:normal;font-variant-numeric:normal;font-feature-settings:normal;text-align:center;letter-spacing:0px;word-spacing:0px;writing-mode:lr-tb;text-anchor:middle;fill:#000000;fill-opacity:1;stroke:none;stroke-width:1.17751098"
       x="713.04907"
       y="3070.9504"
       id="text4246-1-3-2-8-36-2"
       transform="scale(0.99789912,1.0021053)"><tspan
         sodipodi:role="line"
         style="font-style:normal;font-variant:normal;font-weight:500;font-stretch:normal;font-size:46.66666794px;line-height:1.25;font-family:'Rounded M+ 1c';-inkscape-font-specification:'Rounded M+ 1c, Medium';font-variant-ligatures:normal;font-variant-caps:normal;font-variant-numeric:normal;font-feature-settings:normal;text-align:center;writing-mode:lr-tb;text-anchor:middle;stroke-width:1.17751098"
         x="713.04907"
         y="3070.9504"
         id="tspan1020-8">今すぐにじゃ！</tspan></text>
  </g>
</svg>
