<?xml version="1.0" encoding="UTF-8" standalone="no"?>
<!-- Created with Inkscape (http://www.inkscape.org/) -->

<svg
   xmlns:dc="http://purl.org/dc/elements/1.1/"
   xmlns:cc="http://creativecommons.org/ns#"
   xmlns:rdf="http://www.w3.org/1999/02/22-rdf-syntax-ns#"
   xmlns:svg="http://www.w3.org/2000/svg"
   xmlns="http://www.w3.org/2000/svg"
   xmlns:xlink="http://www.w3.org/1999/xlink"
   xmlns:sodipodi="http://sodipodi.sourceforge.net/DTD/sodipodi-0.dtd"
   xmlns:inkscape="http://www.inkscape.org/namespaces/inkscape"
   id="svg2"
   version="1.1"
   inkscape:version="0.91 r13725"
   width="1100"
   height="765"
   sodipodi:docname="E02.svg">
  <sodipodi:namedview
     pagecolor="#ffffff"
     bordercolor="#666666"
     inkscape:pageopacity="0"
     inkscape:pageshadow="2"
     inkscape:window-width="1920"
     inkscape:window-height="900"
     id="namedview70"
     showgrid="false"
     inkscape:zoom="0.92"
     inkscape:cx="689.97693"
     inkscape:cy="-23.509119"
     inkscape:current-layer="layer2"
     inkscape:window-x="0"
     inkscape:window-y="24"
     inkscape:window-maximized="1" />
  <metadata
     id="metadata8">
    <rdf:RDF>
      <cc:Work
         rdf:about="">
        <dc:format>image/svg+xml</dc:format>
        <dc:type
           rdf:resource="http://purl.org/dc/dcmitype/StillImage" />
        <dc:title />
      </cc:Work>
    </rdf:RDF>
  </metadata>
  <defs
     id="defs6">
    <filter
       id="filter3797"
       style="color-interpolation-filters:sRGB;"
       inkscape:label="Drop Shadow">
      <feFlood
         id="feFlood3799"
         flood-opacity="0.8"
         flood-color="rgb(0,0,0)"
         result="flood" />
      <feComposite
         id="feComposite3801"
         in2="SourceGraphic"
         in="flood"
         operator="in"
         result="composite1" />
      <feGaussianBlur
         id="feGaussianBlur3803"
         in="composite"
         stdDeviation="10"
         result="blur" />
      <feOffset
         id="feOffset3805"
         dx="8"
         dy="10"
         result="offset" />
      <feComposite
         id="feComposite3807"
         in2="offset"
         in="SourceGraphic"
         operator="over"
         result="composite2" />
    </filter>
    <filter
       id="filter3836"
       style="color-interpolation-filters:sRGB;"
       inkscape:label="Drop Shadow">
      <feFlood
         id="feFlood3838"
         flood-opacity="0.8"
         flood-color="rgb(0,0,0)"
         result="flood" />
      <feComposite
         id="feComposite3840"
         in2="SourceGraphic"
         in="flood"
         operator="in"
         result="composite1" />
      <feGaussianBlur
         id="feGaussianBlur3842"
         in="composite"
         stdDeviation="5"
         result="blur" />
      <feOffset
         id="feOffset3844"
         dx="8"
         dy="10"
         result="offset" />
      <feComposite
         id="feComposite3846"
         in2="offset"
         in="SourceGraphic"
         operator="over"
         result="composite2" />
    </filter>
    <filter
       inkscape:collect="always"
       style="color-interpolation-filters:sRGB"
       id="filter4402"
       x="-0.0034005821"
       width="1.0068012"
       y="-0.013677411"
       height="1.0273548">
      <feGaussianBlur
         inkscape:collect="always"
         stdDeviation="0.082595546"
         id="feGaussianBlur4404" />
    </filter>
    <filter
       inkscape:collect="always"
       style="color-interpolation-filters:sRGB"
       id="filter4406"
       x="-0.0032217882"
       width="1.0064436"
       y="-0.014776948"
       height="1.0295539">
      <feGaussianBlur
         inkscape:collect="always"
         stdDeviation="0.13376918"
         id="feGaussianBlur4408" />
    </filter>
    <filter
       inkscape:collect="always"
       style="color-interpolation-filters:sRGB"
       id="filter4398"
       x="-0.0032890984"
       width="1.0065782"
       y="-0.013935394"
       height="1.0278708">
      <feGaussianBlur
         inkscape:collect="always"
         stdDeviation="0.11702162"
         id="feGaussianBlur4400" />
    </filter>
  </defs>
  <sodipodi:namedview
     pagecolor="#ffffff"
     bordercolor="#666666"
     borderopacity="1"
     objecttolerance="10"
     gridtolerance="10"
     guidetolerance="10"
     inkscape:pageopacity="0"
     inkscape:pageshadow="2"
     inkscape:window-width="1920"
     inkscape:window-height="1025"
     id="namedview4"
     showgrid="false"
     inkscape:zoom="1.8178691"
     inkscape:cx="328.31082"
     inkscape:cy="274.15667"
     inkscape:window-x="1920"
     inkscape:window-y="26"
     inkscape:window-maximized="1"
     inkscape:current-layer="layer2" />
  <g
     inkscape:groupmode="layer"
     id="layer1"
     inkscape:label="artwork"
     style="display:inline"
     sodipodi:insensitive="true" />
  <image
     sodipodi:absref="/home/aditya/Desktop/pepper/hi/ep02/../../lang (2)/de/./../gfx_Pepper-and-Carrot_by-David-Revoy_E02.png"
     xlink:href="../../lang (2)/de/./../gfx_Pepper-and-Carrot_by-David-Revoy_E02.png"
     width="1100"
     height="765"
     id="image10"
     x="0"
     y="0" />
  <g
     inkscape:groupmode="layer"
     id="layer2"
     inkscape:label="txt">
    <flowRoot
       xml:space="preserve"
       id="episode-title"
       style="font-style:normal;font-variant:normal;font-weight:normal;font-stretch:normal;line-height:0.01%;font-family:Arial;-inkscape-font-specification:Arial;letter-spacing:0px;word-spacing:0px;display:inline;fill:#301b0b;fill-opacity:1;stroke:none;filter:url(#filter3836)"
       transform="matrix(0.69723552,0,0,0.69723552,-763.54977,252.8827)"><flowRegion
         id="flowRegion2989"><rect
           id="rect2991"
           width="2405.8"
           height="107.55731"
           x="739.22333"
           y="644.36664"
           style="fill:#301b0b;fill-opacity:1" /></flowRegion><flowPara
         id="flowPara2993"
         style="font-style:normal;font-variant:normal;font-weight:normal;font-stretch:normal;font-size:68.8433075px;line-height:1.25;font-family:Lavi;-inkscape-font-specification:Lavi;text-align:center;text-anchor:middle;fill:#ffffff;fill-opacity:1">अध्याय २: इंद्रधनुषी काढे</flowPara></flowRoot>    <flowRoot
       xml:space="preserve"
       id="flowRoot4325"
       style="font-style:normal;font-variant:normal;font-weight:normal;font-stretch:normal;line-height:0.01%;font-family:Arial;-inkscape-font-specification:Arial;letter-spacing:0px;word-spacing:0px;opacity:0.90100002;fill:#2d1a1c;fill-opacity:1;stroke:#000000;stroke-width:0.28673479;stroke-linecap:butt;stroke-linejoin:miter;stroke-miterlimit:4;stroke-dasharray:none;stroke-opacity:1;filter:url(#filter4398)"
       transform="matrix(1.32115,-0.19930107,0.31959922,1.8766996,-1484.1946,-2585.6705)"><flowRegion
         id="flowRegion4327"><rect
           id="rect4329"
           width="131.93344"
           height="14.722872"
           x="841.07574"
           y="1755.9342"
           style="fill:#2d1a1c;fill-opacity:1;stroke:#000000;stroke-width:0.28673479;stroke-miterlimit:4;stroke-dasharray:none;stroke-opacity:1" /></flowRegion><flowPara
         id="flowPara4335"
         style="font-style:normal;font-variant:normal;font-weight:normal;font-stretch:normal;font-size:13.96346664px;line-height:1.25;font-family:Fondamento;-inkscape-font-specification:Fondamento;text-align:center;text-anchor:middle;fill:#2d1a1c;fill-opacity:1;stroke:#000000;stroke-width:0.28673479;stroke-miterlimit:4;stroke-dasharray:none;stroke-opacity:1">चेतावनी</flowPara></flowRoot>    <flowRoot
       xml:space="preserve"
       id="flowRoot4325-5"
       style="font-style:normal;font-variant:normal;font-weight:normal;font-stretch:normal;line-height:0.01%;font-family:Arial;-inkscape-font-specification:Arial;letter-spacing:0px;word-spacing:0px;opacity:0.98;fill:#241516;fill-opacity:1;stroke:#000000;stroke-width:0.31955233;stroke-linecap:butt;stroke-linejoin:miter;stroke-miterlimit:4;stroke-dasharray:none;stroke-opacity:1;filter:url(#filter4406);"
       transform="matrix(1.2083856,-0.10996597,0.18390925,1.254133,-1114.1455,-1532.8665)"><flowRegion
         id="flowRegion4327-2"><rect
           id="rect4329-1"
           width="117.81689"
           height="18.194685"
           x="833.45374"
           y="1758.7327"
           style="fill:#241516;fill-opacity:1;stroke:#000000;stroke-width:0.31955233;stroke-miterlimit:4;stroke-dasharray:none;stroke-opacity:1;" /></flowRegion><flowPara
         id="flowPara4335-3"
         style="font-style:normal;font-variant:normal;font-weight:normal;font-stretch:normal;font-size:17.14769554px;line-height:1.25;font-family:Fondamento;-inkscape-font-specification:Fondamento;text-align:center;text-anchor:middle;fill:#241516;fill-opacity:1;stroke:#000000;stroke-width:0.31955233;stroke-miterlimit:4;stroke-dasharray:none;stroke-opacity:1;">संपत्ति </flowPara></flowRoot>    <flowRoot
       xml:space="preserve"
       id="flowRoot4325-9"
       style="font-style:normal;font-variant:normal;font-weight:normal;font-stretch:normal;line-height:0.01%;font-family:Arial;-inkscape-font-specification:Arial;letter-spacing:0px;word-spacing:0px;opacity:0.92000002;fill:#241516;fill-opacity:1;stroke:#000000;stroke-width:0.23340879;stroke-linecap:butt;stroke-linejoin:miter;stroke-miterlimit:4;stroke-dasharray:none;stroke-opacity:1;filter:url(#filter4402)"
       transform="matrix(1.5990307,-0.17403521,0.33862035,1.7632557,-1763.2572,-2387.8435)"><flowRegion
         id="flowRegion4327-0"><rect
           id="rect4329-16"
           width="131.93344"
           height="14.722872"
           x="841.07574"
           y="1755.9342"
           style="fill:#241516;fill-opacity:1;stroke:#000000;stroke-width:0.23340879;stroke-miterlimit:4;stroke-dasharray:none;stroke-opacity:1" /></flowRegion><flowPara
         id="flowPara4335-0"
         style="font-style:normal;font-variant:normal;font-weight:normal;font-stretch:normal;font-size:14.73540348px;line-height:1.25;font-family:Fondamento;-inkscape-font-specification:Fondamento;text-align:center;text-anchor:middle;fill:#241516;fill-opacity:1;stroke:#000000;stroke-width:0.23340879;stroke-miterlimit:4;stroke-dasharray:none;stroke-opacity:1"> डायन की</flowPara></flowRoot>    <text
       xml:space="preserve"
       style="font-style:normal;font-variant:normal;font-weight:normal;font-stretch:normal;font-size:53.75px;line-height:125%;font-family:Sahadeva;-inkscape-font-specification:'Sahadeva, Normal';text-align:start;letter-spacing:0px;word-spacing:0px;writing-mode:lr-tb;text-anchor:start;fill:#000000;fill-opacity:1;stroke:none;stroke-width:1px;stroke-linecap:butt;stroke-linejoin:miter;stroke-opacity:1"
       x="248.75"
       y="687.5"
       id="text4170"
       sodipodi:linespacing="125%"><tspan
         sodipodi:role="line"
         id="tspan4172"
         x="248.75"
         y="687.5"></tspan></text>
    <text
       xml:space="preserve"
       style="font-style:normal;font-variant:normal;font-weight:normal;font-stretch:normal;font-size:37.5px;line-height:125%;font-family:Sahadeva;-inkscape-font-specification:'Sahadeva, Normal';text-align:start;letter-spacing:0px;word-spacing:0px;writing-mode:lr-tb;text-anchor:start;fill:#000000;fill-opacity:1;stroke:none;stroke-width:1px;stroke-linecap:butt;stroke-linejoin:miter;stroke-opacity:1"
       x="252.5"
       y="698.75"
       id="text4174"
       sodipodi:linespacing="125%"><tspan
         sodipodi:role="line"
         id="tspan4176"
         x="252.5"
         y="698.75" /></text>
    <text
       xml:space="preserve"
       style="font-style:normal;font-variant:normal;font-weight:normal;font-stretch:normal;font-size:53.75px;line-height:125%;font-family:Sahadeva;-inkscape-font-specification:'Sahadeva, Normal';text-align:start;letter-spacing:0px;word-spacing:0px;writing-mode:lr-tb;text-anchor:start;fill:#000000;fill-opacity:1;stroke:none;stroke-width:1px;stroke-linecap:butt;stroke-linejoin:miter;stroke-opacity:1"
       x="251.25"
       y="685"
       id="text4178"
       sodipodi:linespacing="125%"><tspan
         sodipodi:role="line"
         id="tspan4180"
         x="251.25"
         y="685" /></text>
    <flowRoot
       xml:space="preserve"
       id="flowRoot4184"
       style="font-style:normal;font-variant:normal;font-weight:normal;font-stretch:normal;font-size:53.75px;line-height:125%;font-family:Sahadeva;-inkscape-font-specification:'Sahadeva, Normal';text-align:start;letter-spacing:0px;word-spacing:0px;writing-mode:lr-tb;text-anchor:start;fill:#000000;fill-opacity:1;stroke:none;stroke-width:1px;stroke-linecap:butt;stroke-linejoin:miter;stroke-opacity:1"><flowRegion
         id="flowRegion4186"><rect
           id="rect4188"
           width="51.086956"
           height="73.91304"
           x="216.30435"
           y="616.08698" /></flowRegion><flowPara
         id="flowPara4190">vssg</flowPara></flowRoot>  </g>
</svg>
