<?xml version="1.0" encoding="UTF-8" standalone="no"?>
<!-- Created with Inkscape (http://www.inkscape.org/) -->

<svg
   xmlns:dc="http://purl.org/dc/elements/1.1/"
   xmlns:cc="http://creativecommons.org/ns#"
   xmlns:rdf="http://www.w3.org/1999/02/22-rdf-syntax-ns#"
   xmlns:svg="http://www.w3.org/2000/svg"
   xmlns="http://www.w3.org/2000/svg"
   xmlns:xlink="http://www.w3.org/1999/xlink"
   xmlns:sodipodi="http://sodipodi.sourceforge.net/DTD/sodipodi-0.dtd"
   xmlns:inkscape="http://www.inkscape.org/namespaces/inkscape"
   id="svg2"
   version="1.1"
   inkscape:version="0.91 r13725"
   width="2481"
   height="3503"
   sodipodi:docname="E02P05.svg">
  <sodipodi:namedview
     pagecolor="#ffffff"
     bordercolor="#666666"
     inkscape:pageopacity="0"
     inkscape:pageshadow="2"
     inkscape:window-width="1813"
     inkscape:window-height="898"
     id="namedview70"
     showgrid="false"
     inkscape:zoom="0.49301579"
     inkscape:cx="1197.7528"
     inkscape:cy="599.39719"
     inkscape:current-layer="layer1"
     inkscape:window-x="0"
     inkscape:window-y="24"
     inkscape:window-maximized="0" />
  <metadata
     id="metadata8">
    <rdf:RDF>
      <cc:Work
         rdf:about="">
        <dc:format>image/svg+xml</dc:format>
        <dc:type
           rdf:resource="http://purl.org/dc/dcmitype/StillImage" />
        <dc:title />
      </cc:Work>
    </rdf:RDF>
  </metadata>
  <defs
     id="defs6" />
  <sodipodi:namedview
     pagecolor="#ffffff"
     bordercolor="#666666"
     borderopacity="1"
     objecttolerance="10"
     gridtolerance="10"
     guidetolerance="10"
     inkscape:pageopacity="0"
     inkscape:pageshadow="2"
     inkscape:window-width="1920"
     inkscape:window-height="1025"
     id="namedview4"
     showgrid="false"
     inkscape:zoom="0.25606623"
     inkscape:cx="1240.5"
     inkscape:cy="1751.5"
     inkscape:window-x="1920"
     inkscape:window-y="26"
     inkscape:window-maximized="1"
     inkscape:current-layer="layer1" />
  <g
     inkscape:groupmode="layer"
     id="layer2"
     inkscape:label="artwork"
     sodipodi:insensitive="true">
    <image
       sodipodi:absref="/home/aditya/Desktop/pepper/hi/ep02/../../lang (2)/de/./../gfx_Pepper-and-Carrot_by-David-Revoy_E02P05.png"
       xlink:href="../../lang (2)/de/./../gfx_Pepper-and-Carrot_by-David-Revoy_E02P05.png"
       width="2481"
       height="3503"
       id="image10"
       x="-1.6728083e-06"
       y="0" />
  </g>
  <g
     inkscape:groupmode="layer"
     id="layer1"
     inkscape:label="text"
     style="opacity:1">
    <flowRoot
       xml:space="preserve"
       id="flowRoot4052-0-1-3-3-0-5"
       style="color:#000000;font-style:normal;font-variant:normal;font-weight:normal;font-stretch:normal;line-height:0.01%;font-family:Arial;-inkscape-font-specification:Arial;letter-spacing:0px;word-spacing:0px;display:inline;overflow:visible;visibility:visible;fill:#ff0145;fill-opacity:1;fill-rule:nonzero;stroke:#ff0145;stroke-width:2.06473064;stroke-miterlimit:4;stroke-dasharray:none;stroke-opacity:1;marker:none;enable-background:accumulate"
       transform="matrix(1.2892785,-0.15934085,0.39943039,1.0914013,821.22873,678.83596)"><flowRegion
         id="flowRegion4054-7-0-2-2-5-5"
         style="stroke-width:4.93332052"><rect
           id="rect4056-8-2-5-7-9-8"
           width="130.98526"
           height="72.916138"
           x="92.642677"
           y="425.30325"
           style="color:#000000;font-size:72px;display:inline;overflow:visible;visibility:visible;fill:#ff0145;fill-opacity:1;fill-rule:nonzero;stroke:#ff0145;stroke-width:2.06473064;stroke-miterlimit:4;stroke-dasharray:none;stroke-opacity:1;marker:none;enable-background:accumulate" /></flowRegion><flowPara
         style="color:#000000;font-style:normal;font-variant:normal;font-weight:normal;font-stretch:normal;font-size:64px;line-height:1.25;font-family:Lavi;-inkscape-font-specification:Lavi;text-align:center;text-anchor:middle;display:inline;overflow:visible;visibility:visible;fill:#ff0145;fill-opacity:1;fill-rule:nonzero;stroke:#ff0145;stroke-width:2.06473064;stroke-miterlimit:4;stroke-dasharray:none;stroke-opacity:1;marker:none;enable-background:accumulate"
         id="flowPara4058-8-1-3-0-6-1" /></flowRoot>    <flowRoot
       xml:space="preserve"
       id="flowRoot4052-0-1-3-3-0-5-1"
       style="color:#000000;font-style:normal;font-variant:normal;font-weight:normal;font-stretch:normal;line-height:0.01%;font-family:Arial;-inkscape-font-specification:Arial;letter-spacing:0px;word-spacing:0px;display:inline;overflow:visible;visibility:visible;fill:#ff0145;fill-opacity:1;fill-rule:nonzero;stroke:#ff0145;stroke-width:2.95391536;stroke-miterlimit:4;stroke-dasharray:none;stroke-opacity:1;marker:none;enable-background:accumulate"
       transform="matrix(0.76505307,-0.1311937,0.2370205,0.89860811,1041.7616,937.26696)"><flowRegion
         id="flowRegion4054-7-0-2-2-5-5-9"
         style="stroke-width:7.05787563"><rect
           id="rect4056-8-2-5-7-9-8-9"
           width="130.98526"
           height="72.916138"
           x="92.642677"
           y="425.30325"
           style="color:#000000;font-size:72px;display:inline;overflow:visible;visibility:visible;fill:#ff0145;fill-opacity:1;fill-rule:nonzero;stroke:#ff0145;stroke-width:2.95391536;stroke-miterlimit:4;stroke-dasharray:none;stroke-opacity:1;marker:none;enable-background:accumulate" /></flowRegion><flowPara
         style="color:#000000;font-style:normal;font-variant:normal;font-weight:normal;font-stretch:normal;font-size:64px;line-height:1.25;font-family:Lavi;-inkscape-font-specification:Lavi;text-align:center;text-anchor:middle;display:inline;overflow:visible;visibility:visible;fill:#ff0145;fill-opacity:1;fill-rule:nonzero;stroke:#ff0145;stroke-width:2.95391536;stroke-miterlimit:4;stroke-dasharray:none;stroke-opacity:1;marker:none;enable-background:accumulate"
         id="flowPara4058-8-1-3-0-6-1-3">ब्लुप</flowPara></flowRoot>    <flowRoot
       xml:space="preserve"
       id="flowRoot4052-0-1-3-3-0-5-5"
       style="color:#000000;font-style:normal;font-variant:normal;font-weight:normal;font-stretch:normal;line-height:0.01%;font-family:Arial;-inkscape-font-specification:Arial;letter-spacing:0px;word-spacing:0px;display:inline;overflow:visible;visibility:visible;fill:#ff3c70;fill-opacity:1;fill-rule:nonzero;stroke:#ff3c70;stroke-width:2.06473064;stroke-miterlimit:4;stroke-dasharray:none;stroke-opacity:1;marker:none;enable-background:accumulate"
       transform="matrix(1.2892785,-0.15934085,0.39943039,1.0914013,841.3037,764.70332)"><flowRegion
         id="flowRegion4054-7-0-2-2-5-5-2"
         style="stroke-width:4.93332052"><rect
           id="rect4056-8-2-5-7-9-8-92"
           width="130.98526"
           height="72.916138"
           x="92.642677"
           y="425.30325"
           style="color:#000000;font-size:72px;display:inline;overflow:visible;visibility:visible;fill:#ff3c70;fill-opacity:1;fill-rule:nonzero;stroke:#ff3c70;stroke-width:2.06473064;stroke-miterlimit:4;stroke-dasharray:none;stroke-opacity:1;marker:none;enable-background:accumulate" /></flowRegion><flowPara
         style="color:#000000;font-style:normal;font-variant:normal;font-weight:normal;font-stretch:normal;font-size:51.53570938px;line-height:1.25;font-family:Lavi;-inkscape-font-specification:Lavi;text-align:center;text-anchor:middle;display:inline;overflow:visible;visibility:visible;fill:#ff3c70;fill-opacity:1;fill-rule:nonzero;stroke:#ff3c70;stroke-width:2.06473064;stroke-miterlimit:4;stroke-dasharray:none;stroke-opacity:1;marker:none;enable-background:accumulate"
         id="flowPara4058-8-1-3-0-6-1-0">ब्लुप</flowPara></flowRoot>    <flowRoot
       xml:space="preserve"
       id="flowRoot4052-0-1-3-3-0-5-1-5"
       style="color:#000000;font-style:normal;font-variant:normal;font-weight:normal;font-stretch:normal;line-height:0.01%;font-family:Arial;-inkscape-font-specification:Arial;letter-spacing:0px;word-spacing:0px;display:inline;overflow:visible;visibility:visible;fill:#ff3c70;fill-opacity:1;fill-rule:nonzero;stroke:#ff3c70;stroke-width:2.95391536;stroke-miterlimit:4;stroke-dasharray:none;stroke-opacity:1;marker:none;enable-background:accumulate"
       transform="matrix(0.76505307,-0.1311937,0.2370205,0.89860811,1082.6617,831.62996)"><flowRegion
         id="flowRegion4054-7-0-2-2-5-5-9-7"
         style="stroke-width:7.05787563"><rect
           id="rect4056-8-2-5-7-9-8-9-1"
           width="130.98526"
           height="72.916138"
           x="92.642677"
           y="425.30325"
           style="color:#000000;font-size:72px;display:inline;overflow:visible;visibility:visible;fill:#ff3c70;fill-opacity:1;fill-rule:nonzero;stroke:#ff3c70;stroke-width:2.95391536;stroke-miterlimit:4;stroke-dasharray:none;stroke-opacity:1;marker:none;enable-background:accumulate" /></flowRegion><flowPara
         style="color:#000000;font-style:normal;font-variant:normal;font-weight:normal;font-stretch:normal;font-size:64px;line-height:1.25;font-family:Lavi;-inkscape-font-specification:Lavi;text-align:center;text-anchor:middle;display:inline;overflow:visible;visibility:visible;fill:#ff3c70;fill-opacity:1;fill-rule:nonzero;stroke:#ff3c70;stroke-width:2.95391536;stroke-miterlimit:4;stroke-dasharray:none;stroke-opacity:1;marker:none;enable-background:accumulate"
         id="flowPara4058-8-1-3-0-6-1-3-0" /></flowRoot>    <flowRoot
       xml:space="preserve"
       id="flowRoot4052-0-1-3-3-0-5-1-5-3"
       style="color:#000000;font-style:normal;font-variant:normal;font-weight:normal;font-stretch:normal;line-height:0.01%;font-family:Arial;-inkscape-font-specification:Arial;letter-spacing:0px;word-spacing:0px;display:inline;overflow:visible;visibility:visible;fill:#fe801c;fill-opacity:1;fill-rule:nonzero;stroke:#fe801c;stroke-width:2.39221978;stroke-miterlimit:4;stroke-dasharray:none;stroke-opacity:1;marker:none;enable-background:accumulate"
       transform="matrix(0.97088706,0.07970855,-0.06432027,1.1232138,1095.7512,2421.2147)"><flowRegion
         id="flowRegion4054-7-0-2-2-5-5-9-7-0"
         style="stroke-width:5.71580029"><rect
           id="rect4056-8-2-5-7-9-8-9-1-9"
           width="163.24759"
           height="86.879112"
           x="92.642677"
           y="425.30325"
           style="color:#000000;font-size:72px;display:inline;overflow:visible;visibility:visible;fill:#fe801c;fill-opacity:1;fill-rule:nonzero;stroke:#fe801c;stroke-width:2.39221978;stroke-miterlimit:4;stroke-dasharray:none;stroke-opacity:1;marker:none;enable-background:accumulate" /></flowRegion><flowPara
         style="color:#000000;font-style:normal;font-variant:normal;font-weight:normal;font-stretch:normal;font-size:64px;line-height:1.25;font-family:Lavi;-inkscape-font-specification:Lavi;text-align:center;text-anchor:middle;display:inline;overflow:visible;visibility:visible;fill:#fe801c;fill-opacity:1;fill-rule:nonzero;stroke:#fe801c;stroke-width:2.39221978;stroke-miterlimit:4;stroke-dasharray:none;stroke-opacity:1;marker:none;enable-background:accumulate"
         id="flowPara4058-8-1-3-0-6-1-3-0-3">लुप</flowPara></flowRoot>    <flowRoot
       xml:space="preserve"
       id="flowRoot4052-0-1-3-3-0-5-1-5-3-2-4"
       style="color:#000000;font-style:normal;font-variant:normal;font-weight:normal;font-stretch:normal;line-height:0.01%;font-family:Arial;-inkscape-font-specification:Arial;letter-spacing:0px;word-spacing:0px;display:inline;overflow:visible;visibility:visible;fill:#fe801c;fill-opacity:1;fill-rule:nonzero;stroke:#fe801c;stroke-width:2.39221978;stroke-miterlimit:4;stroke-dasharray:none;stroke-opacity:1;marker:none;enable-background:accumulate"
       transform="matrix(0.97088706,-0.72315017,-0.06432027,1.1764023,997.74406,2552.248)"
       inkscape:transform-center-x="27.472998"
       inkscape:transform-center-y="5.9336035"><flowRegion
         id="flowRegion4054-7-0-2-2-5-5-9-7-0-7-9"
         style="stroke-width:5.71580029"><rect
           id="rect4056-8-2-5-7-9-8-9-1-9-0-0"
           width="148.16986"
           height="80.03138"
           x="92.642677"
           y="425.30325"
           style="color:#000000;font-size:72px;display:inline;overflow:visible;visibility:visible;fill:#fe801c;fill-opacity:1;fill-rule:nonzero;stroke:#fe801c;stroke-width:2.39221978;stroke-miterlimit:4;stroke-dasharray:none;stroke-opacity:1;marker:none;enable-background:accumulate" /></flowRegion><flowPara
         style="color:#000000;font-style:normal;font-variant:normal;font-weight:normal;font-stretch:normal;font-size:64px;line-height:1.25;font-family:Lavi;-inkscape-font-specification:Lavi;text-align:center;text-anchor:middle;display:inline;overflow:visible;visibility:visible;fill:#fe801c;fill-opacity:1;fill-rule:nonzero;stroke:#fe801c;stroke-width:2.39221978;stroke-miterlimit:4;stroke-dasharray:none;stroke-opacity:1;marker:none;enable-background:accumulate"
         id="flowPara4058-8-1-3-0-6-1-3-0-3-3-1" /></flowRoot>    <flowRoot
       xml:space="preserve"
       id="flowRoot4052-0-1-3-3-0-5-1-5-3-2"
       style="color:#000000;font-style:normal;font-variant:normal;font-weight:normal;font-stretch:normal;line-height:0.01%;font-family:Arial;-inkscape-font-specification:Arial;letter-spacing:0px;word-spacing:0px;display:inline;overflow:visible;visibility:visible;fill:#fe801c;fill-opacity:1;fill-rule:nonzero;stroke:#fe801c;stroke-width:2.39221978;stroke-miterlimit:4;stroke-dasharray:none;stroke-opacity:1;marker:none;enable-background:accumulate"
       transform="matrix(0.97088706,-0.4256527,-0.06432027,1.1566935,1038.1642,2495.463)"><flowRegion
         id="flowRegion4054-7-0-2-2-5-5-9-7-0-7"
         style="stroke-width:5.71580029"><rect
           id="rect4056-8-2-5-7-9-8-9-1-9-0"
           width="130.98526"
           height="72.916138"
           x="92.642677"
           y="425.30325"
           style="color:#000000;font-size:72px;display:inline;overflow:visible;visibility:visible;fill:#fe801c;fill-opacity:1;fill-rule:nonzero;stroke:#fe801c;stroke-width:2.39221978;stroke-miterlimit:4;stroke-dasharray:none;stroke-opacity:1;marker:none;enable-background:accumulate" /></flowRegion><flowPara
         style="color:#000000;font-style:normal;font-variant:normal;font-weight:normal;font-stretch:normal;font-size:64px;line-height:1.25;font-family:Lavi;-inkscape-font-specification:Lavi;text-align:center;text-anchor:middle;display:inline;overflow:visible;visibility:visible;fill:#fe801c;fill-opacity:1;fill-rule:nonzero;stroke:#fe801c;stroke-width:2.39221978;stroke-miterlimit:4;stroke-dasharray:none;stroke-opacity:1;marker:none;enable-background:accumulate"
         id="flowPara4058-8-1-3-0-6-1-3-0-3-3">स्प</flowPara></flowRoot>    <flowRoot
       xml:space="preserve"
       id="flowRoot4052-0-1-3-3-0-5-1-5-3-7"
       style="color:#000000;font-style:normal;font-variant:normal;font-weight:normal;font-stretch:normal;line-height:0.01%;font-family:Arial;-inkscape-font-specification:Arial;letter-spacing:0px;word-spacing:0px;display:inline;overflow:visible;visibility:visible;fill:#ec6870;fill-opacity:1;fill-rule:nonzero;stroke:#ec6870;stroke-width:2.39221978;stroke-miterlimit:4;stroke-dasharray:none;stroke-opacity:1;marker:none;enable-background:accumulate"
       transform="matrix(0.97088706,-0.46184952,-0.06432027,1.1590914,1335.3405,2568.7257)"><flowRegion
         id="flowRegion4054-7-0-2-2-5-5-9-7-0-3"
         style="stroke-width:5.71580029"><rect
           id="rect4056-8-2-5-7-9-8-9-1-9-4"
           width="130.98526"
           height="72.916138"
           x="92.642677"
           y="425.30325"
           style="color:#000000;font-size:72px;display:inline;overflow:visible;visibility:visible;fill:#ec6870;fill-opacity:1;fill-rule:nonzero;stroke:#ec6870;stroke-width:2.39221978;stroke-miterlimit:4;stroke-dasharray:none;stroke-opacity:1;marker:none;enable-background:accumulate" /></flowRegion><flowPara
         style="color:#000000;font-style:normal;font-variant:normal;font-weight:normal;font-stretch:normal;font-size:64px;line-height:1.25;font-family:Lavi;-inkscape-font-specification:Lavi;text-align:center;text-anchor:middle;display:inline;overflow:visible;visibility:visible;fill:#ec6870;fill-opacity:1;fill-rule:nonzero;stroke:#ec6870;stroke-width:2.39221978;stroke-miterlimit:4;stroke-dasharray:none;stroke-opacity:1;marker:none;enable-background:accumulate"
         id="flowPara4058-8-1-3-0-6-1-3-0-3-6">लुप</flowPara></flowRoot>    <flowRoot
       xml:space="preserve"
       id="flowRoot4052-0-1-3-3-0-5-1-5-3-2-2"
       style="color:#000000;font-style:normal;font-variant:normal;font-weight:normal;font-stretch:normal;line-height:0.01%;font-family:Arial;-inkscape-font-specification:Arial;letter-spacing:0px;word-spacing:0px;display:inline;overflow:visible;visibility:visible;fill:#ec6870;fill-opacity:1;fill-rule:nonzero;stroke:#ec6870;stroke-width:2.39221978;stroke-miterlimit:4;stroke-dasharray:none;stroke-opacity:1;marker:none;enable-background:accumulate"
       transform="matrix(0.97088706,0.30675489,-0.06432027,1.1081722,1262.4825,2475.887)"><flowRegion
         id="flowRegion4054-7-0-2-2-5-5-9-7-0-7-7"
         style="stroke-width:5.71580029"><rect
           id="rect4056-8-2-5-7-9-8-9-1-9-0-3"
           width="130.98526"
           height="72.916138"
           x="92.642677"
           y="425.30325"
           style="color:#000000;font-size:72px;display:inline;overflow:visible;visibility:visible;fill:#ec6870;fill-opacity:1;fill-rule:nonzero;stroke:#ec6870;stroke-width:2.39221978;stroke-miterlimit:4;stroke-dasharray:none;stroke-opacity:1;marker:none;enable-background:accumulate" /></flowRegion><flowPara
         style="color:#000000;font-style:normal;font-variant:normal;font-weight:normal;font-stretch:normal;font-size:64px;line-height:1.25;font-family:Lavi;-inkscape-font-specification:Lavi;text-align:center;text-anchor:middle;display:inline;overflow:visible;visibility:visible;fill:#ec6870;fill-opacity:1;fill-rule:nonzero;stroke:#ec6870;stroke-width:2.39221978;stroke-miterlimit:4;stroke-dasharray:none;stroke-opacity:1;marker:none;enable-background:accumulate"
         id="flowPara4058-8-1-3-0-6-1-3-0-3-3-6">स्प</flowPara></flowRoot>    <flowRoot
       xml:space="preserve"
       id="flowRoot4052-0-1-3-3-0-5-1-5-3-4"
       style="color:#000000;font-style:normal;font-variant:normal;font-weight:normal;font-stretch:normal;line-height:0.01%;font-family:Arial;-inkscape-font-specification:Arial;letter-spacing:0px;word-spacing:0px;display:inline;overflow:visible;visibility:visible;fill:#4ca4f5;fill-opacity:1;fill-rule:nonzero;stroke:#4ca4f5;stroke-width:3.00470686;stroke-miterlimit:4;stroke-dasharray:none;stroke-opacity:1;marker:none;enable-background:accumulate"
       transform="matrix(0.8547277,0.05739099,-0.05662483,0.80872584,1552.8227,2588.2817)"><flowRegion
         id="flowRegion4054-7-0-2-2-5-5-9-7-0-2"
         style="stroke-width:7.17923307"><rect
           id="rect4056-8-2-5-7-9-8-9-1-9-8"
           width="130.98526"
           height="72.916138"
           x="92.642677"
           y="425.30325"
           style="color:#000000;font-size:72px;display:inline;overflow:visible;visibility:visible;fill:#4ca4f5;fill-opacity:1;fill-rule:nonzero;stroke:#4ca4f5;stroke-width:3.00470686;stroke-miterlimit:4;stroke-dasharray:none;stroke-opacity:1;marker:none;enable-background:accumulate" /></flowRegion><flowPara
         style="color:#000000;font-style:normal;font-variant:normal;font-weight:normal;font-stretch:normal;font-size:64px;line-height:1.25;font-family:Lavi;-inkscape-font-specification:Lavi;text-align:center;text-anchor:middle;display:inline;overflow:visible;visibility:visible;fill:#4ca4f5;fill-opacity:1;fill-rule:nonzero;stroke:#4ca4f5;stroke-width:3.00470686;stroke-miterlimit:4;stroke-dasharray:none;stroke-opacity:1;marker:none;enable-background:accumulate"
         id="flowPara4058-8-1-3-0-6-1-3-0-3-0">लुप</flowPara></flowRoot>    <flowRoot
       xml:space="preserve"
       id="flowRoot4052-0-1-3-3-0-5-1-5-3-2-3"
       style="color:#000000;font-style:normal;font-variant:normal;font-weight:normal;font-stretch:normal;line-height:0.01%;font-family:Arial;-inkscape-font-specification:Arial;letter-spacing:0px;word-spacing:0px;display:inline;overflow:visible;visibility:visible;fill:#4ca4f5;fill-opacity:1;fill-rule:nonzero;stroke:#4ca4f5;stroke-width:3.00470686;stroke-miterlimit:4;stroke-dasharray:none;stroke-opacity:1;marker:none;enable-background:accumulate"
       transform="matrix(0.8547277,-0.30647446,-0.05662483,0.83283157,1484.1132,2645.716)"><flowRegion
         id="flowRegion4054-7-0-2-2-5-5-9-7-0-7-75"
         style="stroke-width:7.17923307"><rect
           id="rect4056-8-2-5-7-9-8-9-1-9-0-6"
           width="130.98526"
           height="72.916138"
           x="92.642677"
           y="425.30325"
           style="color:#000000;font-size:72px;display:inline;overflow:visible;visibility:visible;fill:#4ca4f5;fill-opacity:1;fill-rule:nonzero;stroke:#4ca4f5;stroke-width:3.00470686;stroke-miterlimit:4;stroke-dasharray:none;stroke-opacity:1;marker:none;enable-background:accumulate" /></flowRegion><flowPara
         style="color:#000000;font-style:normal;font-variant:normal;font-weight:normal;font-stretch:normal;font-size:64px;line-height:1.25;font-family:Lavi;-inkscape-font-specification:Lavi;text-align:center;text-anchor:middle;display:inline;overflow:visible;visibility:visible;fill:#4ca4f5;fill-opacity:1;fill-rule:nonzero;stroke:#4ca4f5;stroke-width:3.00470686;stroke-miterlimit:4;stroke-dasharray:none;stroke-opacity:1;marker:none;enable-background:accumulate"
         id="flowPara4058-8-1-3-0-6-1-3-0-3-3-0">स्प</flowPara></flowRoot>    <flowRoot
       xml:space="preserve"
       id="flowRoot4052-0-1-3-3-0-5-1-5-3-2-4-5"
       style="color:#000000;font-style:normal;font-variant:normal;font-weight:normal;font-stretch:normal;line-height:0.01%;font-family:Arial;-inkscape-font-specification:Arial;letter-spacing:0px;word-spacing:0px;display:inline;overflow:visible;visibility:visible;fill:#4ca4f5;fill-opacity:1;fill-rule:nonzero;stroke:#4ca4f5;stroke-width:3.00470686;stroke-miterlimit:4;stroke-dasharray:none;stroke-opacity:1;marker:none;enable-background:accumulate"
       transform="matrix(0.8547277,-0.5206758,-0.05662483,0.84702217,1448.529,2686.602)"
       inkscape:transform-center-x="24.18608"
       inkscape:transform-center-y="4.2721227"><flowRegion
         id="flowRegion4054-7-0-2-2-5-5-9-7-0-7-9-2"
         style="stroke-width:7.17923307"><rect
           id="rect4056-8-2-5-7-9-8-9-1-9-0-0-2"
           width="130.98526"
           height="72.916138"
           x="92.642677"
           y="425.30325"
           style="color:#000000;font-size:72px;display:inline;overflow:visible;visibility:visible;fill:#4ca4f5;fill-opacity:1;fill-rule:nonzero;stroke:#4ca4f5;stroke-width:3.00470686;stroke-miterlimit:4;stroke-dasharray:none;stroke-opacity:1;marker:none;enable-background:accumulate" /></flowRegion><flowPara
         style="color:#000000;font-style:normal;font-variant:normal;font-weight:normal;font-stretch:normal;font-size:64px;line-height:1.25;font-family:Lavi;-inkscape-font-specification:Lavi;text-align:center;text-anchor:middle;display:inline;overflow:visible;visibility:visible;fill:#4ca4f5;fill-opacity:1;fill-rule:nonzero;stroke:#4ca4f5;stroke-width:3.00470686;stroke-miterlimit:4;stroke-dasharray:none;stroke-opacity:1;marker:none;enable-background:accumulate"
         id="flowPara4058-8-1-3-0-6-1-3-0-3-3-1-4" /></flowRoot>  </g>
</svg>
