<?xml version="1.0" encoding="UTF-8" standalone="no"?>
<!-- Created with Inkscape (http://www.inkscape.org/) -->

<svg
   xmlns:dc="http://purl.org/dc/elements/1.1/"
   xmlns:cc="http://creativecommons.org/ns#"
   xmlns:rdf="http://www.w3.org/1999/02/22-rdf-syntax-ns#"
   xmlns:svg="http://www.w3.org/2000/svg"
   xmlns="http://www.w3.org/2000/svg"
   xmlns:xlink="http://www.w3.org/1999/xlink"
   xmlns:sodipodi="http://sodipodi.sourceforge.net/DTD/sodipodi-0.dtd"
   xmlns:inkscape="http://www.inkscape.org/namespaces/inkscape"
   id="svg2"
   version="1.1"
   inkscape:version="0.92.3 (2405546, 2018-03-11)"
   width="2481"
   height="3503"
   sodipodi:docname="E16P02.svg">
  <sodipodi:namedview
     pagecolor="#ffffff"
     bordercolor="#666666"
     inkscape:pageopacity="0"
     inkscape:pageshadow="2"
     inkscape:window-width="1813"
     inkscape:window-height="955"
     id="namedview70"
     showgrid="false"
     inkscape:zoom="0.4"
     inkscape:cx="1471.5976"
     inkscape:cy="1002.7107"
     inkscape:current-layer="layer3"
     inkscape:window-x="64"
     inkscape:window-y="0"
     inkscape:window-maximized="0" />
  <metadata
     id="metadata8">
    <rdf:RDF>
      <cc:Work
         rdf:about="">
        <dc:format>image/svg+xml</dc:format>
        <dc:type
           rdf:resource="http://purl.org/dc/dcmitype/StillImage" />
        <dc:title />
      </cc:Work>
    </rdf:RDF>
  </metadata>
  <defs
     id="defs6" />
  <sodipodi:namedview
     pagecolor="#ffffff"
     bordercolor="#666666"
     borderopacity="1"
     objecttolerance="10"
     gridtolerance="10"
     guidetolerance="10"
     inkscape:pageopacity="0"
     inkscape:pageshadow="2"
     inkscape:window-width="1920"
     inkscape:window-height="1025"
     id="namedview4"
     showgrid="false"
     inkscape:zoom="0.46"
     inkscape:cx="1607.0828"
     inkscape:cy="1840.0765"
     inkscape:window-x="0"
     inkscape:window-y="26"
     inkscape:window-maximized="1"
     inkscape:current-layer="layer1" />
  <g
     inkscape:groupmode="layer"
     id="layer2"
     inkscape:label="artwork"
     sodipodi:insensitive="true">
    <image
       sodipodi:absref="/home/fici/Desktop/P&amp;C/all/sl/../gfx_Pepper-and-Carrot_by-David-Revoy_E16P02.png"
       xlink:href="../gfx_Pepper-and-Carrot_by-David-Revoy_E16P02.png"
       y="0"
       x="0"
       id="image10"
       height="3503"
       width="2481" />
  </g>
  <g
     inkscape:groupmode="layer"
     id="layer3"
     inkscape:label="speechbubbles">
    <path
       style="fill:#ffffff;fill-rule:evenodd;stroke:none;stroke-width:1px;stroke-linecap:butt;stroke-linejoin:miter;stroke-opacity:1"
       d="m 159.47183,1204.4941 c 8.4673,-30.5523 31.2689,-53.7332 56.0849,-69.2079 11.8098,-7.471 25.3086,-12.9459 39.1219,-11.5058 13.7227,0.8605 27.1264,5.9979 41.0009,4.2135 16.871,-0.5894 34.0382,-3.1608 50.7155,0.5135 14.8255,4.0092 30.1,6.0856 45.3989,6.206 10.7929,-2.5448 20.6691,4.2379 30.3078,8.2947 8.6531,4.3821 17.4915,8.9796 24.7596,15.758 6.6961,9.5154 14.7138,17.7936 21.4881,27.2243 4.4326,5.1557 4.0067,12.2771 3.8025,18.8678 -0.5757,13.4964 -1.5506,27.2058 -5.1691,40.2084 -2.1654,8.2549 -10.1691,10.9868 -16.319,14.7801 -14.5516,8.0076 -30.0035,14.08 -43.8912,23.5033 -13.7587,4.8251 -28.3804,2.5682 -42.4906,1.839 -11.8234,-1.4363 -23.7171,-3.4392 -35.6421,-1.7689 -15.1777,1.2223 -30.3093,4.3872 -45.5413,3.9818 -19.0815,-2.7818 -37.3564,-9.6313 -55.848,-15.1258 -16.5903,-4.8429 -31.711,-13.9495 -46.2197,-23.6913 -7.75,-5.532 -15.9543,-11.9621 -18.6894,-22.1569 -2.2421,-7.02 -2.7704,-14.5367 -2.8697,-21.9338 z"
       id="path4365"
       inkscape:connector-curvature="0" />
    <path
       style="fill:#ffffff;stroke:none"
       d="m 526.05317,1332.6787 c -30.94804,-5.9742 -33.65755,-15.3739 -35.85896,-26.3529 -2.20164,-10.979 -2.97755,-21.2157 -9.14413,-25.0411 -6.16635,-3.8252 -15.85979,-4.8779 -23.17719,-4.6934 -7.31743,0.1844 -5.29357,-9.0401 -8.28411,-16.1281 -2.99067,-7.0881 -31.76642,-37.2963 -31.76642,-37.2963 0,0 -1.64154,31.4089 0.94371,41.0513 2.58502,9.6423 3.48097,13.1815 5.57556,16.7304 2.09482,3.5489 8.54676,11.5174 16.06913,13.2832 7.52237,1.7658 15.47204,-0.2404 21.46624,-0.192 5.99426,0.048 8.9236,8.3554 12.37845,16.2997 3.45476,7.9444 7.26292,13.1493 20.83234,18.6149 11.63149,4.6851 30.96538,3.7243 30.96538,3.7243 z"
       id="path3023-2"
       inkscape:connector-curvature="0"
       sodipodi:nodetypes="csssscssssssc" />
    <path
       style="color:#000000;display:inline;overflow:visible;visibility:visible;fill:#ffffff;fill-opacity:1;fill-rule:nonzero;stroke:none;stroke-width:0.92975736px;marker:none;enable-background:accumulate"
       d="m 1431.7252,1394.7432 c -48.4592,-48.5069 -87.4224,-167.5278 -73.5768,-189.3558 13.8455,-21.828 39.676,-30.1373 105.4421,-30.1373 65.766,0 661.9252,-27.1128 729.4218,23.8193 67.4965,50.9321 40.2919,143.5289 -18.5514,202.9497 -58.8432,59.4207 -450.2502,47.2942 -450.2502,47.2942 0,0 -218.0661,7.2759 -292.4855,-54.5701 z"
       id="path3992"
       inkscape:connector-curvature="0"
       sodipodi:nodetypes="csssscc" />
    <path
       style="fill:#ffffff;stroke:none;stroke-width:0.98913205"
       d="m 1721.6006,1503.4909 c -2.5968,-35.9258 43.9607,-125.8626 271.0655,-119.0977 227.105,6.7647 298.1852,46.2818 304.8404,110.14 10.5281,101.0218 -108.9517,128.0183 -280.5137,135.5009 -176.8618,7.7139 -298.1372,-61.631 -295.3922,-126.5432 z"
       id="path3280-8"
       inkscape:connector-curvature="0"
       sodipodi:nodetypes="csssc" />
    <path
       style="color:#000000;display:inline;overflow:visible;visibility:visible;fill:#ffffff;fill-opacity:1;fill-rule:nonzero;stroke:none;stroke-width:1px;marker:none;enable-background:accumulate"
       d="m 1213.2246,1372.5064 c 14.9084,-51.0766 52.883,-44.2438 64.5637,-46.0841 11.6807,-1.8404 53.9918,-8.1545 63.5164,-50.4964 9.5248,-42.3419 55.0358,-58.7366 55.0358,-58.7366 l -12.8588,63.6398 c 0,0 -29.3117,41.4456 -55.8287,51.468 -26.517,10.0223 -67.3927,6.6745 -79.5816,14.2283 -12.1891,7.5536 -27.19,11.1141 -34.8468,25.981 z"
       id="path4018"
       inkscape:connector-curvature="0" />
    <path
       style="color:#000000;display:inline;overflow:visible;visibility:visible;fill:#ffffff;fill-opacity:1;fill-rule:nonzero;stroke:none;stroke-width:0.86881125px;marker:none;enable-background:accumulate"
       d="m 187.96119,237.75486 c 4.20396,-66.72416 44.54674,-106.26621 239.78959,-103.51652 161.38892,2.27291 240.30137,19.66284 232.83158,105.45005 -10.36894,119.08257 -146.87695,99.23324 -242.50452,106.24254 -62.81416,-1.5851 -228.09162,13.47194 -230.11665,-108.17607 z"
       id="path4546"
       inkscape:connector-curvature="0"
       sodipodi:nodetypes="csscc" />
    <path
       style="color:#000000;display:inline;overflow:visible;visibility:visible;fill:#ffffff;fill-opacity:1;fill-rule:nonzero;stroke:none;stroke-width:0.91561544px;marker:none;enable-background:accumulate"
       d="M 1074.5645,418.22097 C 1071.169,518.04158 1020.7501,596.88442 797.87739,591.73875 613.6496,587.48534 521.24043,544.21581 520.57131,415.31751 519.73649,254.49341 714.39635,275.47313 814.00282,275.43332 c 71.71801,2.70361 259.86218,-9.4207 260.56168,142.78765 z"
       id="path4546-3"
       inkscape:connector-curvature="0"
       sodipodi:nodetypes="csscc" />
    <path
       style="color:#000000;display:inline;overflow:visible;visibility:visible;fill:#ffffff;fill-opacity:1;fill-rule:nonzero;stroke:none;stroke-width:1px;marker:none;enable-background:accumulate"
       d="m 1212.2695,581.74978 c -67.2618,20.68446 -152.2854,0.78987 -192.165,-42.94991 -39.87945,-43.73978 14.3178,-40.84093 14.3178,-40.84093 0,0 77.3502,101.9849 177.8472,83.79084 z"
       id="path5002"
       inkscape:connector-curvature="0"
       sodipodi:nodetypes="cscc" />
    <path
       style="fill:#ffffff;fill-rule:evenodd;stroke:none;stroke-width:0.91532612px;stroke-linecap:butt;stroke-linejoin:miter;stroke-opacity:1"
       d="m 102.40031,2134.9244 20.9325,15.6126 5.13532,-20.2365 12.41324,6.1139 -7.44795,-70.7261 27.30915,65.1409 2.48265,-16.9387 11.17193,22.9655 32.38239,-11.6879 6.09868,-56.674 13.65456,47.9379 9.93061,-20.2556 7.01619,26.0078 c 0,0 1.67308,5.5142 14.08632,3.2458 12.41326,-2.2683 126.05219,7.6441 148.95899,25.8673 l 20.43048,10.2068 20.06185,-14.7962 -5.73524,24.5024 42.10232,-42.0798 -24.25239,54.565 15.93658,-9.9654 -7.75132,21.2601 c 0,0 3.75661,11.8489 7.48059,17.1758 35.99841,46.3693 53.47082,151.8144 59.85468,174.1904 l 27.30914,-3.8128 -18.61987,13.6309 c 8.1256,6.4855 37.33266,16.9068 98.96523,-10.4274 0,0 -57.03121,44.1781 -96.55074,39.8945 -8.50424,5.0544 34.97778,15.198 34.97778,15.198 l -47.36492,6.6184 -5.19435,47.354 34.75711,17.1189 -39.7224,-8.3881 33.51577,40.9556 -41.60892,-9.8826 -4.29206,25.8503 -6.83079,9.4742 c -14.33141,11.3637 -34.9694,36.4417 -54.15857,41.9834 0,4.191 20.78894,46.2904 20.78894,46.2904 l -46.23934,-27.7937 21.41285,33.7274 -50.02434,-28.5179 -12.77696,-0.3836 -7.44794,3.3168 c -38.48108,25.0537 -127.51242,10.695 -142.40832,7.5495 -1.24133,0.088 -16.13721,40.2498 -16.13721,40.2498 l -6.83781,-35.3458 -10.54075,14.2131 -6.18559,-9.5752 -45.40565,65.2652 15.85286,-77.2848 -32.00017,32.0453 4.77306,-43.7867 -24.857,31.5777 4.39019,-40.3251 -14.32079,4.699 z"
       id="path4603"
       inkscape:connector-curvature="0"
       sodipodi:nodetypes="cccccccccccccsscccccccccccccccccccccccccccccccccccccccccc" />
    <path
       style="color:#000000;display:inline;overflow:visible;visibility:visible;fill:#ffffff;fill-opacity:1;fill-rule:nonzero;stroke:none;stroke-width:1px;marker:none;enable-background:accumulate"
       d="m 911.57297,2905.1862 c 26.15941,-35.2543 82.16095,-65.5675 156.19513,-78.8643 74.0341,-13.2967 211.5557,-12.838 235.7905,-9.3658 24.2346,3.4721 157.3586,15.071 186.5886,34.2365 29.2299,19.1652 68.7814,42.8654 77.7025,67.9563 8.9214,25.0909 2.8452,86.0066 -23.7889,99.9521 -26.6342,13.9453 -148.5752,45.553 -220.0518,48.5351 -71.4766,2.9823 -237.9994,-6.3821 -285.5577,-14.1337 -47.55828,-7.7516 -97.95553,-17.8163 -113.43039,-45.1473 -15.47501,-27.331 -44.14549,-63.0881 -13.44794,-103.1689 z"
       id="path3533"
       inkscape:connector-curvature="0" />
    <path
       style="fill:#ffffff;stroke:none"
       d="m 1665.3162,3027.9651 c -45.7195,6.3375 -53.9298,-5.1776 -62.1848,-19.0773 -8.2551,-13.8997 -14.1828,-27.4561 -24.5416,-29.7762 -10.3587,-2.3201 -24.2907,0.778 -34.3436,4.4479 -10.0531,3.6701 -16.0502,-4.3086 -23.5544,-12.549 -7.5042,-8.2404 -57.2715,-41.3793 -57.2715,-41.3793 0,0 12.6136,43.4743 20.7667,55.3773 8.1531,11.903 11.0722,16.2967 15.6572,20.1434 4.5852,3.8466 17.3035,11.6669 28.565,10.553 11.2614,-1.1138 21.3268,-7.5562 29.6567,-10.2912 8.3298,-2.7351 21.007,2.5425 29.5605,11.7303 8.5534,9.1878 31.1188,27.0998 49.1012,23.41 17.9825,-3.6897 28.5886,-12.5889 28.5886,-12.5889 z"
       id="path3023"
       inkscape:connector-curvature="0"
       sodipodi:nodetypes="csssscssssssc" />
  </g>
  <g
     inkscape:groupmode="layer"
     id="layer1"
     inkscape:label="txt"
     style="display:inline">
    <text
       xml:space="preserve"
       style="font-style:normal;font-variant:normal;font-weight:normal;font-stretch:normal;line-height:0%;font-family:Lavi;-inkscape-font-specification:Lavi;text-align:center;letter-spacing:0px;word-spacing:0px;text-anchor:middle;fill:#000000;fill-opacity:1;stroke:none"
       x="796.22333"
       y="273.53253"
       id="text4246-4"><tspan
         sodipodi:role="line"
         style="font-size:45px;line-height:1.25"
         x="803.25458"
         y="273.53253"
         id="tspan4253"> </tspan><tspan
         sodipodi:role="line"
         style="font-size:45px;line-height:1.25"
         x="796.22333"
         y="329.78253"
         id="tspan3455">Ne želim se</tspan><tspan
         sodipodi:role="line"
         style="font-size:45px;line-height:1.25"
         x="796.22333"
         y="386.03253"
         id="tspan85">vpletati kot posrednica,</tspan><tspan
         sodipodi:role="line"
         style="font-size:45px;line-height:1.25"
         x="796.22333"
         y="442.28253"
         id="tspan3461">niti za prijateljico.</tspan><tspan
         sodipodi:role="line"
         style="font-size:45px;line-height:1.25"
         x="796.22333"
         y="498.53253"
         id="tspan77">Takšne stvari se vedno</tspan><tspan
         sodipodi:role="line"
         style="font-size:45px;line-height:1.25"
         x="796.22333"
         y="554.78253"
         id="tspan81">slabo končajo.</tspan></text>
    <text
       xml:space="preserve"
       style="font-style:normal;font-variant:normal;font-weight:normal;font-stretch:normal;line-height:0%;font-family:Lavi;-inkscape-font-specification:Lavi;text-align:center;letter-spacing:0px;word-spacing:0px;text-anchor:middle;fill:#000000;fill-opacity:1;stroke:none"
       x="426.97992"
       y="214.36148"
       id="text4246-42"><tspan
         sodipodi:role="line"
         style="font-size:45px;line-height:1.25"
         x="426.97992"
         y="214.36148"
         id="tspan65">To zadevo boš</tspan><tspan
         sodipodi:role="line"
         style="font-size:45px;line-height:1.25"
         x="434.01117"
         y="270.61148"
         id="tspan67">morala sama urediti. </tspan></text>
    <text
       xml:space="preserve"
       style="font-style:normal;font-variant:normal;font-weight:normal;font-stretch:normal;line-height:0%;font-family:Lavi;-inkscape-font-specification:Lavi;text-align:center;letter-spacing:0px;word-spacing:0px;text-anchor:middle;fill:#000000;fill-opacity:1;stroke:none"
       x="322.12131"
       y="1139.8259"
       id="text4246-4-3"><tspan
         sodipodi:role="line"
         style="font-size:45px;line-height:1.25"
         x="329.15256"
         y="1139.8259"
         id="tspan4253-3"> </tspan><tspan
         sodipodi:role="line"
         style="font-size:45px;line-height:1.25"
         x="322.12131"
         y="1196.0759"
         id="tspan4261-5">P-prosim</tspan><tspan
         sodipodi:role="line"
         style="font-size:45px;line-height:1.25"
         x="322.12131"
         y="1252.3259"
         id="tspan4324">Saffron...</tspan></text>
    <text
       xml:space="preserve"
       style="font-style:normal;font-variant:normal;font-weight:normal;font-stretch:normal;line-height:0%;font-family:Lavi;-inkscape-font-specification:Lavi;text-align:center;letter-spacing:0px;word-spacing:0px;text-anchor:middle;fill:#000000;fill-opacity:1;stroke:none"
       x="1798.2832"
       y="1237.3989"
       id="text4246-4-3-5"><tspan
         sodipodi:role="line"
         style="font-size:45px;line-height:1.25"
         x="1798.2832"
         y="1237.3989"
         id="tspan4322">Pri mojih botrah se ničesar ne naučim,</tspan><tspan
         sodipodi:role="line"
         style="font-size:45px;line-height:1.25"
         x="1798.2832"
         y="1293.6489"
         id="tspan3484">vse kar imam od njih je zavzeta hiša,</tspan><tspan
         sodipodi:role="line"
         style="font-size:45px;line-height:1.25"
         x="1798.2832"
         y="1349.8989"
         id="tspan3476">pritoževanje nad starimi kostmi in</tspan><tspan
         sodipodi:role="line"
         style="font-size:45px;line-height:1.25"
         x="1798.2832"
         y="1406.1489"
         id="tspan3486">   dretje ne glede na to kaj storim...</tspan></text>
    <text
       xml:space="preserve"
       style="font-style:normal;font-variant:normal;font-weight:normal;font-stretch:normal;line-height:0%;font-family:Lavi;-inkscape-font-specification:Lavi;text-align:center;letter-spacing:0px;word-spacing:0px;text-anchor:middle;fill:#000000;fill-opacity:1;stroke:none"
       x="290.45486"
       y="2150.9766"
       id="text4246-4-3-4"><tspan
         sodipodi:role="line"
         style="font-size:45px;line-height:1.25"
         x="297.48611"
         y="2150.9766"
         id="tspan4253-3-4"> </tspan><tspan
         sodipodi:role="line"
         style="font-size:45px;line-height:1.25"
         x="290.45486"
         y="2207.2266"
         id="tspan4356">Poslušaj,</tspan><tspan
         sodipodi:role="line"
         style="font-size:45px;line-height:1.25"
         x="290.45486"
         y="2263.4766"
         id="tspan3516">čarovnica si,</tspan><tspan
         sodipodi:role="line"
         style="font-size:45px;line-height:1.25"
         x="290.45486"
         y="2319.7266"
         id="tspan3514">zato se obnašaj</tspan><tspan
         sodipodi:role="line"
         style="font-size:45px;line-height:1.25"
         x="290.45486"
         y="2375.9766"
         id="tspan59">kot čarovnica!</tspan></text>
    <text
       xml:space="preserve"
       style="font-style:normal;font-variant:normal;font-weight:normal;font-stretch:normal;line-height:0%;font-family:Lavi;-inkscape-font-specification:Lavi;text-align:center;letter-spacing:0px;word-spacing:0px;text-anchor:middle;fill:#000000;fill-opacity:1;stroke:none"
       x="290.4476"
       y="2576.0493"
       id="text4246-4-3-4-7"><tspan
         sodipodi:role="line"
         style="font-size:45px;line-height:1.25"
         x="290.4476"
         y="2576.0493"
         id="tspan4438">Kar pogumno!</tspan></text>
    <text
       xml:space="preserve"
       style="font-style:normal;font-variant:normal;font-weight:normal;font-stretch:normal;line-height:0%;font-family:Lavi;-inkscape-font-specification:Lavi;text-align:center;letter-spacing:0px;word-spacing:0px;text-anchor:middle;fill:#000000;fill-opacity:1;stroke:none"
       x="293.71371"
       y="2475.6238"
       id="text4246-4-3-4-7-0"><tspan
         sodipodi:role="line"
         style="font-size:45px;line-height:1.25"
         x="293.71371"
         y="2475.6238"
         id="tspan4434">Povej jim v obraz!</tspan></text>
    <text
       xml:space="preserve"
       style="font-style:normal;font-variant:normal;font-weight:normal;font-stretch:normal;line-height:0%;font-family:Lavi;-inkscape-font-specification:Lavi;text-align:center;letter-spacing:0px;word-spacing:0px;text-anchor:middle;fill:#000000;fill-opacity:1;stroke:none"
       x="2012.9136"
       y="1474.4778"
       id="text4246-4-3-5-1"><tspan
         sodipodi:role="line"
         style="font-size:45px;line-height:1.25"
         x="2012.9136"
         y="1474.4778"
         id="tspan80">A res ne moreš priti in</tspan><tspan
         sodipodi:role="line"
         style="font-size:45px;line-height:1.25"
         x="2012.9136"
         y="1530.7278"
         id="tspan70">mi pomagati pri pogovoru</tspan><tspan
         sodipodi:role="line"
         style="font-size:45px;line-height:1.25"
         x="2012.9136"
         y="1586.9778"
         id="tspan86">z njimi. ... ?</tspan></text>
    <text
       xml:space="preserve"
       style="font-style:normal;font-variant:normal;font-weight:normal;font-stretch:normal;line-height:0%;font-family:Lavi;-inkscape-font-specification:Lavi;text-align:center;letter-spacing:0px;word-spacing:0px;text-anchor:middle;fill:#000000;fill-opacity:1;stroke:none"
       x="1241.7258"
       y="2895.5386"
       id="text4246-4-3-5-1-7"><tspan
         sodipodi:role="line"
         style="font-size:45px;line-height:1.25"
         x="1241.7258"
         y="2895.5386"
         id="tspan4482-9">Prav, prav!</tspan><tspan
         sodipodi:role="line"
         style="font-size:45px;line-height:1.25"
         x="1241.7258"
         y="2951.7886"
         id="tspan3533">Mogoče pa lahko pridem s</tspan><tspan
         sodipodi:role="line"
         style="font-size:45px;line-height:1.25"
         x="1241.7258"
         y="3008.0386"
         id="tspan96">teboj in govorim z njimi.</tspan></text>
  </g>
</svg>
