<?xml version="1.0" encoding="UTF-8" standalone="no"?>
<!-- Created with Inkscape (http://www.inkscape.org/) -->

<svg
   xmlns:dc="http://purl.org/dc/elements/1.1/"
   xmlns:cc="http://creativecommons.org/ns#"
   xmlns:rdf="http://www.w3.org/1999/02/22-rdf-syntax-ns#"
   xmlns:svg="http://www.w3.org/2000/svg"
   xmlns="http://www.w3.org/2000/svg"
   xmlns:xlink="http://www.w3.org/1999/xlink"
   xmlns:sodipodi="http://sodipodi.sourceforge.net/DTD/sodipodi-0.dtd"
   xmlns:inkscape="http://www.inkscape.org/namespaces/inkscape"
   id="svg2"
   version="1.1"
   inkscape:version="0.92.4 (5da689c313, 2019-01-14)"
   width="2481"
   height="3503"
   sodipodi:docname="E23P03.svg">
  <metadata
     id="metadata8">
    <rdf:RDF>
      <cc:Work
         rdf:about="">
        <dc:format>image/svg+xml</dc:format>
        <dc:type
           rdf:resource="http://purl.org/dc/dcmitype/StillImage" />
        <dc:title />
      </cc:Work>
    </rdf:RDF>
  </metadata>
  <defs
     id="defs6">
    <filter
       style="color-interpolation-filters:sRGB"
       id="filter4375-4-1-1-1-9"
       inkscape:label="deevad outline effect">
      <feFlood
         id="feFlood4377-7-9-0-8-1"
         flood-opacity="1"
         flood-color="rgb(0,0,0)"
         result="flood" />
      <feComposite
         id="feComposite4379-3-8-8-2-77"
         in2="SourceGraphic"
         in="flood"
         operator="in"
         result="composite1" />
      <feMorphology
         id="feMorphology4393-1-0-49-8-9"
         operator="dilate"
         radius="3"
         result="result3" />
      <feComposite
         id="feComposite4385-9-5-7-0-8"
         in2="result3"
         in="SourceGraphic"
         operator="over"
         result="composite2" />
    </filter>
    <filter
       style="color-interpolation-filters:sRGB"
       id="filter4375-4-1-1-1-9-3"
       inkscape:label="deevad outline effect">
      <feFlood
         id="feFlood4377-7-9-0-8-1-6"
         flood-opacity="1"
         flood-color="rgb(0,0,0)"
         result="flood" />
      <feComposite
         id="feComposite4379-3-8-8-2-77-7"
         in2="SourceGraphic"
         in="flood"
         operator="in"
         result="composite1" />
      <feMorphology
         id="feMorphology4393-1-0-49-8-9-5"
         operator="dilate"
         radius="3"
         result="result3" />
      <feComposite
         id="feComposite4385-9-5-7-0-8-3"
         in2="result3"
         in="SourceGraphic"
         operator="over"
         result="composite2" />
    </filter>
  </defs>
  <sodipodi:namedview
     pagecolor="#ffffff"
     bordercolor="#666666"
     borderopacity="1"
     objecttolerance="10"
     gridtolerance="10"
     guidetolerance="10"
     inkscape:pageopacity="0"
     inkscape:pageshadow="2"
     inkscape:window-width="1600"
     inkscape:window-height="847"
     id="namedview4"
     showgrid="false"
     inkscape:zoom="0.3478261"
     inkscape:cx="1007.82"
     inkscape:cy="924.53884"
     inkscape:window-x="-8"
     inkscape:window-y="-8"
     inkscape:window-maximized="1"
     inkscape:current-layer="layer3"
     inkscape:document-rotation="0" />
  <g
     inkscape:groupmode="layer"
     id="layer2"
     inkscape:label="artwork"
     sodipodi:insensitive="true">
    <image
       sodipodi:absref="D:\Pepper&amp;Carrot\ep23_Take-a-Chance_lang-pack\lang\ro\../gfx_Pepper-and-Carrot_by-David-Revoy_E23P03.png"
       xlink:href="../gfx_Pepper-and-Carrot_by-David-Revoy_E23P03.png"
       y="0"
       x="0"
       id="image10"
       height="3503"
       width="2481" />
  </g>
  <g
     inkscape:groupmode="layer"
     id="layer3"
     inkscape:label="speechbubbles">
    <path
       style="fill:#ffffff;stroke:none;stroke-width:0.96949303"
       d="m 153.88809,2940.3745 c -0.37405,-117.3638 213.45405,-131.8745 292.93633,-131.6177 107.5253,0.3474 315.07956,-3.8656 368.04115,40.6031 80.45622,67.5544 63.32636,146.8484 35.31627,174.2782 -37.5037,36.7271 -98.07042,31.5478 -178.76595,45.9583 -100.19959,17.8933 -344.11969,4.8417 -407.23538,-3.7516 -50.00588,-6.8083 -109.91835,-8.1065 -110.29242,-125.4703 z"
       id="path3100"
       inkscape:connector-curvature="0"
       sodipodi:nodetypes="zsssssz" />
    <path
       style="color:#000000;display:inline;overflow:visible;visibility:visible;fill:#ffffff;fill-opacity:1;fill-rule:nonzero;stroke:none;stroke-width:1px;marker:none;enable-background:accumulate"
       d="m 842.55945,2966.8035 c 57.3052,17.7871 114.43744,34.6742 149.48328,-5.5841 -24.12635,56.7783 -126.22584,48.3612 -173.00855,34.6012 -39.73498,-11.6871 23.52527,-29.0171 23.52527,-29.0171 z"
       id="path4480"
       inkscape:connector-curvature="0"
       sodipodi:nodetypes="ccsc" />
    <path
       style="fill:#ffffff;stroke:none"
       d="m 654.52742,2758.8526 c -4.14136,57.1669 -81.95291,74.2662 -137.57411,75.5045 -94.49029,6.2705 -190.51285,1.1492 -283.21484,-15.2086 -59.95645,-14.5458 -90.6481,-87.342 -42.08866,-125.3753 50.02157,-29.8732 115.20374,-28.7665 173.58164,-35.5382 82.68356,-4.658 168.52245,-1.1401 246.64153,23.9189 34.86358,13.7956 47.58592,45.8336 42.65444,76.6987 z"
       id="path3100-2"
       inkscape:connector-curvature="0" />
    <path
       style="fill:#ffffff;stroke:none;stroke-width:1"
       d="m 154.72685,2634.1653 c -0.65689,-16.8815 20.54278,-63.5857 111.40508,-58.2124 90.86229,5.3735 118.90211,24.6033 120.88635,54.6302 3.13901,47.5016 -44.98932,59.0112 -113.76361,60.8606 -70.89885,1.9065 -114.65043,-14.5794 -118.52782,-57.2784 z"
       id="path3280"
       inkscape:connector-curvature="0"
       sodipodi:nodetypes="csssc" />
    <text
       xml:space="preserve"
       style="font-style:normal;font-variant:normal;font-weight:normal;font-stretch:normal;line-height:0%;font-family:Lavi;-inkscape-font-specification:Lavi;text-align:center;letter-spacing:0px;word-spacing:0px;text-anchor:middle;fill:#000000;fill-opacity:1;stroke:#000000;stroke-width:0.5;stroke-miterlimit:4;stroke-dasharray:none;stroke-opacity:1"
       x="265.31992"
       y="2645.6636"
       id="text4246-3"><tspan
         sodipodi:role="line"
         style="font-size:49.67481232px;line-height:1.25;stroke:#000000;stroke-width:0.5;stroke-miterlimit:4;stroke-dasharray:none;stroke-opacity:1"
         x="273.0816"
         y="2645.6636"
         id="tspan4167-3">Bună! </tspan></text>
    <text
       xml:space="preserve"
       style="font-style:normal;font-variant:normal;font-weight:normal;font-stretch:normal;line-height:0%;font-family:Lavi;-inkscape-font-specification:Lavi;text-align:center;letter-spacing:0px;word-spacing:0px;text-anchor:middle;fill:#000000;fill-opacity:1;stroke:none"
       x="409.17966"
       y="2728.4468"
       id="text4246-5"><tspan
         sodipodi:role="line"
         style="font-size:45px;line-height:1.25"
         x="416.21091"
         y="2728.4468"
         id="tspan40">Permite-mi te rog </tspan><tspan
         sodipodi:role="line"
         style="font-size:45px;line-height:1.25"
         x="416.21091"
         y="2784.6968"
         id="tspan44">să mă prezint: </tspan></text>
  </g>
  <g
     inkscape:groupmode="layer"
     id="layer1"
     inkscape:label="txt">
    <text
       xml:space="preserve"
       style="font-style:normal;font-variant:normal;font-weight:normal;font-stretch:normal;line-height:0%;font-family:Lavi;-inkscape-font-specification:Lavi;letter-spacing:0px;word-spacing:0px;fill:#000000;fill-opacity:1;stroke:#ffffff;stroke-width:2.24600291;stroke-miterlimit:4;stroke-dasharray:none;stroke-opacity:1;filter:url(#filter4375-4-1-1-1-9)"
       x="787.65729"
       y="1584.5073"
       id="text4580"
       transform="matrix(0.59080172,-0.79384316,0.23129973,1.313198,478.68923,-967.19282)"><tspan
         sodipodi:role="line"
         id="tspan4582"
         x="787.65729"
         y="1584.5073"
         style="font-size:70px;line-height:100%;letter-spacing:4.88345098px;fill:#ffffff;stroke:#ffffff;stroke-width:2.24600291;stroke-miterlimit:4;stroke-dasharray:none;stroke-opacity:1"><tspan
           style="font-size:55.34964371px;line-height:100%;letter-spacing:4.88345098px;stroke:#ffffff;stroke-width:2.24600291;stroke-miterlimit:4;stroke-dasharray:none;stroke-opacity:1"
           id="tspan4439">B<tspan
   style="font-size:49.24533081px;stroke-width:2.24600291"
   id="tspan4162">ong</tspan></tspan><tspan
           style="font-size:80.40014648px;line-height:100%;letter-spacing:4.88345098px;stroke:#ffffff;stroke-width:2.24600291;stroke-miterlimit:4;stroke-dasharray:none;stroke-opacity:1"
           id="tspan4617">!</tspan></tspan></text>
    <text
       xml:space="preserve"
       style="font-style:normal;font-variant:normal;font-weight:normal;font-stretch:normal;line-height:0%;font-family:Lavi;-inkscape-font-specification:Lavi;text-align:center;letter-spacing:0px;word-spacing:0px;text-anchor:middle;fill:#000000;fill-opacity:1;stroke:none"
       x="511.79071"
       y="2882.2756"
       id="text4246"><tspan
         sodipodi:role="line"
         style="font-size:45px;line-height:1.25"
         x="511.79071"
         y="2882.2756"
         id="tspan4230">Sunt Duhul Succesului,</tspan><tspan
         sodipodi:role="line"
         style="font-size:45px;line-height:1.25"
         x="511.79071"
         y="2938.5256"
         id="tspan4183">la dispoziția ta douăzecișipatru</tspan><tspan
         sodipodi:role="line"
         style="font-size:45px;line-height:1.25"
         x="518.82196"
         y="2994.9612"
         id="tspan459">de ore pe zi, șapte zile pe </tspan><tspan
         sodipodi:role="line"
         style="font-size:45px;line-height:1.25"
         x="518.82196"
         y="3051.3967"
         id="tspan54">săptămână!* </tspan></text>
  </g>
</svg>
