<?xml version="1.0" encoding="UTF-8" standalone="no"?>
<!-- Created with Inkscape (http://www.inkscape.org/) -->

<svg
   xmlns:dc="http://purl.org/dc/elements/1.1/"
   xmlns:cc="http://creativecommons.org/ns#"
   xmlns:rdf="http://www.w3.org/1999/02/22-rdf-syntax-ns#"
   xmlns:svg="http://www.w3.org/2000/svg"
   xmlns="http://www.w3.org/2000/svg"
   xmlns:xlink="http://www.w3.org/1999/xlink"
   xmlns:sodipodi="http://sodipodi.sourceforge.net/DTD/sodipodi-0.dtd"
   xmlns:inkscape="http://www.inkscape.org/namespaces/inkscape"
   id="svg2"
   version="1.1"
   inkscape:version="0.92.2 2405546, 2018-03-11"
   width="2481"
   height="3503"
   sodipodi:docname="E26P03.svg">
  <metadata
     id="metadata8">
    <rdf:RDF>
      <cc:Work
         rdf:about="">
        <dc:format>image/svg+xml</dc:format>
        <dc:type
           rdf:resource="http://purl.org/dc/dcmitype/StillImage" />
        <dc:title />
      </cc:Work>
    </rdf:RDF>
  </metadata>
  <defs
     id="defs6" />
  <sodipodi:namedview
     pagecolor="#ffffff"
     bordercolor="#666666"
     borderopacity="1"
     objecttolerance="10"
     gridtolerance="10"
     guidetolerance="10"
     inkscape:pageopacity="0"
     inkscape:pageshadow="2"
     inkscape:window-width="1920"
     inkscape:window-height="1033"
     id="namedview4"
     showgrid="false"
     inkscape:zoom="0.75785828"
     inkscape:cx="1663.9208"
     inkscape:cy="510.10178"
     inkscape:window-x="0"
     inkscape:window-y="47"
     inkscape:window-maximized="0"
     inkscape:current-layer="layer1" />
  <g
     inkscape:groupmode="layer"
     id="layer2"
     inkscape:label="artwork"
     sodipodi:insensitive="true">
    <image
       sodipodi:absref="/home/midgard/git/peppercarrot/comics/ep26_Books-Are-Great/lang/es/../gfx_Pepper-and-Carrot_by-David-Revoy_E26P03.png"
       xlink:href="../gfx_Pepper-and-Carrot_by-David-Revoy_E26P03.png"
       y="0"
       x="0"
       id="image10"
       height="3503"
       width="2481" />
  </g>
  <g
     inkscape:groupmode="layer"
     id="layer3"
     inkscape:label="speechbubbles"
     style="opacity:1">
    <path
       style="color:#000000;display:inline;overflow:visible;visibility:visible;fill:#ffffff;fill-opacity:1;fill-rule:nonzero;stroke:none;stroke-width:0.93505704px;marker:none;enable-background:accumulate"
       d="m 256.8935,634.62289 c 20.95475,-25.33639 279.45034,-43.38014 339.1657,13.92239 41.61563,39.93411 25.56162,116.51577 -10.10836,136.45158 -35.66991,19.93588 -207.88196,25.55046 -256.8276,15.39797 -44.01458,-9.1297 -90.21429,-28.78042 -92.65,-81.08215 -0.99411,-21.3464 -0.53455,-59.35334 20.42026,-84.68979 z"
       id="path4040"
       inkscape:connector-curvature="0"
       sodipodi:nodetypes="zssssz" />
    <path
       style="fill:#ffffff;stroke:none;stroke-width:0.99999994"
       d="m 628.34471,847.51507 c -38.61917,12.80883 -55.09288,-0.0828 -66.95346,-14.05699 -11.86058,-13.97408 -28.36174,-20.89656 -39.29055,-22.32443 -10.92881,-1.42786 -28.67404,2.49427 -37.73175,7.41599 -9.05781,4.92182 -23.30007,-9.35873 -32.51481,-17.85685 -12.1752,-11.22835 -10.17368,-21.3089 -10.17368,-21.3089 0,0 -63.56569,-10.64656 -52.32882,1.21103 11.23688,11.85757 53.851,43.51663 59.4257,47.15218 5.57479,3.63555 23.61454,12.58563 34.54483,10.2648 10.93033,-2.32073 19.07986,-12.5098 32.07626,-12.9737 13.38845,-0.4779 22.37583,3.75223 33.30162,12.67727 10.92577,8.92503 37.52895,25.44728 54.48293,19.70573 16.95397,-5.74156 25.16173,-9.90613 25.16173,-9.90613 z"
       id="path3023"
       inkscape:connector-curvature="0"
       sodipodi:nodetypes="csssscssssssc" />
    <path
       style="color:#000000;display:inline;overflow:visible;visibility:visible;fill:#ffffff;fill-opacity:1;fill-rule:nonzero;stroke:none;stroke-width:1.07861185px;marker:none;enable-background:accumulate"
       d="m 201.42986,1799.8099 c -3.34372,-15.4194 26.04322,-99.5445 150.14225,-96.8262 124.09908,2.7183 153.36882,60.2845 154.12385,81.0735 0.75505,20.7891 -26.80815,54.7949 -44.54644,61.1044 -17.73818,6.3095 -64.14782,21.6904 -94.80004,19.4252 -30.65205,-2.2654 -71.676,8.8563 -118.93755,-15.4459 -37.56382,-19.3157 -43.60914,-45.3111 -45.98207,-49.331 z"
       id="path3365"
       inkscape:connector-curvature="0"
       sodipodi:nodetypes="cssccsc" />
    <path
       style="color:#000000;display:inline;overflow:visible;visibility:visible;fill:#ffffff;fill-opacity:1;fill-rule:nonzero;stroke:none;stroke-width:1.0647949px;marker:none;enable-background:accumulate"
       d="m 1049.2879,2245.8608 c -6.1895,-20.4139 -21.7065,-138.2989 213.8925,-137.2574 206.6054,0.9135 241.0892,95.5468 243.1891,123.2105 2.1001,27.664 -12.8635,56.2598 -48.8081,73.581 -38.607,16.7267 -107.5576,27.646 -158.657,25.7812 -51.0992,-1.8649 -119.297,2.9305 -172.4593,-11.5102 -36.5687,-9.9332 -70.1273,-45.2152 -77.1572,-73.8051 z"
       id="path3365-5"
       inkscape:connector-curvature="0"
       sodipodi:nodetypes="cssccsc" />
    <path
       style="color:#000000;display:inline;overflow:visible;visibility:visible;fill:#ffffff;fill-opacity:1;fill-rule:nonzero;stroke:none;stroke-width:1px;marker:none;enable-background:accumulate"
       d="m 377.75121,1797.7955 c 0.14136,37.7496 7.44343,98.937 94.82871,86.7057 -14.99489,10.61 -114.59779,34.3786 -127.13109,-74.0559 -3.63685,-31.4647 8.70865,-21.0527 15.81183,-23.0996 7.10319,-2.047 16.49055,10.4498 16.49055,10.4498 z"
       id="path4064"
       inkscape:connector-curvature="0"
       sodipodi:nodetypes="ccszc" />
    <path
       style="color:#000000;display:inline;overflow:visible;visibility:visible;fill:#ffffff;fill-opacity:1;fill-rule:nonzero;stroke:none;stroke-width:1px;marker:none;enable-background:accumulate"
       d="m 1237.4731,2165.1562 c 16.4769,-33.9641 36.832,-92.1267 -47.0265,-119.5779 18.1333,-2.9332 118.0386,19.5304 81.6003,122.4254 -10.5733,29.8573 -17.0809,15.0765 -24.3604,13.7904 -7.2795,-1.2859 -10.2134,-16.6379 -10.2134,-16.6379 z"
       id="path4064-3"
       inkscape:connector-curvature="0"
       sodipodi:nodetypes="ccszc" />
    <path
       style="fill:#ffffff;stroke:none;stroke-width:1.03761959"
       d="m 51.483138,2694.5432 c -33.101052,-196.2754 70.551202,-174.0783 337.039222,-175.3217 339.58458,-1.5846 333.44434,43.0618 338.9065,126.9449 12.56041,192.8919 -75.1093,234.1842 -426.41828,222.3378 C -7.2731932,2858.1087 18.976556,2803.5949 51.483138,2694.5432 Z"
       id="path3280-8"
       inkscape:connector-curvature="0"
       sodipodi:nodetypes="csssc" />
    <path
       style="color:#000000;display:inline;overflow:visible;visibility:visible;fill:#ffffff;fill-opacity:1;fill-rule:nonzero;stroke:none;stroke-width:1.09098148px;marker:none;enable-background:accumulate"
       d="m 541.6664,2826.0288 c 14.75467,36.3891 56.10784,84.8029 132.56738,64.1383 -52.93998,24.1174 -112.04254,21.8254 -162.9129,-49.9788 -68.01242,-96.0004 -45.71056,-118.3536 -45.71056,-118.3536 z"
       id="path4064-6"
       inkscape:connector-curvature="0"
       sodipodi:nodetypes="ccscc" />
    <path
       style="color:#000000;display:inline;overflow:visible;visibility:visible;fill:#ffffff;fill-opacity:1;fill-rule:nonzero;stroke:none;stroke-width:1.07575631px;marker:none;enable-background:accumulate"
       d="m 1856.8533,2970.164 c -2.5854,-18.5015 37.4187,-100.756 195.1369,-88.4216 157.7182,12.3342 180.1503,56.4283 181.7223,97.323 -2.7251,42.1428 -34.3462,72.8901 -57.6161,79.0572 -23.2699,6.1672 -58.2471,14.7274 -122.8134,16.0346 -74.5928,0.059 -118.5652,-2.5327 -165.7985,-36.1241 -45.0548,-29.7948 -28.0457,-62.9354 -30.6312,-67.8691 z"
       id="path3365-7"
       inkscape:connector-curvature="0"
       sodipodi:nodetypes="cscsccc" />
    <path
       style="color:#000000;display:inline;overflow:visible;visibility:visible;fill:#ffffff;fill-opacity:1;fill-rule:nonzero;stroke:none;stroke-width:1px;marker:none;enable-background:accumulate"
       d="m 1963.5548,2926.8144 c -22.0372,-41.7339 -131.901,-116.3258 -202.9973,-80.3598 84.8906,-21.0574 174.3494,70.9697 177.3562,85.6217 3.0068,14.6521 25.6411,-5.2619 25.6411,-5.2619 z"
       id="path3978"
       inkscape:connector-curvature="0"
       sodipodi:nodetypes="cccc" />
    <path
       style="color:#000000;display:inline;overflow:visible;visibility:visible;fill:#ffffff;fill-opacity:1;fill-rule:nonzero;stroke:none;stroke-width:0.58296984px;marker:none;enable-background:accumulate"
       d="m 232.13565,538.15066 c 15.83857,-14.31867 190.27031,-24.51596 235.40593,7.86814 31.45501,22.56846 29.7962,63.39355 2.83519,74.66012 -26.96097,11.26661 -157.12675,14.43965 -194.12211,8.70205 -33.26824,-5.15958 -68.18812,-16.26504 -70.02913,-45.82297 -0.75139,-12.06376 10.07151,-31.08864 25.91012,-45.40734 z"
       id="path4040-3"
       inkscape:connector-curvature="0"
       sodipodi:nodetypes="zssssz" />
  </g>
  <g
     inkscape:groupmode="layer"
     id="layer1"
     inkscape:label="txt">
    <text
       xml:space="preserve"
       style="font-style:normal;font-variant:normal;font-weight:normal;font-stretch:normal;font-size:10.5905962px;line-height:0%;font-family:Lavi;-inkscape-font-specification:Lavi;text-align:center;letter-spacing:0px;word-spacing:0px;text-anchor:middle;fill:#000000;fill-opacity:1;stroke:none;stroke-width:0.8825497"
       x="423.8205"
       y="638.85248"
       id="text4246-5"><tspan
         sodipodi:role="line"
         style="font-size:39.71473694px;line-height:1.25;stroke-width:0.8825497"
         x="423.8205"
         y="641.93066"
         id="tspan491" /><tspan
         sodipodi:role="line"
         style="font-size:39.71473694px;line-height:1.25;stroke-width:0.8825497"
         x="423.8205"
         y="675.21729"
         id="tspan53">Sé bien cuanto</tspan><tspan
         sodipodi:role="line"
         style="font-size:39.71473694px;line-height:1.25;stroke-width:0.8825497"
         x="423.8205"
         y="724.86072"
         id="tspan5635">detestáis mojarse</tspan><tspan
         sodipodi:role="line"
         style="font-size:39.71473694px;line-height:1.25;stroke-width:0.8825497"
         x="423.8205"
         y="774.50415"
         id="tspan67">los gatos.</tspan></text>
    <text
       xml:space="preserve"
       style="font-style:normal;font-variant:normal;font-weight:normal;font-stretch:normal;line-height:0%;font-family:Lavi;-inkscape-font-specification:Lavi;text-align:center;letter-spacing:0px;word-spacing:0px;text-anchor:middle;fill:#000000;fill-opacity:1;stroke:none"
       x="355.44214"
       y="1765.9678"
       id="text4246-1"><tspan
         sodipodi:role="line"
         style="font-style:normal;font-variant:normal;font-weight:bold;font-stretch:normal;font-size:45px;line-height:1.25;font-family:Lavi;-inkscape-font-specification:'Lavi Bold'"
         x="355.44214"
         y="1765.9678"
         id="tspan887">¡No te</tspan><tspan
         sodipodi:role="line"
         style="font-style:normal;font-variant:normal;font-weight:bold;font-stretch:normal;font-size:45px;line-height:1.25;font-family:Lavi;-inkscape-font-specification:'Lavi Bold'"
         x="355.44214"
         y="1822.2178"
         id="tspan71">preocupes!</tspan></text>
    <text
       xml:space="preserve"
       style="font-style:normal;font-variant:normal;font-weight:normal;font-stretch:normal;font-size:13.49506664px;line-height:0%;font-family:Lavi;-inkscape-font-specification:Lavi;text-align:center;letter-spacing:0px;word-spacing:0px;text-anchor:middle;fill:#000000;fill-opacity:1;stroke:none;stroke-width:0.99999994"
       x="1279.1465"
       y="2170.6116"
       id="text4246-1-3"
       transform="scale(0.99789912,1.0021053)"><tspan
         sodipodi:role="line"
         style="font-style:normal;font-variant:normal;font-weight:bold;font-stretch:normal;font-size:50.60649872px;line-height:1.25;font-family:Lavi;-inkscape-font-specification:'Lavi Bold';stroke-width:0.99999994"
         x="1279.1465"
         y="2170.6116"
         id="tspan914">¡Los libros</tspan><tspan
         sodipodi:role="line"
         style="font-style:normal;font-variant:normal;font-weight:bold;font-stretch:normal;font-size:50.60649872px;line-height:1.25;font-family:Lavi;-inkscape-font-specification:'Lavi Bold';stroke-width:0.99999994"
         x="1279.1465"
         y="2233.8696"
         id="tspan82">son también útiles</tspan><tspan
         sodipodi:role="line"
         style="font-style:normal;font-variant:normal;font-weight:bold;font-stretch:normal;font-size:50.60649872px;line-height:1.25;font-family:Lavi;-inkscape-font-specification:'Lavi Bold';stroke-width:0.99999994"
         x="1279.1465"
         y="2297.1279"
         id="tspan94">para eso!</tspan></text>
    <text
       xml:space="preserve"
       style="font-style:normal;font-variant:normal;font-weight:normal;font-stretch:normal;font-size:11.40636063px;line-height:0%;font-family:Lavi;-inkscape-font-specification:Lavi;text-align:center;letter-spacing:0px;word-spacing:0px;text-anchor:middle;fill:#000000;fill-opacity:1;stroke:none;stroke-width:0.95053005"
       x="119.25092"
       y="2606.8384"
       id="text4246-5-5"><tspan
         sodipodi:role="line"
         style="font-size:42.7738533px;line-height:1.25;text-align:start;text-anchor:start;stroke-width:0.95053005"
         x="119.25092"
         y="2606.8384"
         id="tspan110">Y en menos de diez minutos</tspan><tspan
         sodipodi:role="line"
         style="font-size:42.7738533px;line-height:1.25;text-align:start;text-anchor:start;stroke-width:0.95053005"
         x="119.25092"
         y="2660.3057"
         id="tspan54">tras entrar a la mazmorra,</tspan><tspan
         sodipodi:role="line"
         style="font-size:42.7738533px;line-height:1.25;text-align:start;text-anchor:start;stroke-width:0.95053005"
         x="119.25092"
         y="2713.7729"
         id="tspan56">aquí estoy en la sala del tesoro</tspan><tspan
         sodipodi:role="line"
         style="font-size:42.7738533px;line-height:1.25;text-align:start;text-anchor:start;stroke-width:0.95053005"
         x="119.25092"
         y="2767.2402"
         id="tspan58">recogiendo las hojas mágicas</tspan><tspan
         sodipodi:role="line"
         style="font-size:42.7738533px;line-height:1.25;text-align:start;text-anchor:start;stroke-width:0.95053005"
         x="119.25092"
         y="2820.7078"
         id="tspan130">del fabuloso Árbol del Agua.</tspan></text>
    <text
       xml:space="preserve"
       style="font-style:normal;font-variant:normal;font-weight:normal;font-stretch:normal;font-size:13.49506664px;line-height:0%;font-family:Lavi;-inkscape-font-specification:Lavi;text-align:center;letter-spacing:0px;word-spacing:0px;text-anchor:middle;fill:#000000;fill-opacity:1;stroke:none;stroke-width:0.99999994"
       x="2049.2761"
       y="2952.8042"
       id="text4246-1-3-2"
       transform="scale(0.99789912,1.0021053)"><tspan
         sodipodi:role="line"
         style="font-style:normal;font-variant:normal;font-weight:bold;font-stretch:normal;font-size:50.60649872px;line-height:1.25;font-family:Lavi;-inkscape-font-specification:'Lavi Bold';stroke-width:0.99999994"
         x="2049.2761"
         y="2952.8042"
         id="tspan914-2">¡Los libros</tspan><tspan
         sodipodi:role="line"
         style="font-style:normal;font-variant:normal;font-weight:bold;font-stretch:normal;font-size:50.60649872px;line-height:1.25;font-family:Lavi;-inkscape-font-specification:'Lavi Bold';stroke-width:0.99999994"
         x="2049.2761"
         y="3016.0623"
         id="tspan152">son mágicos!</tspan></text>
    <text
       xml:space="preserve"
       style="font-style:normal;font-variant:normal;font-weight:normal;font-stretch:normal;font-size:10.5905962px;line-height:0%;font-family:Lavi;-inkscape-font-specification:Lavi;text-align:center;letter-spacing:0px;word-spacing:0px;text-anchor:middle;fill:#000000;fill-opacity:1;stroke:none;stroke-width:0.8825497"
       x="352.64365"
       y="591.20569"
       id="text4246-5-6"><tspan
         sodipodi:role="line"
         style="font-size:39.71473694px;line-height:1.25;stroke-width:0.8825497"
         x="352.64365"
         y="591.20569"
         id="tspan439-5">Oh, Carrot...</tspan></text>
  </g>
</svg>
