<?xml version="1.0" encoding="UTF-8" standalone="no"?>
<!-- Created With Inkscape (http://www.inkscape.org/) -->

<svg
   xmlns:dc="http://purl.org/dc/elements/1.1/"
   xmlns:cc="http://creativecommons.org/ns#"
   xmlns:rdf="http://www.w3.org/1999/02/22-rdf-syntax-ns#"
   xmlns:svg="http://www.w3.org/2000/svg"
   xmlns="http://www.w3.org/2000/svg"
   xmlns:xlink="http://www.w3.org/1999/xlink"
   xmlns:sodipodi="http://sodipodi.sourceforge.net/DTD/sodipodi-0.dtd"
   xmlns:inkscape="http://www.inkscape.org/namespaces/inkscape"
   id="svg2"
   version="1.1"
   inkscape:version="0.92.3 (2405546, 2018-03-11)"
   width="2481"
   height="663"
   sodipodi:docname="E01P00.svg">
  <metadata
     id="metadata8">
    <rdf:RDF>
      <cc:Work
         rdf:about="">
        <dc:format>image/svg+xml</dc:format>
        <dc:type
           rdf:resource="http://purl.org/dc/dcmitype/StillImage" />
        <dc:title></dc:title>
      </cc:Work>
    </rdf:RDF>
  </metadata>
  <defs
     id="defs6">
    <filter
       inkscape:collect="always"
       id="filter4386">
      <feBlend
         inkscape:collect="always"
         mode="screen"
         in2="BackgroundImage"
         id="feBlend4388" />
    </filter>
  </defs>
  <sodipodi:namedview
     pagecolor="#ffffff"
     bordercolor="#666666"
     borderopacity="1"
     objecttolerance="10"
     gridtolerance="10"
     guidetolerance="10"
     inkscape:pageopacity="0"
     inkscape:pageshadow="2"
     inkscape:window-width="1920"
     inkscape:window-height="1018"
     id="namedview4"
     showgrid="false"
     inkscape:zoom="0.62833511"
     inkscape:cx="1357.6412"
     inkscape:cy="383.66279"
     inkscape:window-x="-8"
     inkscape:window-y="-8"
     inkscape:window-maximized="1"
     inkscape:current-layer="layer3"
     inkscape:snap-global="false"
     showguides="false">
    <inkscape:grid
       type="xygrid"
       id="grid4282"
       originx="0"
       originy="0"
       spacingx="1"
       spacingy="1" />
  </sodipodi:namedview>
  <flowRoot
     xml:space="preserve"
     id="flowRoot2987"
     style="font-style:normal;font-variant:normal;font-weight:normal;font-stretch:normal;line-height:0.01%;font-family:Lavi;-inkscape-font-specification:Lavi;letter-spacing:0px;word-spacing:0px;fill:#000000;fill-opacity:1;stroke:none;stroke-width:1px;stroke-linecap:butt;stroke-linejoin:miter;stroke-opacity:1"
     transform="matrix(0.71,0,0,0.71,352.45273,304.81662)"><flowRegion
       id="flowRegion2989"><rect
         id="rect2991"
         width="1016.5607"
         height="77.684769"
         x="838.99548"
         y="443.73529"
         style="font-style:normal;font-variant:normal;font-weight:normal;font-stretch:normal;font-family:Lavi;-inkscape-font-specification:Lavi" /></flowRegion><flowPara
       id="flowPara2993"
       style="font-size:12px;line-height:1.25"> </flowPara></flowRoot>  <g
     inkscape:groupmode="layer"
     id="layer1"
     inkscape:label="artwork"
     style="display:inline"
     sodipodi:insensitive="true">
    <image
       sodipodi:absref="C:\PRIVAT\Vevsida\Teikneseriesida\Pepar &amp; Gulrot\webcomics-master\webcomics-master\ep01_Potion-of-Flight\lang\no\..\gfx_Pepper-and-Carrot_by-David-Revoy_E01P00.png"
       xlink:href="../gfx_Pepper-and-Carrot_by-David-Revoy_E01P00.png"
       y="0"
       x="0"
       id="image3084"
       height="663"
       width="2481" />
  </g>
  <g
     inkscape:groupmode="layer"
     id="layer2"
     inkscape:label="speechbubble"
     style="display:inline;opacity:0.70232556" />
  <g
     inkscape:groupmode="layer"
     id="layer3"
     inkscape:label="txt"
     style="display:inline">
    <flowRoot
       xml:space="preserve"
       id="episode-title"
       style="font-style:normal;font-variant:normal;font-weight:normal;font-stretch:normal;line-height:0.01%;font-family:Arial;-inkscape-font-specification:Arial;letter-spacing:0px;word-spacing:0px;display:inline;fill:#2a5953;fill-opacity:1;stroke:none"
       transform="matrix(0.78765954,0,0,0.78765954,123.9083,189.28796)"><flowRegion
         id="flowRegion3065"><rect
           id="rect3067"
           width="2715.5891"
           height="110.01318"
           x="92.642677"
           y="425.30325"
           style="font-size:72px;fill:#2a5953;fill-opacity:1" /></flowRegion><flowPara
         id="flowPara3069"
         style="font-style:normal;font-variant:normal;font-weight:normal;font-stretch:normal;font-size:88px;line-height:1.25;font-family:Lavi;-inkscape-font-specification:Lavi;text-align:center;text-anchor:middle;fill:#2a5953;fill-opacity:1">Episode 1: Flygetrylledrikken</flowPara></flowRoot>    <path
       style="fill:#2a5953;fill-opacity:1;stroke-width:1.06920063"
       d="m 731.62944,514.22402 c -5.43514,-5.43515 -5.81088,-6.14567 -5.81088,-10.98871 0,-6.49275 2.0814,-9.54476 7.50538,-11.00528 2.40557,-0.64776 4.79735,-2.15476 5.56375,-3.50557 0.96427,-1.69962 1.4501,-10.85348 1.71864,-32.38252 l 0.37436,-30.01316 -6.24457,-1.36554 c -8.60503,-1.88172 -15.33276,-4.95777 -15.33276,-7.01044 0,-0.93362 -0.72172,-1.97443 -1.6038,-2.31291 -0.8821,-0.33851 -1.6038,-1.30747 -1.6038,-2.1533 0,-1.20647 0.864,-1.36552 4.0095,-0.73808 5.83274,1.16347 8.07813,0.87864 14.69546,-1.86409 l 5.93637,-2.46049 -0.38755,-39.62067 c -0.21315,-21.79137 -0.75835,-41.17249 -1.21154,-43.06917 -0.97596,-4.08451 -3.78141,-4.92053 -16.89147,-5.03364 -10.30662,-0.0889 -10.77483,-1.55459 -2.67587,-8.37658 6.37133,-5.36677 8.17697,-6.40074 21.91104,-12.54723 6.88781,-3.08254 10.61383,-4.20098 12.2958,-3.69084 3.44521,1.04494 7.17609,4.73592 8.86728,8.77247 l 1.45589,3.47489 h 12.29516 c 18.82653,0 32.0343,4.63454 48.44174,16.99792 13.12383,9.8891 17.42386,17.68547 17.42386,31.59109 0,9.18451 -2.04839,16.68621 -7.31509,26.78964 -5.04149,9.67137 -20.19104,25.14246 -30.7076,31.35935 -7.65995,4.5282 -31.83876,14.08168 -35.63918,14.08168 -5.53718,0 -5.45898,-0.34728 -5.45898,24.2417 0,13.6915 0.44395,23.77322 1.10089,25.00075 1.28071,2.39301 6.42978,5.28678 9.40711,5.28678 1.13332,0 2.6379,0.69563 3.34351,1.54585 0.92027,1.10885 1.98583,1.27861 3.7693,0.60054 1.46098,-0.55546 5.43184,-0.52819 9.62847,0.0661 5.90103,0.83568 7.78534,0.7062 10.84386,-0.74516 2.69507,-1.27891 5.31653,-1.58996 9.6394,-1.1438 3.26569,0.33705 7.15993,0.1481 8.65385,-0.41989 3.32977,-1.26598 4.00622,-0.72979 2.53868,2.01231 -1.18142,2.20751 -6.53424,3.90017 -6.53424,2.06624 0,-0.58698 -2.38508,1.16373 -5.3002,3.89048 -2.91511,2.72673 -6.00814,4.9577 -6.87342,4.9577 -0.86529,0 -2.31246,0.73921 -3.21594,1.6427 -2.10471,2.10471 -7.65102,4.41585 -14.02544,5.84439 -2.76005,0.61854 -6.54587,2.28979 -8.41293,3.71385 -3.988,3.04181 -12.13856,6.11286 -22.5819,8.50868 -4.11643,0.94435 -7.64479,2.18855 -7.8408,2.76489 -0.19602,0.57635 -2.51282,1.04791 -5.14843,1.04791 -4.37597,0 -5.29659,-0.50455 -10.60291,-5.81087 z m 46.39517,-112.31913 c 17.54705,-8.40919 34.82286,-24.02311 41.47713,-37.48712 3.45683,-6.9944 3.83106,-8.54716 3.37768,-14.01438 -0.47216,-5.69362 -0.87631,-6.48019 -5.46322,-10.63301 -6.13196,-5.5516 -12.65322,-7.39801 -25.8418,-7.31672 -10.36642,0.0639 -22.18434,2.62018 -25.34752,5.48282 -1.7612,1.59385 -1.91709,4.31252 -1.91709,33.4314 0,32.57926 0.20898,34.26255 4.25351,34.26255 0.92808,0 5.18566,-1.67649 9.46131,-3.72554 z m 367.45519,83.50945 c -15.3013,-4.99938 -22.1235,-10.01378 -27.4903,-20.2057 -1.8298,-3.47511 -2.3853,-6.36047 -2.4123,-12.53338 -0.049,-11.31479 4.0581,-19.76335 15.1509,-31.16221 l 8.2312,-8.45833 -3.4352,-6.96603 c -2.6627,-5.39982 -3.1917,-7.42063 -2.353,-8.98786 1.6389,-3.06226 1.3123,-4.30081 -1.134,-4.30081 h -2.216 l 2.216,-2.8172 c 2.8763,-3.65661 2.8531,-6.8392 -0.055,-7.59982 -2.0589,-0.5384 -2.2163,-1.13003 -1.6808,-6.31828 1.6786,-16.26308 16.3938,-32.08429 31.7515,-34.13797 5.639,-0.75404 13.9352,1.97022 21.7368,7.13777 7.0588,4.67553 12.8555,14.47775 12.8518,21.73241 -0.01,9.98554 -3.0862,17.2956 -11.6276,27.58605 -3.2197,3.87878 -5.8538,7.78046 -5.8538,8.67037 0,0.88993 -1.9954,3.32612 -4.4344,5.4138 l -4.4345,3.79577 7.3747,8.18734 c 4.0562,4.50305 8.7329,9.80898 10.3929,11.79098 1.6601,1.98198 3.4172,3.6036 3.905,3.6036 0.9485,0 3.2343,-5.78006 3.2343,-8.17854 0,-0.98425 -1.4474,-1.44848 -4.5441,-1.4575 -4.0287,-0.0118 -4.8244,-0.44586 -7.016,-3.82804 -3.5426,-5.46756 -2.4885,-9.33871 3.1582,-11.59806 10.9664,-4.38789 25.011,-7.16361 38.3395,-7.57725 7.3509,-0.22811 16.2519,-0.72883 19.7803,-1.11269 l 6.4151,-0.69794 -7.4843,7.90084 c -4.1165,4.34547 -8.4075,8.36789 -9.5355,8.93871 -1.1279,0.57083 -2.5713,2.00015 -3.2076,3.17627 -0.6361,1.17612 -1.2763,2.33824 -1.4225,2.58249 -0.1462,0.24425 -3.5141,0.97614 -7.4843,1.6264 l -7.2185,1.18232 -0.7194,7.25326 c -0.3955,3.98929 -1.6668,9.16864 -2.825,11.50967 l -2.106,4.2564 6.5675,4.39513 c 10.7879,7.21976 10.5386,6.86958 8.1126,11.39586 -1.1441,2.13445 -2.08,4.47278 -2.08,5.19629 0,0.72351 -1.4272,2.77549 -3.1715,4.55994 -3.6821,3.76668 -7.4698,4.17433 -11.6322,1.25189 -1.5609,-1.09592 -5.0614,-2.96595 -7.7788,-4.15565 -2.7173,-1.18968 -5.2867,-2.72281 -5.7095,-3.40696 -0.5396,-0.87293 -1.7764,-0.47677 -4.1475,1.32838 -5.0535,3.84732 -10.9714,6.61214 -20.4859,9.57074 -13.0959,4.07231 -15.1332,4.19853 -23.5224,1.45754 z m 25.7681,-27.39267 c 2.2933,-1.38059 4.3461,-2.6433 4.5619,-2.80605 0.2159,-0.16275 -5.0605,-5.59832 -11.7253,-12.07906 l -12.1179,-11.78319 -2.5083,2.3564 c -1.3794,1.29601 -3.4797,3.92831 -4.6672,5.84954 -1.1872,1.92122 -2.7667,3.49313 -3.5096,3.49313 -2.1786,0 -5.2145,4.02732 -4.4796,5.94229 0.3683,0.95984 1.5699,1.98056 2.6701,2.26828 1.1004,0.28774 2.6252,1.69013 3.3885,3.11642 0.7633,1.4263 2.8678,3.54235 4.6765,4.70233 4.7698,3.0589 17.8397,2.47455 23.7109,-1.06009 z m -7.6823,-64.78061 c 13.2613,-11.31517 15.4769,-17.34778 8.9115,-24.26435 -4.1096,-4.32934 -10.02,-5.87226 -14.4027,-3.75983 -4.3057,2.07533 -8.9986,9.44236 -9.64,15.13336 -0.833,7.38933 2.9398,19.93419 5.9951,19.93419 0.4847,0 4.596,-3.16953 9.1361,-7.04337 z m 196.2889,63.03969 c -9.5485,-1.88997 -19.6816,-5.42247 -25.7259,-8.96827 -17.1512,-10.06162 -28.9049,-21.84936 -36.231,-36.33605 -4.721,-9.33528 -6.4681,-15.022 -10.0438,-32.69361 -2.467,-12.19106 -2.5336,-13.44701 -1.1908,-22.45321 3.4298,-23.00467 11.4516,-52.07341 18.5819,-67.33629 8.897,-19.04458 27.9524,-46.47881 42.3137,-60.91971 11.3108,-11.37334 19.3023,-17.34234 31.2528,-23.3433 l 9.8688,-4.95559 11.5153,0.006 c 10.8769,0.005 12.1248,0.24269 22.5108,4.2768 14.7893,5.7443 14.8193,5.74022 15.733,-2.13176 0.4494,-3.87219 1.5969,-7.4882 2.9036,-9.14942 2.0151,-2.56165 2.5668,-2.69722 8.1829,-2.01098 7.0191,0.85766 17.364,5.67583 22.3275,10.39901 2.9496,2.80695 3.4679,4.04255 3.4282,8.17565 -0.087,9.06789 -1.6138,13.91213 -5.7072,18.10427 -4.4676,4.5751 -5.0475,7.60245 -1.4632,7.63788 1.3231,0.0131 3.5589,0.91044 4.9684,1.99414 l 2.5627,1.97038 -1.7645,19.13729 c -3.13,33.94711 -13.938,80.58681 -18.6745,80.58681 -1.2897,0 -2.3283,-5.32126 -2.3283,-11.92919 0,-2.88568 -0.6752,-6.86266 -1.5004,-8.83771 -0.8428,-2.01707 -1.8435,-9.85168 -2.2831,-17.87479 -0.7135,-13.01843 -1.203,-15.51291 -5.5275,-28.15956 -9.1456,-26.74551 -19.1828,-42.27122 -27.3122,-42.24675 -8.5765,0.0259 -23.1273,9.59398 -37.865,24.89914 -8.4814,8.80784 -11.3471,11.16479 -13.0374,10.72275 -1.4279,-0.37343 -3.0985,0.36528 -4.8999,2.16675 -2.9339,2.93391 -3.3581,5.01138 -1.6679,8.16936 1.4368,2.6847 0.3285,5.15613 -2.4923,5.55796 -1.7489,0.24913 -2.3479,1.11447 -2.4487,3.53741 -0.073,1.76418 -4.1099,11.62755 -8.9702,21.91862 -11.1093,23.52205 -19.8195,49.36257 -20.9034,62.01364 -0.6162,7.1907 -1.3182,9.79748 -3.3626,12.48539 -2.4367,3.20362 -2.4909,3.57715 -0.9509,6.55515 0.8982,1.73686 3.0179,4.32315 4.7103,5.7473 1.6925,1.42414 4.4318,4.96972 6.0873,7.87907 4.1913,7.36607 11.8586,15.12537 18.1111,18.32839 5.0176,2.57046 5.9483,2.68049 18.711,2.21215 12.2995,-0.45132 14.4665,-0.85795 25.7266,-4.82739 6.7627,-2.38402 14.0847,-5.10315 16.2709,-6.04251 2.1864,-0.93937 5.2909,-1.70794 6.8989,-1.70794 1.7253,0 4.2597,-1.23703 6.1824,-3.01753 1.7921,-1.65966 6.6907,-4.32649 10.8858,-5.92631 4.195,-1.59982 8.5241,-3.89973 9.6202,-5.11093 1.0962,-1.21118 3.2747,-2.86499 4.8414,-3.67509 3.3372,-1.72575 3.1064,-4.25204 -0.7707,-8.4355 -2.3579,-2.54414 -3.1339,-2.70306 -13.1996,-2.70306 -8.9651,0 -11.8693,-0.45186 -17.9602,-2.79437 -17.9056,-6.8864 -21.2903,-7.84294 -27.8478,-7.87002 -3.6754,-0.0151 -6.6659,-0.38847 -6.6454,-0.82952 0.02,-0.44103 4.6045,-3.85945 10.1873,-7.59647 5.9261,-3.96691 12.6642,-9.64021 16.1909,-13.63231 3.3222,-3.76075 6.6241,-6.83773 7.3374,-6.83773 0.7132,0 5.791,2.95099 11.2838,6.55778 l 9.9869,6.55775 9.1085,-0.69921 c 5.0096,-0.38458 12.1719,-1.36314 15.9162,-2.17461 6.4266,-1.39272 7.217,-1.3363 14.1063,1.00699 4.0144,1.36529 8.2823,2.22511 9.4846,1.91073 3.2109,-0.8397 3.7655,1.93733 1.6555,8.28986 -1.4865,4.47585 -2.4931,5.77049 -5.445,7.00391 -4.1133,1.71868 -4.3366,2.9259 -1.8406,9.95366 l 1.7807,5.01404 -5.9818,10.65795 c -8.2395,14.68049 -21.367,27.18039 -28.5451,27.18039 -1.6099,0 -2.9853,1.59475 -5.1083,5.92347 -2.6994,5.50412 -3.7609,6.44984 -14.9929,13.35772 -8.357,5.13969 -15.6244,8.62187 -23.5459,11.28213 -10.4901,3.52272 -12.6779,3.87873 -25.8924,4.21299 -7.9389,0.2008 -15.6371,0.12701 -17.1072,-0.16399 z M 472.03017,437.28776 c -8.0812,-3.03407 -14.1738,-11.33068 -15.2993,-20.83386 -0.50988,-4.30516 -0.21626,-5.51473 1.95011,-8.03327 2.07601,-2.41351 3.7965,-3.11191 9.25018,-3.75496 9.453,-1.11458 10.2866,-2.24567 10.73778,-14.5696 0.35899,-9.80596 0.44221,-10.09744 2.71979,-9.52581 1.57407,0.39507 3.0249,-0.15668 4.39611,-1.67187 2.4373,-2.69317 1.47569,-4.88591 -3.30422,-7.53447 l -3.1128,-1.72482 -0.28244,-32.57844 -0.28246,-32.57843 3.62557,0.42326 c 2.86986,0.33504 3.99419,-0.0993 5.39409,-2.08402 1.65634,-2.34825 1.64607,-2.60904 -0.16196,-4.11111 -1.06177,-0.88208 -3.55689,-3.87952 -5.54473,-6.66096 l -3.61424,-5.05717 0.90382,-17.39603 c 0.49712,-9.56783 0.93257,-21.80875 0.9677,-27.20203 0.0578,-8.87537 -0.17516,-10.06021 -2.45453,-12.48466 -1.38511,-1.47329 -5.23423,-3.75208 -8.55361,-5.06402 -3.31937,-1.31193 -7.07891,-3.31913 -8.35451,-4.46044 -3.66939,-3.28307 -6.85276,-11.92362 -7.05286,-19.14345 -0.1671,-6.02849 0.057,-6.69391 3.19844,-9.50087 7.30786,-6.52957 41.08267,-14.42257 66.97856,-15.65252 14.30112,-0.67925 32.54353,0.70359 46.1152,3.49569 9.94999,2.04702 27.36256,10.76824 34.88386,17.47186 9.77578,8.71301 22.08341,28.10191 28.26737,44.5312 12.21445,32.4508 -2.64852,64.70292 -41.88821,90.89591 -14.28356,9.53448 -47.71063,24.15625 -64.61157,28.26263 -12.41242,3.01582 -14.84723,4.11626 -15.58161,7.04223 -1.00994,4.02398 0.0132,29.07239 1.23737,30.29601 0.6123,0.61196 3.3962,1.53915 6.18644,2.06043 2.79027,0.52127 5.93573,1.72836 6.98996,2.68242 1.32796,1.20179 3.92425,1.73464 8.45197,1.73464 3.59437,0 6.76862,0.37766 7.05391,0.83926 0.64861,1.0495 32.95679,0.89082 34.67371,-0.17029 0.69183,-0.42757 2.94457,-0.31171 5.00605,0.2575 2.15044,0.59376 3.99731,0.63181 4.33264,0.0892 0.50895,-0.82353 6.71955,-0.2587 7.87099,0.71582 1.14409,0.9683 -2.69393,3.64188 -6.1404,4.27745 -2.14613,0.39577 -5.54294,1.59205 -7.54844,2.65841 -2.0055,1.06637 -4.01711,1.70974 -4.4702,1.4297 -0.45312,-0.28004 -2.02134,0.60064 -3.48495,1.95706 -1.52781,1.41593 -6.45422,3.50606 -11.5678,4.90784 -4.89867,1.34288 -10.48673,3.12777 -12.41788,3.96641 -1.93113,0.83864 -4.98976,1.52481 -6.79694,1.52481 -1.80716,0 -6.24138,1.38977 -9.85382,3.08838 -13.68497,6.43487 -49.24048,10.7786 -58.81214,7.18493 z M 544.05446,321.1963 c 2.64627,-0.72919 7.86235,-2.70855 11.59128,-4.39856 6.11562,-2.77171 7.05842,-2.93047 9.62282,-1.62058 5.27207,2.69301 9.66716,-1.10808 8.17155,-7.06713 -0.93412,-3.72177 3.01333,-7.17248 6.04156,-5.28131 3.15045,1.96748 5.59142,-0.30216 4.76562,-4.43115 -0.53427,-2.6714 0.2153,-4.02507 5.36154,-9.68268 7.2375,-7.95668 14.84847,-20.54903 17.13953,-28.35742 2.35567,-8.02849 1.58902,-18.30072 -1.93501,-25.92745 -8.43642,-18.25811 -26.01176,-25.49827 -53.32927,-21.96897 -12.28292,1.58691 -15.98323,1.16632 -15.98323,-1.81667 0,-0.76204 -1.25453,-2.05691 -2.78785,-2.87752 -2.57003,-1.37545 -2.95282,-1.28827 -4.89942,1.11568 -1.32879,1.64099 -1.95212,3.69401 -1.68146,5.53815 0.34866,2.37557 -0.11705,3.15713 -2.45937,4.12736 -4.62709,1.9166 -8.66648,6.90344 -9.66173,11.92793 -1.1602,5.85721 -2.62164,88.19505 -1.63516,92.1255 0.40467,1.61232 1.72453,3.29725 2.93304,3.74429 2.05325,0.75955 17.05285,-1.92747 28.74556,-5.14947 z m 108.52386,113.62591 c -15.70174,-2.08255 -21.53613,-7.22071 -28.31157,-24.93318 -4.54743,-11.88798 -4.71064,-12.73434 -5.1427,-26.66988 -0.8315,-26.81865 4.5018,-45.00574 18.82463,-64.19396 9.43938,-12.64593 15.17355,-17.7664 25.38013,-22.66385 15.57229,-7.4721 20.78513,-6.88091 33.7704,3.82993 7.68028,6.33506 12.7405,14.5827 14.70352,23.96524 1.49751,7.15761 1.53535,31.5223 0.0572,36.84491 -1.45511,5.23969 -4.11069,6.84034 -13.84261,8.34374 -11.35247,1.75375 -53.54358,12.7628 -56.14493,14.65007 -2.604,1.88921 -3.25686,7.09227 -1.50484,11.99321 2.70957,7.57956 3.367,8.86565 6.09965,11.93258 6.4187,7.20391 15.34224,6.87504 31.51856,-1.16156 16.59729,-8.24572 21.98002,-11.26795 24.81903,-13.93508 1.56928,-1.47425 3.27725,-2.16963 4.33349,-1.76431 2.07375,0.79577 1.48334,4.76286 -1.89393,12.72588 -1.67052,3.93885 -2.59307,4.96954 -4.03768,4.51105 -2.32426,-0.73769 -7.75187,5.33072 -7.0478,7.87987 0.26575,0.96215 0.79574,2.83631 1.17776,4.1648 0.62817,2.18451 -0.25821,2.87525 -9.27067,7.22446 -13.17675,6.3588 -23.45742,8.58641 -33.48766,7.25608 z m 8.01901,-78.4215 c 18.97032,-4.23953 27.43403,-7.08967 29.40357,-9.90158 1.20825,-1.72502 1.5906,-5.32546 1.55188,-14.61415 -0.062,-14.87599 -1.70222,-19.6144 -6.96803,-20.12967 -7.88794,-0.77184 -28.13759,18.00286 -37.06712,34.3672 -2.78337,5.10085 -5.38026,10.54754 -5.77085,12.10378 -0.64911,2.58624 -0.48978,2.76807 1.85308,2.11487 1.40979,-0.39307 9.05865,-2.16627 16.99747,-3.94045 z m 269.43856,76.29451 c -3.15727,-1.20836 -5.37276,-3.94781 -6.46094,-7.98897 -0.60824,-2.25886 -1.70337,-4.10702 -2.43364,-4.10702 -0.73026,0 -5.40285,1.71937 -10.3835,3.82081 -37.55381,15.84473 -63.80735,6.99495 -61.71579,-20.80374 1.01492,-13.48891 9.13333,-26.90549 21.09076,-34.85477 10.44474,-6.94365 27.9551,-15.00923 38.22217,-17.60579 4.83519,-1.22284 10.06859,-2.70897 11.62977,-3.30254 l 2.83848,-1.07919 -0.72153,-8.79571 c -0.84681,-10.32313 -3.1349,-19.1861 -5.44892,-21.10655 -0.90392,-0.7502 -2.95363,-1.33047 -4.55488,-1.28947 -1.60127,0.041 -5.23006,0.12759 -8.06399,0.19246 -6.53385,0.14953 -18.02556,5.62417 -28.40513,13.53219 -4.15543,3.16594 -8.00285,5.75626 -8.54982,5.75626 -0.54697,0 -2.78013,2.48547 -4.96257,5.52329 -3.40505,4.73957 -4.11454,5.26161 -5.00014,3.6791 -1.18106,-2.11046 2.54582,-12.42272 7.86589,-21.76475 6.33302,-11.1208 23.4014,-22.69201 36.65394,-24.84892 14.23113,-2.31617 29.00018,4.81798 35.33522,17.06859 3.90167,7.54498 6.87906,32.20464 6.94219,57.49741 0.0219,8.77758 0.69194,10.27483 3.22964,7.21711 0.73207,-0.88209 2.05531,-1.6038 2.94056,-1.6038 2.42321,0 0.91883,7.74915 -2.9609,15.25173 -2.87874,5.5669 -4.19222,11.47828 -2.55042,11.47828 0.35026,0 1.91397,-0.89941 3.47491,-1.99866 1.56091,-1.09927 5.72489,-3.297 9.25325,-4.88387 3.52836,-1.58686 7.69229,-3.57431 9.25317,-4.41655 1.56088,-0.84223 3.12458,-1.53133 3.47493,-1.53133 1.63152,0 0.27996,3.59485 -3.48901,9.27991 -4.52026,6.81833 -5.70346,9.77703 -6.02621,15.06904 -0.28789,4.72043 -3.60054,7.95105 -12.69286,12.37857 -7.60206,3.70183 -14.73968,5.40224 -17.78463,4.23688 z m -37.64425,-24.45606 c 13.76695,-2.78654 27.41447,-10.1656 30.75746,-16.63023 3.63184,-7.02317 0.35512,-16.98531 -5.58673,-16.98531 -1.7963,0 -2.88203,-0.71337 -3.2547,-2.13841 -0.67325,-2.57453 -2.17182,-2.71995 -4.67594,-0.45375 -1.02384,0.92655 -2.50514,1.7988 -3.29177,1.93833 -6.0464,1.0725 -13.72495,4.2602 -15.914,6.60657 -1.44292,1.54664 -5.39162,4.7599 -8.77487,7.1406 -7.78303,5.47671 -12.95145,12.89022 -12.07884,17.32572 0.34134,1.73495 1.21477,3.53186 1.941,3.99313 2.15343,1.36778 12.05063,0.99013 20.87839,-0.79665 z m 612.74696,23.18696 c -2.7161,-0.95627 -7.0464,-3.48548 -9.6227,-5.62046 -3.8053,-3.15341 -5.0355,-5.10083 -6.5554,-10.37841 -2.2687,-7.87695 -2.3813,-13.99061 -0.3473,-18.85862 0.8381,-2.00591 2.0747,-7.40328 2.7479,-11.99417 0.6732,-4.59087 1.8833,-12.43673 2.6893,-17.43526 1.4175,-8.79269 1.962,-14.96351 3.3747,-38.25675 0.3668,-6.04568 1.068,-11.24018 1.5586,-11.54334 0.4906,-0.30318 1.8873,-0.0184 3.1041,0.63275 1.8637,0.99733 2.801,0.66714 5.9464,-2.09462 3.2852,-2.88447 4.275,-3.20292 8.2344,-2.64918 2.4754,0.34618 5.1021,0.81476 5.8371,1.04131 2.2652,0.6981 1.5193,9.20579 -1.7874,20.38749 -1.7183,5.81005 -3.4525,14.65342 -3.8539,19.65194 -0.4014,4.99852 -1.8656,14.62132 -3.2539,21.384 -2.9608,14.42341 -4.2089,25.49829 -3.2874,29.1699 1.8556,7.39351 23.0873,5.71188 40.5094,-3.20856 5.1417,-2.63261 10.4802,-6.13152 11.8634,-7.77535 2.5646,-3.04782 4.1547,-10.34257 5.6541,-25.93769 0.3815,-3.96941 1.1086,-7.2171 1.6155,-7.2171 1.3693,0 1.1166,-6.16839 -0.2883,-7.03661 -1.5123,-0.93471 -0.59,-30.12104 1.1327,-35.84167 l 1.1601,-3.85249 11.3717,-0.73521 c 10.7903,-0.6976 11.5007,-0.61411 13.8927,1.63315 3.0697,2.88379 3.2141,6.17211 0.4268,9.71564 -1.7114,2.17578 -2.2074,4.98698 -2.7127,15.3803 -0.3402,6.99484 -1.0436,15.60473 -1.5632,19.13309 -0.5197,3.52836 -1.2749,11.70774 -1.6782,18.17641 -0.4556,7.30595 -1.5,13.78633 -2.7572,17.10721 -2.4526,6.47872 -2.5267,8.019 -0.3856,8.019 1.879,0 11.4237,-4.65328 15.633,-7.62152 1.5609,-1.1007 4.087,-2.00128 5.6133,-2.00128 3.8556,0 3.6558,3.25186 -0.6078,9.8962 -1.8607,2.89962 -3.7506,7.59684 -4.1998,10.43829 -0.4491,2.84145 -1.6244,6.39929 -2.6121,7.90633 -3.5585,5.43126 -18.9023,12.35224 -27.44,12.37724 -3.2353,0.01 -4.4514,-0.63909 -6.6825,-3.56427 -1.5,-1.9667 -2.7274,-4.31348 -2.7274,-5.21508 0,-3.87079 -2.6833,-4.13434 -10.2705,-1.00876 -14.7742,6.08629 -24.1249,8.52662 -34.6359,9.03934 -7.6599,0.37366 -11.3717,0.068 -15.096,-1.24319 z m -530.01238,-3.28071 c -2.40254,-2.4756 -4.68652,-5.54709 -5.07554,-6.82553 -0.38902,-1.27844 -1.3075,-3.04616 -2.04104,-3.92825 -2.27055,-2.73032 -2.84272,-7.17908 -1.14204,-8.87975 1.21197,-1.21198 3.6336,-1.43122 11.1038,-1.00529 l 9.55385,0.54474 0.40774,-22.55773 c 0.28912,-15.99324 0.79181,-22.94182 1.72758,-23.87751 0.93491,-0.93498 1.31973,-6.22131 1.31973,-18.13109 0,-16.19211 -0.0946,-16.92384 -2.56976,-19.86536 -1.783,-2.11889 -2.40689,-3.90622 -2.03772,-5.8373 0.70293,-3.6773 -1.24764,-4.71607 -4.65881,-2.48099 -2.10172,1.37709 -3.29774,1.54376 -5.03164,0.70125 -1.25105,-0.60788 -4.07896,-1.65721 -6.28416,-2.33185 -4.7174,-1.44317 -5.00693,-2.97935 -1.26648,-6.7198 3.15537,-3.15535 19.02665,-9.22234 26.12538,-9.98668 9.92219,-1.0684 16.03329,5.40305 16.03639,16.9822 8e-4,3.38136 0.3974,6.14791 0.881,6.14791 0.4836,0 3.6383,-3.12312 7.0104,-6.94024 7.5443,-8.54009 13.9087,-12.47253 20.3431,-12.56979 6.6633,-0.10072 11.2449,1.95322 10.5221,4.71716 -0.4872,1.86297 -0.1175,2.10828 2.7274,1.80988 4.7037,-0.49341 8.0644,3.12606 13.673,14.72601 5.2747,10.90948 5.368,11.41322 3.116,16.80308 -0.8821,2.11114 -1.6038,5.77846 -1.6038,8.14957 0,3.18073 -0.4345,4.31114 -1.6569,4.31114 -2.3703,0 -8.0453,3.02679 -11.2035,5.9754 -2.4858,2.32083 -3.0444,2.42191 -6.9498,1.25732 -2.3357,-0.6965 -4.4874,-1.52623 -4.7813,-1.84385 -0.2941,-0.3176 -1.497,-1.10583 -2.6731,-1.75161 -3.1634,-1.73699 -4.9089,-5.73408 -3.5845,-8.20867 0.9962,-1.8614 1.2396,-1.73142 2.8711,1.53295 1.8888,3.77936 4.0325,4.71404 8.3348,3.63424 2.8827,-0.72352 6.8129,-8.25192 6.8129,-13.05052 0,-3.73152 -2.0041,-7.07119 -3.8243,-6.37274 -0.9864,0.37856 -1.5218,-0.12911 -1.5218,-1.44327 0,-3.3973 -5.0243,-6.46107 -10.5689,-6.44466 -2.714,0.009 -6.0404,0.31085 -7.3922,0.67292 -2.6533,0.71069 -6.2367,6.91498 -10.388,17.98562 -3.0761,8.20333 -8.0097,37.42746 -8.1195,48.09462 -0.1007,9.79667 1.4194,12.70033 8.225,15.71072 3.2579,1.44114 4.7212,2.73571 4.7212,4.1768 0,2.50721 2.406,2.73876 4.3328,0.417 1.2581,-1.51567 1.4744,-1.51567 2.3225,0 1.1658,2.08298 4.4322,2.16768 6.1,0.15819 1.5058,-1.81446 7.389,-0.5189 9.2813,2.04388 0.6528,0.88424 2.2165,1.6077 3.4749,1.6077 2.7098,0 3.0019,2.3531 0.5451,4.39206 -2.263,1.87809 -12.9117,5.19477 -16.7436,5.215 -1.6406,0.009 -5.0086,1.06631 -7.4845,2.35033 -3.4705,1.79992 -7.3175,2.51146 -16.7973,3.10686 -6.7627,0.42475 -16.68438,1.12253 -22.04827,1.55064 l -9.75257,0.77836 z m 717.64808,2.31862 c -3.6011,-2.92236 -8.952,-11.032 -8.952,-13.56739 0,-3.34556 5.2001,-7.77131 10.1574,-8.64497 8.442,-1.48773 8.019,0.79934 8.019,-43.36396 0,-24.15584 -0.4461,-41.42229 -1.1559,-44.73119 -1.2987,-6.05664 -4.1395,-8.94328 -10.7501,-10.92384 -4.2096,-1.26124 -5.1942,-2.99304 -2.7955,-4.91765 1.334,-1.07044 19.846,-4.53546 24.2308,-4.53546 3.473,0 10.8157,7.38045 11.7144,11.77477 1.1409,5.57835 3.3941,5.0615 8.726,-2.00156 3.6421,-4.82458 6.355,-7.11269 11.4015,-9.61619 6.4678,-3.20857 6.7423,-3.24953 11.7696,-1.75654 6.5337,1.9403 13.2629,6.86515 15.7887,11.55504 1.8633,3.46012 1.8807,4.36669 0.3437,17.96098 -1.6087,14.22793 -1.652,14.37009 -6.9599,22.87053 -2.9376,4.70448 -6.011,8.5536 -6.8297,8.5536 -1.1352,0 -1.6246,-2.54084 -2.0594,-10.69201 -0.6593,-12.36021 -2.2632,-16.26371 -8.0972,-19.70584 -6.3921,-3.77146 -7.9648,-2.86458 -11.8443,6.83011 -5.5241,13.80528 -11.9228,54.55579 -9.5666,60.92586 2.768,7.483 2.3118,7.29732 14.6607,5.96868 6.1276,-0.6593 12.9564,-1.59226 15.1751,-2.07328 2.4473,-0.53052 4.2864,-0.4665 4.6753,0.1628 0.3527,0.57054 -2.746,4.47606 -6.8861,8.67893 -4.1397,4.20287 -8.2333,9.37249 -9.0965,11.48806 -2.7351,6.70271 -6.4648,8.06386 -25.872,9.44206 -9.409,0.66818 -18.5506,1.42849 -20.3149,1.68958 -2.0383,0.30168 -4.0367,-0.19809 -5.4821,-1.37112 z m 262.6249,0.82689 c -14.6738,-1.25707 -23.6401,-10.23025 -27.1417,-27.16279 -1.3435,-6.49628 -1.7267,-14.8299 -1.7267,-37.55044 0,-16.06066 -0.292,-29.96227 -0.649,-30.89245 -0.5147,-1.34128 -2.3671,-1.69126 -8.952,-1.69126 h -8.3031 l -4.5002,-4.88215 c -2.7403,-2.97289 -4.2599,-5.50818 -3.886,-6.48293 0.338,-0.88042 -0.1005,-2.98323 -0.9743,-4.67292 -0.8737,-1.68968 -1.34,-3.72008 -1.0362,-4.51201 0.823,-2.14429 15.3113,-9.1278 20.6623,-9.95928 8.6821,-1.34914 8.8,-1.71971 8.6653,-27.23195 -0.071,-13.54748 -0.5882,-23.62738 -1.3091,-25.53725 -1.3385,-3.54595 0.2198,-6.56458 3.3535,-6.4966 2.7306,0.0592 14.771,7.80254 17.472,11.23629 2.2283,2.83279 2.4947,4.55882 3.0837,19.97665 0.5417,14.17696 0.9533,17.21694 2.5741,19.00804 2.4737,2.73328 4.1353,2.67239 10.7174,-0.39267 3.4767,-1.61896 8.5665,-2.78211 14.4018,-3.29111 4.9634,-0.43299 10.2422,-1.40481 11.7301,-2.15961 1.488,-0.75478 5.7339,-1.65878 9.4353,-2.00884 5.6048,-0.53011 6.8409,-0.34656 7.3952,1.09797 0.4578,1.1929 -0.6377,2.76758 -3.5087,5.04312 -2.2957,1.81974 -9.7305,8.16716 -16.5216,14.10537 -9.1277,7.98153 -13.9462,11.39501 -18.4797,13.09119 -3.3729,1.26194 -8.4559,3.47186 -11.2958,4.91091 l -5.1634,2.61646 -0.7027,31.33718 c -0.7932,35.36952 -0.2118,42.4553 3.8139,46.48101 2.5517,2.55156 2.8691,2.61204 5.7822,1.10135 1.6954,-0.87917 9.4736,-7.66056 17.2849,-15.06975 15.0227,-14.24911 19.2424,-16.61304 17.8434,-9.99634 -1.7126,8.1001 -4.7272,14.68334 -8.1064,17.7026 -3.1389,2.8047 -3.4101,3.46502 -2.3651,5.75882 1.9104,4.19259 -2.6738,12.45639 -10.5696,19.05401 -8.9092,7.44439 -10.7731,8.1762 -19.0238,7.46938 z m -138.7075,-1.63518 c -5.5037,-1.73286 -14.5281,-8.08257 -19.7097,-13.86791 -4.858,-5.4241 -10.9588,-17.56287 -12.5203,-24.91154 -1.6294,-7.66898 -1.4561,-26.75474 0.3321,-36.56749 1.4253,-7.82053 6.303,-22.31722 9.7559,-28.99449 4.1602,-8.04475 15.3689,-17.45262 28.8032,-24.17566 15.5985,-7.80596 41.4855,-3.46488 50.9339,8.54124 1.551,1.97079 4.255,6.44342 6.0088,9.93918 9.9301,19.79294 12.2363,38.7276 7.3503,60.35054 -1.8229,8.06739 -3.3889,12.6635 -4.5538,13.36501 -0.9766,0.58806 -2.9031,2.03148 -4.281,3.2076 -2.3981,2.0467 -2.4339,2.28279 -0.834,5.50562 1.6006,3.22397 1.549,3.56159 -1.2129,7.93668 -4.4654,7.07355 -12.0009,14.59374 -18.1474,18.1104 -5.5454,3.1728 -5.7036,3.19554 -21.4944,3.0906 -9.9815,-0.0663 -17.5928,-0.63623 -20.4307,-1.52978 z m 30.937,-23.10067 c 9.838,-2.17998 17.1123,-13.96493 18.5736,-30.09029 0.3984,-4.39467 0.3497,-16.83098 -0.108,-27.63625 l -0.8321,-19.64595 -8.9184,-6.68249 c -9.9261,-7.43761 -11.9024,-7.88878 -21.8374,-4.98538 -9.5529,2.7917 -19.2142,14.05933 -21.8771,25.51425 -0.8084,3.47771 -3.0314,8.00038 -5.7237,11.64491 -4.9679,6.72468 -5.2429,8.14475 -2.3714,12.24133 1.117,1.59335 2.2961,5.4145 2.6204,8.49145 0.7435,7.05224 9.6642,25.58615 13.7045,28.4722 6.415,4.5826 14.5129,5.39216 26.7696,2.67622 z m -223.6734,19.39919 c -2.3307,-2.5246 -4.5458,-5.60427 -4.9224,-6.8437 -0.3767,-1.23945 -1.285,-2.97524 -2.0186,-3.85733 -2.38,-2.86205 -2.8398,-7.18198 -0.9639,-9.05788 1.3134,-1.31327 2.8365,-1.56192 6.3453,-1.03579 l 4.6168,0.69237 1.2671,-4.65485 c 0.6969,-2.56017 1.1858,-8.60133 1.0863,-13.42478 -0.1274,-6.19826 0.315,-9.72831 1.5096,-12.03818 1.31,-2.53325 1.4223,-3.76858 0.4993,-5.49316 -1.6284,-3.04263 -1.482,-9.21497 0.5107,-21.53396 0.9264,-5.72725 1.6843,-12.40642 1.6843,-14.8426 0,-2.67064 0.9157,-5.911 2.3061,-8.16076 2.019,-3.26665 2.147,-4.17112 1.0292,-7.26274 -1.4622,-4.04373 -0.1393,-17.96706 2.549,-26.82838 0.8673,-2.85888 1.5821,-7.76697 1.5885,-10.90689 0.01,-3.13993 1.4092,-11.80046 3.1173,-19.24561 1.7081,-7.44517 3.1422,-15.94238 3.1871,-18.88268 0.045,-2.9403 0.4568,-10.23685 0.9153,-16.21456 l 0.8338,-10.86857 -2.8816,1.70217 c -2.0815,1.22952 -3.2722,1.38706 -4.2882,0.56732 -0.7737,-0.62416 -2.937,-1.4619 -4.8076,-1.86164 -10.2474,-2.18986 -4.7258,-8.8483 11.913,-14.36567 9.0142,-2.98903 11.5274,-3.41586 16.5608,-2.81262 7.6407,0.91573 17.475,3.70361 18.4727,5.23675 1.1546,1.77436 -0.1497,5.03393 -3.5947,8.98371 -1.6849,1.93165 -3.0635,4.23217 -3.0635,5.11226 0,0.88008 -0.8419,1.9161 -1.871,2.30223 -4.3599,1.63595 -5.9758,7.63788 -2.955,10.97582 1.7416,1.9244 1.7727,1.65541 -3.2144,27.81541 -1.4013,7.35076 -3.0779,18.17642 -3.7257,24.05701 -2.6845,24.36654 -5.588,45.7558 -8.0604,59.37866 -1.8002,9.91837 -2.6266,18.34912 -2.6266,26.79295 0,9.17795 -0.4004,12.85015 -1.5698,14.39619 -2.2325,2.95155 -2.2123,15.77108 0.029,17.63013 0.9161,0.76026 2.3187,2.94559 3.1169,4.85626 1.9056,4.56058 5.2884,6.4107 8.7978,4.81171 3.4784,-1.58489 4.5961,-0.70318 4.5961,3.62596 0,2.98728 -0.9209,4.4018 -5.4392,8.35423 -5.9251,5.18318 -6.7553,5.39492 -26.7021,6.81078 l -9.5883,0.68061 z m -566.9519,-6.16535 c -2.1816,-0.48465 -2.2438,-0.77235 -0.7642,-3.53676 1.0514,-1.9646 5.2511,-2.8382 6.6964,-1.39295 0.9004,0.90045 -0.9758,4.29967 -2.6949,4.88231 -0.7514,0.25469 -2.2081,0.27601 -3.2373,0.0474 z"
       id="path8305"
       inkscape:connector-curvature="0" />
  </g>
</svg>
