<?xml version="1.0" encoding="UTF-8" standalone="no"?>
<!-- Created with Inkscape (http://www.inkscape.org/) -->

<svg
   xmlns:dc="http://purl.org/dc/elements/1.1/"
   xmlns:cc="http://creativecommons.org/ns#"
   xmlns:rdf="http://www.w3.org/1999/02/22-rdf-syntax-ns#"
   xmlns:svg="http://www.w3.org/2000/svg"
   xmlns="http://www.w3.org/2000/svg"
   xmlns:xlink="http://www.w3.org/1999/xlink"
   xmlns:sodipodi="http://sodipodi.sourceforge.net/DTD/sodipodi-0.dtd"
   xmlns:inkscape="http://www.inkscape.org/namespaces/inkscape"
   id="svg2"
   version="1.1"
   inkscape:version="0.92.4 (5da689c313, 2019-01-14)"
   width="2481"
   height="663"
   sodipodi:docname="E16P00.svg">
  <sodipodi:namedview
     pagecolor="#ffffff"
     bordercolor="#666666"
     inkscape:pageopacity="0"
     inkscape:pageshadow="2"
     inkscape:window-width="1813"
     inkscape:window-height="955"
     id="namedview70"
     showgrid="false"
     inkscape:zoom="0.4"
     inkscape:cx="1467.7026"
     inkscape:cy="254.09487"
     inkscape:current-layer="layer1"
     inkscape:window-x="0"
     inkscape:window-y="62"
     inkscape:window-maximized="0" />
  <metadata
     id="metadata8">
    <rdf:RDF>
      <cc:Work
         rdf:about="">
        <dc:format>image/svg+xml</dc:format>
        <dc:type
           rdf:resource="http://purl.org/dc/dcmitype/StillImage" />
        <dc:title />
      </cc:Work>
    </rdf:RDF>
  </metadata>
  <defs
     id="defs6" />
  <sodipodi:namedview
     pagecolor="#ffffff"
     bordercolor="#666666"
     borderopacity="1"
     objecttolerance="10"
     gridtolerance="10"
     guidetolerance="10"
     inkscape:pageopacity="0"
     inkscape:pageshadow="2"
     inkscape:window-width="1920"
     inkscape:window-height="1025"
     id="namedview4"
     showgrid="false"
     inkscape:zoom="0.40071843"
     inkscape:cx="868.90135"
     inkscape:cy="178.35636"
     inkscape:window-x="0"
     inkscape:window-y="26"
     inkscape:window-maximized="1"
     inkscape:current-layer="layer1" />
  <g
     inkscape:groupmode="layer"
     id="layer2"
     inkscape:label="artwork"
     sodipodi:insensitive="true">
    <image
       sodipodi:absref="/felles/omsetting/pepper-carrot/webcomics/ep16_The-Sage-of-the-Mountain/lang/nn/../gfx_Pepper-and-Carrot_by-David-Revoy_E16P00.png"
       xlink:href="../gfx_Pepper-and-Carrot_by-David-Revoy_E16P00.png"
       y="0"
       x="0"
       id="image10"
       height="663"
       width="2481" />
  </g>
  <g
     inkscape:groupmode="layer"
     id="layer1"
     inkscape:label="txt"
     style="display:inline">
    <text
       xml:space="preserve"
       style="font-style:normal;font-variant:normal;font-weight:normal;font-stretch:normal;line-height:0%;font-family:Arial;-inkscape-font-specification:Arial;letter-spacing:0px;word-spacing:0px;display:inline;fill:#2b1100;fill-opacity:1;stroke:#000000;stroke-width:2;stroke-miterlimit:4;stroke-dasharray:none;stroke-opacity:1"
       x="1239.6681"
       y="582.47577"
       id="episode-title"><tspan
         sodipodi:role="line"
         id="tspan4180"
         style="font-style:normal;font-variant:normal;font-weight:normal;font-stretch:normal;font-size:72.5px;line-height:1.25;font-family:Lavi;-inkscape-font-specification:Lavi;text-align:center;text-anchor:middle;fill:#2b1100;stroke:none"
         x="1239.6681"
         y="582.47577">Episode 16: Vismannen på fjellet</tspan></text>
    <path
       style="display:inline;opacity:1;fill:#301b0b;fill-opacity:1;stroke-width:1.06331134;enable-background:new"
       d="m 744.66113,498.70911 c -5.4052,-5.40521 -5.7789,-6.11182 -5.7789,-10.92819 0,-6.45698 2.07,-9.49218 7.4641,-10.94465 2.3923,-0.6442 4.7709,-2.14289 5.5331,-3.48627 0.9589,-1.69026 1.4421,-10.79368 1.7092,-32.20414 l 0.3723,-29.84784 -6.2102,-1.35803 c -8.5576,-1.87136 -15.2483,-4.93046 -15.2483,-6.97181 0,-0.92848 -0.7178,-1.96356 -1.595,-2.30018 -0.8772,-0.33664 -1.595,-1.30027 -1.595,-2.14144 0,-1.19983 0.8593,-1.35798 3.9875,-0.734 5.8006,1.15705 8.0336,0.87378 14.6145,-1.85384 l 5.9036,-2.44693 -0.3854,-39.40244 c -0.2119,-21.67133 -0.7541,-40.94569 -1.2048,-42.83193 -0.9706,-4.06201 -3.7606,-4.89342 -16.7985,-5.0059 -10.2498,-0.0884 -10.7154,-1.54603 -2.6611,-8.33044 6.3362,-5.33722 8.1319,-6.36549 21.7904,-12.47813 6.8498,-3.06556 10.5553,-4.17783 12.228,-3.6705 3.4263,1.03918 7.1366,4.70983 8.8185,8.72415 l 1.4478,3.45574 h 12.2275 c 18.7228,0 31.8578,4.60901 48.1748,16.9043 13.0517,9.83462 17.3279,17.58806 17.3279,31.41707 0,9.13392 -2.037,16.5943 -7.2747,26.64209 -5.0137,9.61809 -20.0798,25.00396 -30.5385,31.18661 -7.6177,4.50326 -31.6634,14.00411 -35.4429,14.00411 -5.5066,0 -5.4289,-0.34536 -5.4289,24.10817 0,13.61609 0.4415,23.64227 1.0949,24.86305 1.2736,2.37981 6.3943,5.25765 9.3553,5.25765 1.127,0 2.6233,0.6918 3.3251,1.53734 0.9152,1.10274 1.9748,1.27157 3.7485,0.59724 1.4529,-0.55241 5.4019,-0.52529 9.5754,0.0658 5.8685,0.83106 7.7425,0.7023 10.7841,-0.74107 2.6803,-1.27187 5.2873,-1.58119 9.5864,-1.13749 3.2477,0.33519 7.1204,0.14728 8.6061,-0.41758 3.3115,-1.25901 3.9843,-0.72577 2.5247,2.00122 -1.1749,2.19536 -6.4982,3.87869 -6.4982,2.05486 0,-0.58374 -2.372,1.15731 -5.271,3.86906 -2.8991,2.71171 -5.975,4.93039 -6.8356,4.93039 -0.8605,0 -2.2997,0.73514 -3.1982,1.63364 -2.0931,2.09313 -7.6089,4.39152 -13.9482,5.8122 -2.7448,0.61514 -6.5098,2.27718 -8.3666,3.6934 -3.966,3.02506 -12.0717,6.07919 -22.4575,8.46182 -4.0938,0.93914 -7.6027,2.17649 -7.7976,2.74965 -0.195,0.57318 -2.499,1.04214 -5.1201,1.04214 -4.3518,0 -5.2674,-0.50176 -10.5445,-5.77886 z m 46.1396,-111.70044 c 17.4504,-8.36288 34.6311,-23.89078 41.2487,-37.28063 3.4378,-6.95589 3.81,-8.5001 3.3591,-13.9372 -0.4696,-5.66226 -0.8715,-6.44449 -5.4331,-10.57444 -6.0983,-5.52102 -12.5836,-7.35726 -25.6995,-7.27642 -10.3093,0.0636 -22.0621,2.60574 -25.2079,5.45263 -1.7515,1.58506 -1.9065,4.28876 -1.9065,33.24726 0,32.3998 0.2078,34.07382 4.23,34.07382 0.923,0 5.1571,-1.66728 9.4092,-3.70502 z m 365.43107,83.04946 c -15.2169,-4.97185 -22.0016,-9.95863 -27.3389,-20.09441 -1.8196,-3.45597 -2.3722,-6.32544 -2.3989,-12.46434 -0.049,-11.25247 4.0357,-19.6545 15.0674,-30.99056 l 8.1858,-8.41175 -3.4162,-6.92765 c -2.6481,-5.37009 -3.1742,-7.37976 -2.34,-8.93835 1.6298,-3.04539 1.3049,-4.27712 -1.1277,-4.27712 h -2.204 l 2.204,-2.8017 c 2.8603,-3.63645 2.8373,-6.80151 -0.055,-7.55794 -2.0476,-0.53545 -2.2041,-1.12382 -1.6715,-6.28349 1.6693,-16.1735 16.3034,-31.90755 31.5765,-33.94993 5.6079,-0.74989 13.8585,1.95937 21.6171,7.09846 7.0199,4.64978 12.7846,14.39799 12.7811,21.6127 -0.01,9.93055 -3.0693,17.20032 -11.5637,27.43409 -3.2019,3.85742 -5.8215,7.73761 -5.8215,8.62263 0,0.88502 -1.9844,3.30779 -4.41,5.38397 l -4.41,3.77485 7.334,8.14225 c 4.0338,4.47825 8.6848,9.75496 10.3357,11.72604 1.651,1.97106 3.3984,3.58375 3.8835,3.58375 0.9433,0 3.2164,-5.74823 3.2164,-8.1335 0,-0.97881 -1.4393,-1.44049 -4.519,-1.44946 -4.0065,-0.0117 -4.7978,-0.44342 -6.9774,-3.80697 -3.523,-5.43743 -2.4747,-9.28726 3.1408,-11.53416 10.906,-4.36373 24.8732,-7.12416 38.1284,-7.53551 7.3103,-0.22687 16.1623,-0.72483 19.6713,-1.10657 l 6.3797,-0.6941 -7.443,7.85732 c -4.0938,4.32153 -8.3612,8.32179 -9.483,8.88949 -1.1217,0.56767 -2.5571,1.98912 -3.1899,3.15877 -0.6327,1.16964 -1.2693,2.32535 -1.4147,2.56826 -0.1453,0.24291 -3.4948,0.97076 -7.4431,1.61743 l -7.1787,1.17581 -0.7154,7.2133 c -0.3933,3.96734 -1.6576,9.11815 -2.8096,11.44629 l -2.0943,4.23296 6.5314,4.3709 c 10.7284,7.18 10.4804,6.83176 8.0678,11.3331 -1.1377,2.1227 -2.0685,4.44813 -2.0685,5.16767 0,0.71953 -1.4193,2.7602 -3.154,4.53481 -3.6619,3.74595 -7.4287,4.15134 -11.5682,1.24499 -1.5522,-1.08987 -5.0335,-2.94961 -7.7359,-4.13274 -2.7023,-1.18313 -5.2575,-2.70782 -5.678,-3.38819 -0.5367,-0.86814 -1.7667,-0.47416 -4.1247,1.32106 -5.0256,3.82613 -10.911,6.57572 -20.3731,9.51803 -13.0238,4.04987 -15.0498,4.1754 -23.3928,1.44951 z m 25.6262,-27.24179 c 2.2807,-1.37299 4.3223,-2.62874 4.5367,-2.7906 0.2148,-0.16185 -5.0325,-5.56748 -11.6606,-12.01252 l -12.0512,-11.71828 -2.4944,2.3434 c -1.3719,1.28889 -3.4606,3.90668 -4.6416,5.81732 -1.1806,1.91064 -2.7514,3.47391 -3.4902,3.47391 -2.1666,0 -5.1859,4.00513 -4.455,5.90954 0.3664,0.95456 1.5614,1.96966 2.6554,2.25579 1.0944,0.28614 2.6108,1.68083 3.3699,3.09925 0.759,1.41845 2.852,3.52285 4.6508,4.67644 4.7435,3.04205 17.7414,2.46092 23.5802,-1.05425 z m -7.64,-64.42378 c 13.1883,-11.25286 15.3917,-17.25223 8.8625,-24.1307 -4.087,-4.3055 -9.9648,-5.83993 -14.3234,-3.73913 -4.282,2.06391 -8.9491,9.39035 -9.5869,15.05 -0.8285,7.34862 2.9236,19.8244 5.9621,19.8244 0.482,0 4.5706,-3.15208 9.0857,-7.00457 z m 195.2077,62.69245 c -9.4959,-1.87956 -19.5732,-5.3926 -25.5842,-8.91889 -17.0568,-10.00618 -28.7457,-21.72899 -36.0314,-36.13588 -4.695,-9.28387 -6.4325,-14.93926 -9.9885,-32.51354 -2.4534,-12.1239 -2.5197,-13.37293 -1.1842,-22.32954 3.4108,-22.87793 11.3885,-51.78657 18.4794,-66.96538 8.8481,-18.93967 27.7985,-46.22279 42.0808,-60.58414 11.2484,-11.3107 19.1959,-17.24682 31.0806,-23.21472 l 9.8144,-4.92829 11.4518,0.006 c 10.8171,0.005 12.0581,0.24135 22.3869,4.25324 14.7078,5.71266 14.7376,5.7086 15.6463,-2.12002 0.4469,-3.85087 1.588,-7.44695 2.8876,-9.09902 2.0039,-2.54755 2.5526,-2.68237 8.1378,-1.99991 6.9805,0.85294 17.2682,5.64457 22.2044,10.34173 2.9335,2.79149 3.4488,4.02028 3.4093,8.13062 -0.086,9.01794 -1.6048,13.83549 -5.6758,18.00454 -4.4429,4.5499 -5.0197,7.56059 -1.455,7.59581 1.3158,0.0131 3.5392,0.90542 4.941,1.98316 l 2.5485,1.95953 -1.7547,19.03187 c -3.1128,33.76013 -13.8612,80.14292 -18.5716,80.14292 -1.2826,0 -2.3154,-5.29195 -2.3154,-11.86348 0,-2.86979 -0.6716,-6.82485 -1.4921,-8.78902 -0.8383,-2.00597 -1.8334,-9.79742 -2.2705,-17.77634 -0.7096,-12.94672 -1.1964,-15.42746 -5.4971,-28.00446 -9.0953,-26.59818 -19.0772,-42.03836 -27.1618,-42.01403 -8.5293,0.0257 -22.9999,9.54113 -37.6563,24.76198 -8.4348,8.75934 -11.2846,11.10331 -12.9657,10.66369 -1.42,-0.37138 -3.0814,0.36327 -4.8728,2.15483 -2.9178,2.91774 -3.3396,4.98377 -1.6587,8.12435 1.4288,2.66991 0.3267,5.12772 -2.4786,5.52734 -1.7393,0.24776 -2.335,1.10833 -2.4352,3.51793 -0.072,1.75447 -4.0873,11.56351 -8.9209,21.79789 -11.0481,23.39248 -19.7103,49.09067 -20.7882,61.67206 -0.6129,7.1511 -1.3109,9.7435 -3.3441,12.41661 -2.4232,3.18597 -2.4773,3.55744 -0.9457,6.51905 0.8933,1.72729 3.0013,4.29934 4.6844,5.71564 1.6832,1.41629 4.4074,4.94233 6.0538,7.83566 4.1682,7.32549 11.7932,15.04207 18.0114,18.22743 4.9899,2.55632 5.9154,2.66572 18.6079,2.19997 12.2317,-0.44884 14.3868,-0.85323 25.5848,-4.80081 6.7255,-2.37087 14.0071,-5.07503 16.1813,-6.00922 2.1743,-0.93418 5.2618,-1.69852 6.8609,-1.69852 1.7156,0 4.2362,-1.23021 6.1483,-3.0009 1.7822,-1.65053 6.6538,-4.30267 10.8259,-5.89369 4.1719,-1.59099 8.477,-3.87824 9.5672,-5.08277 1.0902,-1.2045 3.2566,-2.84922 4.8147,-3.65484 3.3188,-1.71624 3.0893,-4.22862 -0.7665,-8.38904 -2.345,-2.53013 -3.1166,-2.68817 -13.1268,-2.68817 -8.9158,0 -11.804,-0.44938 -17.8613,-2.77899 -17.8069,-6.84846 -21.1731,-7.79973 -27.6944,-7.82665 -3.6551,-0.015 -6.6291,-0.38633 -6.6088,-0.82497 0.02,-0.43859 4.5791,-3.83817 10.1312,-7.55462 5.8934,-3.94506 12.5945,-9.58711 16.1017,-13.55722 3.3038,-3.74003 6.5876,-6.80007 7.2969,-6.80007 0.7093,0 5.7591,2.93475 11.2217,6.52167 l 9.9319,6.52162 9.0583,-0.69535 c 4.982,-0.38247 12.1049,-1.35564 15.8285,-2.16264 6.3911,-1.38504 7.1772,-1.32893 14.0285,1.00146 3.9923,1.35777 8.2367,2.21285 9.4324,1.90019 3.1932,-0.83508 3.7448,1.92665 1.6464,8.24421 -1.4783,4.45119 -2.4794,5.7387 -5.415,6.96531 -4.0906,1.70922 -4.3128,2.90979 -1.8305,9.89884 l 1.7709,4.98642 -5.9489,10.59925 c -8.1941,14.59962 -21.2492,27.03067 -28.3878,27.03067 -1.601,0 -2.9687,1.58597 -5.0801,5.89085 -2.6845,5.4738 -3.7401,6.41432 -14.9103,13.28414 -8.3109,5.11138 -15.5383,8.57437 -23.4161,11.21997 -10.4324,3.50333 -12.6082,3.85739 -25.7498,4.1898 -7.8952,0.1997 -15.551,0.12631 -17.013,-0.16309 z M 486.49184,422.19664 c -8.03669,-3.01735 -14.09573,-11.26827 -15.21503,-20.71912 -0.50707,-4.28144 -0.21508,-5.48435 1.93937,-7.98902 2.06457,-2.40021 3.77558,-3.09476 9.19923,-3.73427 9.40092,-1.10844 10.22992,-2.23329 10.67863,-14.48935 0.35701,-9.75194 0.43977,-10.04182 2.7048,-9.47333 1.5654,0.3929 3.00824,-0.15583 4.37189,-1.66267 2.42388,-2.67832 1.46757,-4.859 -3.28601,-7.49297 l -3.09566,-1.71532 -0.28088,-32.39898 -0.28091,-32.39899 3.60561,0.42094 c 2.85405,0.33318 3.97219,-0.0988 5.36437,-2.07255 1.64723,-2.33532 1.63701,-2.59467 -0.16106,-4.08846 -1.05593,-0.87723 -3.5373,-3.85816 -5.51419,-6.62426 l -3.59433,-5.02933 0.89884,-17.3002 c 0.49437,-9.51514 0.92743,-21.68863 0.96237,-27.0522 0.0574,-8.82648 -0.1742,-10.0048 -2.44102,-12.41589 -1.37747,-1.46517 -5.20539,-3.73142 -8.50648,-5.03613 -3.30109,-1.3047 -7.03992,-3.30085 -8.3085,-4.43588 -3.64917,-3.26498 -6.81501,-11.85793 -7.01401,-19.038 -0.16618,-5.99528 0.0567,-6.65703 3.18083,-9.44853 7.2676,-6.4936 40.85638,-14.34312 66.60962,-15.5663 14.22235,-0.6755 32.36428,0.69972 45.8612,3.47644 9.89514,2.03573 27.21184,10.70892 34.69174,17.37562 9.7219,8.66502 21.96167,27.94711 28.11157,44.2859 12.1472,32.27206 -2.6339,64.34653 -41.65737,90.39524 -14.20494,9.48196 -47.44788,24.02319 -64.25573,28.10696 -12.34405,2.9992 -14.76544,4.09358 -15.49578,7.00343 -1.00439,4.00182 0.0131,28.91225 1.23055,30.12913 0.60893,0.60859 3.37749,1.53067 6.15236,2.0491 2.7749,0.5184 5.90304,1.71883 6.95146,2.66763 1.32065,1.19517 3.90263,1.72509 8.40541,1.72509 3.57459,0 6.73135,0.37558 7.01507,0.83464 0.64504,1.04372 32.77524,0.88592 34.4827,-0.16935 0.68803,-0.42523 2.92837,-0.31 4.97846,0.25606 2.1386,0.59051 3.9753,0.62834 4.3088,0.0887 0.5061,-0.81899 6.6825,-0.25728 7.8276,0.71188 1.1378,0.96295 -2.6791,3.62181 -6.1065,4.25388 -2.1343,0.3936 -5.5124,1.58329 -7.50689,2.64378 -1.99446,1.06049 -3.99499,1.70031 -4.44559,1.4218 -0.45061,-0.27849 -2.01019,0.59735 -3.46576,1.94629 -1.51938,1.40814 -6.41866,3.48675 -11.50407,4.8808 -4.87168,1.3355 -10.42896,3.11056 -12.34948,3.94457 -1.92049,0.83403 -4.96227,1.51642 -6.7595,1.51642 -1.7972,0 -6.207,1.38212 -9.79954,3.07137 -13.6096,6.39942 -48.96925,10.71923 -58.48819,7.14535 z m 71.62757,-115.45202 c 2.63169,-0.72517 7.81902,-2.69362 11.52743,-4.37432 6.08193,-2.75644 7.01953,-2.91433 9.56981,-1.61166 5.24303,2.67818 9.61391,-1.10198 8.12653,-7.0282 -0.92896,-3.70126 2.99674,-7.13297 6.00828,-5.25222 3.1331,1.95664 5.5606,-0.30049 4.7394,-4.40673 -0.5313,-2.6567 0.2141,-4.0029 5.332,-9.62935 7.1976,-7.91285 14.7667,-20.43584 17.0451,-28.20123 2.3427,-7.98427 1.5803,-18.19992 -1.9243,-25.78463 -8.39,-18.15754 -25.86853,-25.35783 -53.03558,-21.84796 -12.21524,1.57816 -15.89517,1.15989 -15.89517,-1.80666 0,-0.75785 -1.24762,-2.04559 -2.7725,-2.86168 -2.55588,-1.36787 -2.93655,-1.28116 -4.87243,1.10954 -1.32146,1.63195 -1.94137,3.67366 -1.67221,5.50764 0.34674,2.36248 -0.11639,3.13975 -2.44582,4.10464 -4.6016,1.90604 -8.61874,6.8654 -9.60851,11.86221 -1.15381,5.82495 -2.6072,87.70926 -1.62615,91.61806 0.40244,1.60344 1.71503,3.27909 2.91688,3.72367 2.04195,0.75537 16.95893,-1.91686 28.58724,-5.12112 z m 107.92602,113.00005 c -15.6152,-2.07108 -21.4175,-7.18094 -28.1556,-24.79586 -4.5224,-11.8225 -4.6847,-12.66418 -5.1144,-26.52297 -0.8269,-26.67092 4.477,-44.75783 18.721,-63.84036 9.3874,-12.57627 15.0899,-17.66855 25.2403,-22.53901 15.4865,-7.43094 20.6706,-6.84301 33.5844,3.80883 7.638,6.30016 12.6703,14.50238 14.6225,23.83324 1.4893,7.11818 1.5269,31.34866 0.057,36.64195 -1.4471,5.21083 -4.088,6.80266 -13.7663,8.2978 -11.29,1.74407 -53.2487,12.69248 -55.8357,14.56935 -2.5897,1.87882 -3.2389,7.05323 -1.4966,11.92716 2.6947,7.5378 3.3485,8.81681 6.0661,11.86684 6.3833,7.16423 15.2577,6.83719 31.3449,-1.15514 16.5059,-8.20032 21.859,-11.20589 24.6824,-13.85833 1.5606,-1.46612 3.2591,-2.15767 4.3096,-1.75459 2.0623,0.79137 1.4751,4.73661 -1.8835,12.65577 -1.6613,3.91715 -2.5788,4.94218 -4.0155,4.48622 -2.3114,-0.73363 -7.7091,5.30135 -7.0089,7.83644 0.2642,0.95688 0.7913,2.8207 1.1712,4.14188 0.6248,2.17247 -0.2568,2.85941 -9.2196,7.18467 -13.1042,6.32377 -23.3282,8.53911 -33.3032,7.21611 z m 7.9749,-77.98955 c 18.8658,-4.21618 27.2829,-7.05061 29.2416,-9.84703 1.2016,-1.71552 1.5818,-5.29613 1.5433,-14.53365 -0.062,-14.79406 -1.6928,-19.50637 -6.9296,-20.0188 -7.8445,-0.76758 -27.9826,17.90369 -36.863,34.1779 -2.768,5.07275 -5.3506,10.48944 -5.7391,12.0371 -0.6455,2.57201 -0.487,2.75284 1.8429,2.10322 1.4021,-0.39088 9.0088,-2.15433 16.9039,-3.91874 z m 267.9545,75.87428 c -3.1399,-1.20171 -5.3432,-3.92608 -6.4253,-7.94497 -0.6049,-2.24642 -1.6941,-4.0844 -2.4203,-4.0844 -0.7263,0 -5.3731,1.70989 -10.3263,3.79977 -37.347,15.75743 -63.456,6.95641 -61.3759,-20.68917 1.0093,-13.4146 9.083,-26.75728 20.9746,-34.66277 10.3872,-6.90541 27.801,-14.92656 38.0117,-17.50881 4.8085,-1.2161 10.0131,-2.69406 11.5657,-3.28435 l 2.8229,-1.07325 -0.7176,-8.74727 c -0.8422,-10.26626 -3.1176,-19.08041 -5.4189,-20.99028 -0.899,-0.74605 -2.9374,-1.32315 -4.5299,-1.28237 -1.5923,0.0408 -5.2011,0.12689 -8.0197,0.19141 -6.4978,0.14869 -17.9262,5.59318 -28.2485,13.45764 -4.1326,3.1485 -7.9588,5.72456 -8.5027,5.72456 -0.5441,0 -2.7649,2.47178 -4.9354,5.49287 -3.3862,4.71346 -4.0918,5.23263 -4.9725,3.65884 -1.1746,-2.09884 2.5318,-12.35431 7.8226,-21.64488 6.2981,-11.05954 23.2725,-22.56701 36.452,-24.71203 14.1528,-2.30343 28.8405,4.79143 35.1407,16.97456 3.8802,7.50342 6.8412,32.02725 6.9039,57.1807 0.022,8.72924 0.6882,10.21823 3.2119,7.17737 0.728,-0.87724 2.044,-1.59497 2.9243,-1.59497 2.4099,0 0.9139,7.70647 -2.9446,15.16772 -2.8628,5.53623 -4.1691,11.41505 -2.5363,11.41505 0.3484,0 1.9034,-0.89445 3.4558,-1.98766 1.5522,-1.0932 5.6933,-3.27884 9.2022,-4.85697 3.509,-1.57812 7.65,-3.55462 9.2022,-4.39221 1.5523,-0.83759 3.1074,-1.52289 3.4559,-1.52289 1.6225,0 0.2783,3.57503 -3.4698,9.2288 -4.4955,6.78075 -5.6721,9.72316 -5.9932,14.98601 -0.2862,4.69445 -3.5806,7.90726 -12.6229,12.3104 -7.5602,3.68145 -14.6584,5.37249 -17.6866,4.21355 z m -37.437,-24.32137 c 13.6913,-2.77119 27.2636,-10.10959 30.5882,-16.53863 3.6118,-6.98446 0.3532,-16.89173 -5.5561,-16.89173 -1.7863,0 -2.8661,-0.70944 -3.2368,-2.12663 -0.6694,-2.56036 -2.1597,-2.70497 -4.6501,-0.45126 -1.0181,0.92144 -2.4913,1.78889 -3.2736,1.92766 -6.0132,1.06659 -13.6494,4.23673 -15.8265,6.57017 -1.435,1.53812 -5.3619,4.73368 -8.7265,7.10128 -7.7401,5.44653 -12.8801,12.8192 -12.0123,17.23026 0.3395,1.72542 1.2081,3.51242 1.9303,3.97114 2.1415,1.36026 11.9843,0.98468 20.7634,-0.79226 z m 609.37157,23.05925 c -2.7011,-0.951 -7.0076,-3.46628 -9.5697,-5.58951 -3.7843,-3.13603 -5.0078,-5.07272 -6.5193,-10.32123 -2.2562,-7.83356 -2.3682,-13.91356 -0.3454,-18.75474 0.8335,-1.99487 2.0633,-7.36251 2.7328,-11.9281 0.6695,-4.56559 1.8729,-12.36824 2.6744,-17.33924 1.4097,-8.74426 1.9512,-14.88107 3.3562,-38.04602 0.3648,-6.01237 1.0621,-11.17826 1.55,-11.47975 0.4878,-0.30152 1.8769,-0.0183 3.0871,0.62926 1.8533,0.99183 2.7855,0.66348 5.9136,-2.08308 3.267,-2.86859 4.2514,-3.18527 8.189,-2.63458 2.4618,0.34427 5.074,0.81026 5.8049,1.03556 2.2528,0.69427 1.5109,9.15509 -1.7775,20.27519 -1.7089,5.77805 -3.4335,14.57272 -3.8327,19.54369 -0.3991,4.971 -1.8554,14.54079 -3.2359,21.26621 -2.9446,14.34399 -4.1858,25.35784 -3.2694,29.00925 1.8454,7.35278 22.9602,5.68041 40.2864,-3.1909 5.1132,-2.61812 10.4223,-6.09775 11.7979,-7.73253 2.5506,-3.03102 4.1318,-10.2856 5.623,-25.79481 0.3794,-3.94754 1.1025,-7.17736 1.6066,-7.17736 1.3618,0 1.1105,-6.1344 -0.2867,-6.99783 -1.504,-0.92957 -0.5867,-29.95512 1.1265,-35.64426 l 1.1537,-3.83126 11.3091,-0.73117 c 10.7308,-0.69375 11.4372,-0.61072 13.8161,1.62416 3.0528,2.8679 3.1965,6.13811 0.4245,9.66212 -1.702,2.1638 -2.1953,4.95953 -2.6978,15.29558 -0.3384,6.95633 -1.0379,15.51878 -1.5546,19.02771 -0.5168,3.50892 -1.2679,11.64325 -1.6689,18.07629 -0.4531,7.26571 -1.4918,13.71038 -2.742,17.01298 -2.4391,6.44303 -2.5128,7.97483 -0.3835,7.97483 1.8686,0 11.3608,-4.62764 15.5468,-7.57955 1.5524,-1.09463 4.0645,-1.99024 5.5824,-1.99024 3.8345,0 3.6357,3.23394 -0.6044,9.84167 -1.8504,2.88366 -3.73,7.55501 -4.1767,10.38081 -0.4466,2.82579 -1.6154,6.36404 -2.5977,7.86278 -3.539,5.40133 -18.7982,12.28419 -27.2889,12.30906 -3.2174,0.01 -4.4269,-0.63558 -6.6457,-3.54464 -1.4917,-1.95586 -2.7123,-4.28972 -2.7123,-5.18635 0,-3.84947 -2.6686,-4.11157 -10.2139,-1.0032 -14.6928,6.05276 -23.9921,8.47965 -34.4451,8.98954 -7.6177,0.37161 -11.3092,0.0676 -15.0129,-1.23634 z m -527.09257,-3.26263 c -2.3893,-2.46196 -4.6607,-5.51655 -5.0475,-6.78795 -0.387,-1.2714 -1.3004,-3.02938 -2.0299,-3.9066 -2.258,-2.71528 -2.827,-7.13955 -1.1357,-8.83085 1.2051,-1.20529 3.6136,-1.42332 11.0426,-0.99975 l 9.5011,0.54174 0.4056,-22.43347 c 0.2875,-15.90515 0.78737,-22.81544 1.71787,-23.74598 0.9298,-0.92985 1.3126,-6.18706 1.3126,-18.03122 0,-16.10294 -0.094,-16.83063 -2.5557,-19.75595 -1.77307,-2.10722 -2.39347,-3.8847 -2.02637,-5.80514 0.6991,-3.65705 -1.2407,-4.6901 -4.6331,-2.46731 -2.0901,1.36949 -3.2796,1.53524 -5.004,0.69738 -1.2441,-0.60454 -4.0565,-1.64809 -6.2495,-2.31902 -4.6914,-1.43521 -4.9794,-2.96292 -1.2595,-6.68279 3.1381,-3.13795 18.9219,-9.17154 25.98137,-9.93167 9.8676,-1.0625 15.945,5.3733 15.9481,16.88866 6e-4,3.36274 0.3952,6.11405 0.8761,6.11405 0.4809,0 3.6182,-3.10592 6.9718,-6.90201 7.5027,-8.49305 13.832,-12.40383 20.231,-12.50056 6.6266,-0.10016 11.1829,1.94247 10.4641,4.69118 -0.4845,1.85271 -0.1169,2.09666 2.7124,1.79992 4.6778,-0.49071 8.0199,3.10883 13.5976,14.64488 5.2457,10.8494 5.3385,11.35036 3.0988,16.71053 -0.8772,2.09951 -1.5949,5.74663 -1.5949,8.10468 0,3.16321 -0.432,4.28739 -1.6477,4.28739 -2.3573,0 -8.0011,3.01012 -11.1418,5.94248 -2.4722,2.30806 -3.0277,2.40858 -6.9116,1.2504 -2.3228,-0.69266 -4.4626,-1.5178 -4.7549,-1.83369 -0.2925,-0.31584 -1.4887,-1.09973 -2.6584,-1.74195 -3.1459,-1.72743 -4.8818,-5.7025 -3.5647,-8.16347 0.9907,-1.85114 1.2329,-1.72188 2.8553,1.52451 1.8783,3.75856 4.0102,4.68808 8.2888,3.61423 2.8669,-0.71953 6.7754,-8.20648 6.7754,-12.97863 0,-3.71097 -1.993,-7.03225 -3.8032,-6.33764 -0.9809,0.37646 -1.5134,-0.1284 -1.5134,-1.43533 0,-3.37858 -4.9966,-6.42548 -10.5107,-6.40915 -2.6991,0.009 -6.0071,0.30913 -7.3514,0.66922 -2.6387,0.70677 -6.2024,6.87688 -10.3309,17.88654 -3.059,8.15815 -7.9656,37.22129 -8.0748,47.82971 -0.1001,9.7427 1.4117,12.63037 8.1798,15.62418 3.2399,1.43321 4.6952,2.72063 4.6952,4.15378 0,2.4934 2.3927,2.72368 4.309,0.4147 1.2511,-1.5073 1.4662,-1.5073 2.3096,0 1.1594,2.07152 4.4078,2.15575 6.0664,0.15733 1.4974,-1.80447 7.3483,-0.51603 9.2301,2.03262 0.6492,0.87937 2.2043,1.59885 3.4558,1.59885 2.6949,0 2.9853,2.34013 0.542,4.36786 -2.2505,1.86776 -12.8405,5.16616 -16.6512,5.18628 -1.6316,0.009 -4.981,1.06044 -7.4434,2.33739 -3.4513,1.78998 -7.2771,2.49762 -16.7047,3.08973 -6.7254,0.42243 -16.5924,1.11636 -21.9268,1.54211 l -9.69877,0.77408 z m 713.69477,2.30583 c -3.5814,-2.90625 -8.9027,-10.97123 -8.9027,-13.49264 0,-3.32715 5.1714,-7.72852 10.1014,-8.59735 8.3955,-1.47954 7.9749,0.79494 7.9749,-43.12511 0,-24.02279 -0.4437,-41.19412 -1.1496,-44.48481 -1.2915,-6.02327 -4.1167,-8.89401 -10.6909,-10.86365 -4.1864,-1.2543 -5.1655,-2.97656 -2.78,-4.89058 1.3266,-1.06454 19.7365,-4.51048 24.0973,-4.51048 3.4538,0 10.756,7.33981 11.6498,11.70993 1.1347,5.54762 3.3754,5.03361 8.678,-1.99054 3.622,-4.79801 6.32,-7.07351 11.3387,-9.56322 6.4321,-3.1909 6.705,-3.23164 11.7047,-1.74687 6.4977,1.92961 13.1899,6.82734 15.7018,11.49139 1.853,3.44107 1.8703,4.34264 0.3418,17.86205 -1.5999,14.14956 -1.6429,14.29094 -6.9216,22.74455 -2.9214,4.67858 -5.9778,8.50649 -6.7921,8.50649 -1.129,0 -1.6156,-2.52686 -2.048,-10.63312 -0.6558,-12.29213 -2.2507,-16.17412 -8.0526,-19.59729 -6.3569,-3.75069 -7.9209,-2.84881 -11.779,6.79249 -5.4937,13.72923 -11.8572,54.25528 -9.514,60.59026 2.7528,7.44178 2.2991,7.25712 14.58,5.93581 6.0938,-0.65567 12.8849,-1.58349 15.0914,-2.06187 2.4339,-0.5276 4.2629,-0.46393 4.6496,0.1619 0.3507,0.56741 -2.7308,4.45141 -6.8482,8.63114 -4.1168,4.17971 -8.1879,9.32085 -9.0464,11.42477 -2.72,6.6658 -6.4292,8.01943 -25.7294,9.39004 -9.3573,0.66452 -18.4485,1.42063 -20.203,1.68029 -2.0272,0.3 -4.0145,-0.19701 -5.4519,-1.36358 z m 261.1782,0.82235 c -14.593,-1.25016 -23.5099,-10.17391 -26.9922,-27.01318 -1.3361,-6.46049 -1.7171,-14.74822 -1.7171,-37.3436 0,-15.97219 -0.2905,-29.79724 -0.6455,-30.72229 -0.5117,-1.33389 -2.3539,-1.68195 -8.9026,-1.68195 h -8.2574 l -4.4754,-4.85524 c -2.7252,-2.95652 -4.2364,-5.47785 -3.8646,-6.44723 0.3361,-0.87557 -0.1,-2.9668 -0.969,-4.64718 -0.8689,-1.68036 -1.3325,-3.69958 -1.0304,-4.48716 0.8184,-2.13247 15.2269,-9.07752 20.5485,-9.90442 8.6343,-1.3417 8.7515,-1.71024 8.6174,-27.08195 -0.07,-13.47285 -0.5849,-23.49724 -1.3018,-25.39659 -1.3311,-3.52641 0.2186,-6.52842 3.335,-6.46081 2.7156,0.0589 14.6897,7.75956 17.3758,11.1744 2.2161,2.81719 2.4809,4.5337 3.0668,19.86662 0.5386,14.09887 0.948,17.12209 2.5598,18.90334 2.4601,2.71822 4.1127,2.65766 10.6585,-0.39052 3.4574,-1.61004 8.5193,-2.76677 14.3223,-3.27298 4.9361,-0.4306 10.1858,-1.39707 11.6655,-2.14771 1.4798,-0.75063 5.7024,-1.64964 9.3835,-1.99777 5.5739,-0.52719 6.8031,-0.34466 7.3544,1.09192 0.4552,1.18632 -0.6342,2.75233 -3.4894,5.01534 -2.283,1.80971 -9.6769,8.12217 -16.4306,14.02767 -9.0773,7.93756 -13.8694,11.33224 -18.378,13.01909 -3.3543,1.25498 -8.4092,3.45274 -11.2335,4.88384 l -5.1349,2.60205 -0.6988,31.16458 c -0.7889,35.1747 -0.2107,42.22144 3.7928,46.22498 2.5377,2.53751 2.8532,2.59765 5.7504,1.09529 1.6861,-0.87433 9.4213,-7.61838 17.1897,-14.98674 14.9399,-14.17063 19.1364,-16.52155 17.7451,-9.94128 -1.7032,8.05547 -4.7012,14.60246 -8.0617,17.60509 -3.1217,2.78925 -3.3914,3.44592 -2.3522,5.72709 1.8999,4.16951 -2.659,12.38779 -10.5113,18.94907 -8.8602,7.40337 -10.7138,8.13116 -18.9191,7.42823 z m -137.9434,-1.62617 c -5.4734,-1.72333 -14.4481,-8.03805 -19.6011,-13.79153 -4.8313,-5.39423 -10.8984,-17.46612 -12.4513,-24.77431 -1.6205,-7.62676 -1.4482,-26.60737 0.3301,-36.36609 1.4176,-7.77744 6.2684,-22.19428 9.7022,-28.83477 4.1373,-8.00045 15.2842,-17.35649 28.6446,-24.04249 15.5126,-7.76297 41.257,-3.44581 50.6533,8.49418 1.5425,1.95994 4.2316,6.40793 5.9757,9.88443 9.8754,19.68391 12.1689,38.51429 7.3099,60.01813 -1.813,8.02294 -3.3703,12.59375 -4.5288,13.2914 -0.9711,0.5848 -2.8871,2.02028 -4.2573,3.18992 -2.385,2.03542 -2.4205,2.27021 -0.8295,5.4753 1.5918,3.20621 1.5404,3.54197 -1.2061,7.89295 -4.4409,7.03459 -11.935,14.51337 -18.0475,18.01065 -5.5149,3.15532 -5.6723,3.17794 -21.376,3.07358 -9.9266,-0.0659 -17.4959,-0.63273 -20.3182,-1.52135 z m 30.7665,-22.97344 c 9.7839,-2.16796 17.0182,-13.88801 18.4714,-29.92455 0.3962,-4.37046 0.3478,-16.73827 -0.1075,-27.48402 l -0.8274,-19.53773 -8.8694,-6.64568 c -9.8713,-7.39665 -11.8367,-7.84533 -21.7171,-4.95792 -9.5001,2.77632 -19.1083,13.98188 -21.7566,25.37371 -0.8038,3.45855 -3.0146,7.95631 -5.6921,11.58076 -4.9406,6.68764 -5.2141,8.0999 -2.3583,12.1739 1.1108,1.58458 2.2834,5.38469 2.606,8.4447 0.7393,7.01339 9.6108,25.4452 13.6289,28.31537 6.3797,4.55734 14.433,5.36243 26.6221,2.66146 z m -222.4412,19.29234 c -2.318,-2.5107 -4.5209,-5.5734 -4.8954,-6.80601 -0.3746,-1.23262 -1.278,-2.95885 -2.0075,-3.83607 -2.3668,-2.8463 -2.8241,-7.14242 -0.9586,-9.00799 1.3062,-1.30603 2.821,-1.55332 6.3105,-1.03008 l 4.5913,0.68854 1.2602,-4.62921 c 0.693,-2.54607 1.1792,-8.55394 1.0803,-13.35083 -0.1267,-6.1641 0.3132,-9.67472 1.5012,-11.97187 1.3028,-2.51928 1.4144,-3.74782 0.4966,-5.46289 -1.6195,-3.02587 -1.4739,-9.16421 0.5079,-21.41536 0.9212,-5.69571 1.6749,-12.33807 1.6749,-14.76085 0,-2.65592 0.9107,-5.87841 2.2935,-8.1158 2.0079,-3.24865 2.1351,-4.14814 1.0235,-7.22273 -1.4542,-4.02146 -0.1386,-17.8681 2.535,-26.6806 0.8624,-2.84313 1.5734,-7.72419 1.5797,-10.84682 0.01,-3.12263 1.4014,-11.73545 3.1001,-19.13958 1.6987,-7.40418 3.1249,-15.85459 3.1696,-18.7787 0.045,-2.9241 0.4543,-10.18046 0.9102,-16.12523 l 0.8292,-10.8087 -2.8657,1.69279 c -2.07,1.22274 -3.2541,1.37942 -4.2646,0.5642 -0.7694,-0.62073 -2.9208,-1.45385 -4.7811,-1.85139 -10.1909,-2.1778 -4.6997,-8.79957 11.8474,-14.28654 8.9646,-2.97257 11.4639,-3.39706 16.4695,-2.79713 7.5987,0.91068 17.3788,3.68321 18.371,5.20791 1.1482,1.76458 -0.1489,5.00619 -3.5749,8.93422 -1.6757,1.92101 -3.0466,4.20886 -3.0466,5.0841 0,0.87523 -0.8372,1.90554 -1.8607,2.28955 -4.3359,1.62694 -5.9429,7.5958 -2.9387,10.91536 1.732,1.91379 1.763,1.64629 -3.1967,27.6622 -1.3936,7.31027 -3.0609,18.0763 -3.7052,23.9245 -2.6697,24.23233 -5.5572,45.50376 -8.0159,59.05158 -1.7904,9.86373 -2.6122,18.24804 -2.6122,26.64538 0,9.12739 -0.3981,12.77936 -1.5612,14.31688 -2.2201,2.93529 -2.2001,15.68422 0.029,17.53302 0.9111,0.75608 2.306,2.92937 3.0997,4.82952 1.8952,4.53545 5.2594,6.37539 8.7494,4.7852 3.4593,-1.57616 4.5708,-0.6993 4.5708,3.606 0,2.97082 -0.9158,4.37754 -5.4093,8.30821 -5.8925,5.15461 -6.718,5.3652 -26.5549,6.77326 l -9.5355,0.67685 z m -563.8289,-6.13138 c -2.1695,-0.48199 -2.2314,-0.7681 -0.76,-3.5173 1.0457,-1.95377 5.2221,-2.82255 6.6595,-1.38526 0.8954,0.89549 -0.9705,4.27597 -2.6801,4.85542 -0.7472,0.25328 -2.1959,0.27448 -3.2194,0.0472 z"
       id="path8305"
       inkscape:connector-curvature="0" />
  </g>
</svg>
