<?xml version="1.0" encoding="UTF-8" standalone="no"?>
<!-- Created with Inkscape (http://www.inkscape.org/) -->

<svg
   xmlns:dc="http://purl.org/dc/elements/1.1/"
   xmlns:cc="http://creativecommons.org/ns#"
   xmlns:rdf="http://www.w3.org/1999/02/22-rdf-syntax-ns#"
   xmlns:svg="http://www.w3.org/2000/svg"
   xmlns="http://www.w3.org/2000/svg"
   xmlns:xlink="http://www.w3.org/1999/xlink"
   xmlns:sodipodi="http://sodipodi.sourceforge.net/DTD/sodipodi-0.dtd"
   xmlns:inkscape="http://www.inkscape.org/namespaces/inkscape"
   id="svg2"
   version="1.1"
   inkscape:version="0.92.2 5c3e80d, 2017-08-06"
   width="2481"
   height="3503"
   sodipodi:docname="E26P04.svg">
  <metadata
     id="metadata8">
    <rdf:RDF>
      <cc:Work
         rdf:about="">
        <dc:format>image/svg+xml</dc:format>
        <dc:type
           rdf:resource="http://purl.org/dc/dcmitype/StillImage" />
        <dc:title />
      </cc:Work>
    </rdf:RDF>
  </metadata>
  <defs
     id="defs6" />
  <sodipodi:namedview
     pagecolor="#ffffff"
     bordercolor="#666666"
     borderopacity="1"
     objecttolerance="10"
     gridtolerance="10"
     guidetolerance="10"
     inkscape:pageopacity="0"
     inkscape:pageshadow="2"
     inkscape:window-width="1440"
     inkscape:window-height="856"
     id="namedview4"
     showgrid="false"
     inkscape:zoom="0.42773947"
     inkscape:cx="911.5886"
     inkscape:cy="2843.6086"
     inkscape:window-x="0"
     inkscape:window-y="47"
     inkscape:window-maximized="0"
     inkscape:current-layer="layer3" />
  <g
     inkscape:groupmode="layer"
     id="layer2"
     inkscape:label="artwork"
     sodipodi:insensitive="true">
    <image
       sodipodi:absref="/Users/huzhou/Downloads/Episode 26/vi/../gfx_Pepper-and-Carrot_by-David-Revoy_E26P04.png"
       xlink:href="../gfx_Pepper-and-Carrot_by-David-Revoy_E26P04.png"
       y="0"
       x="0"
       id="image10"
       height="3503"
       width="2481" />
  </g>
  <g
     inkscape:groupmode="layer"
     id="layer3"
     inkscape:label="speechbubbles">
    <path
       style="color:#000000;display:inline;overflow:visible;visibility:visible;fill:#ffffff;fill-opacity:1;fill-rule:nonzero;stroke:none;stroke-width:1.54579639px;marker:none;enable-background:accumulate"
       d="m 100.60521,1438.7471 c -4.732747,-46.6594 10.76681,-87.5407 18.64638,-126.1892 4.8935,-24.0022 144.66922,-29.724 197.76359,-25.3561 45.31425,3.7278 148.04999,13.8831 170.1472,47.3737 22.09732,33.4904 25.44641,85.4559 21.2982,118.147 -4.14808,32.6911 -9.18751,39.6662 -50.5804,67.234 -21.15448,14.0889 -144.24407,22.6118 -193.76867,24.7099 -51.06451,2.1661 -122.18685,0.3984 -147.36043,-21.4857 -25.521088,-22.1859 -11.41326,-37.7742 -16.14587,-84.4336 z"
       id="path3373"
       inkscape:connector-curvature="0"
       sodipodi:nodetypes="zsssssssz" />
    <path
       style="color:#000000;display:inline;overflow:visible;visibility:visible;fill:#ffffff;fill-opacity:1;fill-rule:nonzero;stroke:none;stroke-width:0.95470774;marker:none;enable-background:accumulate"
       d="M 369.79142,809.84364 C 305.75829,762.35821 198.20492,558.84155 249.43665,362.79562 266.81502,310.92732 307.36394,84.8784 238.16093,303.5743 c -69.203,218.6959 9.34385,417.00687 131.63049,506.26934 z"
       id="path3010"
       inkscape:connector-curvature="0"
       sodipodi:nodetypes="cczc" />
    <path
       style="color:#000000;display:inline;overflow:visible;visibility:visible;fill:#ffffff;fill-opacity:1;fill-rule:nonzero;stroke:none;stroke-width:0.92846394px;marker:none;enable-background:accumulate"
       d="m 760.75243,1017.8265 c -22.47857,-11.219 -27.79905,-26.61133 -25.55111,-33.02225 2.24784,-6.41084 22.47847,-39.26666 47.20477,-43.27347 24.72641,-4.00682 88.79012,-8.81495 103.40117,-4.80813 14.6111,4.00673 56.19637,30.45171 56.19637,44.07478 0,13.62316 -7.86752,40.06807 -30.34602,48.08167 -22.47851,8.0136 -123.93104,0.7406 -150.90518,-11.0526 z"
       id="path3349"
       inkscape:connector-curvature="0"
       sodipodi:nodetypes="ccscssc" />
    <path
       style="color:#000000;display:inline;overflow:visible;visibility:visible;fill:#ffffff;fill-opacity:1;fill-rule:nonzero;stroke:none;stroke-width:0.52719742px;marker:none;enable-background:accumulate"
       d="m 798.01731,1029.5174 c 16.61962,-12.4694 156.90825,-26.0042 206.21469,-0.3073 49.3064,25.6969 16.9363,62.0798 -11.35437,71.8913 -28.29053,9.8114 -107.50715,12.2575 -147.07276,6.6009 -52.48287,-7.5033 -67.58213,-20.981 -69.51396,-46.7216 -0.78842,-10.5057 5.10669,-18.9938 21.7264,-31.4633 z"
       id="path4040"
       inkscape:connector-curvature="0"
       sodipodi:nodetypes="zssssz" />
    <path
       style="color:#000000;display:inline;overflow:visible;visibility:visible;fill:#ffffff;fill-opacity:1;fill-rule:nonzero;stroke:none;stroke-width:0.9220413px;marker:none;enable-background:accumulate"
       d="m 1556.6491,1184.577 c -4.6607,-31.4449 7.7677,-114.9705 103.3121,-108.0919 95.5443,6.8785 111.08,46.1846 113.4103,57.9765 2.3304,11.7918 22.5267,78.6124 -52.0444,96.3003 -74.5713,17.6877 -141.3745,-0.9828 -164.678,-46.1849 z"
       id="path3525"
       inkscape:connector-curvature="0" />
    <path
       style="color:#000000;display:inline;overflow:visible;visibility:visible;fill:#ffffff;fill-opacity:1;fill-rule:nonzero;stroke:none;stroke-width:1px;marker:none;enable-background:accumulate"
       d="m 962.35118,1068.2126 c 69.98612,31.0197 98.42482,29.5718 151.73632,-4.4587 -31.1182,24.6589 -43.6342,55.9553 -145.08715,33.1222 -40.4073,-9.0941 -6.64917,-28.6635 -6.64917,-28.6635 z"
       id="path4480"
       inkscape:connector-curvature="0"
       sodipodi:nodetypes="ccsc" />
    <path
       style="color:#000000;display:inline;overflow:visible;visibility:visible;fill:#ffffff;fill-opacity:1;fill-rule:nonzero;stroke:none;stroke-width:1px;marker:none;enable-background:accumulate"
       d="m 1496.1025,1128.3709 c 34.6297,22.4436 48.151,28.3727 87.526,0.3521 39.375,-28.0207 48.7701,-12.382 48.7701,-12.382 l -12.8989,31.2148 c 0,0 -87.8568,53.5997 -123.3972,-19.1849 z"
       id="path3072"
       inkscape:connector-curvature="0" />
    <path
       style="color:#000000;display:inline;overflow:visible;visibility:visible;fill:#ffffff;fill-opacity:1;fill-rule:nonzero;stroke:none;stroke-width:0.55230874px;marker:none;enable-background:accumulate"
       d="m 1965.8853,183.12255 c -0.4065,-19.20925 3.2426,-26.39203 20.3154,-38.93681 17.0728,-12.54478 33.2685,-6.41212 48.7057,-3.85385 17.7497,2.94151 36.6678,7.50842 42.7653,21.62136 6.0974,14.11286 10.9753,19.60121 8.9428,32.93007 -2.0324,13.32878 -4.0649,27.44172 -11.3818,32.14599 -7.317,4.70434 -59.3484,10.97669 -67.8848,7.84051 -8.5365,-3.13617 -22.3573,-3.92026 -29.6741,-13.32886 -7.4179,-9.53839 -11.382,-19.20917 -11.7885,-38.41841 z"
       id="path3373-0"
       inkscape:connector-curvature="0"
       sodipodi:nodetypes="zsssssssz" />
    <path
       style="color:#000000;display:inline;overflow:visible;visibility:visible;fill:#ffffff;fill-opacity:1;fill-rule:nonzero;stroke:none;stroke-width:1.31892467px;marker:none;enable-background:accumulate"
       d="m 1870.3801,275.99898 c 4.2155,-45.42743 57.6108,-55.43685 113.8166,-57.74673 56.2057,-2.30988 78.6882,4.61975 94.1449,6.1596 15.4563,1.53995 160.1863,-4.61974 179.8583,-3.07979 19.6721,1.53994 112.4116,22.32874 108.1961,58.51664 -4.2153,36.18791 -67.4468,51.58702 -132.0836,53.89689 -64.6366,2.30988 -196.7201,0 -229.0385,4.61975 -32.3183,4.61975 -125.0578,-3.0798 -134.8938,-62.36645 z"
       id="path5034"
       inkscape:connector-curvature="0" />
    <path
       style="color:#000000;display:inline;overflow:visible;visibility:visible;fill:#ffffff;fill-opacity:1;fill-rule:nonzero;stroke:none;stroke-width:1px;marker:none;enable-background:accumulate"
       d="m 2014.1421,464.34286 c -57.0243,-41.23372 -60.4397,-86.77108 -49.5441,-144.9504 10.8956,-58.17932 39.6811,-24.31559 39.6811,-24.31559 0,0 -65.1914,100.00192 9.863,169.26599 z"
       id="path5002"
       inkscape:connector-curvature="0"
       sodipodi:nodetypes="cscc" />
    <path
       style="color:#000000;display:inline;overflow:visible;visibility:visible;fill:#ffffff;fill-opacity:1;fill-rule:nonzero;stroke:none;stroke-width:0.77728993px;marker:none;enable-background:accumulate"
       d="m 1700.4279,2232.4771 c 1.9548,12.6252 -20.2332,66.0408 -111.3756,61.8839 -91.1424,-4.157 -112.9427,-36.8339 -112.8192,-53.7968 0.1234,-16.963 21.4964,-44.2602 34.7426,-49.1276 13.2461,-4.8673 52.126,-15.6749 87.6192,-10.6767 39.5028,5.5627 74.284,12.3263 88.2445,26.9259 13.9604,14.5994 11.9752,21.4764 13.5885,24.7913 z"
       id="path3365"
       inkscape:connector-curvature="0"
       sodipodi:nodetypes="ccccscc" />
    <path
       style="color:#000000;display:inline;overflow:visible;visibility:visible;fill:#ffffff;fill-opacity:1;fill-rule:nonzero;stroke:none;stroke-width:1.26419461px;marker:none;enable-background:accumulate"
       d="m 1467.4131,2293.1337 c 35.4382,-45.8374 229.7192,-46.0094 289.4258,-25.6784 59.7063,20.3306 68.3393,45.2112 70.6337,57.4207 2.2943,12.2094 -7.1694,83.557 -38.6291,94.4457 -31.4597,10.8885 -120.4264,15.8724 -151.4111,15.6777 -30.9849,-0.1948 -129.593,-7.8712 -153.927,-24.249 -23.2781,-15.6673 -51.5305,-71.7793 -16.0923,-117.6167 z"
       id="path3330"
       inkscape:connector-curvature="0"
       sodipodi:nodetypes="zsssssz" />
    <path
       style="color:#000000;display:inline;overflow:visible;visibility:visible;fill:#ffffff;fill-opacity:1;fill-rule:nonzero;stroke:none;stroke-width:1.07720649px;marker:none;enable-background:accumulate"
       d="m 1664.135,2396.2545 c -69.9893,51.1328 8.9085,162.5856 132.4832,191.8362 -158.9941,-19.5502 -214.8639,-129.8242 -184.2863,-182.6082 -12.1609,-26.4834 51.8031,-9.228 51.8031,-9.228 z"
       id="path4008"
       inkscape:connector-curvature="0"
       sodipodi:nodetypes="cccc" />
    <path
       style="color:#000000;display:inline;overflow:visible;visibility:visible;fill:#ffffff;fill-opacity:1;fill-rule:nonzero;stroke:none;stroke-width:0.98628563px;marker:none;enable-background:accumulate"
       d="M 98.525428,69.839589 C 128.59231,44.819976 395.28604,57.851953 459.22548,125.92711 c 63.93928,68.07512 -1.43271,160.49709 -48.01424,177.17669 -46.58138,16.67963 -222.808,26.98578 -280.14553,6.32571 C 55.008782,282.02438 38.263214,238.1613 45.724825,179.35037 48.770198,155.34755 68.458365,94.859486 98.525428,69.839589 Z"
       id="path4040-0"
       inkscape:connector-curvature="0"
       sodipodi:nodetypes="zssssz" />
    <path
       style="color:#000000;display:inline;overflow:visible;visibility:visible;fill:#ffffff;fill-opacity:1;fill-rule:nonzero;stroke:none;stroke-width:1.15731597px;marker:none;enable-background:accumulate"
       d="m 439.87684,462.78924 c 17.08613,64.49498 -27.2505,92.83427 -172.70425,91.84729 -145.45375,-0.98698 -182.62906,-45.2496 -183.709075,-68.8279 -1.08002,-23.57843 30.901245,-62.63407 51.629025,-70.09391 20.7276,-7.45977 81.82907,-24.52125 138.72683,-19.44088 63.32539,5.65411 119.22216,13.22513 142.55253,32.77923 23.33012,19.55388 22.19824,28.80378 23.50494,33.73617 z"
       id="path3365-6"
       inkscape:connector-curvature="0"
       sodipodi:nodetypes="sssssss" />
    <path
       style="color:#000000;display:inline;overflow:visible;visibility:visible;fill:#ffffff;fill-opacity:1;fill-rule:nonzero;stroke:none;stroke-width:1.17923069px;marker:none;enable-background:accumulate"
       d="m 421.00062,1204.9587 c -82.04637,41.839 -98.69807,91.9551 -101.02486,156.986 -2.32681,65.0308 42.64616,29.4851 42.64616,29.4851 0,0 -53.69551,-114.8291 58.3787,-186.4711 z"
       id="path5002-1"
       inkscape:connector-curvature="0"
       sodipodi:nodetypes="cscc" />
  </g>
  <g
     inkscape:groupmode="layer"
     id="layer1"
     inkscape:label="txt">
    <text
       xml:space="preserve"
       style="font-style:italic;font-variant:normal;font-weight:normal;font-stretch:normal;line-height:0%;font-family:'ComicSpice';-inkscape-font-specification:'ComicSpice Italic';text-align:center;letter-spacing:0px;word-spacing:0px;text-anchor:middle;fill:#000000;fill-opacity:1;stroke:none"
       x="129.66629"
       y="1343.2563"
       id="text4246-5-5"><tspan
         sodipodi:role="line"
         style="font-style:italic;font-variant:normal;font-weight:normal;font-stretch:normal;font-size:48px;line-height:1.25;font-family:'ComicSpice';-inkscape-font-specification:'ComicSpice Italic';text-align:start;text-anchor:start"
         x="129.66629"
         y="1343.2563"
         id="tspan478">“Vì bạn đã đi</tspan><tspan
         sodipodi:role="line"
         style="font-style:italic;font-variant:normal;font-weight:normal;font-stretch:normal;font-size:48px;line-height:1.25;font-family:'ComicSpice';-inkscape-font-specification:'ComicSpice Italic';text-align:start;text-anchor:start"
         x="129.66629"
         y="1399.5063"
         id="tspan18566">đường tắt bạn</tspan><tspan
         sodipodi:role="line"
         style="font-style:italic;font-variant:normal;font-weight:normal;font-stretch:normal;font-size:48px;line-height:1.25;font-family:'ComicSpice';-inkscape-font-specification:'ComicSpice Italic';text-align:start;text-anchor:start"
         x="129.66629"
         y="1455.7563"
         id="tspan18568">nên đi vào phòng</tspan><tspan
         sodipodi:role="line"
         style="font-style:italic;font-variant:normal;font-weight:normal;font-stretch:normal;font-size:48px;line-height:1.25;font-family:'ComicSpice';-inkscape-font-specification:'ComicSpice Italic';text-align:start;text-anchor:start"
         x="129.66629"
         y="1512.0063"
         id="tspan18576">của Hộ Vệ.”</tspan></text>
    <text
       xml:space="preserve"
       style="font-style:normal;font-variant:normal;font-weight:normal;font-stretch:normal;line-height:0%;font-family:'ComicSpice';-inkscape-font-specification:'ComicSpice';text-align:center;letter-spacing:0px;word-spacing:0px;text-anchor:middle;fill:#000000;fill-opacity:1;stroke:none"
       x="841.59772"
       y="997.02594"
       id="text4246-5"><tspan
         sodipodi:role="line"
         style="font-style:normal;font-variant:normal;font-weight:normal;font-stretch:normal;font-size:48px;line-height:1.25;font-family:'ComicSpice';-inkscape-font-specification:'ComicSpice'"
         x="841.59772"
         y="997.02594"
         id="tspan859">Nhưng...</tspan></text>
    <text
       xml:space="preserve"
       style="font-style:normal;font-variant:normal;font-weight:normal;font-stretch:normal;line-height:0%;font-family:'ComicSpice';-inkscape-font-specification:'ComicSpice';text-align:center;letter-spacing:0px;word-spacing:0px;text-anchor:middle;fill:#000000;fill-opacity:1;stroke:none"
       x="898.27435"
       y="1034.9119"
       id="text4246-5-3"><tspan
         sodipodi:role="line"
         style="font-style:normal;font-variant:normal;font-weight:normal;font-stretch:normal;font-size:48px;line-height:1.25;font-family:'ComicSpice';-inkscape-font-specification:'ComicSpice'"
         x="898.27435"
         y="1039.2318"
         id="tspan890" /><tspan
         sodipodi:role="line"
         style="font-style:normal;font-variant:normal;font-weight:normal;font-stretch:normal;font-size:48px;line-height:1.25;font-family:'ComicSpice';-inkscape-font-specification:'ComicSpice'"
         x="898.27435"
         y="1079.2368"
         id="tspan18550">Hộ Vệ?!?</tspan><tspan
         sodipodi:role="line"
         style="font-style:normal;font-variant:normal;font-weight:normal;font-stretch:normal;font-size:48px;line-height:1.25;font-family:'ComicSpice';-inkscape-font-specification:'ComicSpice'"
         x="898.27435"
         y="1095.4818"
         id="tspan917" /></text>
    <text
       xml:space="preserve"
       style="font-style:normal;font-variant:normal;font-weight:normal;font-stretch:normal;line-height:0%;font-family:'ComicSpice';-inkscape-font-specification:'ComicSpice';text-align:center;letter-spacing:0px;word-spacing:0px;text-anchor:middle;fill:#000000;fill-opacity:1;stroke:none"
       x="1665.2767"
       y="1096.7792"
       id="text4246-5-3-7"><tspan
         sodipodi:role="line"
         style="font-style:normal;font-variant:normal;font-weight:normal;font-stretch:normal;font-size:48px;line-height:1.25;font-family:'ComicSpice';-inkscape-font-specification:'ComicSpice'"
         x="1665.2767"
         y="1101.0991"
         id="tspan890-5" /><tspan
         sodipodi:role="line"
         style="font-style:normal;font-variant:normal;font-weight:normal;font-stretch:normal;font-size:48px;line-height:1.25;font-family:'ComicSpice';-inkscape-font-specification:'ComicSpice'"
         x="1665.2767"
         y="1141.1041"
         id="tspan950">Mà ở</tspan><tspan
         sodipodi:role="line"
         style="font-style:normal;font-variant:normal;font-weight:normal;font-stretch:normal;font-size:48px;line-height:1.25;font-family:'ComicSpice';-inkscape-font-specification:'ComicSpice'"
         x="1665.2767"
         y="1197.3541"
         id="tspan18540">đâu?</tspan><tspan
         sodipodi:role="line"
         style="font-style:normal;font-variant:normal;font-weight:normal;font-stretch:normal;font-size:48px;line-height:1.25;font-family:'ComicSpice';-inkscape-font-specification:'ComicSpice'"
         x="1665.2767"
         y="1213.5991"
         id="tspan917-6" /></text>
    <text
       xml:space="preserve"
       style="font-style:normal;font-variant:normal;font-weight:normal;font-stretch:normal;line-height:0%;font-family:'ComicSpice';-inkscape-font-specification:'ComicSpice';text-align:center;letter-spacing:0px;word-spacing:0px;text-anchor:middle;fill:#000000;fill-opacity:1;stroke:none"
       x="2031.5693"
       y="160.21571"
       id="text4246-5-3-7-2"><tspan
         sodipodi:role="line"
         style="font-style:normal;font-variant:normal;font-weight:normal;font-stretch:normal;font-size:48px;line-height:1.25;font-family:'ComicSpice';-inkscape-font-specification:'ComicSpice'"
         x="2031.5693"
         y="164.53572"
         id="tspan890-5-9" /><tspan
         sodipodi:role="line"
         style="font-style:normal;font-variant:normal;font-weight:normal;font-stretch:normal;font-size:48px;line-height:1.25;font-family:'ComicSpice';-inkscape-font-specification:'ComicSpice'"
         x="2031.5693"
         y="204.54071"
         id="tspan950-2">À...</tspan><tspan
         sodipodi:role="line"
         style="font-style:normal;font-variant:normal;font-weight:normal;font-stretch:normal;font-size:48px;line-height:1.25;font-family:'ComicSpice';-inkscape-font-specification:'ComicSpice'"
         x="2031.5693"
         y="220.78572"
         id="tspan917-6-7" /></text>
    <text
       xml:space="preserve"
       style="font-style:normal;font-variant:normal;font-weight:bold;font-stretch:normal;line-height:0%;font-family:'ComicSpice';-inkscape-font-specification:'ComicSpice Bold';text-align:center;letter-spacing:0px;word-spacing:0px;text-anchor:middle;fill:#000000;fill-opacity:1;stroke:none"
       x="2118.343"
       y="288.80627"
       id="text4246-5-3-7-2-0"><tspan
         sodipodi:role="line"
         style="font-style:normal;font-variant:normal;font-weight:bold;font-stretch:normal;font-size:53.33333206px;line-height:1.25;font-family:'ComicSpice';-inkscape-font-specification:'ComicSpice Bold'"
         x="2118.343"
         y="288.80627"
         id="tspan950-2-3">Nhìn thấy bạn rồi!</tspan><tspan
         sodipodi:role="line"
         style="font-style:normal;font-variant:normal;font-weight:bold;font-stretch:normal;font-size:53.33333206px;line-height:1.25;font-family:'ComicSpice';-inkscape-font-specification:'ComicSpice Bold'"
         x="2118.343"
         y="307.25961"
         id="tspan917-6-7-6" /></text>
    <text
       xml:space="preserve"
       style="font-style:italic;font-variant:normal;font-weight:normal;font-stretch:normal;line-height:0%;font-family:'ComicSpice';-inkscape-font-specification:'ComicSpice Italic';text-align:center;letter-spacing:0px;word-spacing:0px;text-anchor:middle;fill:#000000;fill-opacity:1;stroke:none"
       x="1587.4655"
       y="2208.7827"
       id="text4246-5-3-7-6"><tspan
         sodipodi:role="line"
         style="font-style:italic;font-variant:normal;font-weight:normal;font-stretch:normal;font-size:48px;line-height:1.25;font-family:'ComicSpice';-inkscape-font-specification:'ComicSpice Italic'"
         x="1587.4655"
         y="2213.1028"
         id="tspan890-5-2" /><tspan
         sodipodi:role="line"
         style="font-style:italic;font-variant:normal;font-weight:normal;font-stretch:normal;font-size:48px;line-height:1.25;font-family:'ComicSpice';-inkscape-font-specification:'ComicSpice Italic'"
         x="1587.4655"
         y="2253.1077"
         id="tspan917-6-8">Hà...!</tspan></text>
    <text
       xml:space="preserve"
       style="font-style:normal;font-variant:normal;font-weight:normal;font-stretch:normal;line-height:0%;font-family:'ComicSpice';-inkscape-font-specification:'ComicSpice';text-align:center;letter-spacing:0px;word-spacing:0px;text-anchor:middle;fill:#000000;fill-opacity:1;stroke:none"
       x="1640.2002"
       y="2336.2234"
       id="text4246-5-3-79"><tspan
         sodipodi:role="line"
         style="font-style:normal;font-variant:normal;font-weight:normal;font-stretch:normal;font-size:48px;line-height:1.25;font-family:'ComicSpice';-inkscape-font-specification:'ComicSpice'"
         x="1640.2002"
         y="2336.2234"
         id="tspan1138">Quá dễ nếu</tspan><tspan
         sodipodi:role="line"
         style="font-style:normal;font-variant:normal;font-weight:normal;font-stretch:normal;font-size:48px;line-height:1.25;font-family:'ComicSpice';-inkscape-font-specification:'ComicSpice'"
         x="1640.2002"
         y="2392.4734"
         id="tspan18536">biết điểm yếu!</tspan><tspan
         sodipodi:role="line"
         style="font-style:normal;font-variant:normal;font-weight:normal;font-stretch:normal;font-size:48px;line-height:1.25;font-family:'ComicSpice';-inkscape-font-specification:'ComicSpice'"
         x="1640.2002"
         y="2408.7185"
         id="tspan917-3" /></text>
    <text
       xml:space="preserve"
       style="font-style:italic;font-variant:normal;font-weight:normal;font-stretch:normal;line-height:0%;font-family:'ComicSpice';-inkscape-font-specification:'ComicSpice Italic';text-align:center;letter-spacing:0px;word-spacing:0px;text-anchor:middle;fill:#000000;fill-opacity:1;stroke:none;"
       x="124.21524"
       y="161.71936"
       id="text4246-5-5-3"><tspan
         sodipodi:role="line"
         style="font-style:italic;font-variant:normal;font-weight:normal;font-stretch:normal;font-size:48px;line-height:1.25;font-family:'ComicSpice';-inkscape-font-specification:'ComicSpice Italic';text-align:start;text-anchor:start;"
         x="124.21524"
         y="161.71936"
         id="tspan940">“Trên đường đi</tspan><tspan
         sodipodi:role="line"
         style="font-style:italic;font-variant:normal;font-weight:normal;font-stretch:normal;font-size:48px;line-height:1.25;font-family:'ComicSpice';-inkscape-font-specification:'ComicSpice Italic';text-align:start;text-anchor:start;"
         x="124.21524"
         y="219.20978"
         id="tspan18523">lượm lên một</tspan><tspan
         sodipodi:role="line"
         style="font-style:italic;font-variant:normal;font-weight:normal;font-stretch:normal;font-size:48px;line-height:1.25;font-family:'ComicSpice';-inkscape-font-specification:'ComicSpice Italic';text-align:start;text-anchor:start;"
         x="124.21524"
         y="276.7002"
         id="tspan18525">cọng lông.”</tspan></text>
    <text
       xml:space="preserve"
       style="font-style:normal;font-variant:normal;font-weight:normal;font-stretch:normal;font-size:11.12393284px;line-height:0%;font-family:'ComicSpice';-inkscape-font-specification:'ComicSpice';text-align:center;letter-spacing:0px;word-spacing:0px;text-anchor:middle;fill:#000000;fill-opacity:1;stroke:none;stroke-width:0.92699438"
       x="261.16489"
       y="468.48187"
       id="text4246-5-3-9"><tspan
         sodipodi:role="line"
         style="font-style:normal;font-variant:normal;font-weight:normal;font-stretch:normal;font-size:41.71474838px;line-height:1.25;font-family:'ComicSpice';-inkscape-font-specification:'ComicSpice';stroke-width:0.92699438"
         x="261.16489"
         y="468.48187"
         id="tspan995">Chỗ này có lông</tspan><tspan
         sodipodi:role="line"
         style="font-style:normal;font-variant:normal;font-weight:normal;font-stretch:normal;font-size:41.71474838px;line-height:1.25;font-family:'ComicSpice';-inkscape-font-specification:'ComicSpice';stroke-width:0.92699438"
         x="261.16489"
         y="520.62531"
         id="tspan32108">chim nhiều lắm!</tspan></text>
    <text
       xml:space="preserve"
       style="font-style:italic;font-variant:normal;font-weight:normal;font-stretch:normal;font-size:9.62365437px;line-height:0%;font-family:'ComicSpice';-inkscape-font-specification:'ComicSpice Italic';text-align:center;letter-spacing:0px;word-spacing:0px;text-anchor:middle;fill:#000000;fill-opacity:1;stroke:none;stroke-width:0.80197126"
       x="-18.921261"
       y="2115.0823"
       id="text4246-5-5-8"
       transform="matrix(0.90354167,-0.46833278,0.47503417,0.86053134,0,0)"><tspan
         sodipodi:role="line"
         style="font-style:italic;font-variant:normal;font-weight:normal;font-stretch:normal;font-size:36.08870697px;line-height:1.25;font-family:'ComicSpice';-inkscape-font-specification:'ComicSpice Italic';text-align:start;text-anchor:start;fill:#ffffff;fill-opacity:1;stroke-width:0.80197126"
         x="-18.921261"
         y="2115.0823"
         id="tspan478-2">thọc léc</tspan></text>
    <text
       xml:space="preserve"
       style="font-style:italic;font-variant:normal;font-weight:normal;font-stretch:normal;font-size:9.62365437px;line-height:0%;font-family:'ComicSpice';-inkscape-font-specification:'ComicSpice Italic';text-align:center;letter-spacing:0px;word-spacing:0px;text-anchor:middle;fill:#000000;fill-opacity:1;stroke:none;stroke-width:0.80197126"
       x="17.96364"
       y="2078.6084"
       id="text4246-5-5-8-3"
       transform="matrix(0.90354167,-0.46833278,0.47503417,0.86053134,0,0)"
       inkscape:transform-center-x="-64.107832"
       inkscape:transform-center-y="11.506534"><tspan
         sodipodi:role="line"
         style="font-style:italic;font-variant:normal;font-weight:normal;font-stretch:normal;font-size:36.08870697px;line-height:1.25;font-family:'ComicSpice';-inkscape-font-specification:'ComicSpice Italic';text-align:start;text-anchor:start;fill:#ffffff;fill-opacity:1;stroke-width:0.80197126"
         x="17.96364"
         y="2078.6084"
         id="tspan478-2-7">thọc léc</tspan></text>
    <text
       xml:space="preserve"
       style="font-style:normal;font-weight:normal;font-size:20px;line-height:1.25;font-family:sans-serif;text-align:center;letter-spacing:0px;word-spacing:0px;text-anchor:middle;fill:#000000;fill-opacity:1;stroke:none"
       x="447.99686"
       y="1468.0032"
       id="text18572"><tspan
         sodipodi:role="line"
         id="tspan18570"
         x="447.99686"
         y="1485.6985" /><tspan
         sodipodi:role="line"
         x="447.99686"
         y="1510.6985"
         id="tspan18574" /></text>
  </g>
</svg>
