<?xml version="1.0" encoding="UTF-8" standalone="no"?>
<svg
   xmlns:dc="http://purl.org/dc/elements/1.1/"
   xmlns:cc="http://creativecommons.org/ns#"
   xmlns:rdf="http://www.w3.org/1999/02/22-rdf-syntax-ns#"
   xmlns:svg="http://www.w3.org/2000/svg"
   xmlns="http://www.w3.org/2000/svg"
   xmlns:xlink="http://www.w3.org/1999/xlink"
   height="765"
   width="1100"
   version="1.1"
   id="svg2">
  <metadata
     id="metadata8">
    <rdf:RDF>
      <cc:Work
         rdf:about="">
        <dc:format>image/svg+xml</dc:format>
        <dc:type
           rdf:resource="http://purl.org/dc/dcmitype/StillImage" />
        <dc:title></dc:title>
      </cc:Work>
    </rdf:RDF>
  </metadata>
  <defs
     id="defs6">
    <filter
       style="color-interpolation-filters:sRGB;"
       id="filter3797">
      <feFlood
         result="flood"
         flood-color="rgb(0,0,0)"
         flood-opacity="0.8"
         id="feFlood3799" />
      <feComposite
         result="composite1"
         operator="in"
         in="flood"
         in2="SourceGraphic"
         id="feComposite3801" />
      <feGaussianBlur
         result="blur"
         stdDeviation="10"
         in="composite"
         id="feGaussianBlur3803" />
      <feOffset
         result="offset"
         dy="10"
         dx="8"
         id="feOffset3805" />
      <feComposite
         result="composite2"
         operator="over"
         in="SourceGraphic"
         in2="offset"
         id="feComposite3807" />
    </filter>
    <filter
       style="color-interpolation-filters:sRGB;"
       id="filter3836">
      <feFlood
         result="flood"
         flood-color="rgb(0,0,0)"
         flood-opacity="0.94664031620553357"
         id="feFlood3838" />
      <feComposite
         result="composite1"
         operator="in"
         in="flood"
         in2="SourceGraphic"
         id="feComposite3840" />
      <feGaussianBlur
         result="blur"
         stdDeviation="5"
         in="composite"
         id="feGaussianBlur3842" />
      <feOffset
         result="offset"
         dy="4.4534412955465683"
         dx="2.0242914979757103"
         id="feOffset3844" />
      <feComposite
         result="composite2"
         operator="over"
         in="SourceGraphic"
         in2="offset"
         id="feComposite3846" />
    </filter>
    <filter
       id="filter3836-1"
       color-interpolation-filters="sRGB">
      <feFlood
         result="flood"
         flood-color="rgb(0,0,0)"
         flood-opacity="0.94664031620553357"
         id="feFlood3838-1" />
      <feComposite
         result="composite1"
         operator="in"
         in="flood"
         in2="SourceGraphic"
         id="feComposite3840-2" />
      <feGaussianBlur
         result="blur"
         stdDeviation="5"
         id="feGaussianBlur3842-6" />
      <feOffset
         result="offset"
         dy="4.4534412955465683"
         dx="2.0242914979757103"
         id="feOffset3844-4" />
      <feComposite
         result="composite2"
         operator="over"
         in="SourceGraphic"
         in2="offset"
         id="feComposite3846-2" />
    </filter>
    <filter
       id="filter3836-1-7"
       style="color-interpolation-filters:sRGB">
      <feFlood
         result="flood"
         flood-color="rgb(0,0,0)"
         flood-opacity="0.94664031620553357"
         id="feFlood3838-1-8" />
      <feComposite
         result="composite1"
         operator="in"
         in="flood"
         in2="SourceGraphic"
         id="feComposite3840-2-5" />
      <feGaussianBlur
         result="blur"
         stdDeviation="5"
         id="feGaussianBlur3842-6-1" />
      <feOffset
         result="offset"
         dy="4.4534412955465683"
         dx="2.0242914979757103"
         id="feOffset3844-4-8" />
      <feComposite
         result="composite2"
         operator="over"
         in="SourceGraphic"
         in2="offset"
         id="feComposite3846-2-7" />
    </filter>
    <filter
       height="1.0558571"
       y="-0.027928527"
       width="1.0178171"
       x="-0.0089085409"
       id="filter5236-4-16-3"
       style="color-interpolation-filters:sRGB">
      <feGaussianBlur
         id="feGaussianBlur5238-0-4-6"
         stdDeviation="0.49168068" />
    </filter>
    <filter
       height="1.0558571"
       y="-0.027928527"
       width="1.0178171"
       x="-0.0089085409"
       id="filter5236-4-16"
       style="color-interpolation-filters:sRGB">
      <feGaussianBlur
         id="feGaussianBlur5238-0-4"
         stdDeviation="0.49168068" />
    </filter>
  </defs>
  <g
     id="layer1">
    <image
       xlink:href="../gfx_Pepper-and-Carrot_by-David-Revoy_E19.png"
       width="1100"
       height="765"
       id="image10"
       x="0"
       y="0" />
  </g>
  <g
     id="layer2">
    <text
       id="episode-title"
       y="736.31476"
       x="353.16016"
       style="font-style:normal;font-variant:normal;font-weight:normal;font-stretch:normal;line-height:0%;font-family:Arial;-inkscape-font-specification:Arial;letter-spacing:0px;word-spacing:0px;display:inline;fill:#ffffff;fill-opacity:1;stroke:none;filter:url(#filter3836-1-7)"
       xml:space="preserve"><tspan
         style="font-style:normal;font-variant:normal;font-weight:normal;font-stretch:normal;font-size:48px;line-height:1.25;font-family:Lavi;-inkscape-font-specification:Lavi"
         y="736.31476"
         x="353.16016"
         id="tspan4185">19. díl: Znečištění</tspan></text>
    <text
       transform="matrix(0.34257888,-0.03530105,-0.04997129,0.41720529,-10.426378,-626.49373)"
       x="1318.7137"
       y="3129.8394"
       xml:space="preserve"
       style="font-style:normal;font-variant:normal;font-weight:normal;font-stretch:normal;line-height:0%;font-family:Lavi;-inkscape-font-specification:Lavi;text-align:center;letter-spacing:0px;word-spacing:0px;text-anchor:middle;opacity:0.63300003;fill:#ffffff;fill-opacity:1;stroke:none;filter:url(#filter5236-4-16)"
       id="text4178-6-5-9-0-7-0-4"><tspan
         id="tspan4293-1-6-3-5-0-2"
         style="font-style:normal;font-variant:normal;font-weight:normal;font-stretch:normal;font-size:56.55884552px;line-height:1.25;font-family:Fondamento;-inkscape-font-specification:Fondamento;fill:#ffffff;fill-opacity:1"
         x="1318.7137"
         y="3129.8394"> Rajčata</tspan></text>
    <text
       transform="matrix(0.29271966,0.0444502,-0.19493314,0.37716453,997.09935,-624.00331)"
       x="1318.7137"
       y="3129.8394"
       xml:space="preserve"
       style="font-style:normal;font-variant:normal;font-weight:normal;font-stretch:normal;line-height:0%;font-family:Lavi;-inkscape-font-specification:Lavi;text-align:center;letter-spacing:0px;word-spacing:0px;text-anchor:middle;opacity:0.63300003;fill:#ffffff;fill-opacity:1;stroke:none;filter:url(#filter5236-4-16-3)"
       id="text4178-6-5-9-0-7-0-4-7"><tspan
         id="tspan4293-1-6-3-5-0-2-5"
         style="font-style:normal;font-variant:normal;font-weight:normal;font-stretch:normal;font-size:65.20553589px;line-height:1.25;font-family:Fondamento;-inkscape-font-specification:Fondamento;fill:#ffffff;fill-opacity:1"
         x="1318.7137"
         y="3129.8394">Lilky</tspan></text>
  </g>
</svg>
