<?xml version="1.0" encoding="UTF-8" standalone="no"?>
<!-- Created With Inkscape (http://www.inkscape.org/) -->

<svg
   xmlns:dc="http://purl.org/dc/elements/1.1/"
   xmlns:cc="http://creativecommons.org/ns#"
   xmlns:rdf="http://www.w3.org/1999/02/22-rdf-syntax-ns#"
   xmlns:svg="http://www.w3.org/2000/svg"
   xmlns="http://www.w3.org/2000/svg"
   xmlns:xlink="http://www.w3.org/1999/xlink"
   xmlns:sodipodi="http://sodipodi.sourceforge.net/DTD/sodipodi-0.dtd"
   xmlns:inkscape="http://www.inkscape.org/namespaces/inkscape"
   id="svg2"
   version="1.1"
   inkscape:version="0.92.4 (5da689c313, 2019-01-14)"
   width="2646.3999"
   height="3736.5334"
   sodipodi:docname="E06P07.svg"
   viewBox="0 0 2481 3503">
  <metadata
     id="metadata8">
    <rdf:RDF>
      <cc:Work
         rdf:about="">
        <dc:format>image/svg+xml</dc:format>
        <dc:type
           rdf:resource="http://purl.org/dc/dcmitype/StillImage" />
        <dc:title />
      </cc:Work>
    </rdf:RDF>
  </metadata>
  <defs
     id="defs6">
    <filter
       id="filter4375-4-1-1-15-1-3"
       inkscape:label="deevad outline effect"
       style="color-interpolation-filters:sRGB">
      <feFlood
         id="feFlood4377-7-9-0-4-4-4"
         flood-opacity="1"
         flood-color="rgb(0,0,0)"
         result="flood" />
      <feComposite
         id="feComposite4379-3-8-8-6-0-7"
         in2="SourceGraphic"
         in="flood"
         operator="in"
         result="composite1" />
      <feMorphology
         id="feMorphology4393-1-0-49-8-2-7"
         operator="dilate"
         radius="0.69999999999999996"
         result="result3" />
      <feComposite
         id="feComposite4385-9-5-7-2-1-2"
         in2="result3"
         in="SourceGraphic"
         operator="over"
         result="composite2" />
    </filter>
    <filter
       id="filter6713"
       inkscape:label="deevad outline effect"
       style="color-interpolation-filters:sRGB">
      <feFlood
         id="feFlood6715"
         flood-opacity="1"
         flood-color="rgb(0,0,0)"
         result="flood" />
      <feComposite
         id="feComposite6717"
         in2="SourceGraphic"
         in="flood"
         operator="in"
         result="composite1" />
      <feMorphology
         id="feMorphology6719"
         operator="dilate"
         radius="0.321"
         result="result3" />
      <feComposite
         id="feComposite6721"
         in2="result3"
         in="SourceGraphic"
         operator="over"
         result="composite2" />
    </filter>
    <filter
       id="filter6723"
       inkscape:label="deevad outline effect"
       style="color-interpolation-filters:sRGB">
      <feFlood
         id="feFlood6725"
         flood-opacity="1"
         flood-color="rgb(0,0,0)"
         result="flood" />
      <feComposite
         id="feComposite6727"
         in2="SourceGraphic"
         in="flood"
         operator="in"
         result="composite1" />
      <feMorphology
         id="feMorphology6729"
         operator="dilate"
         radius="0.321"
         result="result3" />
      <feComposite
         id="feComposite6731"
         in2="result3"
         in="SourceGraphic"
         operator="over"
         result="composite2" />
    </filter>
    <filter
       id="filter6733"
       inkscape:label="deevad outline effect"
       style="color-interpolation-filters:sRGB">
      <feFlood
         id="feFlood6735"
         flood-opacity="1"
         flood-color="rgb(0,0,0)"
         result="flood" />
      <feComposite
         id="feComposite6737"
         in2="SourceGraphic"
         in="flood"
         operator="in"
         result="composite1" />
      <feMorphology
         id="feMorphology6739"
         operator="dilate"
         radius="0.321"
         result="result3" />
      <feComposite
         id="feComposite6741"
         in2="result3"
         in="SourceGraphic"
         operator="over"
         result="composite2" />
    </filter>
    <filter
       id="filter6743"
       inkscape:label="deevad outline effect"
       style="color-interpolation-filters:sRGB">
      <feFlood
         id="feFlood6745"
         flood-opacity="1"
         flood-color="rgb(0,0,0)"
         result="flood" />
      <feComposite
         id="feComposite6747"
         in2="SourceGraphic"
         in="flood"
         operator="in"
         result="composite1" />
      <feMorphology
         id="feMorphology6749"
         operator="dilate"
         radius="0.321"
         result="result3" />
      <feComposite
         id="feComposite6751"
         in2="result3"
         in="SourceGraphic"
         operator="over"
         result="composite2" />
    </filter>
    <filter
       id="filter6753"
       inkscape:label="deevad outline effect"
       style="color-interpolation-filters:sRGB">
      <feFlood
         id="feFlood6755"
         flood-opacity="1"
         flood-color="rgb(0,0,0)"
         result="flood" />
      <feComposite
         id="feComposite6757"
         in2="SourceGraphic"
         in="flood"
         operator="in"
         result="composite1" />
      <feMorphology
         id="feMorphology6759"
         operator="dilate"
         radius="0.321"
         result="result3" />
      <feComposite
         id="feComposite6761"
         in2="result3"
         in="SourceGraphic"
         operator="over"
         result="composite2" />
    </filter>
    <filter
       id="filter6763"
       inkscape:label="deevad outline effect"
       style="color-interpolation-filters:sRGB">
      <feFlood
         id="feFlood6765"
         flood-opacity="1"
         flood-color="rgb(0,0,0)"
         result="flood" />
      <feComposite
         id="feComposite6767"
         in2="SourceGraphic"
         in="flood"
         operator="in"
         result="composite1" />
      <feMorphology
         id="feMorphology6769"
         operator="dilate"
         radius="0.321"
         result="result3" />
      <feComposite
         id="feComposite6771"
         in2="result3"
         in="SourceGraphic"
         operator="over"
         result="composite2" />
    </filter>
    <filter
       id="filter6773"
       inkscape:label="deevad outline effect"
       style="color-interpolation-filters:sRGB">
      <feFlood
         id="feFlood6775"
         flood-opacity="1"
         flood-color="rgb(0,0,0)"
         result="flood" />
      <feComposite
         id="feComposite6777"
         in2="SourceGraphic"
         in="flood"
         operator="in"
         result="composite1" />
      <feMorphology
         id="feMorphology6779"
         operator="dilate"
         radius="0.321"
         result="result3" />
      <feComposite
         id="feComposite6781"
         in2="result3"
         in="SourceGraphic"
         operator="over"
         result="composite2" />
    </filter>
    <filter
       id="filter4375-4-1-1-1-1"
       inkscape:label="deevad outline effect"
       style="color-interpolation-filters:sRGB">
      <feFlood
         id="feFlood4377-7-9-0-8-5"
         flood-opacity="1"
         flood-color="rgb(0,0,0)"
         result="flood" />
      <feComposite
         id="feComposite4379-3-8-8-2-7"
         in2="SourceGraphic"
         in="flood"
         operator="in"
         result="composite1" />
      <feMorphology
         id="feMorphology4393-1-0-49-8-7"
         operator="dilate"
         radius="4"
         result="result3" />
      <feComposite
         id="feComposite4385-9-5-7-0-3"
         in2="result3"
         in="SourceGraphic"
         operator="over"
         result="composite2" />
    </filter>
    <filter
       id="filter4375-4-1-1-1-1-3"
       inkscape:label="deevad outline effect"
       style="color-interpolation-filters:sRGB">
      <feFlood
         id="feFlood4377-7-9-0-8-5-5"
         flood-opacity="1"
         flood-color="rgb(0,0,0)"
         result="flood" />
      <feComposite
         id="feComposite4379-3-8-8-2-7-8"
         in2="SourceGraphic"
         in="flood"
         operator="in"
         result="composite1" />
      <feMorphology
         id="feMorphology4393-1-0-49-8-7-1"
         operator="dilate"
         radius="4"
         result="result3" />
      <feComposite
         id="feComposite4385-9-5-7-0-3-6"
         in2="result3"
         in="SourceGraphic"
         operator="over"
         result="composite2" />
    </filter>
    <filter
       id="filter4375-4-1-1-15-1-3-3"
       inkscape:label="deevad outline effect"
       style="color-interpolation-filters:sRGB">
      <feFlood
         id="feFlood4377-7-9-0-4-4-4-9"
         flood-opacity="1"
         flood-color="rgb(0,0,0)"
         result="flood" />
      <feComposite
         id="feComposite4379-3-8-8-6-0-7-6"
         in2="SourceGraphic"
         in="flood"
         operator="in"
         result="composite1" />
      <feMorphology
         id="feMorphology4393-1-0-49-8-2-7-6"
         operator="dilate"
         radius="0.321"
         result="result3" />
      <feComposite
         id="feComposite4385-9-5-7-2-1-2-4"
         in2="result3"
         in="SourceGraphic"
         operator="over"
         result="composite2" />
    </filter>
    <filter
       id="filter6892"
       inkscape:label="deevad outline effect"
       style="color-interpolation-filters:sRGB">
      <feFlood
         id="feFlood6894"
         flood-opacity="1"
         flood-color="rgb(0,0,0)"
         result="flood" />
      <feComposite
         id="feComposite6896"
         in2="SourceGraphic"
         in="flood"
         operator="in"
         result="composite1" />
      <feMorphology
         id="feMorphology6898"
         operator="dilate"
         radius="0.321"
         result="result3" />
      <feComposite
         id="feComposite6900"
         in2="result3"
         in="SourceGraphic"
         operator="over"
         result="composite2" />
    </filter>
    <filter
       id="filter6902"
       inkscape:label="deevad outline effect"
       style="color-interpolation-filters:sRGB">
      <feFlood
         id="feFlood6904"
         flood-opacity="1"
         flood-color="rgb(0,0,0)"
         result="flood" />
      <feComposite
         id="feComposite6906"
         in2="SourceGraphic"
         in="flood"
         operator="in"
         result="composite1" />
      <feMorphology
         id="feMorphology6908"
         operator="dilate"
         radius="0.321"
         result="result3" />
      <feComposite
         id="feComposite6910"
         in2="result3"
         in="SourceGraphic"
         operator="over"
         result="composite2" />
    </filter>
    <filter
       id="filter6912"
       inkscape:label="deevad outline effect"
       style="color-interpolation-filters:sRGB">
      <feFlood
         id="feFlood6914"
         flood-opacity="1"
         flood-color="rgb(0,0,0)"
         result="flood" />
      <feComposite
         id="feComposite6916"
         in2="SourceGraphic"
         in="flood"
         operator="in"
         result="composite1" />
      <feMorphology
         id="feMorphology6918"
         operator="dilate"
         radius="0.321"
         result="result3" />
      <feComposite
         id="feComposite6920"
         in2="result3"
         in="SourceGraphic"
         operator="over"
         result="composite2" />
    </filter>
    <filter
       id="filter6922"
       inkscape:label="deevad outline effect"
       style="color-interpolation-filters:sRGB">
      <feFlood
         id="feFlood6924"
         flood-opacity="1"
         flood-color="rgb(0,0,0)"
         result="flood" />
      <feComposite
         id="feComposite6926"
         in2="SourceGraphic"
         in="flood"
         operator="in"
         result="composite1" />
      <feMorphology
         id="feMorphology6928"
         operator="dilate"
         radius="0.321"
         result="result3" />
      <feComposite
         id="feComposite6930"
         in2="result3"
         in="SourceGraphic"
         operator="over"
         result="composite2" />
    </filter>
    <filter
       id="filter6932"
       inkscape:label="deevad outline effect"
       style="color-interpolation-filters:sRGB">
      <feFlood
         id="feFlood6934"
         flood-opacity="1"
         flood-color="rgb(0,0,0)"
         result="flood" />
      <feComposite
         id="feComposite6936"
         in2="SourceGraphic"
         in="flood"
         operator="in"
         result="composite1" />
      <feMorphology
         id="feMorphology6938"
         operator="dilate"
         radius="0.321"
         result="result3" />
      <feComposite
         id="feComposite6940"
         in2="result3"
         in="SourceGraphic"
         operator="over"
         result="composite2" />
    </filter>
    <filter
       id="filter6942"
       inkscape:label="deevad outline effect"
       style="color-interpolation-filters:sRGB">
      <feFlood
         id="feFlood6944"
         flood-opacity="1"
         flood-color="rgb(0,0,0)"
         result="flood" />
      <feComposite
         id="feComposite6946"
         in2="SourceGraphic"
         in="flood"
         operator="in"
         result="composite1" />
      <feMorphology
         id="feMorphology6948"
         operator="dilate"
         radius="0.321"
         result="result3" />
      <feComposite
         id="feComposite6950"
         in2="result3"
         in="SourceGraphic"
         operator="over"
         result="composite2" />
    </filter>
    <filter
       id="filter6952"
       inkscape:label="deevad outline effect"
       style="color-interpolation-filters:sRGB">
      <feFlood
         id="feFlood6954"
         flood-opacity="1"
         flood-color="rgb(0,0,0)"
         result="flood" />
      <feComposite
         id="feComposite6956"
         in2="SourceGraphic"
         in="flood"
         operator="in"
         result="composite1" />
      <feMorphology
         id="feMorphology6958"
         operator="dilate"
         radius="0.321"
         result="result3" />
      <feComposite
         id="feComposite6960"
         in2="result3"
         in="SourceGraphic"
         operator="over"
         result="composite2" />
    </filter>
  </defs>
  <sodipodi:namedview
     pagecolor="#ffffff"
     bordercolor="#666666"
     borderopacity="1"
     objecttolerance="10"
     gridtolerance="10"
     guidetolerance="10"
     inkscape:pageopacity="0"
     inkscape:pageshadow="2"
     inkscape:window-width="1201"
     inkscape:window-height="777"
     id="namedview4"
     showgrid="false"
     inkscape:zoom="0.32526913"
     inkscape:cx="1836.7699"
     inkscape:cy="826.27478"
     inkscape:window-x="71"
     inkscape:window-y="-8"
     inkscape:window-maximized="1"
     inkscape:current-layer="layer3" />
  <g
     inkscape:groupmode="layer"
     id="layer2"
     inkscape:label="artwork"
     sodipodi:insensitive="true">
    <image
       sodipodi:absref="../gfx_Pepper-and-Carrot_by-David-Revoy_E06P07.png"
       xlink:href="../gfx_Pepper-and-Carrot_by-David-Revoy_E06P07.png"
       y="0"
       x="0"
       id="image10"
       height="3503"
       width="2481" />
  </g>
  <g
     inkscape:groupmode="layer"
     id="layer3"
     inkscape:label="speechbubbles">
    <path
       style="fill:#ffffff;fill-opacity:1;stroke:none;stroke-width:0.93643552"
       d="m 1869.9093,3290.818 c 26.3477,7.5046 36.4814,14.473 31.7522,18.7613 10.8093,2.1443 14.8629,57.8924 4.7292,68.0772 -0.6755,1.0723 -5.4048,4.2885 -3.3779,4.8244 2.0266,0.5362 14.1872,-1.0719 16.2139,1.0721 2.0268,2.1444 -18.2408,32.6986 -15.5385,33.7708 2.7025,1.072 64.8559,-19.2976 73.6385,-14.4732 8.7825,4.8243 4.0536,17.1532 6.7559,17.6895 2.702,0.536 27.6988,-2.6803 31.0766,-2.1443 3.378,0.536 9.4581,16.6172 12.8361,17.1533 3.3779,0.5361 18.9162,-6.9684 21.6186,-6.4325 2.7023,0.5362 1.3511,13.937 4.729,14.4731 3.3778,0.5361 18.2409,-11.2567 20.2676,-10.7208 2.0266,0.5361 9.4581,27.3382 12.836,28.9461 3.3779,1.6084 24.9964,-29.482 27.0232,-30.0182 2.0268,-0.5361 14.8627,36.4508 17.5652,36.9869 2.7023,0.536 16.214,-25.194 18.2408,-24.6579 2.0267,0.5359 14.8626,15.5454 17.5649,16.6172 2.7023,1.072 20.2674,-33.2346 22.9697,-33.2346 2.7024,0 25.6723,14.4731 27.699,17.1533 2.0267,2.6802 4.0534,-13.9369 6.7556,-13.9369 2.7025,0 33.7792,9.6487 34.4548,9.1128 0.6756,-0.5363 -4.729,-10.721 -2.7022,-10.721 2.0266,0 33.7789,13.4011 35.1302,10.721 1.3511,-2.6803 68.9093,13.4009 73.6384,11.2568 4.729,-2.1443 -30.4013,-43.9554 -27.0234,-47.1716 3.3778,-3.2164 15.5385,0.5359 16.214,-1.0722 0.6756,-1.6081 -7.4315,-8.5767 -5.4049,-10.7208 2.027,-2.1443 24.9968,-10.7208 27.0234,-13.401 2.0268,-2.6801 -10.1338,-9.6489 -7.4315,-11.2571 2.7026,-1.608 42.562,-11.7928 43.2376,-14.4729 0.6754,-2.6803 -20.2676,-15.545 -17.5653,-19.2974 2.7024,-3.7523 10.1337,-5.3604 9.4581,-8.0407 -0.6757,-2.6802 -13.5115,-5.8965 -12.8361,-8.5767 0.6757,-2.6803 7.4315,-16.0812 9.4581,-18.2254 2.0269,-2.1441 -14.187,-1.072 -14.187,-3.2163 0,-2.144 59.4512,-59.5006 58.0999,-75.5818 -20.943,10.1849 -92.5546,28.4102 -114.8487,24.122 -22.2943,-4.2885 -13.5117,-31.0904 -16.8896,-32.6986 -3.3779,-1.6083 -28.3746,9.1127 -31.7525,5.3604 -3.3779,-3.7522 -4.7288,-10.7209 -7.4312,-10.7209 -2.7023,0 -18.2409,15.0091 -21.6186,14.4732 -3.378,-0.5361 -35.1302,-24.1217 -39.8594,-24.6579 -4.729,-0.536 -22.9697,9.1128 -27.0231,9.6487 -4.0538,0.536 -7.4316,-12.8649 -10.8095,-11.7928 -3.378,1.072 -24.2459,15.6665 -27.4428,14.0549 -17.9205,-10.8358 -23.6397,-14.6979 -37.5887,-25.2856 0.7571,8.6888 2.2595,15.2073 3.0325,23.0556 0,0 -22.4897,-13.233 -26.5432,-13.233 -4.0534,0 -8.0658,26.6021 -11.4437,27.674 -3.3781,1.072 -54.4982,-25.0232 -52.4714,-28.2395 2.0268,-3.2161 -8.3311,28.7756 -13.0601,30.3837 -4.7291,1.608 -33.1551,-11.8599 -34.5063,-10.2519 -1.3511,1.6081 8.8343,18.8285 4.7808,19.3645 -4.0536,0.5361 -13.5118,2.6803 -13.5118,2.6803 l -1.5762,-0.5547 c 0,0 -59.6201,-42.5241 -62.9979,-45.7402 -3.3779,-3.2162 36.1998,51.6552 38.2265,55.9436 -12.1604,-4.2884 -47.9664,-13.4009 -50.6685,-16.0813 -2.7024,-2.6801 4.7289,9.6489 8.7826,13.4012 -5.4048,-1.6083 -10.1339,-2.1443 -10.1339,-2.1443 l 15.5385,12.8652 -4.7292,1.0721 c 0,0 10.1337,5.8963 10.1337,8.5765 0,2.6802 -26.3476,5.8965 -26.3476,5.8965 0,0 10.8093,4.8243 8.1071,7.5045 -2.7025,2.6801 -9.4583,4.2883 -9.4583,4.2883 l -1.3511,6.9687 z"
       id="path5888"
       inkscape:connector-curvature="0"
       sodipodi:nodetypes="ccccccccccccccscccscscscccccccccsccscscssccsccccsccccsccsccccccsccccc" />
    <path
       style="color:#000000;display:inline;overflow:visible;visibility:visible;fill:#ffffff;fill-opacity:1;fill-rule:nonzero;stroke:none;stroke-width:1.05989683px;marker:none;enable-background:accumulate"
       d="m 1864.8901,2968.2728 c 77.8452,-35.792 139.9002,-70.0795 132.6741,-29.6168 78.9311,-46.6885 133.9884,-22.6403 190.4024,-2.6128 19.5509,-14.4624 27.2623,-38.6134 76.8538,-28.4923 -3.3792,-16.3098 16.3737,-25.6028 56.7678,-28.6354 -49.3595,-13.9586 -56.4881,-24.5566 41.9108,-26.7571 -72.7102,-7.3487 -140.2856,-15.3466 -46.0828,-43.7971 -26.6441,-3.1985 -97.5377,21.2121 -46.8048,-63.8234 -52.9062,24.0411 -105.8676,35.2451 -153.5469,-28.8699 -24.5562,21.5509 -56.6963,34.7522 -103.7198,-1.6402 -17.2088,22.0128 -83.5756,18.1986 -106.7078,11.4131 42.7109,30.0025 37.1908,45.8575 -29.7896,42.5818 100.1841,56.0862 10.8888,41.1921 -9.8808,51.407 83.5719,23.5848 39.6888,40.0747 19.3689,58.5455 100.3082,9.3999 35.7918,41.6119 -21.4453,90.2976 z"
       id="path3549-3"
       inkscape:connector-curvature="0"
       sodipodi:nodetypes="ccccccccccccccc" />
    <path
       style="color:#000000;font-style:normal;font-variant:normal;font-weight:normal;font-stretch:normal;font-size:medium;line-height:normal;font-family:Sans;-inkscape-font-specification:Sans;text-indent:0;text-align:start;text-decoration:none;text-decoration-line:none;letter-spacing:normal;word-spacing:normal;text-transform:none;writing-mode:lr-tb;direction:ltr;baseline-shift:baseline;text-anchor:start;display:inline;overflow:visible;visibility:visible;fill:#ffffff;fill-opacity:1;fill-rule:nonzero;stroke:none;stroke-width:31.89999962;marker:none;enable-background:accumulate"
       d="m 474.97795,3335.9786 24.83976,-5.1644 c -7.52154,-36.3794 -13.68595,-61.4776 -23.72462,-81.0826 -10.03874,-19.6049 -24.78048,-32.9577 -45.01348,-42.6286 -36.41666,-17.4064 -81.45734,-43.8096 -98.20961,-81.2528 -9.61408,-21.4887 -22.76449,-50.8123 -27.78998,-78.1209 -5.02531,-27.3087 -2.60105,-50.1072 16.31939,-65.7124 21.65864,-17.864 37.8212,-21.9983 54.99629,-30.0165 17.17499,-8.0183 34.11021,-21.3877 47.0396,-51.6191 l -23.31225,-9.9869 c -11.16692,26.1102 -20.11927,31.9206 -34.46319,38.6172 -14.34395,6.6965 -35.34811,12.7782 -60.39708,33.4383 -27.78728,22.9188 -30.96496,58.119 -25.12384,89.8598 5.84096,31.7408 20.02505,62.525 29.58101,83.8835 21.58785,48.2512 72.67834,75.742 110.42217,93.7827 16.84727,8.0525 25.51902,15.9996 33.37048,31.333 7.8515,15.3334 14.04893,38.7986 21.46535,74.6697 z"
       id="path3381"
       inkscape:connector-curvature="0" />
    <path
       style="color:#000000;display:inline;overflow:visible;visibility:visible;fill:#ffffff;fill-opacity:1;fill-rule:nonzero;stroke:none;stroke-width:1px;marker:none;enable-background:accumulate"
       d="m 640.14442,3225.1944 c 31.90532,21.8232 91.48732,27.3927 175.59217,-36.4776 -62.83193,74.6779 -138.38416,82.5141 -160.72924,83.0755 -22.34519,0.5613 -14.86293,-46.5979 -14.86293,-46.5979 z"
       id="path4008"
       inkscape:connector-curvature="0" />
    <path
       style="color:#000000;display:inline;overflow:visible;visibility:visible;fill:#ffffff;fill-opacity:1;fill-rule:nonzero;stroke:none;stroke-width:1px;marker:none;enable-background:accumulate"
       d="m 149.05585,2953.1238 c 8.77872,-41.9805 82.41068,-71.2547 267.75199,-59.3516 99.2788,6.3759 212.15308,11.5808 200.44814,73.1038 -11.70505,61.523 -174.11183,56.4565 -207.76376,57.1802 -33.65194,0.724 -207.94005,-9.4872 -237.02628,-31.1234 -18.20731,-13.5437 -24.8732,-26.7806 -23.41009,-39.809 z"
       id="path4546"
       inkscape:connector-curvature="0"
       sodipodi:nodetypes="cssssc" />
    <flowRoot
       xml:space="preserve"
       id="flowRoot4133-6-9-4-8-5"
       style="color:#000000;font-style:normal;font-variant:normal;font-weight:normal;font-stretch:normal;line-height:0.01%;font-family:Arial;-inkscape-font-specification:Arial;letter-spacing:0.00204969px;word-spacing:0px;display:inline;overflow:visible;visibility:visible;fill:#ffffff;fill-opacity:1;fill-rule:nonzero;stroke:#ffffff;stroke-width:0.0836072;stroke-linecap:butt;stroke-linejoin:miter;stroke-miterlimit:4;stroke-dasharray:none;stroke-dashoffset:0;stroke-opacity:1;marker:none;filter:url(#filter4375-4-1-1-15-1-3);enable-background:accumulate"
       transform="matrix(8.3099216,-5.4900388,-0.26452567,16.18078,-8894.6563,-10450.938)"><flowRegion
         id="flowRegion4135-2-9-3-5-2"
         style="stroke-width:0.86646658"><rect
           id="rect4137-1-7-1-2-1"
           width="200.00224"
           height="39.051064"
           x="1125.3193"
           y="1078.5308"
           style="color:#000000;letter-spacing:0.00204969px;display:inline;overflow:visible;visibility:visible;fill:#ffffff;fill-opacity:1;fill-rule:nonzero;stroke:#ffffff;stroke-width:0.0836072;stroke-linecap:butt;stroke-linejoin:miter;stroke-miterlimit:4;stroke-dasharray:none;stroke-dashoffset:0;stroke-opacity:1;marker:none;filter:url(#filter4375-4-1-1-15-1-3);enable-background:accumulate" /></flowRegion><flowPara
         id="flowPara4139-2-8-6-8-6"
         style="color:#000000;font-style:normal;font-variant:normal;font-weight:normal;font-stretch:normal;font-size:19.639500804px;line-height:125%;font-family:zbalermorna;-inkscape-font-specification:zbalermorna;letter-spacing:0.00204969px;word-spacing:0.00204969px;display:inline;overflow:visible;visibility:visible;fill:#ffffff;fill-opacity:1;fill-rule:nonzero;stroke:#ffffff;stroke-width:0.0836072;stroke-linecap:butt;stroke-linejoin:miter;stroke-miterlimit:4;stroke-dasharray:none;stroke-dashoffset:0;stroke-opacity:1;marker:none;enable-background:accumulate">&#xe2341;&#xe23a0;&#xe2300;&#xe2341;&#xe23a0;&#xe2300;<flowSpan
   style="font-size:17.289907459000002px"
   id="flowSpan3145">&#xe2340;</flowSpan><flowSpan
   style="font-size:16.506709670000003px"
   id="flowSpan3141">&#xe2301;&#xe2311;</flowSpan><flowSpan
   style="font-size:14.940315148000002px"
   id="flowSpan3139">&#xe2311;&#xe2311;</flowSpan><flowSpan
   style="font-size:11.807524014000002px"
   id="flowSpan3137">&#xe2311;&#xe2311;</flowSpan><flowSpan
   style="font-size:10.241129492px"
   id="flowSpan3135">&#xe2311;&#xe2311;</flowSpan><flowSpan
   style="font-size:8.674734453000001px"
   id="flowSpan3133">&#xe23a0;&#xe2300;</flowSpan></flowPara></flowRoot><flowRoot
       xml:space="preserve"
       id="flowRoot4133-6-9-4-8-5-3"
       style="color:#000000;font-style:normal;font-variant:normal;font-weight:normal;font-stretch:normal;line-height:0.01%;font-family:Arial;-inkscape-font-specification:Arial;letter-spacing:0.00204969px;word-spacing:0px;display:inline;overflow:visible;visibility:visible;fill:#ffffff;fill-opacity:1;fill-rule:nonzero;stroke:#ffffff;stroke-width:0.0836072;stroke-linecap:butt;stroke-linejoin:miter;stroke-miterlimit:4;stroke-dasharray:none;stroke-dashoffset:0;stroke-opacity:1;marker:none;filter:url(#filter4375-4-1-1-15-1-3-3);enable-background:accumulate"
       transform="matrix(9.5870221,-1.5691407,-6.0483171,15.572657,-2606.9138,-12927.809)"><flowRegion
         id="flowRegion4135-2-9-3-5-2-5"
         style="stroke-width:0.86646658"><rect
           id="rect4137-1-7-1-2-1-3"
           width="99.622368"
           height="30.005394"
           x="1125.3193"
           y="1078.5308"
           style="color:#000000;letter-spacing:0.00204969px;display:inline;overflow:visible;visibility:visible;fill:#ffffff;fill-opacity:1;fill-rule:nonzero;stroke:#ffffff;stroke-width:0.0836072;stroke-linecap:butt;stroke-linejoin:miter;stroke-miterlimit:4;stroke-dasharray:none;stroke-dashoffset:0;stroke-opacity:1;marker:none;filter:url(#filter4375-4-1-1-15-1-3-3);enable-background:accumulate" /></flowRegion><flowPara
         id="flowPara4139-2-8-6-8-6-3"
         style="color:#000000;font-style:normal;font-variant:normal;font-weight:normal;font-stretch:normal;font-size:13.200000000000001px;line-height:125%;font-family:zbalermorna;-inkscape-font-specification:zbalermorna;letter-spacing:0.00204969px;word-spacing:0.00204969px;display:inline;overflow:visible;visibility:visible;fill:#ffffff;fill-opacity:1;fill-rule:nonzero;stroke:#ffffff;stroke-width:0.0836072;stroke-linecap:butt;stroke-linejoin:miter;stroke-miterlimit:4;stroke-dasharray:none;stroke-dashoffset:0;stroke-opacity:1;marker:none;filter:url(#filter4375-4-1-1-15-1-3-3);enable-background:accumulate"><flowSpan
           id="flowSpan4277-2"
           style="color:#000000;font-size:19.639500804px;display:inline;overflow:visible;visibility:visible;fill:#ffffff;fill-opacity:1;fill-rule:nonzero;stroke:#ffffff;stroke-width:0.0836072;stroke-linecap:butt;stroke-linejoin:miter;stroke-miterlimit:4;stroke-dasharray:none;stroke-dashoffset:0;stroke-opacity:1;marker:none;filter:url(#filter4375-4-1-1-15-1-3-3);enable-background:accumulate">&#xe23b1;&#xe2390;</flowSpan></flowPara></flowRoot><path
       style="color:#000000;display:inline;overflow:visible;visibility:visible;fill:#ffffff;fill-opacity:1;fill-rule:nonzero;stroke:none;stroke-width:1px;marker:none;enable-background:accumulate"
       d="m 69.497434,2869.3681 c -6.82553,-70.4477 53.019506,-92.8941 178.782896,-92.3501 169.34697,0.7326 165.84117,43.7737 167.11329,85.2452 2.14923,70.0656 -86.80268,83.7178 -173.6869,80.7916 -103.60538,-3.4893 -163.207706,2.0204 -172.209286,-73.6867 z"
       id="path5026"
       inkscape:connector-curvature="0"
       sodipodi:nodetypes="csssc" />
    <flowRoot
       xml:space="preserve"
       id="flowRoot2987-4-9-3"
       style="font-style:normal;font-variant:normal;font-weight:normal;font-stretch:normal;line-height:0.01%;font-family:zbalermorna;-inkscape-font-specification:zbalermorna;text-align:center;letter-spacing:0px;word-spacing:0px;text-anchor:middle;fill:#000000;fill-opacity:1;stroke:none"
       transform="translate(-174.19924,2571.3262)"><flowRegion
         id="flowRegion2989-5-4-5"><rect
           id="rect2991-7-9-6"
           width="602.40173"
           height="310.73996"
           x="120.55251"
           y="265.53046"
           style="font-style:normal;font-variant:normal;font-weight:normal;font-stretch:normal;font-family:zbalermorna;-inkscape-font-specification:zbalermorna;text-align:center;text-anchor:middle" /></flowRegion><flowPara
         style="font-size:52.800000000000004px;line-height:1.25;text-align:center;text-anchor:middle"
         id="flowPara3443">&#xe2303;&#xe2383;&#xe2420;&#xe23f3;&#xe2303;&#xe2411;&#xe2314;</flowPara></flowRoot><path
       style="color:#000000;display:inline;overflow:visible;visibility:visible;fill:#ffffff;fill-opacity:1;fill-rule:nonzero;stroke:none;stroke-width:0.79712886px;marker:none;enable-background:accumulate"
       d="m 115.27225,3237.3754 c 10.38113,-79.3334 97.45336,-134.655 316.62559,-112.161 117.40046,12.0491 250.87804,21.8851 237.03654,138.1496 -13.84161,116.2641 -205.89301,106.6895 -245.6875,108.0573 -39.79454,1.3681 -245.896,-17.9286 -280.29143,-58.8162 -21.53075,-25.5944 -29.41338,-50.609 -27.6832,-75.2297 z"
       id="path4546-6"
       inkscape:connector-curvature="0"
       sodipodi:nodetypes="cssssc" />
    <flowRoot
       xml:space="preserve"
       id="flowRoot3482"
       style="font-style:normal;font-variant:normal;font-weight:normal;font-stretch:normal;line-height:0.01%;font-family:zbalermorna;-inkscape-font-specification:zbalermorna;text-align:center;letter-spacing:0px;word-spacing:0px;text-anchor:middle;fill:#000000;fill-opacity:1;stroke:none"
       transform="translate(15.800755,2857.7012)"><flowRegion
         id="flowRegion3484"><rect
           id="rect3486"
           width="514.90173"
           height="288.23993"
           x="120.55251"
           y="265.53046"
           style="font-style:normal;font-variant:normal;font-weight:normal;font-stretch:normal;font-family:zbalermorna;-inkscape-font-specification:zbalermorna;text-align:center;text-anchor:middle" /></flowRegion><flowPara
         id="flowPara3490"
         style="font-size:52.800000000000004px;line-height:1.25;text-align:center;text-anchor:middle"> </flowPara><flowPara
         style="font-size:52.800000000000004px;line-height:1.25;text-align:center;text-anchor:middle"
         id="flowPara3494">&#xe2303;&#xe2415;&#xe2314;&#xe2300;&#xe2362;&#xe2300;&#xe2393;&#xe23a0;&#xe23f2;&#xe2300;&#xe2322;&#xe2300;&#xe2393;&#xe2300;&#xe23b1;&#xe2300;&#xe2417;&#xe2300;&#xe23a1;&#xe2410;&#xe2393;&#xe2303;&#xe2343;&#xe2315;&#xe2300;&#xe23b4;</flowPara></flowRoot><flowRoot
       transform="matrix(0.85222813,0,0,0.85222813,21.079885,2701.879)"
       style="font-style:normal;font-variant:normal;font-weight:normal;font-stretch:normal;line-height:0.01%;font-family:zbalermorna;-inkscape-font-specification:zbalermorna;text-align:center;letter-spacing:0px;word-spacing:0px;text-anchor:middle;fill:#000000;fill-opacity:1;stroke:none"
       id="flowRoot3447"
       xml:space="preserve"><flowRegion
         id="flowRegion3449"><rect
           style="font-style:normal;font-variant:normal;font-weight:normal;font-stretch:normal;font-family:zbalermorna;-inkscape-font-specification:zbalermorna;text-align:center;text-anchor:middle"
           y="265.53046"
           x="120.55251"
           height="310.73996"
           width="602.40173"
           id="rect3451" /></flowRegion><flowPara
         style="font-size:52.800000000000004px;line-height:1.25;text-align:center;text-anchor:middle"
         id="flowPara3455">&#xe2330;&#xe2383;&#xe2423;&#xe2300;&#xe2362;&#xe2300;&#xe2425;&#xe2308;&#xe2300;&#xe2393;&#xe2300;&#xe2333;&#xe23d0;&#xe2423;</flowPara></flowRoot><flowRoot
       transform="translate(1777.0351,2559.4669)"
       style="font-style:normal;font-variant:normal;font-weight:normal;font-stretch:normal;line-height:0.01%;font-family:zbalermorna;-inkscape-font-specification:zbalermorna;text-align:center;letter-spacing:0px;word-spacing:0px;text-anchor:middle;fill:#000000;fill-opacity:1;stroke:none"
       id="flowRoot3447-0"
       xml:space="preserve"><flowRegion
         id="flowRegion3449-7"><rect
           style="font-style:normal;font-variant:normal;font-weight:normal;font-stretch:normal;font-family:zbalermorna;-inkscape-font-specification:zbalermorna;text-align:center;text-anchor:middle"
           y="265.53046"
           x="120.55251"
           height="133.37624"
           width="409.02557"
           id="rect3451-7" /></flowRegion><flowPara
         style="font-size:52.800000000000004px;line-height:1.25;text-align:center;text-anchor:middle"
         id="flowPara3455-8">&#xe2303;&#xe2344;&#xe2300;&#xe2334;&#xe2314;&#xe2300;&#xe23b1;&#xe2410;&#xe23f1;</flowPara></flowRoot><flowRoot
       transform="translate(1778.9249,2962.9515)"
       style="font-style:normal;font-variant:normal;font-weight:normal;font-stretch:normal;line-height:0.01%;font-family:zbalermorna;-inkscape-font-specification:zbalermorna;text-align:center;letter-spacing:0px;word-spacing:0px;text-anchor:middle;fill:#000000;fill-opacity:1;stroke:none"
       id="flowRoot3447-0-3"
       xml:space="preserve"><flowRegion
         id="flowRegion3449-7-4"><rect
           style="font-style:normal;font-variant:normal;font-weight:normal;font-stretch:normal;font-family:zbalermorna;-inkscape-font-specification:zbalermorna;text-align:center;text-anchor:middle"
           y="265.53046"
           x="120.55251"
           height="178.23993"
           width="472.40173"
           id="rect3451-7-5" /></flowRegion><flowPara
         style="font-size:52.800000000000004px;line-height:1.25;text-align:center;text-anchor:middle"
         id="flowPara3455-8-4">&#xe2303;&#xe2362;&#xe2300;&#xe2425;&#xe2300;&#xe2413;&#xe23e0;&#xe2421;&#xe2300;&#xe2385;</flowPara><flowPara
         style="font-size:52.800000000000004px;line-height:1.25;text-align:center;text-anchor:middle"
         id="flowPara4647">&#xe2395;&#xe2360;&#xe2424;</flowPara><flowPara
         style="font-size:52.800000000000004px;line-height:1.25;text-align:center;text-anchor:middle"
         id="flowPara3597">&#xe2303;&#xe23da;&#xe2300;&#xe2344;&#xe2300;&#xe2344;&#xe2300;&#xe2370;&#xe2425;&#xe23f1;</flowPara></flowRoot></g>
  <g
     inkscape:groupmode="layer"
     id="layer1"
     inkscape:label="txt" />
</svg>
