<?xml version="1.0" encoding="UTF-8" standalone="no"?>
<!-- Created with Inkscape (http://www.inkscape.org/) -->

<svg
   xmlns:dc="http://purl.org/dc/elements/1.1/"
   xmlns:cc="http://creativecommons.org/ns#"
   xmlns:rdf="http://www.w3.org/1999/02/22-rdf-syntax-ns#"
   xmlns:svg="http://www.w3.org/2000/svg"
   xmlns="http://www.w3.org/2000/svg"
   xmlns:xlink="http://www.w3.org/1999/xlink"
   xmlns:sodipodi="http://sodipodi.sourceforge.net/DTD/sodipodi-0.dtd"
   xmlns:inkscape="http://www.inkscape.org/namespaces/inkscape"
   id="svg2"
   version="1.1"
   inkscape:version="0.92.3 (2405546, 2018-03-11)"
   width="2481"
   height="3503"
   sodipodi:docname="E19P03.svg">
  <sodipodi:namedview
     pagecolor="#ffffff"
     bordercolor="#666666"
     inkscape:pageopacity="0"
     inkscape:pageshadow="2"
     inkscape:window-width="1813"
     inkscape:window-height="955"
     id="namedview70"
     showgrid="false"
     inkscape:zoom="0.4"
     inkscape:cx="1390.4737"
     inkscape:cy="986.3944"
     inkscape:current-layer="layer1"
     inkscape:window-x="64"
     inkscape:window-y="0"
     inkscape:window-maximized="0" />
  <metadata
     id="metadata8">
    <rdf:RDF>
      <cc:Work
         rdf:about="">
        <dc:format>image/svg+xml</dc:format>
        <dc:type
           rdf:resource="http://purl.org/dc/dcmitype/StillImage" />
        <dc:title />
      </cc:Work>
    </rdf:RDF>
  </metadata>
  <defs
     id="defs6">
    <filter
       inkscape:collect="always"
       style="color-interpolation-filters:sRGB"
       id="filter4290"
       x="-0.0263734"
       width="1.0527468"
       y="-0.063105625"
       height="1.1262112">
      <feGaussianBlur
         inkscape:collect="always"
         stdDeviation="4.2854759"
         id="feGaussianBlur4292" />
    </filter>
  </defs>
  <sodipodi:namedview
     pagecolor="#ffffff"
     bordercolor="#666666"
     borderopacity="1"
     objecttolerance="10"
     gridtolerance="10"
     guidetolerance="10"
     inkscape:pageopacity="0"
     inkscape:pageshadow="2"
     inkscape:window-width="1920"
     inkscape:window-height="1025"
     id="namedview4"
     showgrid="false"
     inkscape:zoom="0.4558424"
     inkscape:cx="1023.2637"
     inkscape:cy="2323.8758"
     inkscape:window-x="0"
     inkscape:window-y="26"
     inkscape:window-maximized="1"
     inkscape:current-layer="layer3" />
  <g
     inkscape:groupmode="layer"
     id="layer2"
     inkscape:label="artwork"
     sodipodi:insensitive="true">
    <image
       sodipodi:absref="/home/fici/Desktop/P&amp;C/all/sl/../gfx_Pepper-and-Carrot_by-David-Revoy_E19P03.png"
       xlink:href="../gfx_Pepper-and-Carrot_by-David-Revoy_E19P03.png"
       y="0"
       x="0"
       id="image10"
       height="3503"
       width="2481" />
  </g>
  <g
     inkscape:groupmode="layer"
     id="layer3"
     inkscape:label="speechbubbles">
    <path
       style="opacity:0.81800005;fill:#3797aa;fill-opacity:1;stroke:none;filter:url(#filter4290)"
       d="m 757.91682,547.95632 c 10.78775,5.37741 19.14955,14.84596 30.44219,19.31347 26.21575,11.72459 54.23131,20.44572 82.82199,21.46258 10.78006,0.6048 21.21295,-2.34223 30.72486,-7.53313 15.9811,-3.99025 32.62516,-0.14466 48.6511,2.006 21.85331,3.29662 46.23501,7.6202 65.96104,-5.90477 15.7206,-9.41707 25.9773,-25.65792 39.6794,-37.58852 11.2841,-7.55869 25.5178,-8.20778 36.8078,-16.0064 18.802,-10.84366 25.4032,-40.16031 13.3989,-58.77952 -12.5261,-16.64496 -33.8685,-20.78182 -52.6216,-23.96589 -18.5842,-2.02486 -37.1278,-4.43636 -55.69153,-6.57322 -25.0718,-1.39125 -50.20928,-0.10049 -75.17639,2.399 -27.62546,1.09595 -53.76233,-14.92426 -81.54597,-10.02392 -14.88451,0.43368 -29.85614,-0.34389 -44.5288,2.99063 -17.47363,2.31042 -34.44978,9.82459 -46.7547,23.45666 -10.72674,10.01983 -22.34354,20.30342 -26.79001,35.32555 -5.22782,17.81668 15.23603,50.37977 34.62172,59.42148 z"
       id="path3250-3-6"
       inkscape:connector-curvature="0"
       sodipodi:nodetypes="ccccccccccccccccc"
       transform="matrix(1.0149563,0,0,1.0195175,-10.628145,-8.1338277)" />
    <path
       style="opacity:0.81800005;fill:#3797aa;stroke:none;filter:url(#filter4290);fill-opacity:1;color:#000000;clip-rule:nonzero;display:inline;overflow:visible;visibility:visible;isolation:auto;mix-blend-mode:normal;color-interpolation:sRGB;color-interpolation-filters:linearRGB;solid-color:#000000;solid-opacity:1;fill-rule:nonzero;stroke-width:1;stroke-linecap:butt;stroke-linejoin:miter;stroke-miterlimit:4;stroke-dasharray:none;stroke-dashoffset:0;stroke-opacity:1;filter-blend-mode:normal;filter-gaussianBlur-deviation:0;color-rendering:auto;image-rendering:auto;shape-rendering:auto;text-rendering:auto;enable-background:accumulate"
       d="m 1713.1988,426.91208 c 1.4311,23.08058 -31.5228,28.65986 -39.0016,35.27672 -7.4788,6.61681 -34.7137,19.36411 -47.313,23.47432 -12.5993,4.11007 -54.1865,5.71364 -69.508,-3.10449 -15.3214,-8.81856 -56.575,3.0863 -79.4461,-0.85361 -22.8711,-3.93974 -34.2593,-19.51277 -44.4205,-27.12235 -10.1612,-7.60996 -22.8977,-8.44486 -22.9034,-42.18095 -0.01,-33.7362 61.4125,-31.20206 73.9721,-34.01391 12.5596,-2.81194 43.878,-25.27207 62.5183,-22.99886 18.6403,2.27328 50.0961,13.32507 67.6964,15.61629 17.6004,2.29123 12.1966,-2.16778 44.4804,3.75648 14.8354,2.72237 24.7667,10.88933 29.8076,15.99249 5.0408,5.10314 22.6866,13.0773 24.1178,36.15787 z"
       id="path3250-3"
       inkscape:connector-curvature="0"
       sodipodi:nodetypes="zssszsssssssz" />
    <path
       style="color:#000000;clip-rule:nonzero;display:inline;overflow:visible;visibility:visible;opacity:0.81800022;isolation:auto;mix-blend-mode:normal;color-interpolation:sRGB;color-interpolation-filters:linearRGB;solid-color:#000000;solid-opacity:1;fill:#3797aa;fill-opacity:1;fill-rule:nonzero;stroke:none;stroke-width:0.96210748;stroke-linecap:butt;stroke-linejoin:miter;stroke-miterlimit:4;stroke-dasharray:none;stroke-dashoffset:0;stroke-opacity:1;filter:url(#filter4290);color-rendering:auto;image-rendering:auto;shape-rendering:auto;text-rendering:auto;enable-background:accumulate"
       d="m 1833.2394,820.46626 c -2.5264,-31.97778 36.2035,-38.91224 44.7995,-47.89133 8.596,-8.979 38.1934,-42.72495 52.9295,-48.11249 14.7361,-5.38734 65.9259,10.14118 84.3461,22.71154 18.42,12.57096 72.2946,-14.60357 99.4573,-8.60433 27.1627,5.99903 35.6123,39.50796 47.8923,50.28243 12.28,10.77498 27.3572,12.23477 28.5853,58.92575 1.228,46.69117 -71.4235,41.71658 -86.1597,45.30814 -14.7361,3.59166 -59.5243,25.89015 -81.6284,22.29869 -22.1041,-3.59156 -51.0646,-11.60067 -71.9408,-15.19213 -20.8761,-3.59156 -56.5509,17.58353 -70.059,3.21729 -13.5081,-14.36684 -12.2801,-25.14152 -18.4202,-32.32473 -6.14,-7.18322 -27.2755,-18.64104 -29.8019,-50.61883 z"
       id="path3250"
       inkscape:connector-curvature="0"
       sodipodi:nodetypes="zssszsssssssz"
       transform="matrix(0.59026537,0,0,1.1619562,961.29969,8.9486286)" />
    <path
       style="color:#000000;display:inline;overflow:visible;visibility:visible;fill:#ffffff;fill-opacity:1;fill-rule:nonzero;stroke:none;stroke-width:0.94142556px;marker:none;enable-background:accumulate"
       d="m 1253.1769,1636.0613 c -24.4117,-21.7501 -37.6423,-29.9459 -5.5789,-55.5427 -42.1029,7.4396 -16.2479,-9.441 -5.8505,-20.7897 -46.2363,15.9892 -33.2784,-4.8025 -21.451,-18.7163 -13.4178,10.5819 -38.5709,20.2395 -16.2676,-6.2922 -9.5742,8.6269 -39.7316,30.3647 -27.4461,-1.4768 -10.1419,12.0752 -15.0131,17.9629 -12.7204,3.2811 -6.7285,8.5614 -9.5791,7.5732 -9.4715,-1.8835 -19.8682,20.9989 -7.9588,2.0999 -7.4953,-3.2035 -12.4648,17.1054 -18.8478,11.4455 -15.362,2.3118 -6.1911,9.1055 -24.2233,9.3255 -24.5178,0.068 -7.1669,8.571 -13.9342,9.6308 -23.0326,-0.7476 -2.726,3.8132 -5.2252,10.3085 -8.7797,4.3116 -3.6598,2.0045 -7.3446,7.2224 -10.9483,2.0621 -38.6157,19.6894 -55.8451,10.3684 -73.73483,-4.8628 4.06176,10.3216 9.06707,26.0939 -33.92549,1.8447 13.81549,26.772 -0.92676,24.1352 -26.8736,11.4479 16.30089,11.3705 17.09452,17.7224 -20.86161,11.5339 26.41504,9.4982 50.75226,18.9667 9.62435,27.4992 9.58767,3.7581 41.08453,-4.3095 6.25837,38.5439 26.28829,-8.5054 60.621,-5.6873 53.35464,27.3849 14.71332,-14.7365 36.53347,-43.7505 39.28847,8.6963 9.8972,-30.3637 24.324,-34.032 32.8167,-2.489 2.1596,-11.9484 17.9067,-30.0954 38.7824,3.5125 -6.2185,-13.7638 -3.6571,-40.2822 23.4963,1.0754 -1.299,-6.9755 -13.4366,-52.1065 59.0222,1.5833 -33.2551,-44.0242 -34.3873,-17.9468 61.212,47.4709 -116.9183,-93.8738 -20.6704,-78.052 5.0369,-61.3139 -29.4904,-27.1459 -16.3553,-33.2975 15.4249,-15.3093 z"
       id="path3549"
       inkscape:connector-curvature="0"
       sodipodi:nodetypes="cccccccccccccccccccccccccccccc" />
    <path
       style="color:#000000;display:inline;overflow:visible;visibility:visible;fill:#ffffff;fill-opacity:1;fill-rule:nonzero;stroke:#ffffff;stroke-width:7.22158432;stroke-miterlimit:4;stroke-dasharray:none;stroke-dashoffset:0;stroke-opacity:1;marker:none;enable-background:accumulate"
       d="m 1703.8577,2649.2898 c 3.5082,-55.2417 32.9333,-93.7635 107,-78.1003 39.6743,8.39 84.7816,15.2391 80.104,96.1968 -4.6777,80.9577 -69.5792,74.2906 -83.0274,75.2431 -13.4482,0.9525 -83.0979,-12.4842 -94.7213,-40.9552 -7.2762,-17.8221 -9.94,-35.2403 -9.3553,-52.3844 z"
       id="path4546-6"
       inkscape:connector-curvature="0"
       sodipodi:nodetypes="cssssc" />
    <path
       style="color:#000000;display:inline;overflow:visible;visibility:visible;fill:#ffffff;fill-opacity:1;fill-rule:nonzero;stroke:none;stroke-width:1px;marker:none;enable-background:accumulate"
       d="m 1827.4084,2846.6353 c -38.9829,-24.3744 -35.2819,-89.0806 -37.3787,-128.9314 -2.9638,-56.3326 1.3429,-30.7581 1.3429,-30.7581 l -8.5494,-20.5266 c -7.1172,-2.1741 -33.277,154.0001 44.5852,180.2161 z"
       id="path3072-1"
       inkscape:connector-curvature="0"
       sodipodi:nodetypes="csccc" />
  </g>
  <g
     inkscape:groupmode="layer"
     id="layer1"
     inkscape:label="txt">
    <text
       xml:space="preserve"
       style="font-style:normal;font-variant:normal;font-weight:normal;font-stretch:normal;line-height:0%;font-family:Lavi;-inkscape-font-specification:Lavi;text-align:center;letter-spacing:0px;word-spacing:0px;text-anchor:middle;fill:#ffffff;fill-opacity:1;stroke:none"
       x="909.55817"
       y="488.93494"
       id="text4246-3-2-9-6-6-0-5-1"><tspan
         sodipodi:role="line"
         style="font-size:45px;line-height:1.25;fill:#ffffff"
         x="909.55817"
         y="488.93494"
         id="tspan4150">zakopljemo vse</tspan><tspan
         sodipodi:role="line"
         style="font-size:45px;line-height:1.25;fill:#ffffff"
         x="916.58942"
         y="545.18494"
         id="tspan3821">naše napake </tspan><tspan
         sodipodi:role="line"
         style="font-size:45px;line-height:1.25;fill:#ffffff"
         x="916.58942"
         y="601.43494"
         id="tspan4378-7-6-4"> </tspan></text>
    <text
       xml:space="preserve"
       style="font-style:normal;font-variant:normal;font-weight:normal;font-stretch:normal;line-height:0%;font-family:Lavi;-inkscape-font-specification:Lavi;text-align:center;letter-spacing:0px;word-spacing:0px;text-anchor:middle;fill:#ffffff;fill-opacity:1;stroke:none"
       x="1562.3771"
       y="438.56467"
       id="text4246-3-2-9-6-6-0-5-1-3-3"><tspan
         sodipodi:role="line"
         style="font-size:45px;line-height:1.25;fill:#ffffff"
         x="1569.4083"
         y="438.56467"
         id="tspan4178-6">tradicija </tspan><tspan
         sodipodi:role="line"
         style="font-size:45px;line-height:1.25;fill:#ffffff"
         x="1569.4083"
         y="494.81467"
         id="tspan4378-7-6-4-5-2"> </tspan></text>
    <text
       xml:space="preserve"
       style="font-style:normal;font-variant:normal;font-weight:normal;font-stretch:normal;line-height:0%;font-family:Lavi;-inkscape-font-specification:Lavi;text-align:center;letter-spacing:0px;word-spacing:0px;text-anchor:middle;fill:#ffffff;fill-opacity:1;stroke:none"
       x="2149.4253"
       y="925.71448"
       id="text4246-3-2-9-6-6-0-5-1-3"><tspan
         sodipodi:role="line"
         style="font-size:45px;line-height:1.25;fill:#ffffff"
         x="2149.4253"
         y="925.71448"
         id="tspan3827">od</tspan><tspan
         sodipodi:role="line"
         style="font-size:45px;line-height:1.25;fill:#ffffff"
         x="2149.4253"
         y="981.96448"
         id="tspan46">začetka</tspan><tspan
         sodipodi:role="line"
         style="font-size:45px;line-height:1.25;fill:#ffffff"
         x="2156.4565"
         y="1038.2144"
         id="tspan48">časa  </tspan><tspan
         sodipodi:role="line"
         style="font-size:45px;line-height:1.25;fill:#ffffff"
         x="2156.4565"
         y="1094.4644"
         id="tspan4378-7-6-4-5"> </tspan></text>
    <text
       xml:space="preserve"
       style="font-style:normal;font-variant:normal;font-weight:normal;font-stretch:normal;line-height:0%;font-family:Lavi;-inkscape-font-specification:Lavi;text-align:center;letter-spacing:0px;word-spacing:0px;text-anchor:middle;fill:#000000;fill-opacity:1;stroke:none"
       x="1084.8068"
       y="1609.8735"
       id="text4246-3-2-9-6-6-0-5-1-3-9"><tspan
         sodipodi:role="line"
         style="font-size:45px;line-height:1.25"
         x="1091.838"
         y="1609.8735"
         id="tspan4378-7-6-4-5-7">JA SEVEDA! </tspan></text>
    <text
       xml:space="preserve"
       style="font-style:normal;font-variant:normal;font-weight:normal;font-stretch:normal;line-height:0%;font-family:Lavi;-inkscape-font-specification:Lavi;text-align:center;letter-spacing:0px;word-spacing:0px;text-anchor:middle;fill:#000000;fill-opacity:1;stroke:none"
       x="1302.8601"
       y="3308.5044"
       id="text4246-3-2-9-6-6-0-5-1-3-9-0-3"
       transform="matrix(0.95684986,-0.26535014,0.03415032,1.0356256,0,0)"><tspan
         sodipodi:role="line"
         style="font-size:31.61978531px;line-height:1.25"
         x="1302.8601"
         y="3308.5044"
         id="tspan4378-7-6-4-5-7-3-3">Zzzz</tspan></text>
    <text
       xml:space="preserve"
       style="font-style:normal;font-variant:normal;font-weight:normal;font-stretch:normal;line-height:0%;font-family:Lavi;-inkscape-font-specification:Lavi;text-align:center;letter-spacing:0px;word-spacing:0px;text-anchor:middle;fill:#000000;fill-opacity:1;stroke:none"
       x="1800.2772"
       y="2614.7439"
       id="text4246-3-2-9-6-6-0-5-1-3-9-0"><tspan
         sodipodi:role="line"
         style="font-size:37.30024719px;line-height:1.25"
         x="1800.2772"
         y="2614.7439"
         id="tspan4263">Dajva</tspan><tspan
         sodipodi:role="line"
         style="font-size:37.30024719px;line-height:1.25"
         x="1800.2772"
         y="2661.3691"
         id="tspan55">Korenček,</tspan><tspan
         sodipodi:role="line"
         style="font-size:37.30024719px;line-height:1.25"
         x="1806.1053"
         y="2707.9946"
         id="tspan57">hitreje! </tspan><tspan
         sodipodi:role="line"
         style="font-size:37.30024719px;line-height:1.25"
         x="1806.1053"
         y="2754.6199"
         id="tspan4378-7-6-4-5-7-3"> </tspan></text>
  </g>
</svg>
