<?xml version="1.0" encoding="UTF-8" standalone="no"?>
<!-- Created with Inkscape (http://www.inkscape.org/) -->

<svg
   xmlns:dc="http://purl.org/dc/elements/1.1/"
   xmlns:cc="http://creativecommons.org/ns#"
   xmlns:rdf="http://www.w3.org/1999/02/22-rdf-syntax-ns#"
   xmlns:svg="http://www.w3.org/2000/svg"
   xmlns="http://www.w3.org/2000/svg"
   xmlns:xlink="http://www.w3.org/1999/xlink"
   xmlns:sodipodi="http://sodipodi.sourceforge.net/DTD/sodipodi-0.dtd"
   xmlns:inkscape="http://www.inkscape.org/namespaces/inkscape"
   id="svg2"
   version="1.1"
   inkscape:version="0.92.3 (2405546, 2018-03-11)"
   width="2481"
   height="3503"
   sodipodi:docname="E19P06.svg">
  <sodipodi:namedview
     pagecolor="#ffffff"
     bordercolor="#666666"
     inkscape:pageopacity="0"
     inkscape:pageshadow="2"
     inkscape:window-width="1813"
     inkscape:window-height="955"
     id="namedview70"
     showgrid="false"
     inkscape:zoom="0.28284271"
     inkscape:cx="970.54844"
     inkscape:cy="1646.921"
     inkscape:current-layer="layer3"
     inkscape:window-x="64"
     inkscape:window-y="0"
     inkscape:window-maximized="0"
     inkscape:snap-nodes="false" />
  <metadata
     id="metadata8">
    <rdf:RDF>
      <cc:Work
         rdf:about="">
        <dc:format>image/svg+xml</dc:format>
        <dc:type
           rdf:resource="http://purl.org/dc/dcmitype/StillImage" />
        <dc:title />
      </cc:Work>
    </rdf:RDF>
  </metadata>
  <defs
     id="defs6" />
  <sodipodi:namedview
     pagecolor="#ffffff"
     bordercolor="#666666"
     borderopacity="1"
     objecttolerance="10"
     gridtolerance="10"
     guidetolerance="10"
     inkscape:pageopacity="0"
     inkscape:pageshadow="2"
     inkscape:window-width="1920"
     inkscape:window-height="1025"
     id="namedview4"
     showgrid="false"
     inkscape:zoom="0.42482639"
     inkscape:cx="1380.8946"
     inkscape:cy="2114.6111"
     inkscape:window-x="0"
     inkscape:window-y="26"
     inkscape:window-maximized="1"
     inkscape:current-layer="layer1" />
  <g
     inkscape:groupmode="layer"
     id="layer2"
     inkscape:label="artwork"
     sodipodi:insensitive="true">
    <image
       sodipodi:absref="/home/fici/Desktop/P&amp;C/all/sl/../gfx_Pepper-and-Carrot_by-David-Revoy_E19P06.png"
       xlink:href="../gfx_Pepper-and-Carrot_by-David-Revoy_E19P06.png"
       width="2481"
       height="3503"
       id="image10"
       x="0"
       y="0" />
  </g>
  <g
     inkscape:groupmode="layer"
     id="layer3"
     inkscape:label="speechbubbles">
    <path
       style="fill:#ffffff;stroke:none;stroke-width:0.85821295"
       d="M 456.23312,873.39758 438.79206,884.8495 C 400.22845,880.39654 293.6582,874.29207 239.2685,877.4862 l -22.16502,7.83648 -11.98968,-14.46721 -5.45137,18.08264 -10.89941,-12.65767 -11.56237,11.5694 -13.07996,-8.43845 4.72397,18.08264 -7.26737,10.84994 -14.53477,-7.83647 7.99477,32.54986 c 10e-6,0 -4.4525,3.55944 -9.53948,3.55944 12.76214,26.21949 14.45238,161.9073 10.19872,208.4599 l -10.20994,8.1547 10.20333,10.2836 4.06914,3.8161 -17.10292,12.9167 12.80946,-0.8591 -9.95595,14.3632 10.53821,8.4404 -0.72741,10.848 -1.45315,6.6326 8.42693,7.2309 -14.52934,15.9212 20.39471,-4.4383 0.60534,0.5744 c 0,0 -13.79241,21.8707 -17.57965,30.0866 11.09203,-4.9876 28.48046,-12.6066 29.93387,-13.2096 0.11658,-0.048 0.40399,-0.02 0.76368,0.038 l -9.12299,16.9261 22.00337,-13.1246 c 1.50216,0.4594 3.01569,0.9149 4.49965,1.3351 l -4.21698,15.2876 23.57302,-12.316 c 7.57217,1.4502 16.94085,4.0997 19.18286,4.5129 3.27018,0.6028 20.71149,-6.0278 24.70843,-5.425 3.99693,0.6027 40.69532,7.2327 43.9655,7.2327 3.2702,0 23.25447,-2.4107 27.61473,-3.0135 4.36025,-0.6025 27.2515,3.0135 31.24843,3.0135 3.99685,0 10.90124,-6.028 14.53475,-6.6307 3.63361,-0.6028 13.80726,3.6175 16.35078,4.823 2.54346,1.2058 20.71106,3.0136 25.07131,3.0136 4.36026,0 35.64209,-6.3142 43.60264,-3.6173 5.78324,1.959 58.48983,0.1752 86.80116,-1.9318 l -2.97722,14.2775 18.36309,-15.8244 c 1.5109,-0.2571 2.38859,-0.5059 2.4593,-0.7406 0,0 5.81353,11.4538 7.63025,11.4538 1.81679,0 4.72418,-9.6462 5.81424,-10.8518 1.09006,-1.2056 8.72131,5.4259 10.53819,4.823 1.8168,-0.6027 2.54343,-12.6577 2.54343,-12.6577 l 1.81601,-6.0287 c 0,0 5.08725,-1.808 7.26739,-4.2192 2.18012,-2.4112 -0.36394,-12.6585 -3.27083,-17.4807 2.54355,-2.4112 8.72073,-6.6295 9.81081,-9.0406 1.09013,-2.4112 -2.54343,-10.2479 -2.54343,-10.2479 0,0 2.1807,-4.2187 3.27082,-7.2325 1.09008,-3.0143 -6.80361,-13.0725 -6.80361,-13.0725 0,0 6.80315,-9.834 7.16649,-13.4506 0.32114,-3.1968 -1.6306,-6.3892 -4.84767,-7.0887 l 10.10275,-6.3186 -11.42889,-2.1379 c -0.88167,-33.692 -1.47326,-145.9445 4.88561,-174.51598 l 13.72325,-11.82587 -13.37852,-5.5545 c -0.93153,-1.38918 -1.94405,-2.81785 -2.99866,-4.23745 l 13.37568,-16.32562 -19.59686,-8.13745 V 928.7647 l -7.26737,-6.02695 c 0,0 0.31393,-1.58111 0.62513,-3.86168 l 7.55273,-15.62189 -29.38502,12.77036 0.0627,0.29733 c -8.64232,-1.57574 -15.63164,-5.79162 -15.63164,-5.79162 l 3.99656,-27.12489 -26.88896,13.26147 -1.81603,-11.45192 -11.26394,10.84996 -3.6337,-17.48069 -11.26394,13.26145 -9.44793,-6.88851 -2.12524,2.13082 -8.72052,-7.83649 -8.72054,7.23269 -17.37343,3.79027 -5.08684,-16.8769 z"
       id="path3894"
       inkscape:connector-curvature="0"
       sodipodi:nodetypes="ccccccccccccccccccccccccccccccccccccccscsscssccccscccccccccccccccccccccccccccccccccccccccc" />
    <path
       style="color:#000000;display:inline;overflow:visible;visibility:visible;fill:#ffffff;fill-opacity:1;fill-rule:nonzero;stroke:none;stroke-width:1px;marker:none;enable-background:accumulate"
       d="m 519.10583,778.52959 c 32.76277,40.21489 26.80368,60.24377 24.21021,75.14513 -5.30077,0.21403 -14.52301,2.19083 -14.52301,2.19083 0,0 -2.08882,29.85591 -7.02913,40.75176 -4.94029,10.89583 -20.16344,5.44913 -20.16344,5.44913 0,0 2.45879,-58.21624 -1.07188,-71.08762 14.5951,-0.0545 21.61472,-1.76403 26.98756,0.15831 4.60071,-7.8515 2.69594,-38.08098 -8.41031,-52.60754 z"
       id="path4456"
       inkscape:connector-curvature="0" />
    <path
       style="color:#000000;display:inline;overflow:visible;visibility:visible;fill:#ffffff;fill-opacity:1;fill-rule:nonzero;stroke:none;stroke-width:0.87108886px;marker:none;enable-background:accumulate"
       d="m 775.7774,240.11917 -35.80967,-12.33929 19.89719,36.78404 -33.6651,-13.28177 26.38792,36.78662 -33.26152,-2.02708 22.92754,26.4349 -18.91097,5.25549 19.26753,22.92334 -19.89563,6.85528 17.8966,24.1898 -19.74514,16.75621 11.77719,15.98784 -14.28182,14.05868 12.95013,9.43404 -11.38633,21.55084 15.38148,3.82113 -15.98566,22.16843 24.76567,-7.03258 -7.77804,25.5032 28.89614,-14.62278 -12.55094,31.76387 25.33188,-0.29262 -35.027,71.84939 54.96552,-44.31582 4.18633,37.99327 27.23088,-33.37667 0.6901,23.28217 24.05889,-29.37516 -0.51663,29.12594 26.58143,-34.30395 0.0654,108.95004 44.93555,-92.87576 7.97722,38.36116 7.29522,-35.8258 7.81454,15.74817 7.57846,-19.80082 7.34388,31.24827 13.44002,-36.03703 52.91254,52.78726 -9.2489,-63.33546 43.9156,8.5972 -14.7256,-31.07941 63.2744,16.53316 -29.8076,-28.65112 53.7454,15.49981 -60.1253,-51.05425 55.2914,13.26495 -41.0125,-40.69644 38.1815,-3.4663 -35.1448,-28.04255 62.7704,-4.57832 -57.3054,-23.35594 51.4598,-12.10117 -38.7886,-24.4449 44.775,-20.21946 -47.9101,-15.62842 35.2796,-52.0797 -49.2733,13.156 5.6749,-35.59805 -46.0938,26.64773 21.5955,-63.52953 -58.6876,56.27969 2.9304,-18.02958 -20.82087,14.81549 12.83527,-40.72693 -39.28552,38.52782 3.99518,-17.85435 -11.98539,16.91474 2.66333,-23.49274 -20.64144,28.19123 1.90039,-24.56294 -12.61184,13.24952 -0.32456,-12.57739 -11.60312,9.7952 -15.64142,-42.69121 -23.33679,44.0264 -11.47323,-18.9367 -13.28124,18.13674 -9.22488,-21.333 -13.8889,25.49215 -22.59517,-34.55566 1.47729,34.2879 -54.50461,-37.14396 z"
       id="path4024"
       inkscape:connector-curvature="0"
       sodipodi:nodetypes="ccccccccccccccccccccccccccccccccccccccccccccccccccccccccccccccccccccccccccccccccccccc" />
    <path
       style="color:#000000;display:inline;overflow:visible;visibility:visible;fill:#ffffff;fill-opacity:1;fill-rule:nonzero;stroke:none;stroke-width:1px;marker:none;enable-background:accumulate"
       d="m 981.87504,489.07837 c 15.79816,16.30726 34.68336,141.58053 227.57366,231.14516 -154.1725,-93.5024 -173.4435,-224.61445 -180.0947,-249.55706 -53.90514,-8.39388 -24.7768,9.78373 -47.47896,18.4119 z"
       id="path4024-3"
       inkscape:connector-curvature="0"
       sodipodi:nodetypes="cccc" />
    <path
       style="color:#000000;display:inline;overflow:visible;visibility:visible;fill:#ffffff;fill-opacity:1;fill-rule:nonzero;stroke:none;stroke-width:1px;marker:none;enable-background:accumulate"
       d="m 1165.7536,858.24078 c 28.961,44.03488 26.3945,130.36717 18.3117,150.34892 -8.0828,19.9817 -19.1821,49.9462 -58.1326,50.2525 -38.9506,0.3064 -309.43062,23.4584 -349.6799,-22.7008 -40.24929,-46.15927 -39.70015,-126.94282 -5.16902,-181.43608 34.53113,-54.49326 221.14913,-44.89527 221.14913,-44.89527 0,0 129.11259,-7.65482 173.52069,48.43073 z"
       id="path3992"
       inkscape:connector-curvature="0" />
    <path
       style="display:inline;fill:#ffffff;fill-rule:evenodd;stroke:none;stroke-width:0.9751929px;stroke-linecap:butt;stroke-linejoin:miter;stroke-opacity:1"
       d="m 730.54593,996.89136 c 71.19766,73.60324 98.70303,3.96944 97.65734,-66.62566 29.0641,76.2866 49.23327,93.3483 61.19489,55.7614 38.47892,32.3075 62.51227,23.245 81.59313,0 7.11191,29.8947 22.36349,17.8312 35.56291,16.3462 4.3474,6.7635 -10.58398,23.5669 49.7389,1.1789 3.9074,8.9521 9.1711,16.6614 44.5053,-3.1864 9.154,36.3357 38.5241,-2.01383 68.6125,-43.01599 -18.7459,50.40869 -19.8601,52.65279 4.0933,33.36049 -3.6096,8.56916 -9.4873,25.7196 14.7324,7.14359 -14.2444,38.31631 33.9522,-11.18964 94.2737,-66.22169 -30.1738,40.67928 -100.4334,136.6484 -47.7318,130.9639 -7.3495,11.9924 -32.0194,26.098 42.1869,36.547 -14.5746,8.1378 -59.0708,-3.7539 -21.953,30.7017 4.973,4.0276 -11.6754,6.4871 20.0986,17.0938 -18.7566,-0.7216 -30.2595,1.8562 -12.9808,17.525 -34.2376,-0.8472 -21.4273,15.6287 3.7089,36.6432 -49.581,-26.9556 -52.3095,-17.1588 -53.7773,-6.3727 -62.1396,-36.7496 -65.7873,-25.1792 -74.1755,-17.5251 -30.2884,0.2868 -60.5768,-4.3411 -90.8652,36.6433 -7.9321,-25.4912 -23.835,-45.1128 -90.86492,-27.0841 29.43122,-32.4293 -12.4386,-11.7684 -44.5053,1.5931 17.56036,-40.5122 -27.00558,-13.9241 -83.44761,25.491 31.60731,-44.7368 -34.26293,-48.3517 -87.45788,-16.5884 37.14143,-34.6799 48.01693,-43.5858 -30.21416,-45.2956 37.44381,-15.8531 28.59983,-37.6472 -10.28073,-73.5366 43.82949,10.5678 56.9032,0.7517 25.96139,-38.2364 47.80629,32.0011 22.98699,-0.3644 4.33404,-43.30394 z"
       id="path4508"
       inkscape:connector-curvature="0"
       sodipodi:nodetypes="cccccccccccccccccccccccccccc" />
    <path
       style="color:#000000;display:inline;overflow:visible;visibility:visible;fill:#ffffff;fill-opacity:1;fill-rule:nonzero;stroke:none;stroke-width:1.02839482px;marker:none;enable-background:accumulate"
       d="m 746.38516,1192.5775 c 8.46708,-57.0318 79.48518,-96.8019 258.24714,-80.6312 95.7545,8.6619 211.1573,-3.5616 199.868,94.9884 -9.5963,83.77 -175.7738,69.9004 -208.23105,70.8837 -32.45733,0.9834 -198.59778,3.1783 -226.65148,-26.2153 -17.56098,-18.3996 -24.64379,-41.326 -23.23261,-59.0256 z"
       id="path4546-6-3"
       inkscape:connector-curvature="0"
       sodipodi:nodetypes="cssssc" />
    <path
       style="color:#000000;display:inline;overflow:visible;visibility:visible;fill:#ffffff;fill-opacity:1;fill-rule:nonzero;stroke:none;stroke-width:0.96645445px;marker:none;enable-background:accumulate"
       d="m 124.22491,1452.0119 c 38.97576,-44.0111 255.10489,-37.2801 322.32984,-25.9445 73.36396,12.3708 95.95155,29.8996 99.23215,68.317 1.01332,11.8664 -4.9209,65.6775 -41.00803,76.2708 -36.08698,10.5931 -139.42698,15.8897 -175.51411,15.8897 -36.08697,0 -151.28469,-6.7425 -180.43533,-22.2456 -27.88545,-14.8305 -63.580464,-68.2764 -24.60452,-112.2874 z"
       id="path3330"
       inkscape:connector-curvature="0"
       sodipodi:nodetypes="zsssssz" />
    <path
       style="color:#000000;display:inline;overflow:visible;visibility:visible;fill:#ffffff;fill-opacity:1;fill-rule:nonzero;stroke:none;stroke-width:1.12740397px;marker:none;enable-background:accumulate"
       d="m 305.55744,1633.0539 c -1.19061,-31.2442 4.88072,-51.9637 32.14698,-68.5635 24.82215,-15.1118 79.48121,-19.2879 115.95312,-19.2879 58.95174,-0.2133 210.27753,-5.8368 192.42086,91.7748 -0.70527,46.2972 -88.64167,48.3159 -106.50119,52.0652 -17.85952,3.7493 -89.25537,4.576 -105.92428,3.3264 -61.27921,2.2718 -125.96712,-21.2365 -128.09549,-59.315 z"
       id="path3357"
       inkscape:connector-curvature="0"
       sodipodi:nodetypes="csccscc" />
    <path
       style="color:#000000;display:inline;overflow:visible;visibility:visible;fill:#ffffff;fill-opacity:1;fill-rule:nonzero;stroke:none;stroke-width:1px;marker:none;enable-background:accumulate"
       d="m 412.25998,1674.8798 c -6.85284,56.6155 14.37563,97.4057 55.57813,110.3715 -67.45848,-8.159 -93.68964,-83.4647 -89.19142,-107.4478 4.40467,-23.4844 33.61329,-2.9237 33.61329,-2.9237 z"
       id="path5010"
       inkscape:connector-curvature="0"
       sodipodi:nodetypes="ccsc" />
    <path
       style="color:#000000;display:inline;overflow:visible;visibility:visible;fill:#ffffff;fill-opacity:1;fill-rule:nonzero;stroke:none;stroke-width:1px;marker:none;enable-background:accumulate"
       d="m 232.60887,2112.7468 c 28.82884,-21.6901 278.41375,-34.8028 344.5222,0.8436 55.17978,29.7537 33.65046,103.8509 -15.42321,120.9177 -49.0735,17.0669 -212.3232,15.086 -283.87185,7.3484 -68.12416,-7.3674 -79.56334,-29.6049 -82.91431,-74.38 -1.36765,-18.2745 8.85821,-33.0393 37.68717,-54.7297 z"
       id="path4040-4"
       inkscape:connector-curvature="0"
       sodipodi:nodetypes="zssssz" />
    <path
       style="color:#000000;display:inline;overflow:visible;visibility:visible;fill:#ffffff;fill-opacity:1;fill-rule:nonzero;stroke:none;stroke-width:1px;marker:none;enable-background:accumulate"
       d="m 535.00775,1986.8306 c -11.22357,-11.0259 -34.07155,-13.8129 -52.41966,-13.1663 -5.21231,0.2939 -10.58546,0.9606 -15.40703,2.9669 -4.5497,3.204 -5.8508,9.2452 -4.71647,14.4517 1.1116,7.6336 5.4512,15.1923 3.33691,23.0221 -1.67716,5.6622 -7.62933,7.7967 -12.46033,10.0265 -12.42532,5.4417 -25.66044,9.2324 -37.15366,16.6288 -13.48154,7.4861 -27.12386,16.3412 -35.233,29.8576 -3.11895,5.4019 -5.62626,11.4889 -5.13528,17.8477 0.51982,16.3695 10.44001,32.6806 25.75127,39.1373 10.15783,3.1917 22.85144,-2.6898 25.43476,-13.369 1.44801,-5.6168 -1.12924,-11.3042 -4.7776,-15.4765 -5.27333,-8.9228 -5.03206,-20.3779 -0.31332,-29.473 3.77147,-7.5698 9.88065,-13.877 17.08927,-18.2489 8.233,-8.5339 20.53978,-9.9068 31.26386,-13.4482 4.87531,-1.6909 9.9467,-3.8199 13.48797,-7.6632 3.74598,-6.6816 1.05856,-14.5289 -1.98107,-20.9052 -2.96548,-6.6569 -7.15746,-14.0436 -4.63677,-21.5174 1.0509,-5.4219 7.54846,-5.1616 11.76803,-6.5249 14.15942,-2.6164 28.95507,-0.7769 42.45081,4.0015 1.25162,0.5512 2.45101,1.1992 3.65131,1.8525 z"
       id="path4496"
       inkscape:connector-curvature="0"
       sodipodi:nodetypes="ccccccccccccccccccccc" />
    <path
       style="color:#000000;display:inline;overflow:visible;visibility:visible;fill:#ffffff;fill-opacity:1;fill-rule:nonzero;stroke:none;stroke-width:1.00857401px;marker:none;enable-background:accumulate"
       d="m 240.29618,2504.2655 c 9.82127,-78.4304 101.63986,-134.4262 335.26252,-115.8152 125.1409,9.969 267.3591,17.4924 254.42639,132.4111 -12.93285,114.9186 -217.48968,108.6096 -259.82356,110.6088 -42.33386,1.9992 -261.99527,-13.6708 -299.23659,-53.444 -23.31223,-24.8968 -32.08922,-49.4446 -30.62876,-73.7607 z"
       id="path4546-6"
       inkscape:connector-curvature="0"
       sodipodi:nodetypes="cssssc" />
    <path
       style="fill:#ffffff;stroke:none"
       d="m 694.38649,2534.9643 c 31.16173,50.5895 56.21292,58.6934 72.83219,79.5631 16.61925,20.8701 -4.22375,65.3135 0.2296,80.4242 5.36252,14.254 23.11118,27.2288 57.37772,44.4988 -73.16324,-15.6884 -73.36945,-34.9149 -78.29883,-48.1564 -6.77646,-18.203 5.60657,-39.7648 -12.3168,-56.2686 -17.36077,-15.9861 -80.58056,-61.1983 -92.85364,-95.1241 -12.2733,-33.9259 -18.60006,-35.9967 -18.60006,-35.9967 z"
       id="path3282"
       inkscape:connector-curvature="0"
       sodipodi:nodetypes="csccssscc" />
  </g>
  <g
     inkscape:groupmode="layer"
     id="layer1"
     inkscape:label="txt">
    <text
       xml:space="preserve"
       style="font-style:normal;font-variant:normal;font-weight:normal;font-stretch:normal;line-height:0%;font-family:Lavi;-inkscape-font-specification:Lavi;text-align:center;letter-spacing:0px;word-spacing:0px;text-anchor:middle;fill:#000000;fill-opacity:1;stroke:none"
       x="375.46631"
       y="952.71112"
       id="text4246"><tspan
         sodipodi:role="line"
         style="font-size:55.28661346px;line-height:1.25"
         x="375.46631"
         y="952.71112"
         id="tspan4150">Ampak <tspan
   style="stroke:#000000;stroke-width:1.79999995;stroke-miterlimit:4;stroke-dasharray:none;stroke-opacity:1"
   id="tspan4183">okolje</tspan>!</tspan><tspan
         sodipodi:role="line"
         style="font-size:55.28661346px;line-height:1.25"
         x="375.46631"
         y="1021.8194"
         id="tspan4176"><tspan
   style="stroke:#000000;stroke-width:1.79999995;stroke-miterlimit:4;stroke-dasharray:none;stroke-opacity:1"
   id="tspan4185">Narava</tspan>!</tspan></text>
    <text
       xml:space="preserve"
       style="font-style:normal;font-variant:normal;font-weight:normal;font-stretch:normal;line-height:0%;font-family:Lavi;-inkscape-font-specification:Lavi;text-align:center;letter-spacing:0px;word-spacing:0px;text-anchor:middle;fill:#000000;fill-opacity:1;stroke:none"
       x="386.49847"
       y="1072.572"
       id="text4246-70"><tspan
         sodipodi:role="line"
         style="font-size:45px;line-height:1.25"
         x="386.49847"
         y="1072.572"
         id="tspan4208">Ne moremo večno</tspan><tspan
         sodipodi:role="line"
         style="font-size:45px;line-height:1.25"
         x="386.49847"
         y="1128.822"
         id="tspan63">onesnaževati vsega,</tspan><tspan
         sodipodi:role="line"
         style="font-size:45px;line-height:1.25"
         x="386.49847"
         y="1185.072"
         id="tspan65">ne da bi čutili</tspan><tspan
         sodipodi:role="line"
         style="font-size:45px;line-height:1.25"
         x="393.52972"
         y="1241.322"
         id="tspan3630">resne posledice!!! </tspan></text>
    <text
       xml:space="preserve"
       style="font-style:normal;font-variant:normal;font-weight:normal;font-stretch:normal;line-height:0%;font-family:Lavi;-inkscape-font-specification:Lavi;text-align:center;letter-spacing:0px;word-spacing:0px;text-anchor:middle;fill:#000000;fill-opacity:1;stroke:none"
       x="951.99536"
       y="316.9718"
       id="text4246-7"
       transform="scale(0.97469088,1.0259663)"><tspan
         sodipodi:role="line"
         style="font-size:58.48145294px;line-height:1.25;stroke:#000000;stroke-width:1.89999998;stroke-miterlimit:4;stroke-dasharray:none;stroke-opacity:1"
         x="951.99536"
         y="316.9718"
         id="tspan101"> Do zdaj še</tspan><tspan
         sodipodi:role="line"
         style="font-size:58.48145294px;line-height:1.25;stroke:#000000;stroke-width:1.89999998;stroke-miterlimit:4;stroke-dasharray:none;stroke-opacity:1"
         x="951.99536"
         y="390.07361"
         id="tspan103">nismo imeli</tspan><tspan
         sodipodi:role="line"
         style="font-size:58.48145294px;line-height:1.25;stroke:#000000;stroke-width:1.89999998;stroke-miterlimit:4;stroke-dasharray:none;stroke-opacity:1"
         x="951.99536"
         y="463.17545"
         id="tspan111">težav!</tspan></text>
    <text
       xml:space="preserve"
       style="font-style:normal;font-variant:normal;font-weight:normal;font-stretch:normal;line-height:0%;font-family:Lavi;-inkscape-font-specification:Lavi;text-align:center;letter-spacing:0px;word-spacing:0px;text-anchor:middle;fill:#000000;fill-opacity:1;stroke:none"
       x="969.58252"
       y="880.27979"
       id="text4246-70-2"><tspan
         sodipodi:role="line"
         style="font-size:45px;line-height:1.25"
         x="969.58252"
         y="880.27979"
         id="tspan3653">Me smo Chaosah</tspan><tspan
         sodipodi:role="line"
         style="font-size:45px;line-height:1.25"
         x="969.58252"
         y="936.52979"
         id="tspan115">čarovnice!</tspan><tspan
         sodipodi:role="line"
         style="font-size:45px;line-height:1.25"
         x="969.58252"
         y="992.77979"
         id="tspan3657">In naše težave</tspan><tspan
         sodipodi:role="line"
         style="font-size:45px;line-height:1.25"
         x="969.58252"
         y="1049.0298"
         id="tspan123">se zakoplje</tspan></text>
    <text
       xml:space="preserve"
       style="font-style:normal;font-variant:normal;font-weight:normal;font-stretch:normal;line-height:0%;font-family:Lavi;-inkscape-font-specification:Lavi;text-align:center;letter-spacing:0px;word-spacing:0px;text-anchor:middle;fill:#000000;fill-opacity:1;stroke:none"
       x="1000.3171"
       y="1096.5863"
       id="text4246-7-9"
       transform="scale(0.97469088,1.0259663)"><tspan
         sodipodi:role="line"
         style="font-size:58.48145294px;line-height:1.25;stroke:#000000;stroke-width:2.24178886;stroke-miterlimit:4;stroke-dasharray:none;stroke-opacity:1"
         x="1009.4548"
         y="1096.5863"
         id="tspan119">globoko! </tspan></text>
    <text
       xml:space="preserve"
       style="font-style:normal;font-variant:normal;font-weight:normal;font-stretch:normal;line-height:0%;font-family:Lavi;-inkscape-font-specification:Lavi;text-align:center;letter-spacing:0px;word-spacing:0px;text-anchor:middle;fill:#000000;fill-opacity:1;stroke:none"
       x="973.31299"
       y="1195.8076"
       id="text4246-70-2-8"><tspan
         sodipodi:role="line"
         style="font-size:45px;line-height:1.25"
         x="973.31299"
         y="1195.8076"
         id="tspan127">O tradicijah ne bomo</tspan><tspan
         sodipodi:role="line"
         style="font-size:45px;line-height:1.25"
         x="973.31299"
         y="1252.0576"
         id="tspan131">razpravljali!</tspan></text>
    <text
       xml:space="preserve"
       style="font-style:normal;font-variant:normal;font-weight:normal;font-stretch:normal;line-height:0%;font-family:Lavi;-inkscape-font-specification:Lavi;text-align:center;letter-spacing:0px;word-spacing:0px;text-anchor:middle;fill:#000000;fill-opacity:1;stroke:none"
       x="329.47415"
       y="1482.8362"
       id="text4246-70-2-2"><tspan
         sodipodi:role="line"
         style="font-size:45px;line-height:1.25"
         x="329.47415"
         y="1482.8362"
         id="tspan3668">Oh, poglejte kaj</tspan><tspan
         sodipodi:role="line"
         style="font-size:45px;line-height:1.25"
         x="329.47415"
         y="1539.0862"
         id="tspan135">sem pravkar našla!</tspan></text>
    <text
       xml:space="preserve"
       style="font-style:normal;font-variant:normal;font-weight:normal;font-stretch:normal;line-height:0%;font-family:Lavi;-inkscape-font-specification:Lavi;text-align:center;letter-spacing:0px;word-spacing:0px;text-anchor:middle;fill:#000000;fill-opacity:1;stroke:none"
       x="476.14627"
       y="1606.7931"
       id="text4246-70-2-2-2"><tspan
         sodipodi:role="line"
         style="font-size:45px;line-height:1.25"
         x="476.14627"
         y="1606.7931"
         id="tspan3670">Saj ne morem</tspan><tspan
         sodipodi:role="line"
         style="font-size:45px;line-height:1.25"
         x="476.14627"
         y="1663.0431"
         id="tspan139">verjeti!</tspan></text>
    <text
       xml:space="preserve"
       style="font-style:normal;font-variant:normal;font-weight:normal;font-stretch:normal;line-height:0%;font-family:Lavi;-inkscape-font-specification:Lavi;text-align:center;letter-spacing:0px;word-spacing:0px;text-anchor:middle;fill:#000000;fill-opacity:1;stroke:none"
       x="400.75806"
       y="2158.8105"
       id="text4246-70-2-2-2-7"><tspan
         sodipodi:role="line"
         style="font-size:45px;line-height:1.25"
         x="400.75806"
         y="2158.8105"
         id="tspan3674">Kako se je to</tspan><tspan
         sodipodi:role="line"
         style="font-size:45px;line-height:1.25"
         x="400.75806"
         y="2215.0605"
         id="tspan143">znašlo tukaj?</tspan></text>
    <text
       xml:space="preserve"
       style="font-style:normal;font-variant:normal;font-weight:normal;font-stretch:normal;line-height:0%;font-family:Lavi;-inkscape-font-specification:Lavi;text-align:center;letter-spacing:0px;word-spacing:0px;text-anchor:middle;fill:#000000;fill-opacity:1;stroke:none"
       x="543.13739"
       y="2471.8689"
       id="text4246-70-2-2-2-7-6"><tspan
         sodipodi:role="line"
         style="font-size:45px;line-height:1.25"
         x="543.13739"
         y="2471.8689"
         id="tspan147">Verjetno potrebuje samo</tspan><tspan
         sodipodi:role="line"
         style="font-size:45px;line-height:1.25"
         x="543.13739"
         y="2528.1189"
         id="tspan3683">malo uglasitve, ampak še</tspan><tspan
         sodipodi:role="line"
         style="font-size:45px;line-height:1.25"
         x="543.13739"
         y="2584.3689"
         id="tspan155">vedno v redu brenka.</tspan></text>
  </g>
</svg>
