<?xml version="1.0" encoding="UTF-8" standalone="no"?>
<!-- Created with Inkscape (http://www.inkscape.org/) -->

<svg
   xmlns:dc="http://purl.org/dc/elements/1.1/"
   xmlns:cc="http://creativecommons.org/ns#"
   xmlns:rdf="http://www.w3.org/1999/02/22-rdf-syntax-ns#"
   xmlns:svg="http://www.w3.org/2000/svg"
   xmlns="http://www.w3.org/2000/svg"
   xmlns:xlink="http://www.w3.org/1999/xlink"
   xmlns:sodipodi="http://sodipodi.sourceforge.net/DTD/sodipodi-0.dtd"
   xmlns:inkscape="http://www.inkscape.org/namespaces/inkscape"
   id="svg2"
   version="1.1"
   inkscape:version="0.92.3 (2405546, 2018-03-11)"
   width="2481"
   height="3503"
   sodipodi:docname="E23P02.svg">
  <metadata
     id="metadata8">
    <rdf:RDF>
      <cc:Work
         rdf:about="">
        <dc:format>image/svg+xml</dc:format>
        <dc:type
           rdf:resource="http://purl.org/dc/dcmitype/StillImage" />
        <dc:title />
      </cc:Work>
    </rdf:RDF>
  </metadata>
  <defs
     id="defs6" />
  <sodipodi:namedview
     pagecolor="#ffffff"
     bordercolor="#666666"
     borderopacity="1"
     objecttolerance="10"
     gridtolerance="10"
     guidetolerance="10"
     inkscape:pageopacity="0"
     inkscape:pageshadow="2"
     inkscape:window-width="1920"
     inkscape:window-height="1022"
     id="namedview4"
     showgrid="false"
     inkscape:zoom="0.40000002"
     inkscape:cx="849.68022"
     inkscape:cy="879.65187"
     inkscape:window-x="0"
     inkscape:window-y="0"
     inkscape:window-maximized="1"
     inkscape:current-layer="layer1" />
  <g
     inkscape:groupmode="layer"
     id="layer2"
     inkscape:label="artwork"
     sodipodi:insensitive="true">
    <image
       xlink:href="../gfx_Pepper-and-Carrot_by-David-Revoy_E23P02.png"
       width="2481"
       height="3503"
       id="image10"
       x="0"
       y="0" />
  </g>
  <g
     inkscape:groupmode="layer"
     id="layer3"
     inkscape:label="speechbubbles"
     style="opacity:1">
    <path
       style="fill:#ffffff;fill-rule:evenodd;stroke:none;stroke-width:1px;stroke-linecap:butt;stroke-linejoin:miter;stroke-opacity:1"
       d="m 1054.4405,1765.324 c -12.3953,-22.6257 4.8341,-35.5794 4.6846,-49.2442 -0.1543,-14.1069 -33.2797,-25.9555 -34.0153,-39.0315 -0.7356,-13.0761 20.5032,-26.9572 19.032,-47.3885 -1.4712,-20.4314 -25.011,-24.5177 -22.8041,-0.8173 2.2069,23.7004 -15.6571,27.8387 -11.7699,46.5835 6.483,31.2614 30.8848,30.6379 38.523,39.431 5.057,5.8216 -4.6847,18.5941 -2.4778,32.4874 2.2069,13.8933 8.8275,17.9796 8.8275,17.9796 z"
       id="path4272"
       inkscape:connector-curvature="0"
       sodipodi:nodetypes="csssssssc" />
    <path
       style="color:#000000;display:inline;overflow:visible;visibility:visible;fill:#ffffff;fill-opacity:1;fill-rule:nonzero;stroke:none;stroke-width:1.09243643px;marker:none;enable-background:accumulate"
       d="m 934.03324,1454.789 c 35.53479,-19.4037 178.58066,-14.0792 216.10256,8.3454 68.7375,41.0803 40.8779,123.124 8.0777,144.7335 -32.8001,21.6095 -137.1796,23.6921 -185.19156,11.4858 -37.06485,-9.4232 -77.69812,-31.6352 -79.93786,-88.3277 -0.91413,-23.1384 5.41437,-56.8333 40.94916,-76.237 z"
       id="path4040"
       inkscape:connector-curvature="0"
       sodipodi:nodetypes="zssssz" />
    <path
       style="fill:#ffffff;stroke:none;stroke-width:1.0934484"
       d="m 1591.2803,1551.7184 c -9.073,-60.3067 12.0646,-77.4974 36.7843,-96.1971 42.2197,-23.6999 142.2577,-19.8404 211.3301,-18.5352 69.0725,1.3055 295.9621,2.4644 322.5342,14.1548 54.8868,24.1475 58.1534,42.0874 59.436,88.9882 1.2826,46.9005 -17.1303,75.4896 -57.8146,103.3672 -40.6846,27.8779 -187.105,48.2793 -297.4117,48.9446 -97.167,0.5861 -167.9031,-24.9338 -181.1144,-32.9961 -13.2112,-8.0625 -76.4215,-50.4127 -93.7439,-107.7264 z"
       id="path3278"
       inkscape:connector-curvature="0"
       sodipodi:nodetypes="ccssssssc" />
    <path
       style="color:#000000;display:inline;overflow:visible;visibility:visible;fill:#ffffff;fill-opacity:1;fill-rule:nonzero;stroke:none;stroke-width:1px;marker:none;enable-background:accumulate"
       d="m 2309.3519,1491.2431 c -3.3015,17.6285 -6.5251,36.0465 -16.5742,51.0265 -2.9438,4.1952 -6.2726,8.3203 -10.3977,11.2503 -4.952,2.0462 -10.5106,-0.1777 -14.1301,-3.9795 -5.5933,-5.1132 -9.4498,-12.8831 -16.8764,-15.4078 -5.4477,-1.7019 -10.2634,2.1026 -14.5741,4.918 -10.8499,7.4017 -20.7857,16.3852 -32.7316,21.9366 -13.0507,7.1639 -27.2917,13.7117 -42.4274,13.0803 -5.9858,-0.3542 -12.2078,-1.5951 -17.0927,-5.4909 -12.9618,-9.4069 -20.9954,-26.6382 -18.2647,-42.9738 2.6942,-10.2389 14.039,-17.6238 24.0122,-13.9292 5.2919,1.8685 8.551,7.1399 10.0291,12.4759 4.4744,9.2979 13.8589,15.3752 23.6608,16.4167 8.0767,0.9972 16.3468,-0.6515 23.6235,-4.2797 11.1725,-2.2031 18.6721,-11.736 27.1027,-18.7576 3.898,-3.1478 8.252,-6.2192 13.1972,-7.0722 7.3458,0.5316 12.2935,7.0789 15.8693,13.1143 3.8411,6.1272 7.6353,13.6796 14.9853,15.6694 4.9282,2.0936 8.0913,-3.4795 11.3841,-6.2587 9.4666,-10.3996 15.6617,-23.7734 18.8064,-37.6716 0.2044,-1.3481 0.3033,-2.7058 0.3983,-4.067 z"
       id="path4496"
       inkscape:connector-curvature="0" />
    <path
       style="color:#000000;display:inline;overflow:visible;visibility:visible;fill:#ffffff;fill-opacity:1;fill-rule:nonzero;stroke:none;stroke-width:1.0355593px;marker:none;enable-background:accumulate"
       d="m 139.27383,2816.0213 c -9.33171,-47.7495 3.38965,-146.229 194.69027,-135.7836 191.30048,10.4452 228.48795,30.4344 241.26248,80.4768 12.77469,42.4807 20.77715,130.716 -128.53055,157.5752 -149.30784,26.8591 -297.25291,-26.067 -307.4222,-102.2684 z"
       id="path3525"
       inkscape:connector-curvature="0"
       sodipodi:nodetypes="cscsc" />
    <path
       style="fill:#ffffff;fill-rule:evenodd;stroke:none;stroke-width:1px;stroke-linecap:butt;stroke-linejoin:miter;stroke-opacity:1"
       d="m 1032.8846,3001.2911 c 64.3595,-20.5055 125.4599,-16.3396 159.0938,-8.4954 0.9399,10.0872 -6.0538,18.1194 2.4887,25.4861 5.3864,4.645 55.4971,24.5806 111.8647,-24.2725 -60.9167,31.4127 -81.1572,20.4407 -93.2206,13.35 0.1589,-20.1238 23.4006,-53.5398 -172.7689,-32.7681 -196.36699,20.7927 -7.4577,26.6999 -7.4577,26.6999 z"
       id="path4316"
       inkscape:connector-curvature="0"
       sodipodi:nodetypes="ccsccsc" />
    <path
       style="color:#000000;display:inline;overflow:visible;visibility:visible;opacity:1;fill:#ffffff;fill-opacity:1;fill-rule:nonzero;stroke:none;stroke-width:1.0453918px;marker:none;enable-background:accumulate"
       d="m 305.57597,2972.5568 c 9.85348,-54.7087 46.58017,-87.3421 67.18291,-98.8597 20.60274,-11.5177 258.87803,-24.9548 310.83278,-26.8745 51.95474,-1.9196 202.44442,-2.8794 267.83575,30.7137 65.39139,33.5931 89.57709,78.7039 90.47299,104.6185 0.8959,25.9146 -23.2901,95.0206 -146.90663,116.1363 -123.61644,21.1157 -247.68852,29.6012 -295.16437,25.7619 -47.47594,-3.8391 -209.58033,-11.2646 -254.36884,-56.3753 -44.7887,-45.1107 -38.98881,-62.4876 -39.88459,-95.1209 z"
       id="path5909"
       inkscape:connector-curvature="0"
       sodipodi:nodetypes="csssssssc" />
    <path
       style="opacity:1;fill:#ffffff;stroke:none;stroke-width:0.86392486"
       d="m 2036.9103,3264.063 c -1.2891,-22.8198 21.8244,-79.9465 134.5708,-75.6496 112.7465,4.2969 148.0343,29.3977 151.3383,69.9597 5.2266,64.1679 -54.0891,81.3158 -139.2613,86.0687 -87.8032,4.8997 -148.0105,-39.1473 -146.6478,-80.3788 z"
       id="path3280-8"
       inkscape:connector-curvature="0"
       sodipodi:nodetypes="csssc" />
    <path
       style="opacity:1;fill:#ffffff;fill-rule:evenodd;stroke:none;stroke-width:1px;stroke-linecap:butt;stroke-linejoin:miter;stroke-opacity:1"
       d="m 2035.1821,3063.1067 c 62.6875,-14.0507 132.7452,-5.414 131.8599,14.0506 -1.3219,29.0657 -58.7184,68.5728 -54.1912,71.7994 59.553,42.4434 62.2223,48.0386 58.9798,82.6248 -3.2425,34.5862 -26.5527,-14.9887 -37.3609,-31.201 -10.8082,-16.2123 -47.4083,-28.1111 -48.4891,-46.485 -1.0808,-18.3739 69.4777,-55.2769 65.1544,-75.8124 -4.3232,-20.5356 -115.9529,-14.9764 -115.9529,-14.9764 z"
       id="path4324"
       inkscape:connector-curvature="0"
       sodipodi:nodetypes="cssssssc" />
  </g>
  <g
     inkscape:groupmode="layer"
     id="layer1"
     inkscape:label="txt">
    <text
       xml:space="preserve"
       style="font-style:normal;font-variant:normal;font-weight:normal;font-stretch:normal;line-height:0%;font-family:Lavi;-inkscape-font-specification:Lavi;text-align:center;letter-spacing:0px;word-spacing:0px;text-anchor:middle;fill:#000000;fill-opacity:1;stroke:none"
       x="1040.5168"
       y="1521.3531"
       id="text4246"><tspan
         sodipodi:role="line"
         style="font-size:45px;line-height:1.25"
         x="1047.5481"
         y="1521.3531"
         id="tspan4144">Tapadh leat, </tspan><tspan
         sodipodi:role="line"
         style="font-size:45px;line-height:1.25"
         x="1040.5168"
         y="1577.6031"
         id="tspan39">a Churrain…</tspan></text>
    <text
       xml:space="preserve"
       style="font-style:normal;font-variant:normal;font-weight:normal;font-stretch:normal;line-height:0%;font-family:Lavi;-inkscape-font-specification:Lavi;text-align:center;letter-spacing:0px;word-spacing:0px;text-anchor:middle;fill:#000000;fill-opacity:1;stroke:none"
       x="1907.8341"
       y="1485.7719"
       id="text4246-3"><tspan
         sodipodi:role="line"
         style="font-size:45px;line-height:1.25"
         x="1914.8654"
         y="1485.7719"
         id="tspan427">Fhios a’d, tha mi ag obair </tspan><tspan
         sodipodi:role="line"
         style="font-size:45px;line-height:1.25"
         x="1914.8654"
         y="1542.0219"
         id="tspan48">gu cruaidh gach latha ach an </tspan><tspan
         sodipodi:role="line"
         style="font-size:45px;line-height:1.25"
         x="1914.8654"
         y="1598.2719"
         id="tspan46">rachainn ’nam dheagh </tspan><tspan
         sodipodi:role="line"
         style="font-size:45px;line-height:1.25"
         x="1907.8341"
         y="1654.5219"
         id="tspan62">bhana-bhuidseach...</tspan></text>
    <text
       xml:space="preserve"
       style="font-style:normal;font-variant:normal;font-weight:normal;font-stretch:normal;line-height:0%;font-family:Lavi;-inkscape-font-specification:Lavi;text-align:center;letter-spacing:0px;word-spacing:0px;text-anchor:middle;fill:#000000;fill-opacity:1;stroke:none"
       x="358.00287"
       y="2753.7161"
       id="text4246-3-5"><tspan
         sodipodi:role="line"
         style="font-size:45px;line-height:1.25"
         x="365.03412"
         y="2753.7161"
         id="tspan440">...le spèis air </tspan><tspan
         sodipodi:role="line"
         style="font-size:45px;line-height:1.25"
         x="365.03412"
         y="2809.9661"
         id="tspan69">an dualchas is air na </tspan><tspan
         sodipodi:role="line"
         style="font-size:45px;line-height:1.25"
         x="358.00287"
         y="2866.2161"
         id="tspan75">riaghailtean...</tspan></text>
    <text
       xml:space="preserve"
       style="font-style:normal;font-variant:normal;font-weight:normal;font-stretch:normal;line-height:0%;font-family:Lavi;-inkscape-font-specification:Lavi;text-align:center;letter-spacing:0px;word-spacing:0px;text-anchor:middle;fill:#000000;fill-opacity:1;stroke:none"
       x="674.74036"
       y="2950.1072"
       id="text4246-3-5-2"><tspan
         sodipodi:role="line"
         style="font-size:45px;line-height:1.25"
         x="681.77161"
         y="2950.1072"
         id="tspan82">...chan eil e cothromach gun do </tspan><tspan
         sodipodi:role="line"
         style="font-size:45px;line-height:1.25"
         x="681.77161"
         y="3006.3572"
         id="tspan84">choisinn Cròch uiread dhe chliù leis </tspan><tspan
         sodipodi:role="line"
         style="font-size:45px;line-height:1.25"
         x="674.74036"
         y="3062.6072"
         id="tspan94">an ro-innleachd a bha seo.</tspan></text>
    <text
       xml:space="preserve"
       style="font-style:normal;font-variant:normal;font-weight:normal;font-stretch:normal;line-height:0%;font-family:Lavi;-inkscape-font-specification:Lavi;text-align:center;letter-spacing:0px;word-spacing:0px;text-anchor:middle;fill:#000000;fill-opacity:1;stroke:none"
       x="2182.7688"
       y="3254.8188"
       id="text4246-3-5-2-2"><tspan
         sodipodi:role="line"
         style="font-size:45px;line-height:1.25"
         x="2182.7688"
         y="3254.8188"
         id="tspan102">Abair ana-</tspan><tspan
         sodipodi:role="line"
         style="font-size:45px;line-height:1.25"
         x="2182.7688"
         y="3311.0688"
         id="tspan100">cothrom.</tspan></text>
    <text
       xml:space="preserve"
       style="font-style:normal;font-weight:normal;font-size:40px;line-height:1.25;font-family:sans-serif;letter-spacing:0px;word-spacing:0px;fill:#000000;fill-opacity:1;stroke:none"
       x="2055"
       y="1588.0001"
       id="text52"><tspan
         sodipodi:role="line"
         id="tspan50"
         x="2055"
         y="1623.3907" /></text>
  </g>
</svg>
