<?xml version="1.0" encoding="UTF-8" standalone="no"?>
<!-- Created with Inkscape (http://www.inkscape.org/) -->

<svg
   xmlns:dc="http://purl.org/dc/elements/1.1/"
   xmlns:cc="http://creativecommons.org/ns#"
   xmlns:rdf="http://www.w3.org/1999/02/22-rdf-syntax-ns#"
   xmlns:svg="http://www.w3.org/2000/svg"
   xmlns="http://www.w3.org/2000/svg"
   xmlns:xlink="http://www.w3.org/1999/xlink"
   xmlns:sodipodi="http://sodipodi.sourceforge.net/DTD/sodipodi-0.dtd"
   xmlns:inkscape="http://www.inkscape.org/namespaces/inkscape"
   id="svg2"
   version="1.1"
   inkscape:version="0.48.5 r10040"
   width="2481"
   height="3503"
   sodipodi:docname="E31P06.svg">
  <metadata
     id="metadata8">
    <rdf:RDF>
      <cc:Work
         rdf:about="">
        <dc:format>image/svg+xml</dc:format>
        <dc:type
           rdf:resource="http://purl.org/dc/dcmitype/StillImage" />
        <dc:title />
      </cc:Work>
    </rdf:RDF>
  </metadata>
  <defs
     id="defs6">
    <filter
       style="color-interpolation-filters:sRGB"
       id="filter4375-4-1-1-1-9-5-8-3-8"
       inkscape:label="Drop Shadow">
      <feFlood
         id="feFlood4377-7-9-0-8-1-7-3-8-3"
         flood-opacity="1"
         flood-color="rgb(39,39,39)"
         result="flood" />
      <feComposite
         id="feComposite4379-3-8-8-2-77-4-1-8-7"
         in2="SourceGraphic"
         in="flood"
         operator="in"
         result="composite1" />
      <feMorphology
         id="feMorphology4393-1-0-49-8-9-3-0-31-8"
         operator="dilate"
         radius="6.2000000000000002"
         result="result3" />
      <feComposite
         id="feComposite4385-9-5-7-0-8-8-7-8-2"
         in2="result3"
         in="SourceGraphic"
         operator="over"
         result="fbSourceGraphic" />
      <feColorMatrix
         result="fbSourceGraphicAlpha"
         in="fbSourceGraphic"
         values="0 0 0 -1 0 0 0 0 -1 0 0 0 0 -1 0 0 0 0 1 0"
         id="feColorMatrix4544-96-1" />
      <feTurbulence
         id="feTurbulence4546-4-0"
         type="fractalNoise"
         numOctaves="3"
         seed="37"
         baseFrequency="0.129 0.0050000000000000001"
         result="turbulence" />
      <feDisplacementMap
         id="feDisplacementMap4548-3-5"
         in2="turbulence"
         in="fbSourceGraphic"
         scale="6.6"
         yChannelSelector="G"
         xChannelSelector="R"
         result="fbSourceGraphic" />
      <feColorMatrix
         result="fbSourceGraphicAlpha"
         in="fbSourceGraphic"
         values="0 0 0 -1 0 0 0 0 -1 0 0 0 0 -1 0 0 0 0 1 0"
         id="feColorMatrix4670-33-8" />
      <feFlood
         id="feFlood4672-8-5"
         flood-opacity="0.40999999999999998"
         flood-color="rgb(0,0,0)"
         result="flood"
         in="fbSourceGraphic" />
      <feComposite
         id="feComposite4674-6-5"
         in2="fbSourceGraphic"
         in="flood"
         operator="in"
         result="composite1" />
      <feGaussianBlur
         id="feGaussianBlur4676-0-0"
         in="composite1"
         stdDeviation="0"
         result="blur" />
      <feOffset
         id="feOffset4678-4-7"
         dx="6"
         dy="6"
         result="offset" />
      <feComposite
         id="feComposite4680-8-3"
         in2="offset"
         in="fbSourceGraphic"
         operator="over"
         result="composite2" />
    </filter>
    <filter
       style="color-interpolation-filters:sRGB"
       id="filter4375-4-1-1-1-9-0"
       inkscape:label="deevad outline effect">
      <feFlood
         id="feFlood4377-7-9-0-8-1-9"
         flood-opacity="1"
         flood-color="rgb(0,0,0)"
         result="flood" />
      <feComposite
         id="feComposite4379-3-8-8-2-77-1"
         in2="SourceGraphic"
         in="flood"
         operator="in"
         result="composite1" />
      <feMorphology
         id="feMorphology4393-1-0-49-8-9-9"
         operator="dilate"
         radius="3"
         result="result3" />
      <feComposite
         id="feComposite4385-9-5-7-0-8-6"
         in2="result3"
         in="SourceGraphic"
         operator="over"
         result="composite2" />
    </filter>
    <filter
       style="color-interpolation-filters:sRGB"
       id="filter4375-4-1-1-1-9-0-5"
       inkscape:label="deevad outline effect">
      <feFlood
         id="feFlood4377-7-9-0-8-1-9-6"
         flood-opacity="1"
         flood-color="rgb(0,0,0)"
         result="flood" />
      <feComposite
         id="feComposite4379-3-8-8-2-77-1-2"
         in2="SourceGraphic"
         in="flood"
         operator="in"
         result="composite1" />
      <feMorphology
         id="feMorphology4393-1-0-49-8-9-9-9"
         operator="dilate"
         radius="3"
         result="result3" />
      <feComposite
         id="feComposite4385-9-5-7-0-8-6-1"
         in2="result3"
         in="SourceGraphic"
         operator="over"
         result="composite2" />
    </filter>
  </defs>
  <sodipodi:namedview
     pagecolor="#ffffff"
     bordercolor="#666666"
     borderopacity="1"
     objecttolerance="10"
     gridtolerance="10"
     guidetolerance="10"
     inkscape:pageopacity="0"
     inkscape:pageshadow="2"
     inkscape:window-width="1276"
     inkscape:window-height="756"
     id="namedview4"
     showgrid="false"
     inkscape:zoom="0.23155986"
     inkscape:cx="2215.2409"
     inkscape:cy="350.54255"
     inkscape:window-x="369"
     inkscape:window-y="0"
     inkscape:window-maximized="0"
     inkscape:current-layer="layer1"
     inkscape:snap-global="false" />
  <g
     inkscape:groupmode="layer"
     id="layer2"
     inkscape:label="artwork"
     sodipodi:insensitive="true">
    <image
       sodipodi:absref="/Users/su_huynh/Downloads/lang/vi/../gfx_Pepper-and-Carrot_by-David-Revoy_E31P06.png"
       xlink:href="../gfx_Pepper-and-Carrot_by-David-Revoy_E31P06.png"
       y="0"
       x="0"
       id="image10"
       height="3503"
       width="2481" />
  </g>
  <g
     inkscape:groupmode="layer"
     id="layer3"
     inkscape:label="speechbubbles">
    <path
       style="color:#000000;fill:#ffffff;fill-opacity:1;fill-rule:nonzero;stroke:none;stroke-width:1.13598561px;marker:none;visibility:visible;display:inline;overflow:visible;enable-background:accumulate"
       d="m 803.30785,2911.9745 c -10.11275,-2.1013 -39.943,-21.204 -4.59578,-21.8595 -26.41776,-7.3593 -23.84794,-24.7039 -3.01882,-35.7799 -27.89164,3.4204 -48.88804,0.1563 -35.3733,-18.277 -40.82873,13.3789 -59.08901,16.593 -51.76288,-8.7275 -18.02067,21.4798 -36.51618,18.5405 -42.46567,-5.2641 -3.37793,18.1254 -31.34579,25.2077 -64.70266,2.8595 11.36357,21.0735 17.81645,32.0416 -41.47882,28.959 22.99919,11.4357 37.61232,18.7611 -0.15675,25.9231 19.67718,4.688 32.43338,11.7187 2.84115,25.3281 19.77545,2.8735 50.69159,0.2343 14.27134,25.2765 24.23418,-12.179 66.00723,-6.2801 49.08738,12.28 47.57184,-22.2522 57.19038,-17.4102 65.26002,-3.5286 16.99597,-21.736 52.44436,-25.7893 68.2552,-14.4115 -8.33327,-18.1172 21.5254,-11.694 43.83959,-12.7781 z"
       id="path3549-3-78-5-3"
       inkscape:connector-curvature="0"
       sodipodi:nodetypes="ccccccccccccccc" />
    <path
       style="color:#000000;display:inline;overflow:visible;visibility:visible;fill:#ffffff;fill-opacity:1;fill-rule:nonzero;stroke:none;stroke-width:1.13598561px;marker:none;enable-background:accumulate"
       d="m 843.02907,2994.1713 c -11.89713,-2.9785 -24.17157,-22.306 -4.83933,-35.2868 -16.04099,-0.688 -25.22109,-7.3316 -10.09016,-20.9326 -33.63592,17.0282 -42.55262,-6.109 -31.54836,-33.2935 -49.36943,13.0575 -71.28017,15.72 -61.02027,-12.9191 -22.7425,23.6321 -44.55674,19.2215 -50.17625,-8.4238 -5.12498,20.6058 -16.0656,31.8674 -48.67807,5.9229 -2.4006,7.5606 8.64658,32.4271 -61.67596,25.5615 26.65036,14.4116 42.6399,17.0575 -2.71109,23.1541 23.11252,6.4833 53.82905,16.2056 17.80741,30.1585 23.34031,4.4069 45.22812,8.7539 0.38797,35.4404 29.56268,-12.6127 61.01949,-4.4394 39.76453,15.9049 57.9305,-22.8594 69.07237,-16.7642 77.8197,-0.3847 21.53965,-23.9836 52.66833,-21.2672 70.7742,-7.3256 -8.80189,-21.2539 37.58447,-17.5851 64.18568,-17.5762 z"
       id="path3549-3-78-5"
       inkscape:connector-curvature="0"
       sodipodi:nodetypes="ccccccccccccccc" />
    <path
       style="fill:#ffffff;fill-opacity:1;stroke:none"
       d="m 2261.1103,607.49643 c -11.3257,3.86007 -15.6851,7.46431 -13.6572,9.6977 -4.6456,1.09817 -6.4353,30.03928 -2.0905,35.3413 0.2892,0.55806 2.3183,2.23433 1.4468,2.50979 -0.8709,0.27548 -6.0937,-0.5762 -6.9662,0.53413 -0.8726,1.11089 7.8079,17.00347 6.646,17.5563 -1.1618,0.55338 -27.8456,-10.10974 -31.6227,-7.61678 -3.7772,2.49298 -1.7562,8.9012 -2.9176,9.17575 -1.1613,0.27454 -11.8973,-1.42978 -13.3488,-1.15616 -1.4517,0.2736 -4.0776,8.61487 -5.5291,8.88847 -1.4518,0.27362 -8.1206,-3.64446 -9.2819,-3.36991 -1.1615,0.27454 -0.5926,7.23467 -2.0441,7.50829 -1.4517,0.2736 -7.8266,-5.86981 -8.6978,-5.59434 -0.8711,0.27548 -4.0868,14.1817 -5.5394,15.01188 -1.4526,0.83018 -10.713,-15.34253 -11.5834,-15.62363 -0.8701,-0.28165 -6.4165,18.90564 -7.5778,19.18018 -1.1616,0.27454 -6.9439,-13.1041 -7.8151,-12.82862 -0.8712,0.27548 -6.3985,8.05138 -7.5603,8.60421 -1.1618,0.55283 -8.6782,-17.28455 -9.8392,-17.28829 -1.161,-0.004 -11.0413,7.47929 -11.9143,8.86791 -0.8731,1.38917 -1.7294,-7.24215 -2.8903,-7.24589 -1.1608,-0.004 -14.5199,4.96349 -14.8097,4.68427 -0.2898,-0.27923 2.041,-5.56029 1.1702,-5.56309 -0.8705,-0.003 -14.523,6.9115 -15.1014,5.5182 3.9823,-20.42315 -29.4449,6.15199 -31.6449,5.74316 -2.0298,-1.12024 13.0985,-22.78124 11.6502,-24.45617 -1.4485,-1.6744 -6.676,0.25676 -6.9649,-0.57903 -0.2887,-0.83579 3.2001,-4.44284 2.3313,-5.55878 -0.8689,-1.1165 -10.7293,-5.60143 -11.5976,-6.99566 -0.8684,-1.3948 4.3617,-4.99624 3.2021,-5.83483 -1.1596,-0.83915 -18.2744,-6.18233 -18.5623,-7.57524 -0.2879,-1.39237 8.7206,-8.04334 7.5628,-9.99509 -1.1576,-1.95229 -4.349,-2.79743 -4.0563,-4.18848 0.2926,-1.39049 5.8096,-3.04299 5.5218,-4.43535 -0.2879,-1.39238 -3.1786,-8.36054 -4.0474,-9.47648 -0.8689,-1.11595 6.0958,-0.53694 6.0976,-1.65008 0,-1.11369 -1.3423,-23.5183 -11.6368,-33.66701 18.0239,6.75864 25.6198,3.53587 35.2013,1.34045 9.5814,-2.19598 5.8314,-16.12464 7.2841,-16.95484 5.8939,5.17921 15.3377,27.89768 16.838,1.91714 -0.298,-1.85524 10.3782,11.16727 11.8297,10.89366 1.4516,-0.27361 13.4176,-14.7864 15.4497,-15.05814 2.032,-0.27174 9.86,4.76377 11.6008,5.04767 1.741,0.2839 3.2037,-6.66969 4.654,-6.10843 1.4503,0.56124 10.7293,5.60143 12.1813,5.04953 1.4521,-0.55245 2.6168,-2.775 3.7769,-2.21468 1.1597,0.56031 6.3803,2.80399 6.3803,2.80399 0,0 3.7759,-1.65812 5.5172,-1.65251 1.7414,0.006 13.6256,9.22905 15.0758,9.79031 1.4502,0.56124 16.3652,-9.43403 15.4973,-11.10655 1.8368,7.31416 10.7644,0.65375 12.6534,1.02589 2.0301,0.84196 8.1292,-1.64353 8.7083,-0.80679 0.579,0.83672 2.313,5.29601 4.0539,5.57991 1.7411,0.2839 5.8023,1.41013 5.8023,1.41013 l -0.5831,1.6684 c 0,0 12.197,6.87013 13.6512,5.20508 5.2232,-0.92566 4.9912,1.56665 18.3991,-6.34533 -10.74,16.83134 -17.869,35.87639 4.4928,28.12884 -18.5948,7.40389 -10.3602,13.68463 5.2039,12.26364 z"
       id="path5888-3-2"
       inkscape:connector-curvature="0"
       sodipodi:nodetypes="cccsccsscccccccsccscscsccsccccccsccscsccccsccscsccccccccccc" />
    <path
       style="fill:#ffffff;fill-opacity:1;stroke:none;stroke-width:0.94653028"
       d="m 2204.7571,406.59234 c -0.051,0.004 -0.1036,0.0176 -0.1548,0.041 -1.6404,0.75002 -7.7707,7.90828 -9.411,7.15827 -1.6404,-0.75076 -9.1413,-7.40689 -10.4537,-6.65688 -1.3122,0.75001 -6.1243,11.06376 -6.1243,11.06376 0,0 -7.956,-4.96527 -16.2623,-11.01838 -2.45,5.91093 -4.6626,17.08211 -6.3031,17.83213 -1.6403,0.75002 -18.4812,-12.78316 -25.1416,-17.47112 -2.4542,6.19133 -4.5461,18.47784 -6.6821,18.97112 -2.2965,1.12577 -16.831,-13.22067 -17.487,-12.09564 -0.6562,1.12502 5.0194,18.09759 3.0509,18.4726 -1.9685,0.37501 -6.5612,1.875 -6.5612,1.875 l 0.6553,2.25 c 0,0 -13.7794,-6.00192 -15.4198,-8.25196 -1.6403,-2.25078 0.9849,9.75311 1.9692,12.75391 -5.9056,-3.0008 -23.2935,-9.37813 -24.6057,-11.25391 -1.3123,-1.87503 2.2968,6.75193 4.2652,9.37696 -2.6246,-1.12501 -4.9221,-1.5 -4.9221,-1.5 l 7.5465,9.00195 -2.296,0.75 c 0,0 4.9206,4.12498 4.9206,6 0,1.87579 -12.7955,4.12695 -12.7955,4.12695 14.5154,11.23691 5.3708,14.55335 -5.9044,16.50391 6.1251,2.51362 10.4246,4.93804 13.0128,7.11523 l -12.4998,3.7168 12.9817,7.56445 -6.9241,3.24219 6.9241,5.4043 -19.0408,8.64648 19.9072,5.4043 -14.7145,9.72851 14.7145,5.4043 -7.7905,7.56446 17.4407,1.45312 c 0,3.14332 -5.0782,19.04189 -7.6076,23.27148 9.9629,-0.0303 26.5262,0.13477 38.5664,0.13477 0.022,1.16441 0.094,2.00665 0.4738,2.11523 0.6446,0.18421 3.9141,-0.26823 7.2557,-0.72851 l 10.6308,4.42578 c 1.253,3.15354 2.5421,6.59956 3.4394,6.80469 1.0253,0.23437 4.3566,-1.72876 7.0318,-3.14258 6e-4,-2.5e-4 0,2.5e-4 0,0 l 3.8335,-0.9082 c 0.8227,1.91909 0.4713,9.34263 1.9284,9.67578 1.6405,0.37502 8.8584,-7.87501 9.8426,-7.5 0.9842,0.375 4.5925,19.12886 6.2327,20.2539 1.6405,1.12501 12.1397,-20.6289 13.1241,-21.0039 0.9841,-0.37576 7.2163,25.5039 8.5286,25.8789 1.3124,0.37502 7.8745,-17.62892 8.8588,-17.2539 0.9843,0.37499 7.2181,10.87889 8.5303,11.6289 1.3124,0.75002 9.8424,-23.25586 11.1548,-23.25586 1.3123,0 12.4666,10.12693 13.4509,12.00196 0.9843,1.87579 1.969,-9.75196 3.2813,-9.75196 1.3124,0 16.4025,6.75197 16.7306,6.37696 0.3282,-0.37501 -2.2965,-7.50196 -1.3122,-7.50196 0.9842,0 16.4045,9.37698 17.0607,7.50196 0.656,-1.87578 28.1681,3.46603 35.7602,7.87695 -5.8876,-9.56114 -14.7642,-30.75508 -13.1239,-33.00586 1.6404,-2.25003 7.547,0.37502 7.8751,-0.75 0.328,-1.12502 -3.6086,-6.00194 -2.6244,-7.50195 0.9842,-1.50078 12.1381,-7.50191 13.1222,-9.37696 0.9842,-1.87577 -4.9204,-6.74999 -3.6082,-7.875 1.3123,-1.12576 20.6692,-8.25313 20.9973,-10.1289 0.328,-1.87504 -9.8426,-10.87691 -8.5303,-13.50195 1.3123,-2.62579 4.9218,-3.74922 4.5936,-5.625 -0.3281,-1.87502 -6.5623,-4.12694 -6.2342,-6.00196 0.328,-1.87503 3.6094,-11.25193 4.5935,-12.75195 0.9844,-1.50003 -6.8895,-0.74998 -6.8895,-2.25 0,-1.50078 -18.0024,-9.73512 2.2298,-31.94263 -28.9632,4.74119 -18.9619,-1.06318 -29.7884,-4.06323 -10.8267,-3.0008 -6.5615,-21.75584 -8.2018,-22.88086 -1.6405,-1.12577 -13.7797,6.377 -15.42,3.75195 -1.6404,-2.62579 -2.2975,-7.50195 -3.6099,-7.50195 -1.3121,0 -15.41,8.06404 -17.0504,7.68903 -1.6404,-0.37501 -10.5075,-14.44098 -12.8041,-14.81598 -2.2965,-0.37502 -11.1555,6.37695 -13.124,6.75195 -1.9068,0.36329 -3.5044,-8.42522 -5.094,-8.29297 z"
       id="path5888-3"
       inkscape:connector-curvature="0"
       sodipodi:nodetypes="ccccccccccscccccccccscccccccccccccccscccccccccccccscsssccccccccccccsccccsccccc" />
    <path
       style="color:#000000;display:inline;overflow:visible;visibility:visible;fill:#ffffff;fill-opacity:1;fill-rule:nonzero;stroke:none;stroke-width:0.99999994px;marker:none;enable-background:accumulate"
       d="m 1272.5449,3077.9523 c -78.231,15.2781 -158.5825,23.1124 -234.3525,47.042 l 48.6913,-38.9221 c -31.113,-0.2775 -62.6052,11.89 -93.96922,19.832 l 24.81112,-26.6421 c -73.62433,-0.043 -140.93978,19.5825 -211.30464,29.7017 l 48.37788,-44.8304 c 71.35729,-4.7997 140.74069,-1.8479 214.31916,-15.3676 l -20.5535,27.1733 c 25.7084,-2.3825 51.5171,-5.4463 77.7719,-11.5491 l -30.1046,33.1547 z"
       id="path4032-1"
       inkscape:connector-curvature="0"
       sodipodi:nodetypes="cccccccccccc" />
    <path
       style="fill:#ffffff;fill-rule:evenodd;stroke:none;display:inline"
       d="m 541.30065,2988.2275 c 41.83511,20.5895 77.97272,36.2132 49.60314,-22.1128 33.78499,43.5764 47.41146,24.2527 55.6259,-1.2286 26.4248,21.9023 44.67163,41.2606 57.77512,25.5022 4.88396,20.2661 15.35779,12.0879 24.42226,11.081 2.98541,4.5857 -18.59379,-10.4045 22.83189,-25.5819 -5.1573,-29.1065 26.33537,3.381 50.60051,-10.0744 6.28632,24.6331 2.78646,39.8793 38.40667,5.1333 -12.87349,34.1741 -7.53539,39.0008 8.91429,25.9221 -7.52067,14.0733 -12.01879,24.9675 16.555,1.0797 -9.78224,25.9763 24.78022,8.8116 58.57747,-17.858 -32.16256,29.5734 -76.94071,62.7553 -40.74878,58.9013 -5.04721,8.1301 -23.05022,15.2136 30.56318,28.0823 -10.00891,5.5167 -40.56576,-2.5455 -15.07584,20.8133 3.41512,2.7308 -8.01793,4.398 13.80236,11.5891 -12.88075,-0.4893 -20.78022,1.2579 -8.91431,11.8807 -23.51214,-0.5745 -14.71493,10.5953 2.54697,24.8417 -44.09346,-27.8797 -58.22461,-32.9593 -36.93068,-4.3201 -42.67324,-24.9139 -57.69422,-21.7251 -52.25616,-1.2423 -18.16506,-21.7482 -38.96509,-25.5512 -55.81275,-0.426 -17.96328,-25.9255 -30.20185,-23.2693 -67.66987,-3.7322 20.21142,-21.9853 -8.54193,-7.9784 -30.56329,1.0797 12.05933,-27.4645 -18.54553,-9.4391 -57.30617,17.2812 21.70578,-30.3281 -2.94689,-19.3727 -39.47761,2.16 13.80244,-29.7948 -8.6761,-44.2036 -62.40003,-45.3627 25.71387,-10.7476 40.70887,-24.2731 14.00825,-48.6038 30.09917,7.1642 39.07731,0.5094 17.82854,-25.9216 32.83021,21.6945 17.90353,-9.7725 5.09394,-38.8832 z"
       id="path4508-9"
       inkscape:connector-curvature="0"
       sodipodi:nodetypes="cccccccccccccccccccccccccccc" />
    <path
       style="color:#000000;fill:#ffffff;fill-opacity:1;fill-rule:nonzero;stroke:none;stroke-width:1px;marker:none;visibility:visible;display:inline;overflow:visible;enable-background:accumulate"
       d="m 2287.1877,625.34512 43.831,-6.4041 c 0,0 1.5665,29.95657 4.6782,32.0986 11.0733,-0.0391 21.0624,-5.37296 21.0624,-5.37296 l 18.0133,48.73793 -20.0054,-31.72225 c -9.8867,-0.91886 -20.0127,-0.88091 -32.7339,9.5382 l -4.3594,-32.26765 -48.8941,8.78959 0.387,-14.84913 -36.3302,14.72847 -1.9638,-32.65607 53.1673,-4.65606 z"
       id="path4448"
       inkscape:connector-curvature="0"
       sodipodi:nodetypes="cccccccccccccc" />
  </g>
  <g
     inkscape:groupmode="layer"
     id="layer1"
     inkscape:label="txt">
    <text
       xml:space="preserve"
       style="font-size:15.89058971000000042px;font-style:normal;font-variant:normal;font-weight:normal;font-stretch:normal;text-align:center;line-height:0%;letter-spacing:0px;word-spacing:0px;text-anchor:middle;fill:#000000;fill-opacity:1;stroke:none;font-family:ComicSpice;-inkscape-font-specification:ComicSpice"
       x="2192.574"
       y="482.24832"
       id="text4246-1-3-2-8"
       transform="scale(0.99789912,1.0021053)"
       sodipodi:linespacing="0%"><tspan
         sodipodi:role="line"
         style="font-size:46.66666794000000351px;font-style:normal;font-variant:normal;font-weight:bold;font-stretch:normal;line-height:1.25000000000000000;font-family:ComicSpice;-inkscape-font-specification:ComicSpice"
         x="2192.574"
         y="482.24832"
         id="tspan829">Tôi nói</tspan><tspan
         sodipodi:role="line"
         style="font-size:46.66666794000000351px;font-style:normal;font-variant:normal;font-weight:bold;font-stretch:normal;line-height:1.25000000000000000;font-family:ComicSpice;-inkscape-font-specification:ComicSpice"
         x="2192.574"
         y="540.58167"
         id="tspan30096">DỪNG LẠI!</tspan></text>
    <text
       xml:space="preserve"
       style="font-size:15.89058971px;font-style:normal;font-variant:normal;font-weight:normal;font-stretch:normal;text-align:center;line-height:0%;letter-spacing:0px;word-spacing:0px;text-anchor:middle;fill:#000000;fill-opacity:1;stroke:none;font-family:ComicSpice;-inkscape-font-specification:ComicSpice"
       x="2144.4634"
       y="637.91968"
       id="text4246-1-3-2-8-3"
       transform="scale(0.99789912,1.0021053)"
       sodipodi:linespacing="0%"><tspan
         sodipodi:role="line"
         style="font-size:46.66666794px;font-style:normal;font-variant:normal;font-weight:bold;font-stretch:normal;line-height:1.25;font-family:ComicSpice;-inkscape-font-specification:ComicSpice"
         x="2144.4634"
         y="637.91968"
         id="tspan829-7">Đủ rồi!</tspan></text>
    <text
       xml:space="preserve"
       style="font-style:normal;font-variant:normal;font-weight:bold;font-stretch:normal;line-height:0%;letter-spacing:0px;word-spacing:0px;fill:#000000;fill-opacity:1;stroke:#ffffff;stroke-width:2.66678286000000009;stroke-miterlimit:4;stroke-opacity:1;stroke-dasharray:none;filter:url(#filter4375-4-1-1-1-9-0);font-family:ComicSpice;-inkscape-font-specification:ComicSpice Bold"
       x="787.65729"
       y="1584.5073"
       id="text4580-25"
       transform="matrix(0.55718765,-0.37423929,0.21813977,1.0749149,-120.92735,-234.76499)"
       sodipodi:linespacing="0%"><tspan
         sodipodi:role="line"
         id="tspan4582-4"
         x="787.65729"
         y="1584.5073"
         style="font-size:70px;line-height:100%;letter-spacing:4.88345098000000011px;fill:#ffffff;stroke:#ffffff;stroke-width:2.66678286000000009;stroke-miterlimit:4;stroke-opacity:1;stroke-dasharray:none;-inkscape-font-specification:ComicSpice Bold;font-family:ComicSpice;font-weight:bold;font-style:normal;font-stretch:normal;font-variant:normal"><tspan
           style="font-size:80.40014648000000363px;line-height:100%;letter-spacing:4.88345098000000011px;stroke:#ffffff;stroke-width:2.66678286000000009;stroke-miterlimit:4;stroke-opacity:1;stroke-dasharray:none;-inkscape-font-specification:ComicSpice Bold;font-family:ComicSpice;font-weight:bold;font-style:normal;font-stretch:normal;font-variant:normal"
           id="tspan4617-9">Bót!</tspan></tspan></text>
    <text
       xml:space="preserve"
       style="font-style:normal;font-variant:normal;font-weight:normal;font-stretch:normal;line-height:0%;letter-spacing:0px;word-spacing:0px;fill:#ffffff;fill-opacity:1;stroke:#000000;stroke-width:0.48148537;stroke-miterlimit:4;stroke-opacity:1;stroke-dasharray:none;display:inline;filter:url(#filter4375-4-1-1-1-9-5-8-3-8);font-family:Lavi;-inkscape-font-specification:Lavi"
       x="787.65729"
       y="1584.5073"
       id="text4580-6-0-8-8"
       transform="matrix(1.5492299,-0.0813593,-0.87667877,1.9075458,1570.733,-1836.1775)"
       sodipodi:linespacing="0%"><tspan
         sodipodi:role="line"
         id="tspan4582-1-1-8-2"
         x="787.65729"
         y="1584.5073"
         style="font-size:70px;font-style:normal;font-variant:normal;font-weight:bold;font-stretch:normal;line-height:1.25;letter-spacing:5.87610865px;fill:#ffffff;fill-opacity:1;stroke:#000000;stroke-width:0.48148537;stroke-opacity:1;font-family:Noto Sans;-inkscape-font-specification:Noto Sans Bold"><tspan
           style="font-size:114.73223114px;font-style:normal;font-variant:normal;font-weight:bold;font-stretch:normal;letter-spacing:5.87610865px;fill:#ffffff;fill-opacity:1;stroke:#000000;stroke-width:0.48148537;stroke-opacity:1;font-family:Noto Sans;-inkscape-font-specification:Noto Sans Bold"
           id="tspan4313-2-76-0">HIỆN!</tspan></tspan></text>
    <text
       xml:space="preserve"
       style="font-style:normal;font-variant:normal;font-weight:normal;font-stretch:normal;line-height:0%;letter-spacing:0px;word-spacing:0px;fill:#000000;fill-opacity:1;stroke:#ffffff;stroke-width:4.21925974;stroke-miterlimit:4;stroke-opacity:1;stroke-dasharray:none;filter:url(#filter4375-4-1-1-1-9-0-5);font-family:Lavi;-inkscape-font-specification:Lavi"
       x="787.65729"
       y="1584.5073"
       id="text4580-25-2"
       transform="matrix(0.37191843,0.11061463,-0.38324889,0.61702867,2371.8774,1301.4149)"
       sodipodi:linespacing="0%"><tspan
         sodipodi:role="line"
         id="tspan4582-4-7"
         x="787.65729"
         y="1584.5073"
         style="font-size:80.40014648px;font-style:normal;font-variant:normal;font-weight:bold;font-stretch:normal;line-height:100%;letter-spacing:4.88345098px;fill:#ffffff;stroke:#ffffff;stroke-width:4.21925974;stroke-miterlimit:4;stroke-opacity:1;stroke-dasharray:none;font-family:Noto Sans;-inkscape-font-specification:Noto Sans Bold">QUÉT!</tspan></text>
    <text
       xml:space="preserve"
       style="font-size:15.89058971px;font-style:normal;font-variant:normal;font-weight:normal;font-stretch:normal;text-align:center;line-height:0%;letter-spacing:0px;word-spacing:0px;text-anchor:middle;fill:#000000;fill-opacity:1;stroke:none;font-family:ComicSpice;-inkscape-font-specification:ComicSpice"
       x="685.59564"
       y="2895.5073"
       id="text4246-1-3-2-8-3-3"
       transform="scale(0.99789912,1.0021053)"
       sodipodi:linespacing="0%"><tspan
         sodipodi:role="line"
         style="font-size:46.66666794px;font-style:normal;font-variant:normal;font-weight:bold;font-stretch:normal;line-height:1.25;font-family:ComicSpice;-inkscape-font-specification:ComicSpice"
         x="685.59564"
         y="2895.5073"
         id="tspan829-7-6">Cả hai!</tspan></text>
    <text
       xml:space="preserve"
       style="font-size:15.89058971px;font-style:normal;font-variant:normal;font-weight:normal;font-stretch:normal;text-align:center;line-height:0%;letter-spacing:0px;word-spacing:0px;text-anchor:middle;fill:#000000;fill-opacity:1;stroke:none;font-family:ComicSpice;-inkscape-font-specification:ComicSpice"
       x="719.39069"
       y="2985.6943"
       id="text4246-1-3-2-8-3-3-7"
       transform="scale(0.99789912,1.0021053)"
       sodipodi:linespacing="0%"><tspan
         sodipodi:role="line"
         style="font-size:46.66666794px;font-style:normal;font-variant:normal;font-weight:bold;font-stretch:normal;line-height:1.25;font-family:ComicSpice;-inkscape-font-specification:ComicSpice"
         x="719.39069"
         y="2985.6943"
         id="tspan829-7-6-5">TỚI ĐÂY!</tspan></text>
    <text
       xml:space="preserve"
       style="font-size:15.89058971px;font-style:normal;font-variant:normal;font-weight:normal;font-stretch:normal;text-align:center;line-height:0%;letter-spacing:0px;word-spacing:0px;text-anchor:middle;fill:#000000;fill-opacity:1;stroke:none;font-family:ComicSpice;-inkscape-font-specification:ComicSpice"
       x="713.04907"
       y="3070.9504"
       id="text4246-1-3-2-8-36-2"
       transform="scale(0.99789912,1.0021053)"
       sodipodi:linespacing="0%"><tspan
         sodipodi:role="line"
         style="font-size:46.66666794px;font-style:normal;font-variant:normal;font-weight:bold;font-stretch:normal;line-height:1.25;font-family:ComicSpice;-inkscape-font-specification:ComicSpice"
         x="713.04907"
         y="3070.9504"
         id="tspan1020-8">Ngay lập tức!</tspan></text>
  </g>
</svg>
