<?xml version="1.0" encoding="UTF-8" standalone="no"?>
<!-- Created with Inkscape (http://www.inkscape.org/) -->

<svg
   xmlns:dc="http://purl.org/dc/elements/1.1/"
   xmlns:cc="http://creativecommons.org/ns#"
   xmlns:rdf="http://www.w3.org/1999/02/22-rdf-syntax-ns#"
   xmlns:svg="http://www.w3.org/2000/svg"
   xmlns="http://www.w3.org/2000/svg"
   xmlns:xlink="http://www.w3.org/1999/xlink"
   xmlns:sodipodi="http://sodipodi.sourceforge.net/DTD/sodipodi-0.dtd"
   xmlns:inkscape="http://www.inkscape.org/namespaces/inkscape"
   id="svg2"
   version="1.1"
   inkscape:version="0.92.1 r15371"
   width="2481"
   height="3503"
   sodipodi:docname="E28P07.svg">
  <metadata
     id="metadata8">
    <rdf:RDF>
      <cc:Work
         rdf:about="">
        <dc:format>image/svg+xml</dc:format>
        <dc:type
           rdf:resource="http://purl.org/dc/dcmitype/StillImage" />
        <dc:title />
      </cc:Work>
    </rdf:RDF>
  </metadata>
  <defs
     id="defs6" />
  <sodipodi:namedview
     pagecolor="#ffffff"
     bordercolor="#666666"
     borderopacity="1"
     objecttolerance="10"
     gridtolerance="10"
     guidetolerance="10"
     inkscape:pageopacity="0"
     inkscape:pageshadow="2"
     inkscape:window-width="1920"
     inkscape:window-height="1027"
     id="namedview4"
     showgrid="false"
     inkscape:zoom="0.51498715"
     inkscape:cx="1259.468"
     inkscape:cy="664.09423"
     inkscape:window-x="-8"
     inkscape:window-y="-8"
     inkscape:window-maximized="1"
     inkscape:current-layer="layer1" />
  <g
     inkscape:groupmode="layer"
     id="layer2"
     inkscape:label="artwork"
     sodipodi:insensitive="true">
    <image
       sodipodi:absref="C:\Users\rumiko\Desktop\lang\ja\../gfx_Pepper-and-Carrot_by-David-Revoy_E28P07.png"
       xlink:href="../gfx_Pepper-and-Carrot_by-David-Revoy_E28P07.png"
       width="2481"
       height="3503"
       id="image10"
       x="0"
       y="0" />
  </g>
  <g
     inkscape:groupmode="layer"
     id="layer3"
     inkscape:label="speechbubbles">
    <path
       style="fill:#ffffff;fill-rule:evenodd;stroke:none;stroke-width:1.02412319px;stroke-linecap:butt;stroke-linejoin:miter;stroke-opacity:1"
       d="m 139.4599,121.22267 c 58.20387,-40.331457 160.13208,-40.213486 216.01266,-39.203483 55.88058,1.010003 192.35159,0.028 224.826,24.755293 32.4744,24.72731 53.81219,26.83728 52.90585,81.99881 -0.90633,55.16154 -14.50788,82.50468 -52.76262,109.40221 -38.25473,26.89754 -189.60263,32.78357 -232.36316,33.73502 -42.76053,0.95144 -149.5344,-4.42705 -182.03715,-27.43055 -32.50273,-23.00348 -61.40681,-64.90935 -59.19681,-99.35561 2.21002,-34.44625 14.2813,-68.71428 32.61523,-83.90169 z"
       id="path1035"
       inkscape:connector-curvature="0" />
    <path
       style="fill:#ffffff;fill-rule:evenodd;stroke:none;stroke-width:1px;stroke-linecap:butt;stroke-linejoin:miter;stroke-opacity:1"
       d="m 196.4271,253.96422 c -32.89449,39.47339 -40.41323,56.39055 -51.69134,74.24756 -11.27811,17.85701 -8.45859,59.21009 6.57889,70.4882 15.03749,11.27811 23.49607,17.857 15.97733,33.83433 -7.51874,15.97732 -7.37083,33.58627 -0.79194,42.9847 6.5789,9.39842 29.92706,24.68396 29.92706,24.68396 0,0 -21.13136,-17.00501 -23.34412,-22.26143 -3.75295,-8.91514 -2.08603,-20.48379 2.61318,-28.94238 4.69922,-8.45858 19.28439,-35.64147 -2.76513,-53.11871 -14.61974,-11.58813 -21.61638,-35.71402 -1.87968,-65.78898 19.73669,-30.07496 90.22489,-81.76631 90.22489,-81.76631 z"
       id="path1037"
       inkscape:connector-curvature="0"
       sodipodi:nodetypes="csssccscsscc" />
    <path
       style="fill:#ffffff;fill-rule:evenodd;stroke:none;stroke-width:1px;stroke-linecap:butt;stroke-linejoin:miter;stroke-opacity:1"
       d="m 130.35844,964.16004 c 21.57561,-58.77799 57.24044,-64.43345 111.48553,-68.49367 54.24509,-4.06022 250.01301,-11.09272 297.68294,4.54269 47.66992,15.63538 60.9673,35.48167 74.75356,74.88863 12.01477,34.34331 15.49807,106.82091 3.99153,131.38631 -11.50653,24.5657 -31.32227,56.117 -80.63599,58.6079 -49.31371,2.4909 -291.42364,3.8921 -321.01187,3.4063 -29.58823,-0.4858 -87.21106,-16.391 -98.71767,-61.1381 -11.50654,-44.7468 -9.12363,-84.4221 12.45197,-143.20006 z"
       id="path1039"
       inkscape:connector-curvature="0"
       sodipodi:nodetypes="zsssccssz" />
    <path
       style="fill:#ffffff;fill-rule:evenodd;stroke:none;stroke-width:1px;stroke-linecap:butt;stroke-linejoin:miter;stroke-opacity:1"
       d="m 197.23517,923.5374 c -17.7664,-36.95411 -18.47706,-61.82707 -3.55328,-69.64429 14.92378,-7.81721 21.31968,-12.7918 12.79181,-21.31968 -8.52787,-8.52787 -16.34509,-27.71558 -9.94919,-39.08608 6.39591,-11.37049 16.34509,-17.05574 26.29428,-18.47705 -15.63444,9.23852 -19.89837,17.05574 -19.18772,25.58361 0.71066,8.52787 2.84263,19.18771 12.79181,25.58362 9.94919,6.3959 23.45165,22.74099 2.13197,39.08608 -21.31968,16.34509 43.35002,66.09101 43.35002,66.09101 z"
       id="path1041"
       inkscape:connector-curvature="0" />
    <path
       style="fill:#ffffff;fill-rule:evenodd;stroke:none;stroke-width:1.03257966px;stroke-linecap:butt;stroke-linejoin:miter;stroke-opacity:1"
       d="m 1794.8105,188.73057 c 11.5407,-30.89516 37.1867,-41.58964 53.8565,-43.96619 16.6698,-2.37655 58.9857,1.18827 83.3493,2.37655 24.3637,1.18827 98.7369,1.18827 105.1483,0 6.4116,-1.18828 112.8421,7.12965 128.2298,4.7531 15.3875,-2.37655 53.9928,-4.4733 71.945,-2.09675 17.9521,2.37655 47.4451,20.20068 50.0096,29.70689 2.5646,9.5062 8.8397,25.86225 3.7104,41.30983 -5.129,15.44758 -35.9042,32.08343 -66.6794,40.40137 -30.7752,8.31792 -119.2536,1.18827 -132.0766,-1.18829 -12.823,-2.37654 -58.9856,-10.69447 -84.6315,-5.94136 -25.646,4.75309 -98.7369,11.88274 -138.4881,7.12965 -39.7512,-4.75311 -73.091,-19.01241 -74.3733,-33.27171 -1.2822,-14.25931 -3.8469,-10.69448 0,-39.21309 z"
       id="path1043"
       inkscape:connector-curvature="0"
       sodipodi:nodetypes="csscssccsccscc" />
    <path
       style="fill:#ffffff;fill-rule:evenodd;stroke:none;stroke-width:1px;stroke-linecap:butt;stroke-linejoin:miter;stroke-opacity:1"
       d="m 1944.3016,233.0595 c -22.8961,17.75617 -71.9593,58.40848 -78.0338,64.01569 -6.0744,5.60722 -9.8126,23.83066 4.2055,19.15798 14.018,-4.67267 32.2414,-13.0835 37.8487,-14.01803 5.6072,-0.93454 9.8126,-1.86907 13.5507,-1.4018 -18.2234,4.20541 -68.2211,21.49432 -96.7244,92.51903 35.5123,-65.4175 80.37,-77.0992 89.2481,-80.37007 8.8781,-3.27088 23.8307,-7.47629 24.298,-14.95257 0.4672,-7.47629 -9.8127,-14.95257 -27.5688,-10.27989 22.4288,-13.08351 59.343,-45.32499 73.8283,-45.32499 14.4853,0 -40.6523,-9.34535 -40.6523,-9.34535 z"
       id="path1045"
       inkscape:connector-curvature="0" />
    <path
       style="fill:#ffffff;fill-rule:evenodd;stroke:none;stroke-width:1.04479074px;stroke-linecap:butt;stroke-linejoin:miter;stroke-opacity:1"
       d="m 210.95062,1362.7906 c 37.22801,-28.0194 50.02516,-26.1515 65.14906,-28.9534 15.12387,-2.8018 130.29809,-6.5378 152.40224,-4.6699 22.10415,1.8681 120.9911,9.3398 152.40226,35.4912 31.41113,26.1515 61.65892,48.5669 58.1688,87.794 -3.49014,39.2271 -12.79715,110.2096 -33.73791,133.5589 -20.94078,23.3495 -66.31243,39.2272 -117.50097,47.633 -51.18855,8.4058 -198.93731,-3.7359 -221.04145,-5.6039 -22.10414,-1.8679 -75.61944,-19.6136 -93.07006,-42.963 -17.45065,-23.3495 -43.04493,-75.6523 -34.90129,-110.2095 8.14363,-34.5571 27.92102,-81.2562 72.12932,-112.0774 z"
       id="path1047"
       inkscape:connector-curvature="0" />
    <path
       style="fill:#ffffff;fill-rule:evenodd;stroke:none;stroke-width:1.10279596px;stroke-linecap:butt;stroke-linejoin:miter;stroke-opacity:1"
       d="m 249.7199,1608.4597 c 54.62154,-22.9051 88.32419,-25.7681 119.70251,-27.6769 31.37834,-1.9088 102.27013,0.9543 135.97278,13.3612 33.70266,12.4069 56.94586,36.2663 65.08098,48.6732 8.13512,12.4068 15.10809,52.4905 2.32433,70.6237 -12.78377,18.133 -55.78371,44.8555 -81.35124,53.4449 -25.56752,8.5894 -138.29709,11.4525 -184.7835,0 -46.48642,-11.4525 -80.18907,-29.5856 -91.81068,-55.3537 -11.62161,-25.7681 -11.62161,-82.0762 34.86482,-103.0724 z"
       id="path1049"
       inkscape:connector-curvature="0" />
    <path
       style="fill:#ffffff;fill-rule:evenodd;stroke:none;stroke-width:1px;stroke-linecap:butt;stroke-linejoin:miter;stroke-opacity:1"
       d="m 571.51827,1489.8102 c 22.69719,-37.8287 85.61623,-110.0078 124.52571,-129.4625 38.90949,-19.4548 94.88053,-25.0946 113.25446,-22.933 15.70987,1.7353 35.90084,19.0754 55.12176,42.152 -15.13146,-30.263 -47.25978,-48.6478 -52.66387,-49.7286 -18.40862,-4.2887 -108.87383,-25.5751 -222.35983,69.5369 -113.48599,95.1121 -51.38362,121.779 -51.38362,121.779 z"
       id="path1051"
       inkscape:connector-curvature="0"
       sodipodi:nodetypes="cccccscc" />
    <path
       style="fill:#ffffff;fill-rule:evenodd;stroke:none;stroke-width:0.94600838px;stroke-linecap:butt;stroke-linejoin:miter;stroke-opacity:1"
       d="m 165.3529,2222.383 c -1.5114,-31.4542 28.71667,-42.3423 54.41053,-45.9716 25.69386,-3.6294 114.86667,-3.6294 129.9807,-1.2098 15.11403,2.4195 104.28684,0 122.42368,1.2098 18.13684,1.2097 77.08157,9.6782 87.66141,31.4543 10.57982,21.776 25.69385,27.8249 10.57982,48.3912 -15.11404,20.5663 -33.25088,38.713 -95.21843,43.5521 -61.96753,4.8392 -194.97104,1.2098 -250.89297,-10.888 -55.92193,-12.0978 -58.94474,-36.2934 -58.94474,-66.538 z"
       id="path1053"
       inkscape:connector-curvature="0" />
    <path
       style="fill:#ffffff;fill-rule:evenodd;stroke:none;stroke-width:1px;stroke-linecap:butt;stroke-linejoin:miter;stroke-opacity:1"
       d="m 348.19942,2246.5661 c -29.42116,45.7663 -39.16091,33.6645 -43.24718,61.4512 -4.08627,27.7866 9.73975,53.7817 22.81582,64.406 13.07607,10.6243 34.32468,25.3349 15.52783,41.68 -18.79685,16.3451 -40.04547,26.1521 -35.95919,72.7356 4.08627,46.5835 21.24861,49.0353 27.78665,53.1215 -25.33489,-10.1025 -30.23842,-73.5529 -15.52784,-93.167 14.71058,-19.6141 16.91712,-15.0754 32.69018,-26.1521 13.88076,-9.7478 27.00207,-30.3114 -3.85728,-57.4442 -30.85936,-27.1329 -14.46952,-78.6996 28.77766,-101.4055 85.22691,-44.7462 -29.00665,-15.2255 -29.00665,-15.2255 z"
       id="path1055"
       inkscape:connector-curvature="0"
       sodipodi:nodetypes="csssscsszsc" />
    <path
       style="fill:#ffffff;fill-rule:evenodd;stroke:none;stroke-width:0.99320918px;stroke-linecap:butt;stroke-linejoin:miter;stroke-opacity:1"
       d="m 809.43922,2233.5425 c 25.53242,-51.8725 53.52609,-57.7001 91.72949,-65.9004 82.78977,-9.5251 153.09259,3.1037 232.52299,0.297 41.1247,-1.5256 97.2884,19.8337 115.6921,47.2955 18.404,27.4619 46.8394,109.8475 40.321,135.7837 -6.5184,25.9363 -18.5233,94.5911 -46.1203,112.8989 -27.597,18.3079 -47.9854,35.0903 -94.6021,39.6673 -46.6167,4.5769 -223.47398,7.6283 -244.82618,6.1026 -21.35224,-1.5257 -82.80266,-24.4106 -100.31685,-71.7061 -17.51419,-47.2954 -19.65884,-158.6686 5.59985,-204.4385 z"
       id="path1057"
       inkscape:connector-curvature="0"
       sodipodi:nodetypes="cccscssssc" />
    <path
       style="fill:#ffffff;fill-rule:evenodd;stroke:none;stroke-width:1px;stroke-linecap:butt;stroke-linejoin:miter;stroke-opacity:1"
       d="m 1078.5698,2470.4285 c 7.4155,31.516 12.9772,52.5267 19.7748,59.9423 6.7976,7.4155 22.8646,14.2131 33.3699,15.449 10.5054,1.236 21.0107,6.1796 6.1796,23.4826 -14.831,17.3029 -1.8538,54.9986 45.1112,57.4704 -46.965,-11.7413 -43.8752,-47.583 -27.8082,-54.3806 16.067,-6.7976 20.3927,-39.5496 -16.685,-50.6729 -32.752,-8.6514 -11.1233,-129.7719 -11.1233,-129.7719 z"
       id="path1059"
       inkscape:connector-curvature="0" />
  </g>
  <g
     inkscape:groupmode="layer"
     id="layer1"
     inkscape:label="txt"
     style="opacity:1">
    <text
       xml:space="preserve"
       style="font-style:normal;font-variant:normal;font-weight:normal;font-stretch:normal;line-height:0%;font-family:'Rounded M+ 1c';letter-spacing:0px;word-spacing:0px;text-anchor:middle;fill:#000000;fill-opacity:1;stroke:none"
       x="375.40958"
       y="165.38466"
       id="text4246"><tspan
         sodipodi:role="line"
         style="font-size:45px;line-height:1.20000005"
         x="375.40958"
         y="165.38466"
         id="tspan4252">食事をするのに</tspan><tspan
         sodipodi:role="line"
         style="font-size:45px;line-height:1.20000005"
         x="375.40958"
         y="219.38466"
         id="tspan67">こそこそしないと</tspan><tspan
         sodipodi:role="line"
         style="font-size:45px;line-height:1.20000005"
         x="375.40958"
         y="273.38467"
         id="tspan825">いけないなんて 変よね</tspan></text>
    <text
       xml:space="preserve"
       style="font-style:normal;font-variant:normal;font-weight:normal;font-stretch:normal;line-height:0%;font-family:'Rounded M+ 1c';letter-spacing:0px;word-spacing:0px;text-anchor:middle;fill:#000000;fill-opacity:1;stroke:none"
       x="364.70901"
       y="938.82678"
       id="text4246-3"><tspan
         sodipodi:role="line"
         style="font-size:45px;line-height:1.20000005"
         x="364.70901"
         y="938.82678"
         id="tspan825-5">でも 「人間らしい</tspan><tspan
         sodipodi:role="line"
         style="font-size:45px;line-height:1.20000005"
         x="364.70901"
         y="992.82678"
         id="tspan75">基本的要求のない</tspan><tspan
         sodipodi:role="line"
         style="font-size:45px;line-height:1.20000005"
         x="364.70901"
         y="1046.8268"
         id="tspan77">純粋な精霊のように</tspan><tspan
         sodipodi:role="line"
         style="font-size:45px;line-height:1.20000005"
         x="364.70901"
         y="1100.8268"
         id="tspan87">ふるまうべし」</tspan><tspan
         sodipodi:role="line"
         style="font-size:45px;line-height:1.20000005"
         x="364.70901"
         y="1154.8268"
         id="tspan91">という教えだから</tspan></text>
    <text
       xml:space="preserve"
       style="font-style:normal;font-variant:normal;font-weight:normal;font-stretch:normal;line-height:0%;font-family:'Rounded M+ 1c';letter-spacing:0px;word-spacing:0px;text-anchor:middle;fill:#000000;fill-opacity:1;stroke:none"
       x="2047.1042"
       y="217.40169"
       id="text4246-3-3"><tspan
         sodipodi:role="line"
         style="font-size:45px;line-height:1.20000005"
         x="2047.1042"
         y="217.40169"
         id="tspan868-9">あら！ここにいたのね！</tspan></text>
    <text
       xml:space="preserve"
       style="font-style:normal;font-variant:normal;font-weight:normal;font-stretch:normal;line-height:0%;font-family:'Rounded M+ 1c';letter-spacing:0px;word-spacing:0px;text-anchor:middle;fill:#000000;fill-opacity:1;stroke:none"
       x="391.99753"
       y="1404.5085"
       id="text4246-3-3-1"><tspan
         sodipodi:role="line"
         style="font-size:45px;line-height:1.20000005"
         x="391.99753"
         y="1404.5085"
         id="tspan924">やっと！</tspan><tspan
         sodipodi:role="line"
         style="font-size:45px;line-height:1.20000005"
         x="391.99753"
         y="1458.5085"
         id="tspan103">カメラマンたちが</tspan><tspan
         sodipodi:role="line"
         style="font-size:45px;line-height:1.20000005"
         x="391.99753"
         y="1512.5085"
         id="tspan105">いないところに</tspan><tspan
         sodipodi:role="line"
         style="font-size:45px;line-height:1.20000005"
         x="391.99753"
         y="1566.5085"
         id="tspan928">来られたわ</tspan></text>
    <text
       xml:space="preserve"
       style="font-style:normal;font-variant:normal;font-weight:normal;font-stretch:normal;line-height:0%;font-family:'Rounded M+ 1c';letter-spacing:0px;word-spacing:0px;text-anchor:middle;fill:#000000;fill-opacity:1;stroke:none"
       x="390.59467"
       y="1635.9084"
       id="text4246-3-3-1-7"><tspan
         sodipodi:role="line"
         style="font-size:45px;line-height:1.20000005"
         x="390.59467"
         y="1640.2284"
         id="tspan101" /><tspan
         sodipodi:role="line"
         style="font-size:45px;line-height:1.20000005"
         x="390.59467"
         y="1679.1084"
         id="tspan121">追いかけられて</tspan><tspan
         sodipodi:role="line"
         style="font-size:45px;line-height:1.20000005"
         x="390.59467"
         y="1733.1084"
         id="tspan56">嫌だったのよ</tspan></text>
    <text
       xml:space="preserve"
       style="font-style:normal;font-variant:normal;font-weight:normal;font-stretch:normal;line-height:0%;font-family:'Rounded M+ 1c';letter-spacing:0px;word-spacing:0px;text-anchor:middle;fill:#000000;fill-opacity:1;stroke:none"
       x="370.32666"
       y="2251.155"
       id="text4246-3-3-1-7-0"><tspan
         sodipodi:role="line"
         style="font-size:45px;line-height:1.20000005"
         x="370.32666"
         y="2251.155"
         id="tspan966-2">カメラマン?</tspan></text>
    <text
       xml:space="preserve"
       style="font-style:normal;font-variant:normal;font-weight:normal;font-stretch:normal;line-height:0%;font-family:'Rounded M+ 1c';letter-spacing:0px;word-spacing:0px;text-anchor:middle;fill:#000000;fill-opacity:1;stroke:none"
       x="1037.3441"
       y="2243.0564"
       id="text4246-3-3-1-7-0-6"><tspan
         sodipodi:role="line"
         style="font-size:45px;line-height:1.20000005"
         x="1037.3441"
         y="2243.0564"
         id="tspan966-2-1">こんなものを</tspan><tspan
         sodipodi:role="line"
         style="font-size:45px;line-height:1.20000005"
         x="1037.3441"
         y="2297.0564"
         id="tspan125">頭にのせたまま</tspan><tspan
         sodipodi:role="line"
         style="font-size:45px;line-height:1.20000005"
         x="1037.3441"
         y="2351.0564"
         id="tspan129">政治家の退屈な議論から</tspan><tspan
         sodipodi:role="line"
         style="font-size:45px;line-height:1.20000005"
         x="1037.3441"
         y="2405.0564"
         id="tspan58">抜け出そうとする方が</tspan><tspan
         sodipodi:role="line"
         style="font-size:45px;line-height:1.20000005"
         x="1037.3441"
         y="2420.1765"
         id="tspan137" /><tspan
         sodipodi:role="line"
         style="font-size:45px;line-height:1.20000005"
         x="1037.3441"
         y="2459.0564"
         id="tspan1023">大変よ</tspan></text>
    <text
       xml:space="preserve"
       style="font-style:normal;font-variant:normal;font-weight:normal;font-stretch:normal;font-size:13.67166328px;line-height:0%;font-family:'Rounded M+ 1c';letter-spacing:0px;word-spacing:0px;text-anchor:middle;fill:#ffffff;fill-opacity:0.43137255;stroke:#ffffff;stroke-width:0.41015574;stroke-miterlimit:4;stroke-dasharray:none;stroke-opacity:1"
       x="1667.3146"
       y="2589.2334"
       id="text4246-8"
       transform="matrix(0.89761483,-0.24846861,0.02683826,1.1066345,0,0)"><tspan
         sodipodi:role="line"
         style="font-size:35.04694366px;line-height:1.25;fill:#ffffff;fill-opacity:0.43137255;stroke:#ffffff;stroke-width:0.41015574;stroke-miterlimit:4;stroke-dasharray:none;stroke-opacity:1"
         x="1667.3146"
         y="2589.2334"
         id="tspan1033">ポリポリ</tspan></text>
  </g>
</svg>
