<?xml version="1.0" encoding="UTF-8" standalone="no"?>
<!-- Created with Inkscape (http://www.inkscape.org/) -->

<svg
   xmlns:dc="http://purl.org/dc/elements/1.1/"
   xmlns:cc="http://creativecommons.org/ns#"
   xmlns:rdf="http://www.w3.org/1999/02/22-rdf-syntax-ns#"
   xmlns:svg="http://www.w3.org/2000/svg"
   xmlns="http://www.w3.org/2000/svg"
   xmlns:xlink="http://www.w3.org/1999/xlink"
   xmlns:sodipodi="http://sodipodi.sourceforge.net/DTD/sodipodi-0.dtd"
   xmlns:inkscape="http://www.inkscape.org/namespaces/inkscape"
   id="svg2"
   version="1.1"
   inkscape:version="0.92.2 2405546, 2018-03-11"
   width="2481"
   height="3503"
   sodipodi:docname="E24P01.svg">
  <metadata
     id="metadata8">
    <rdf:RDF>
      <cc:Work
         rdf:about="">
        <dc:format>image/svg+xml</dc:format>
        <dc:type
           rdf:resource="http://purl.org/dc/dcmitype/StillImage" />
        <dc:title />
      </cc:Work>
    </rdf:RDF>
  </metadata>
  <defs
     id="defs6">
    <filter
       style="color-interpolation-filters:sRGB"
       id="filter4375-4-1-1-1-9"
       inkscape:label="deevad outline effect">
      <feFlood
         id="feFlood4377-7-9-0-8-1"
         flood-opacity="1"
         flood-color="rgb(0,0,0)"
         result="flood" />
      <feComposite
         id="feComposite4379-3-8-8-2-77"
         in2="SourceGraphic"
         in="flood"
         operator="in"
         result="composite1" />
      <feMorphology
         id="feMorphology4393-1-0-49-8-9"
         operator="dilate"
         radius="4"
         result="result3" />
      <feComposite
         id="feComposite4385-9-5-7-0-8"
         in2="result3"
         in="SourceGraphic"
         operator="over"
         result="composite2" />
    </filter>
  </defs>
  <sodipodi:namedview
     pagecolor="#ffffff"
     bordercolor="#666666"
     borderopacity="1"
     objecttolerance="10"
     gridtolerance="10"
     guidetolerance="10"
     inkscape:pageopacity="0"
     inkscape:pageshadow="2"
     inkscape:window-width="1366"
     inkscape:window-height="713"
     id="namedview4"
     showgrid="false"
     inkscape:zoom="0.34782609"
     inkscape:cx="1276.2818"
     inkscape:cy="834.67456"
     inkscape:window-x="-8"
     inkscape:window-y="-8"
     inkscape:window-maximized="1"
     inkscape:current-layer="layer1"
     inkscape:snap-global="false" />
  <g
     inkscape:groupmode="layer"
     id="layer2"
     inkscape:label="artwork"
     sodipodi:insensitive="true">
    <image
       sodipodi:absref="/home/midgard/git/peppercarrot/comics/ep24_The-Unity-Tree/lang/id/../gfx_Pepper-and-Carrot_by-David-Revoy_E24P01.png"
       xlink:href="../gfx_Pepper-and-Carrot_by-David-Revoy_E24P01.png"
       y="0"
       x="0"
       id="image10"
       height="3503"
       width="2481" />
  </g>
  <g
     inkscape:groupmode="layer"
     id="layer3"
     inkscape:label="speechbubbles">
    <path
       style="fill:#ffffff;fill-rule:evenodd;stroke:none;stroke-width:1.23325396px;stroke-linecap:butt;stroke-linejoin:miter;stroke-opacity:1"
       d="m 517.74762,418.61473 c 36.90723,13.1898 70.2688,21.39023 58.92653,-33.31657 65.32819,74.27265 55.9569,23.40595 66.29237,5.55271 38.83996,52.46595 72.25863,44.98919 101.27994,-11.10545 16.40619,80.91386 50.73772,41.71053 81.02393,29.61471 -0.0746,22.75426 -8.34319,48.84604 81.02403,35.16758 -25.55242,20.55101 -35.08357,39.20739 22.09745,49.97499 -39.72054,16.52367 -61.53434,34.10613 -18.41459,55.52784 -22.90704,31.20633 -7.58591,49.75213 23.93894,62.9314 -73.81281,1.82508 -83.39817,4.85607 -71.5562,21.03024 -62.84369,-33.254 -44.27498,-5.80304 -38.93104,19.69006 -29.25007,-14.62407 -50.8697,-49.18953 -103.12136,-3.70174 -15.54025,-15.09669 -29.86496,-34.16393 -64.45091,12.95642 -2.4398,-41.10189 -27.72642,-39.55568 -64.45094,-16.65829 -9.68628,-38.54594 -46.0586,-18.97489 -84.70688,5.55284 31.54581,-37.62166 33.83176,-69.05152 -27.62181,-86.99354 59.55368,-21.52231 48.70944,-38.88238 25.78035,-55.52772 22.65323,-15.65252 37.42338,-32.70318 -22.09742,-62.93152 34.80035,4.69941 71.85462,10.75818 34.98761,-27.76396 z"
       id="path4582"
       inkscape:connector-curvature="0"
       sodipodi:nodetypes="ccccccccccccccccccc" />
    <path
       style="color:#000000;display:inline;overflow:visible;visibility:visible;fill:#ffffff;fill-opacity:1;fill-rule:nonzero;stroke:none;stroke-width:0.99999994px;marker:none;enable-background:accumulate"
       d="m 1120.4405,700.1743 c -32.2265,-17.97546 -75.6905,-29.21797 -94.8601,-55.01638 l -18.7309,38.20697 c -21.19647,-1.31166 -26.2338,-14.07539 -36.75813,-22.95055 l -18.52445,25.72405 C 902.21848,682.47077 878.08971,666.613 844.32571,653.77368 l -19.93547,22.60875 c 41.44339,8.00317 86.22663,23.6167 121.36515,31.70826 l 22.07602,-17.34663 c 14.0695,3.48337 27.30829,7.5971 36.83679,14.52656 l 23.5694,-31.97386 z"
       id="path4032"
       inkscape:connector-curvature="0"
       sodipodi:nodetypes="cccccccccccc" />
    <path
       style="color:#000000;display:inline;overflow:visible;visibility:visible;fill:#ffffff;fill-opacity:1;fill-rule:nonzero;stroke:none;stroke-width:0.99999994px;marker:none;enable-background:accumulate"
       d="m 1373.3502,1868.2437 c 6.6851,-9.6035 35.5763,-37.7572 31.3268,-2.86 46.4175,-40.2666 78.7953,-19.5262 111.971,-2.2535 11.4973,-12.4731 16.0323,-33.3022 45.1957,-24.5731 -1.9873,-14.0664 9.629,-22.0812 33.3836,-24.6967 -29.027,-12.0387 -33.2191,-21.179 24.6468,-23.0767 -42.759,-6.3379 -82.4984,-13.2357 -27.1003,-37.773 -15.6687,-2.7585 -57.3593,18.2946 -27.5245,-55.0444 -31.1129,20.7342 -62.2582,30.3971 -90.297,-24.8989 -14.441,18.5866 -33.3418,29.9721 -60.9951,-1.4146 -10.1201,18.985 -49.1487,15.6954 -62.7522,9.8432 25.1172,25.8757 21.8709,39.5499 -17.5185,36.7247 58.9158,48.3718 6.4035,35.5263 -5.8106,44.3362 49.1464,20.3406 23.3399,34.5624 11.3904,50.4926 58.9887,8.1069 35.1654,33.0527 34.0839,55.1942 z"
       id="path3549-3"
       inkscape:connector-curvature="0"
       sodipodi:nodetypes="ccccccccccccccc" />
    <path
       style="color:#000000;display:inline;overflow:visible;visibility:visible;fill:#ffffff;fill-opacity:1;fill-rule:nonzero;stroke:none;stroke-width:1.02975047px;marker:none;enable-background:accumulate"
       d="m 1335.6889,1955.3804 c 5.1172,-80.3979 85.041,-144.2941 263.8508,-126.5574 95.7804,9.5006 216.8537,12.2555 210.468,130.0493 -6.3854,117.7933 -174.9845,116.6367 -207.223,118.9251 -32.2388,2.2887 -208.0182,-2.4921 -237.6367,-43.023 -18.5412,-25.3714 -29.8367,-54.4767 -29.4591,-79.394 z"
       id="path4546-6"
       inkscape:connector-curvature="0"
       sodipodi:nodetypes="cssssc" />
    <path
       style="color:#000000;display:inline;overflow:visible;visibility:visible;fill:#ffffff;fill-opacity:1;fill-rule:nonzero;stroke:none;stroke-width:1px;marker:none;enable-background:accumulate"
       d="m 1725.1844,1861.3342 c 6.612,11.2759 86.9477,-29.2003 85.8796,-32.4046 0,0 27.5174,7.7754 31.5141,6.9248 1.9994,-6.4636 4.2729,-17.2204 4.2729,-17.2204 l 43.1705,1.271 -34.6999,8.0734 0.1804,21.2585 -36.6531,-7.0896 c -19.044,13.242 -51.208,25.1719 -50.7716,40.3619 z"
       id="path4448"
       inkscape:connector-curvature="0"
       sodipodi:nodetypes="cccccccccc" />
    <path
       style="color:#000000;display:inline;overflow:visible;visibility:visible;fill:#ffffff;fill-opacity:1;fill-rule:nonzero;stroke:none;stroke-width:1.03798008px;marker:none;enable-background:accumulate"
       d="m 19.414344,3132.3385 c 61.609733,8.7502 56.42181,40.7219 39.65062,51.7591 68.939466,-39.4275 112.771306,-27.0549 77.673386,12.5867 119.89187,-54.414 99.13668,-8.7966 90.34206,15.6266 57.10662,-51.8709 96.1414,-33.2097 119.52162,-1.2377 0.57262,-33.1763 73.18794,-35.0252 96.37438,-11.9745 30.08319,-57.255 61.32024,-39.5941 118.79902,-25.426 -43.65512,-21.5236 -76.67543,-40.4102 40.59357,-67.9522 -62.85237,7.9758 -88.28497,-12.1247 19.76593,-34.3862 -107.12956,-1.0701 -114.6622,-32.1971 -0.90203,-46.7688 -110.49442,0.1061 -107.89274,-20.8688 -57.46586,-47.7167 -77.56037,7.4947 -96.87774,-17.218 -24.45421,-56.7849 -121.37523,35.597 -127.37185,13.6166 -119.26943,-32.2341 -68.47867,50.2046 -62.82805,26.8135 -76.53466,-20.7553 -14.44258,34.9712 -51.59542,61.1034 -128.3258,20.2779 11.82208,22.728 12.43095,47.5717 -92.38474,21.6381 56.09066,27.3283 19.50896,63.2127 -143.904789,62.6027 76.245772,18.0582 167.366039,56.2888 62.783988,61.9257 41.819915,5.9396 52.778385,22.562 50.290762,36.0923 -18.835985,4.3512 -43.857179,8.5633 -76.165444,12.6535 60.918677,12.2894 99.575133,28.0875 3.611627,50.0738 z"
       id="path3549-3-7"
       inkscape:connector-curvature="0"
       sodipodi:nodetypes="ccccccccccccccccccccc" />
    <path
       style="fill:#ffffff;stroke:none;stroke-width:1"
       d="m 1312.0471,2636.6402 c 24.8572,-23.3618 23.0898,-34.098 20.1693,-46.0928 -2.9204,-11.9949 -6.7783,-22.4564 -2.996,-29.6912 3.7822,-7.2345 11.9314,-13.7504 18.5182,-17.7105 6.5867,-3.9602 0.6895,-11.8462 0.1992,-20.4782 -0.4905,-8.632 11.6694,-54.4912 11.6694,-54.4912 0,0 15.4128,29.8223 17.3984,40.7257 1.9857,10.9032 2.7616,14.8752 2.4762,19.5352 -0.2855,4.6599 -2.4809,16.1126 -8.3834,22.0982 -5.9026,5.9855 -13.8607,8.5198 -19.1677,11.9592 -5.307,3.4394 -4.2207,13.2301 -3.7625,22.963 0.4583,9.7331 -0.6146,16.9839 -10.2491,30.0137 -8.2583,11.169 -25.872,21.1689 -25.872,21.1689 z"
       id="path3023-2"
       inkscape:connector-curvature="0"
       sodipodi:nodetypes="csssscssssssc" />
    <path
       style="color:#000000;display:inline;overflow:visible;visibility:visible;fill:#ffffff;fill-opacity:1;fill-rule:nonzero;stroke:none;stroke-width:0.99999994px;marker:none;enable-background:accumulate"
       d="m 1376.9909,3087.5742 c 5.2109,-36.069 14.5234,-83.1655 -40.179,-91.5576 2.7742,1.4246 74.681,-16.1526 71.113,92.3401 -3.568,108.4926 -13.868,120.9339 -13.868,120.9339 z"
       id="path4064"
       inkscape:connector-curvature="0"
       sodipodi:nodetypes="ccscc" />
    <path
       style="color:#000000;display:inline;overflow:visible;visibility:visible;fill:#ffffff;fill-opacity:1;fill-rule:nonzero;stroke:none;stroke-width:1px;marker:none;enable-background:accumulate"
       d="m 1077.2562,3295.7847 c -1.1856,-61.9807 37.6091,-99.5237 45.0474,-104.6787 67.1345,-46.525 276.2566,-29.3302 312.9622,2.7546 30.822,26.1698 37.9349,44.0753 34.3784,67.4904 -3.5564,23.4149 4.9207,82.3463 -38.9414,100.2519 -43.6776,17.8552 -115.9357,13.5862 -226.6023,15.4455 -55.2114,-4.4457 -137.4037,1.54 -126.8443,-81.2637 z"
       id="path3517"
       inkscape:connector-curvature="0"
       sodipodi:nodetypes="cscsccc" />
    <path
       style="color:#000000;display:inline;overflow:visible;visibility:visible;fill:#ffffff;fill-opacity:1;fill-rule:nonzero;stroke:none;stroke-width:0.83618402px;marker:none;enable-background:accumulate"
       d="m 1146.2027,3139.0791 c -1.1746,-22.1089 21.3289,-45.1382 33.0747,-52.213 11.7461,-7.0749 83.0232,-13.9983 110.0387,-13.9983 27.0155,0 141.3233,3.9251 161.2914,19.8435 19.9679,15.9184 43.087,27.9115 30.1666,54.4421 -12.9206,26.5305 -93.9671,39.7959 -111.586,42.4489 -17.6188,2.653 -68.1262,4.4217 -84.5704,3.5375 -16.4443,-0.8845 -141.9387,-17.8022 -138.415,-54.0607 z"
       id="path3357"
       inkscape:connector-curvature="0"
       inkscape:transform-center-x="-251.35553"
       inkscape:transform-center-y="-102.97827"
       sodipodi:nodetypes="ccsscccc" />
    <path
       style="fill:#ffffff;fill-rule:evenodd;stroke:none;stroke-width:0.99999988px;stroke-linecap:butt;stroke-linejoin:miter;stroke-opacity:1"
       d="m 1146.2648,2478.7083 c 8.9148,-23.8569 32.9214,-41.9579 59.049,-54.0414 12.4339,-5.8338 26.6461,-10.1089 41.1894,-8.9844 14.448,0.6719 28.5601,4.6835 43.1678,3.2901 17.7627,-0.4602 35.8372,-2.4681 53.3959,0.401 15.609,3.1306 31.6907,4.752 47.7982,4.846 11.3633,-1.9871 21.7614,3.3092 31.9096,6.4769 9.1104,3.4218 18.4159,7.0119 26.0681,12.3048 7.05,7.4302 15.4914,13.8943 22.6237,21.2583 4.6669,4.0258 4.2185,9.5866 4.0035,14.7331 -0.6061,10.5387 -1.6325,21.2437 -5.4423,31.3969 -2.2798,6.4459 -10.7065,8.5792 -17.1814,11.5412 -15.3207,6.2528 -31.5892,10.9944 -46.2109,18.3527 -14.4858,3.7677 -29.8803,2.0054 -44.7362,1.436 -12.4483,-1.1215 -24.9706,-2.6855 -37.5258,-1.3813 -15.9798,0.9544 -31.9111,3.4258 -47.9482,3.1093 -20.0899,-2.1722 -39.3306,-7.5207 -58.7995,-11.8111 -17.4671,-3.7817 -33.387,-10.8926 -48.6624,-18.4995 -8.1596,-4.3197 -16.7975,-9.3407 -19.6772,-17.3014 -2.3606,-5.4816 -2.9168,-11.3511 -3.0213,-17.1272 z"
       id="path4365"
       inkscape:connector-curvature="0" />
    <path
       style="color:#000000;display:inline;overflow:visible;visibility:visible;fill:#ffffff;fill-opacity:1;fill-rule:nonzero;stroke:none;stroke-width:0.95110011px;marker:none;enable-background:accumulate"
       d="m 2429.703,2353.8356 c -220.1352,5.1236 -413.2002,-1.6843 -539.2741,-2.8391 1.0192,26.5331 -26.0808,20.2021 -51.7366,6.982 20.4254,52.8225 -13.4471,56.9433 -64.7579,31.7921 51.7894,52.6896 -0.1666,45.0822 -63.8949,11.454 61.4504,52.4964 109.2539,101.5295 -11.3243,69.7142 71.4494,34.7601 103.3644,51.4875 37.9144,69.0513 63.6894,20.3436 27.4751,45.6985 -36.1247,49.323 114.0819,31.5097 25.4831,44.4053 -21.0985,54.8179 128.697,17.2106 76.294,41.8003 6.5864,84.4795 80.6205,-13.1152 157.8233,-29.212 76.1624,27.4314 146.2793,-33.0076 102.5458,-6.2675 21.562,48.537 46.251,-16.5345 153.2569,-28.8285 117.5884,14.4241 59.0357,-27.3433 48.7037,-4.2903 44.3344,17.6147 7.7287,-7.1866 33.0062,-50.191 41.2679,-21.0666 15.0605,-21.0205 27.7659,-16.9302 26.1596,12.812 12.9899,-17.2815 43.5943,-35.6663 32.5402,0.6857 19.2424,-36.3736 23.966,-6.6485 14.7559,22.4506 48.107,-56.5466 55.0606,-59.3362 59.4626,3.8854 20.0793,-35.5972 44.13,-71.9305 83.378,-11.1699 0.051,-20.1988 6.8899,-54.4303 71.0099,7.6509 -25.8163,-63.8852 37.4288,-51.4821 64.2122,9.9116 -32.6871,-78.2502 9.4928,-114.4074 62.5885,-32.5961 5.2205,-107.4157 30.1008,-385.4483 28.6882,-475.3457 z"
       id="path4024"
       inkscape:connector-curvature="0"
       sodipodi:nodetypes="cccccccccccccccccccccccc" />
    <path
       style="fill:#ffffff;fill-rule:evenodd;stroke:none;stroke-width:0.99999994px;stroke-linecap:butt;stroke-linejoin:miter;stroke-opacity:1"
       d="m 2320.0189,2966.9466 -102.8737,31.1414 30.781,-65.8394 -54.3109,13.511 54.1541,-185.2705 -83.4186,10.4305 -2.8883,210.3699 46.5569,-15.7553 -28.3923,68.2411 z"
       id="path5002"
       inkscape:connector-curvature="0"
       sodipodi:nodetypes="cccccccccc" />
    <text
       xml:space="preserve"
       style="font-style:normal;font-variant:normal;font-weight:normal;font-stretch:normal;line-height:0%;font-family:Lavi;-inkscape-font-specification:Lavi;letter-spacing:0px;word-spacing:0px;fill:#ffffff;fill-opacity:1;stroke:#000000;stroke-width:0.57625628;stroke-miterlimit:4;stroke-dasharray:none;stroke-opacity:1;filter:url(#filter4375-4-1-1-1-9)"
       x="787.65729"
       y="1584.5073"
       id="text4580"
       transform="matrix(0.47590856,-0.23101257,-0.08785973,0.61214035,2051.4196,1281.2253)"><tspan
         sodipodi:role="line"
         id="tspan4582"
         x="787.65729"
         y="1584.5073"
         style="font-size:70px;line-height:1.25;letter-spacing:5.62810278px;fill:#ffffff;stroke-width:0.57625628;stroke-miterlimit:4;stroke-dasharray:none"><tspan
           style="font-size:61.46733856px"
           id="tspan896">PAF</tspan><tspan
           style="font-size:80.40014648px;letter-spacing:5.62810278px;fill:#ffffff;stroke-width:0.57625628;stroke-miterlimit:4;stroke-dasharray:none"
           id="tspan4617">!</tspan></tspan></text>
    <path
       style="fill:#ffffff;fill-rule:evenodd;stroke:none;stroke-width:1.06021249px;stroke-linecap:butt;stroke-linejoin:miter;stroke-opacity:1"
       d="m 563.51938,686.23612 c 61.33955,-14.49705 52.83109,19.92361 47.13597,52.37398 43.11949,-42.96725 63.03652,-29.41892 70.70399,13.9664 38.35223,-61.3241 67.58716,-30.46104 97.89782,-10.47479 1.16723,-30.13804 19.11888,-45.58246 88.8332,-15.7122 -36.71663,-43.56497 -32.68917,-70.72235 45.32305,-68.08617 -70.55631,-15.74346 -69.61732,-41.5012 -25.38091,-73.32357 -51.75206,26.50254 -85.03365,30.47538 -74.32982,-19.20381 -52.01668,49.0482 -59.52584,18.49996 -68.89106,-8.72899 -21.62806,57.01526 -51.39667,40.34238 -83.39443,3.49159 0.8623,35.53244 -11.63641,56.36054 -68.89105,27.93279 9.80532,25.81008 38.49022,61.40971 -29.00676,47.1366 36.16204,15.17737 49.1111,31.44515 0,50.62817 z"
       id="path907"
       inkscape:connector-curvature="0"
       sodipodi:nodetypes="ccccccccccccc" />
  </g>
  <g
     inkscape:groupmode="layer"
     id="layer1"
     inkscape:label="txt"
     style="display:inline">
    <path
       style="color:#000000;display:inline;overflow:visible;visibility:visible;fill:#ffffff;fill-opacity:1;fill-rule:nonzero;stroke:none;stroke-width:1px;marker:none;enable-background:accumulate"
       d="m 674.92592,3083.1207 c -16.45129,42.7371 -57.34368,52.6864 -79.08413,59.0603 -3.49561,-4.6209 -10.29733,-21.207 -10.29733,-21.207 0,0 -73.99284,20.9972 -91.7304,22.9324 -17.73755,1.9353 -27.60488,-25.996 -27.60488,-25.996 -1.49889,4.9963 104.15858,-3.83 127.4154,-18.4787 8.90084,13.0355 10.12822,16.304 14.99068,21.2359 13.47897,-4.7946 53.36319,-19.1261 66.31066,-37.5469 z"
       id="path4456"
       inkscape:connector-curvature="0"
       sodipodi:nodetypes="cccscccc" />
    <text
       xml:space="preserve"
       style="font-style:normal;font-variant:normal;font-weight:normal;font-stretch:normal;line-height:0%;font-family:Lavi;-inkscape-font-specification:Lavi;text-align:center;letter-spacing:0px;word-spacing:0px;text-anchor:middle;fill:#000000;fill-opacity:1;stroke:none"
       x="704.86694"
       y="514.9978"
       id="text4246"><tspan
         sodipodi:role="line"
         style="font-size:43.66666667px;line-height:1.25"
         x="704.86694"
         y="514.9978"
         id="tspan888">Kau ingin sebuah</tspan><tspan
         sodipodi:role="line"
         style="font-size:43.66666667px;line-height:1.25"
         x="704.86694"
         y="571.2478"
         id="tspan886">pohon persatuan?</tspan></text>
    <text
       xml:space="preserve"
       style="font-style:normal;font-variant:normal;font-weight:normal;font-stretch:normal;line-height:0%;font-family:Lavi;-inkscape-font-specification:Lavi;text-align:center;letter-spacing:0px;word-spacing:0px;text-anchor:middle;fill:#000000;fill-opacity:1;stroke:none"
       x="1575.9264"
       y="1885.9833"
       id="text4246-7"><tspan
         sodipodi:role="line"
         style="font-size:43.66666667px;line-height:1.25"
         x="1575.9264"
         y="1885.9833"
         id="tspan4414">Kami adalah</tspan><tspan
         sodipodi:role="line"
         style="font-size:43.66666667px;line-height:1.25"
         x="1575.9264"
         y="1942.2333"
         id="tspan897">Penyihir Kekacauan;</tspan><tspan
         sodipodi:role="line"
         style="font-size:43.66666667px;line-height:1.25"
         x="1575.9264"
         y="1998.4833"
         id="tspan934">kami TIDAK</tspan><tspan
         sodipodi:role="line"
         style="font-size:43.66666667px;line-height:1.25"
         x="1575.9264"
         y="2054.7334"
         id="tspan899">melakukan ini.</tspan></text>
    <text
       xml:space="preserve"
       style="font-style:normal;font-variant:normal;font-weight:normal;font-stretch:normal;line-height:0%;font-family:Lavi;-inkscape-font-specification:Lavi;text-align:center;letter-spacing:0px;word-spacing:0px;text-anchor:middle;fill:#000000;fill-opacity:1;stroke:none"
       x="320.46054"
       y="3007.9375"
       id="text4246-7-6"><tspan
         sodipodi:role="line"
         style="font-size:45px;line-height:1.25"
         x="320.46054"
         y="3007.9375"
         id="tspan1069">engkau sebaiknya</tspan><tspan
         sodipodi:role="line"
         style="font-size:45px;line-height:1.25"
         x="320.46054"
         y="3064.1875"
         id="tspan912">fokus mempelajari</tspan><tspan
         sodipodi:role="line"
         style="font-size:45px;line-height:1.25"
         x="320.46054"
         y="3120.4375"
         id="tspan914">“Mantra Kehancuran”</tspan></text>
    <text
       xml:space="preserve"
       style="font-style:normal;font-variant:normal;font-weight:normal;font-stretch:normal;line-height:0%;font-family:Lavi;-inkscape-font-specification:Lavi;text-align:center;letter-spacing:0px;word-spacing:0px;text-anchor:middle;fill:#000000;fill-opacity:1;stroke:none"
       x="1309.3973"
       y="2493.7979"
       id="text4246-7-6-2"><tspan
         sodipodi:role="line"
         style="font-size:45px;line-height:1.25"
         x="1309.3973"
         y="2493.7979"
         id="tspan1069-6">Kehancuran?</tspan></text>
    <text
       xml:space="preserve"
       style="font-style:normal;font-variant:normal;font-weight:normal;font-stretch:normal;line-height:0%;font-family:Lavi;-inkscape-font-specification:Lavi;text-align:center;letter-spacing:0px;word-spacing:0px;text-anchor:middle;fill:#000000;fill-opacity:1;stroke:none"
       x="1313.0408"
       y="3145.9551"
       id="text4246-7-6-2-0"><tspan
         sodipodi:role="line"
         style="font-size:45px;line-height:1.25"
         x="1313.0408"
         y="3145.9551"
         id="tspan4434">Saat tahun ini</tspan></text>
    <text
       xml:space="preserve"
       style="font-style:normal;font-variant:normal;font-weight:normal;font-stretch:normal;line-height:0%;font-family:Lavi;-inkscape-font-specification:Lavi;text-align:center;letter-spacing:0px;word-spacing:0px;text-anchor:middle;fill:#000000;fill-opacity:1;stroke:none"
       x="1272.02"
       y="3232.1196"
       id="text4246-7-6-2-0-5"><tspan
         sodipodi:role="line"
         style="font-size:42.55555725px;line-height:1.25"
         x="1272.02"
         y="3232.1196"
         id="tspan4447">Mengapa tidak</tspan><tspan
         sodipodi:role="line"
         style="font-size:42.55555725px;line-height:1.25"
         x="1272.02"
         y="3285.314"
         id="tspan928">belajar mantra</tspan><tspan
         sodipodi:role="line"
         style="font-size:42.55555725px;line-height:1.25"
         x="1278.6693"
         y="3338.5085"
         id="tspan930">penciptaan saja? </tspan></text>
    <text
       xml:space="preserve"
       style="font-style:normal;font-variant:normal;font-weight:normal;font-stretch:normal;font-family:Lavi;-inkscape-font-specification:Lavi;text-align:center;letter-spacing:0px;word-spacing:0px;text-anchor:middle;fill:#000000;fill-opacity:1;stroke:none;stroke-width:1.60000002;stroke-miterlimit:4;stroke-dasharray:none"
       x="2077.4304"
       y="2446.1077"
       id="text4246-7-6-2-04"><tspan
         sodipodi:role="line"
         style="font-size:42.66666794px;line-height:1.25;stroke:none;stroke-width:1.60000002;stroke-miterlimit:4;stroke-dasharray:none"
         x="2084.0972"
         y="2446.1077"
         id="tspan988">Dewan dalam tiga bulan </tspan><tspan
         sodipodi:role="line"
         style="font-size:42.66666794px;line-height:1.25;stroke:none;stroke-width:1.60000002;stroke-miterlimit:4;stroke-dasharray:none"
         x="2084.0972"
         y="2499.4409"
         id="tspan992">berikutnya telah dekat </tspan><tspan
         sodipodi:role="line"
         style="font-size:42.66666794px;line-height:1.25;stroke:none;stroke-width:1.60000002;stroke-miterlimit:4;stroke-dasharray:none"
         x="2077.4304"
         y="2552.7744"
         id="tspan994">dan begitu juga ujian Anda.</tspan><tspan
         sodipodi:role="line"
         style="font-size:42.66666794px;line-height:1.25;stroke:none;stroke-width:1.60000002;stroke-miterlimit:4;stroke-dasharray:none"
         x="2084.0972"
         y="2606.1077"
         id="tspan4986"> Belajar! <tspan
   style="font-size:42.66666794px;line-height:1.25;stroke:#000000;stroke-width:1.60000002;stroke-miterlimit:4;stroke-dasharray:none;stroke-opacity:1"
   id="tspan874">Belajar! BELAJAR!!! </tspan></tspan><tspan
         sodipodi:role="line"
         style="font-size:42.66666794px;line-height:1.25;stroke:#000000;stroke-width:1.60000002;stroke-miterlimit:4;stroke-dasharray:none;stroke-opacity:1"
         x="2077.4304"
         y="2659.4409"
         id="tspan4992">DAN BERHENTI MENGGANGGU</tspan><tspan
         sodipodi:role="line"
         style="font-size:42.66666794px;line-height:1.25;stroke:#000000;stroke-width:1.60000002;stroke-miterlimit:4;stroke-dasharray:none;stroke-opacity:1"
         x="2084.0972"
         y="2712.7744"
         id="tspan4456">DIRI ANDA DENGAN </tspan><tspan
         sodipodi:role="line"
         style="font-size:42.66666794px;line-height:1.25;stroke:#000000;stroke-width:1.60000002;stroke-miterlimit:4;stroke-dasharray:none;stroke-opacity:1"
         x="2077.4304"
         y="2766.1077"
         id="tspan996">IDE BODOH INI!!!</tspan></text>
    <flowRoot
       xml:space="preserve"
       id="flowRoot862"
       style="font-style:normal;font-variant:normal;font-weight:normal;font-stretch:normal;font-size:0.66666669px;line-height:318.00000668%;font-family:Neuropolitical;-inkscape-font-specification:Neuropolitical;text-align:center;letter-spacing:0px;word-spacing:0px;writing-mode:lr-tb;text-anchor:middle;fill:#000000;fill-opacity:1;stroke:none;stroke-width:1px;stroke-linecap:butt;stroke-linejoin:miter;stroke-opacity:1"><flowRegion
         id="flowRegion864"><rect
           id="rect866"
           width="103.5"
           height="5.75"
           x="1181.625"
           y="3275.875" /></flowRegion><flowPara
         id="flowPara868" /></flowRoot>    <text
       xml:space="preserve"
       style="font-style:normal;font-variant:normal;font-weight:normal;font-stretch:normal;font-size:14.71681118px;line-height:0%;font-family:Lavi;-inkscape-font-specification:Lavi;text-align:center;letter-spacing:0px;word-spacing:0px;text-anchor:middle;fill:#000000;fill-opacity:1;stroke:none;stroke-width:1"
       x="844.18347"
       y="682.29504"
       id="text4246-36"
       transform="skewX(-9.9961078)"><tspan
         sodipodi:role="line"
         style="font-size:55.18804169px;line-height:1.25;stroke-width:1"
         x="844.18347"
         y="682.29504"
         id="tspan837-3">Disini?!?</tspan></text>
    <text
       xml:space="preserve"
       style="font-style:normal;font-variant:normal;font-weight:normal;font-stretch:normal;font-size:19.04891968px;line-height:0%;font-family:Lavi;-inkscape-font-specification:Lavi;text-align:center;letter-spacing:0px;word-spacing:0px;text-anchor:middle;fill:#000000;fill-opacity:1;stroke:none;stroke-width:1.99999988;stroke-miterlimit:4;stroke-dasharray:none"
       x="1711.7465"
       y="1814.3862"
       id="text4246-3"
       transform="matrix(1.0148714,0,-0.1559129,0.98534652,0,0)"><tspan
         sodipodi:role="line"
         style="font-size:53.33333206px;line-height:1.25;stroke:#000000;stroke-width:1.99999988;stroke-miterlimit:4;stroke-dasharray:none;stroke-opacity:1"
         x="1711.7465"
         y="1814.3862"
         id="tspan4252-6">TIDAK!</tspan></text>
    <flowRoot
       xml:space="preserve"
       id="flowRoot939"
       style="fill:black;stroke:none;stroke-opacity:1;stroke-width:1px;stroke-linejoin:miter;stroke-linecap:butt;fill-opacity:1;font-family:sans-serif;font-style:normal;font-weight:normal;font-size:48px;line-height:200%;letter-spacing:0px;word-spacing:0px"><flowRegion
         id="flowRegion941"><rect
           id="rect943"
           width="192.625"
           height="112.125"
           x="1124.125"
           y="3209.75" /></flowRegion><flowPara
         id="flowPara945" /></flowRoot>    <text
       xml:space="preserve"
       style="font-style:normal;font-weight:normal;font-size:48px;line-height:200%;font-family:sans-serif;letter-spacing:0px;word-spacing:0px;fill:#000000;fill-opacity:1;stroke:none;stroke-width:1px;stroke-linecap:butt;stroke-linejoin:miter;stroke-opacity:1"
       x="2783"
       y="2519.75"
       id="text984"><tspan
         sodipodi:role="line"
         id="tspan982"
         x="2783"
         y="2580.2188" /></text>
  </g>
</svg>
