<?xml version="1.0" encoding="UTF-8" standalone="no"?>
<!-- Created with Inkscape (http://www.inkscape.org/) -->

<svg
   xmlns:dc="http://purl.org/dc/elements/1.1/"
   xmlns:cc="http://creativecommons.org/ns#"
   xmlns:rdf="http://www.w3.org/1999/02/22-rdf-syntax-ns#"
   xmlns:svg="http://www.w3.org/2000/svg"
   xmlns="http://www.w3.org/2000/svg"
   xmlns:xlink="http://www.w3.org/1999/xlink"
   xmlns:sodipodi="http://sodipodi.sourceforge.net/DTD/sodipodi-0.dtd"
   xmlns:inkscape="http://www.inkscape.org/namespaces/inkscape"
   id="svg2"
   version="1.1"
   inkscape:version="0.92.4 5da689c313, 2019-01-14"
   width="2481"
   height="3503"
   sodipodi:docname="E19P02.svg">
  <metadata
     id="metadata8">
    <rdf:RDF>
      <cc:Work
         rdf:about="">
        <dc:format>image/svg+xml</dc:format>
        <dc:type
           rdf:resource="http://purl.org/dc/dcmitype/StillImage" />
        <dc:title />
      </cc:Work>
    </rdf:RDF>
  </metadata>
  <defs
     id="defs6">
    <filter
       inkscape:collect="always"
       style="color-interpolation-filters:sRGB"
       id="filter5236-4-16-3"
       x="-0.0089085409"
       width="1.0178171"
       y="-0.027928527"
       height="1.0558571">
      <feGaussianBlur
         inkscape:collect="always"
         stdDeviation="0.49168068"
         id="feGaussianBlur5238-0-4-6" />
    </filter>
    <filter
       inkscape:collect="always"
       style="color-interpolation-filters:sRGB"
       id="filter5236-4-16"
       x="-0.0089085409"
       width="1.0178171"
       y="-0.027928527"
       height="1.0558571">
      <feGaussianBlur
         inkscape:collect="always"
         stdDeviation="0.49168068"
         id="feGaussianBlur5238-0-4" />
    </filter>
  </defs>
  <sodipodi:namedview
     pagecolor="#ffffff"
     bordercolor="#666666"
     borderopacity="1"
     objecttolerance="10"
     gridtolerance="10"
     guidetolerance="10"
     inkscape:pageopacity="0"
     inkscape:pageshadow="2"
     inkscape:window-width="1920"
     inkscape:window-height="1001"
     id="namedview4"
     showgrid="false"
     inkscape:zoom="0.8448552"
     inkscape:cx="1962.2321"
     inkscape:cy="507.48831"
     inkscape:window-x="0"
     inkscape:window-y="45"
     inkscape:window-maximized="1"
     inkscape:current-layer="layer1"
     inkscape:snap-text-baseline="false" />
  <g
     inkscape:groupmode="layer"
     id="layer2"
     inkscape:label="artwork"
     sodipodi:insensitive="true">
    <image
       sodipodi:absref="/home/ambernite/peppercarrot/webcomics/ep19_Pollution/lang/kr/../gfx_Pepper-and-Carrot_by-David-Revoy_E19P02.png"
       xlink:href="../gfx_Pepper-and-Carrot_by-David-Revoy_E19P02.png"
       y="0"
       x="0"
       id="image10"
       height="3503"
       width="2481" />
  </g>
  <g
     inkscape:groupmode="layer"
     id="layer4"
     inkscape:label="translatornotes"
     sodipodi:insensitive="true">
    <path
       inkscape:connector-curvature="0"
       id="path3446"
       d="m 2763.8482,1498.4924 0,-189.0352 -203.8301,0 0,90.9805 -10,0 0,-15.6308 -30.9824,26.9824 30.9824,26.9804 0,-16.6171 10,0 0,76.3398 203.8301,0 z"
       style="color:#000000;clip-rule:nonzero;display:inline;overflow:visible;visibility:visible;opacity:0.481;isolation:auto;mix-blend-mode:normal;color-interpolation:sRGB;color-interpolation-filters:linearRGB;solid-color:#000000;solid-opacity:1;fill:#ffe680;fill-opacity:1;fill-rule:nonzero;stroke:#565656;stroke-width:1.20000005;stroke-linecap:butt;stroke-linejoin:miter;stroke-miterlimit:4;stroke-dasharray:none;stroke-dashoffset:0;stroke-opacity:1;marker:none;color-rendering:auto;image-rendering:auto;shape-rendering:auto;text-rendering:auto;enable-background:accumulate" />
    <flowRoot
       transform="translate(2793.4167,295.2096)"
       style="font-style:normal;font-variant:normal;font-weight:normal;font-stretch:normal;line-height:0.01%;font-family:Lavi;-inkscape-font-specification:'Lavi, Normal';text-align:center;letter-spacing:0px;word-spacing:0px;writing-mode:lr-tb;text-anchor:middle;display:inline;opacity:0.481;fill:#000000;fill-opacity:1;stroke:none;stroke-width:1px;stroke-linecap:butt;stroke-linejoin:miter;stroke-opacity:1"
       id="flowRoot3448"
       xml:space="preserve"><flowRegion
         id="flowRegion3450"><rect
           y="1061.6674"
           x="-275.14545"
           height="247.52747"
           width="291.95547"
           id="rect3452" /></flowRegion><flowPara
         id="flowPara3473"
         style="font-size:25.3241539px;line-height:1.25">labels</flowPara><flowPara
         id="flowPara4255"
         style="font-size:25.3241539px;line-height:1.25">in the </flowPara><flowPara
         id="flowPara4257"
         style="font-size:25.3241539px;line-height:1.25">garden :-)</flowPara></flowRoot>  </g>
  <g
     inkscape:groupmode="layer"
     id="layer3"
     inkscape:label="speechbubbles"
     style="display:inline">
    <path
       style="color:#000000;display:inline;overflow:visible;visibility:visible;fill:#ffffff;fill-opacity:1;fill-rule:nonzero;stroke:none;stroke-width:1px;marker:none;enable-background:accumulate"
       d="m 1044.2756,255.58307 c 23.4914,-33.27491 247.7294,-52.28964 318.5883,1.14813 59.1448,44.60374 66.4311,141.48874 22.4921,167.96102 -43.9391,26.47238 -217.5976,27.59731 -288.1506,16.62641 -67.1763,-10.44584 -75.0279,-37.67302 -87.1691,-105.67133 -4.9554,-27.75276 10.7476,-46.78923 34.2393,-80.06423 z"
       id="path4040-4"
       inkscape:connector-curvature="0"
       sodipodi:nodetypes="zssssz" />
    <path
       style="color:#000000;display:inline;overflow:visible;visibility:visible;fill:#ffffff;fill-opacity:1;fill-rule:nonzero;stroke:none;stroke-width:0.92320889px;marker:none;enable-background:accumulate"
       d="m 1205.2333,497.21089 c 7.3065,-64.31309 80.3297,-110.08682 267.252,-94.428 100.1256,8.38765 213.8885,14.79816 204.3484,109.0343 -9.54,94.23604 -173.137,88.71646 -206.971,90.28485 -33.8341,1.56848 -209.5732,-11.65465 -239.6264,-44.3399 -18.8128,-20.46009 -26.0013,-40.60924 -25.003,-60.55125 z"
       id="path4546-6"
       inkscape:connector-curvature="0"
       sodipodi:nodetypes="cssssc" />
    <path
       style="color:#000000;display:inline;overflow:visible;visibility:visible;fill:#ffffff;fill-opacity:1;fill-rule:nonzero;stroke:none;stroke-width:0.84761882px;marker:none;enable-background:accumulate"
       d="m 1396.7922,597.42803 c 35.995,-56.53134 224.5933,-44.42084 291.3784,-31.70856 99.1497,18.87273 94.914,71.16786 97.9438,86.13526 3.0295,14.96728 -4.5446,84.36126 -37.8719,97.96804 -33.3271,13.60664 -128.7641,20.40995 -162.0913,20.40995 -33.3271,0 -139.7149,-8.66058 -166.6362,-28.57405 -25.7528,-19.04932 -58.718,-87.69942 -22.7228,-144.23064 z"
       id="path3330"
       inkscape:connector-curvature="0"
       sodipodi:nodetypes="zsssssz" />
    <path
       style="color:#000000;display:inline;overflow:visible;visibility:visible;fill:#ffffff;fill-opacity:1;fill-rule:nonzero;stroke:none;stroke-width:1px;marker:none;enable-background:accumulate"
       d="m 1537.5273,696.39507 c -4.748,19.68499 -0.6503,33.38997 2.5742,37.35036 3.2245,3.96027 2.3513,12.12365 5.2378,17.57337 2.3614,4.51862 3.5729,10.81257 -0.8434,12.64306 -4.4163,1.83058 -29.4289,3.69855 -33.6755,16.66121 -4.2467,12.96272 3.9771,24.00648 14.1454,30.32451 10.1684,6.31815 24.4145,10.44127 22.2717,20.40102 -2.1427,9.95976 -9.8422,13.23017 -15.8741,13.66024 -6.0318,0.43007 -42.6593,-1.86158 -51.9545,1.56498 -9.295,3.4266 -34.8875,18.35716 -31.0179,31.36521 11.9004,-13.15184 18.3151,-19.01847 27.1348,-20.36055 8.8198,-1.34212 24.7212,-5.09072 34.6744,-1.78852 9.9534,3.30225 30.2251,7.01956 38.1327,2.88942 7.9077,-4.13 22.6869,-13.91278 22.9796,-24.81049 0.2928,-10.89767 -5.2053,-22.98724 -21.3925,-31.19418 -10.1682,-6.31811 -14.5522,-10.2849 -13.6078,-13.29434 0.9444,-3.00939 11.8681,-7.35452 23.4562,-6.13032 11.5882,1.22424 17.0469,-9.49086 18.0108,-15.97871 0.9638,-6.48781 -2.7884,-15.67273 -3.2186,-21.7046 -0.4301,-6.03183 -6.7045,-40.19004 -6.7045,-40.19004 z"
       id="path5058"
       inkscape:connector-curvature="0"
       sodipodi:nodetypes="cscsssssscssssccscccc" />
    <path
       style="color:#000000;display:inline;overflow:visible;visibility:visible;fill:#ffffff;fill-opacity:1;fill-rule:nonzero;stroke:none;stroke-width:1px;marker:none;enable-background:accumulate"
       d="m 1386.1852,1898.2429 c 6.7758,-69.8494 43.9384,-95.0896 125.6328,-98.7527 40.5611,-1.8188 187.4674,-8.1256 247.0166,4.5118 59.5491,12.6375 110.5229,51.3422 106.0057,102.5251 -4.5171,51.1828 -9.8602,90.8284 -74.8941,105.3166 -65.0339,14.4881 -189.7585,3.8187 -202.7456,4.4209 -25.9738,1.2043 -160.4966,-15.7854 -182.9466,-51.7851 -14.0531,-22.5348 -19.1981,-44.559 -18.0688,-66.2366 z"
       id="path4546-6-3"
       inkscape:connector-curvature="0"
       sodipodi:nodetypes="cssssssc" />
    <path
       style="color:#000000;display:inline;overflow:visible;visibility:visible;fill:#ffffff;fill-opacity:1;fill-rule:nonzero;stroke:none;stroke-width:1.0831424px;marker:none;enable-background:accumulate"
       d="m 1733.472,2034.9009 c -2.5686,-13.9006 25.5944,-72.4119 182.2826,-63.1448 156.6883,9.2671 173.054,20.9339 180.2035,70.8244 2.6424,18.4386 -21.7412,45.3021 -44.8592,49.9356 -23.118,4.6335 -90.7107,17.7137 -129.2405,14.007 -38.5299,-3.7069 -95.4055,-2.8275 -152.0946,-22.2636 -34.2149,-11.7307 -33.7231,-45.6518 -36.2918,-49.3586 z"
       id="path3365"
       inkscape:connector-curvature="0"
       sodipodi:nodetypes="csssssc" />
    <path
       style="fill:#ffffff;fill-opacity:1;stroke:none;stroke-width:0.85372472"
       d="m 1759.9647,2208.5913 c -9.5792,-108.3176 58.6335,-145.8915 240.3051,-145.7378 181.6716,0.1535 255.1811,30.99 262.8146,95.4814 17.0692,144.2086 -94.4385,180.1758 -154.1984,189.1271 -119.3683,17.8799 -291.8759,-15.7637 -316.25,-45.9659 -24.3741,-30.2023 -30.5683,-64.584 -32.6713,-92.9048 z"
       id="path3238"
       inkscape:connector-curvature="0"
       sodipodi:nodetypes="cssssc" />
    <path
       style="color:#000000;display:inline;overflow:visible;visibility:visible;fill:#ffffff;fill-opacity:1;fill-rule:nonzero;stroke:none;stroke-width:1px;marker:none;enable-background:accumulate"
       d="m 1882.8016,2295.7967 c -30.6436,39.5697 -91.823,73.3362 -171.3605,30.1552 76.0815,26.4581 119.8575,-5.9599 145.0149,-45.5895 21.7184,-34.2122 33.4899,-49.0683 33.4899,-49.0683 z"
       id="path4440"
       inkscape:connector-curvature="0"
       sodipodi:nodetypes="ccscc" />
    <path
       style="color:#000000;display:inline;overflow:visible;visibility:visible;fill:#ffffff;fill-opacity:1;fill-rule:nonzero;stroke:none;stroke-width:0.909361px;marker:none;enable-background:accumulate"
       d="m 155.18035,2756.9074 c 21.69275,-10.9597 31.97465,-18.5558 0.37893,-34.3247 6.48731,-0.1198 42.69003,-2.1442 8.07682,-32.9366 11.41174,3.9749 29.66046,14.5291 9.11869,-36.5871 12.35124,8.1494 29.48342,34.2072 14.45533,-14.0742 16.27433,16.3179 37.71531,6.0013 33.32617,-2.5708 13.09765,10.4052 38.82001,9.5448 36.61666,0.7154 9.62978,9.6323 35.7171,12.4562 33.66988,-3.6881 8.00152,11.0973 32.83428,9.9541 30.39981,0.5253 20.97886,11.2241 51.30801,18.1422 62.77041,2.4934 9.7875,14.8098 55.3147,10.3376 93.49864,0.2295 0.59812,10.4538 43.09704,12.2889 77.73334,-4.7288 0.52423,15.8808 13.02309,21.2619 28.29637,9.5749 5.45415,6.5186 3.99845,10.3103 25.43207,-5.1216 -1.02325,10.6121 2.79184,20.4024 17.72533,10.2432 2.60145,6.5649 -6.91829,23.5801 30.82685,-1.2805 0.24952,9.2802 -8.61054,27.5037 23.89072,5.1216 -26.36568,55.1372 -11.75282,49.2359 6.16532,38.4113 -13.95137,32.5259 -31.94535,72.8685 3.51039,71.3855 -27.76217,7.514 -27.27684,18.687 -23.54775,36.1663 -34.795,-35.1981 -38.88327,-8.4487 -53.94689,-3.8411 -15.90253,-5.8556 -30.5528,-27.3135 -49.32272,2.5608 -28.75457,-12.2937 -34.45547,-1.0176 -43.9282,6.402 -50.23644,-23.5924 -49.04978,-4.468 -71.6723,-5.1217 -13.37528,-29.1834 -43.5585,-7.1717 -65.50692,-10.2429 -27.74401,-23.9307 -69.02831,-2.9536 -90.6264,6.2711 10.55613,-14.9487 -15.43925,-28.2936 -40.16105,4.1237 12.27634,-27.3926 -7.86548,-36.628 -45.46948,-1.3493 17.67109,-32.458 -6.76819,-27.285 -34.13558,-6.4848 26.78451,-31.5409 -1.51897,-34.2446 -17.57444,-31.8718 z"
       id="path3557"
       inkscape:connector-curvature="0"
       sodipodi:nodetypes="cccccccccccccccccccccccccccccc" />
    <path
       style="color:#000000;display:inline;overflow:visible;visibility:visible;fill:#ffffff;fill-opacity:1;fill-rule:nonzero;stroke:none;stroke-width:0.88276011px;marker:none;enable-background:accumulate"
       d="m 277.73275,2853.767 c 6.57576,-73.3533 72.7863,-126.6439 242.37812,-111.7966 90.84252,7.953 194.05523,13.4367 185.47763,120.9006 -8.57769,107.4636 -157.00018,103.79 -187.69371,106.116 -30.69353,2.3262 -190.13778,-9.926 -217.42938,-46.6664 -17.08392,-22.9987 -23.62203,-45.8287 -22.73266,-68.5536 z"
       id="path4546"
       inkscape:connector-curvature="0"
       sodipodi:nodetypes="cssssc" />
    <path
       style="color:#000000;display:inline;overflow:visible;visibility:visible;fill:#ffffff;fill-opacity:1;fill-rule:nonzero;stroke:none;stroke-width:1.15217185px;marker:none;enable-background:accumulate"
       d="m 990.3039,2956.2469 c -52.73082,-30.7338 -112.39398,-56.332 -157.07073,-93.0329 l 12.22243,41.4633 c -25.42096,-7.3977 -42.4342,-24.339 -62.3025,-38.0398 l 1.45972,26.2988 c -59.72489,-17.9715 -100.56091,-49.3371 -150.52642,-74.2288 l 7.83079,45.8738 c 54.49547,21.0955 112.81878,35.8216 163.00864,64.0815 l 2.36454,-25.6614 c 19.17574,8.0961 37.95601,16.7337 54.96978,27.7896 l -1.19116,-32.5393 z"
       id="path4032-6"
       inkscape:connector-curvature="0"
       sodipodi:nodetypes="cccccccccccc" />
    <path
       style="fill:#ffffff;stroke:none"
       d="m 1699.0736,2771.0202 c 5.0501,-60.4636 35.5091,-85.0538 49.33,-93.079 13.8207,-8.0252 71.8414,-18.3199 109.742,-16.548 37.9006,1.7719 131.855,10.4999 147.6558,13.4066 15.8008,2.9066 57.954,48.234 57.5018,87.2344 -0.4521,39.0001 -8.9041,64.619 -31.9343,87.3886 -23.0304,22.7698 -160.4271,27.1856 -168.8922,24.6219 -8.4654,-2.5636 -121.5161,-23.0237 -128.5726,-29.8572 -7.0564,-6.8334 -35.6546,-25.5131 -34.8305,-73.1673 z"
       id="path3278"
       inkscape:connector-curvature="0" />
    <path
       style="color:#000000;display:inline;overflow:visible;visibility:visible;fill:#ffffff;fill-opacity:1;fill-rule:nonzero;stroke:none;stroke-width:0.90007246px;marker:none;enable-background:accumulate"
       d="m 1751.8024,2873.7924 c 40.137,-37.9974 378.9373,-79.2414 498.0135,-0.9366 119.076,78.3047 46.8496,172.2706 -21.4729,202.1688 -68.3223,29.8981 -269.3852,62.6438 -361.1324,37.0168 -91.7471,-25.6271 -163.2125,-63.9345 -167.8779,-142.3724 -1.9041,-32.0137 12.3329,-57.879 52.4697,-95.8766 z"
       id="path4040"
       inkscape:connector-curvature="0"
       sodipodi:nodetypes="zssssz" />
    <path
       style="display:inline;fill:#ffffff;fill-rule:evenodd;stroke:none;stroke-width:0.87981021px;stroke-linecap:butt;stroke-linejoin:miter;stroke-opacity:1"
       d="m 1934.4281,3056.4875 c 37.2527,28.5286 58.4725,16.9272 57.8331,-49.3868 17.773,71.6603 30.1066,87.6873 37.4214,52.3799 23.5303,30.3481 38.227,21.8353 49.8952,0 4.349,28.0816 13.6755,16.7498 21.7471,15.3549 2.6585,6.3532 -6.4722,22.1376 30.416,1.1073 2.3894,8.4093 5.6082,15.651 27.2154,-2.9931 5.5979,34.1321 23.558,-1.8917 41.9576,-40.4074 -11.4635,47.3518 -6.71,54.0398 7.9378,35.9176 -6.6969,19.4998 -10.7023,34.5948 14.7417,1.4966 -8.7107,35.9927 14.1419,11.2875 51.0292,-40.4072 -18.4515,38.2124 -67.3811,102.6164 -35.1534,97.2767 -4.4943,11.2651 -20.5254,21.0802 27.2155,38.9107 -8.9126,7.6442 -36.1224,-3.5263 -13.4246,28.8398 3.0412,3.7834 -7.1396,6.0937 12.2907,16.0571 -11.4699,-0.6778 -18.5041,1.7436 -7.938,16.4623 -20.9368,-0.7959 -13.1031,14.6808 2.268,34.4209 -30.3193,-25.3209 -31.9879,-16.1182 -32.8856,-5.9862 -37.999,-34.521 -40.2295,-23.6523 -45.359,-16.4623 -18.5217,0.2694 -37.0436,-4.0779 -55.5653,34.421 -4.8506,-23.9452 -14.5754,-42.3768 -55.565,-25.4415 17.9976,-30.4626 -7.6063,-11.0548 -27.2157,1.4965 10.7385,-38.0554 -16.514,-13.0797 -51.029,23.945 19.3282,-42.0237 -2.6242,-26.8437 -35.1536,2.9932 12.2907,-41.2842 -7.7257,-61.2497 -55.565,-62.8558 22.8974,-14.8917 36.2498,-33.6324 12.4739,-67.3454 26.8022,9.9269 34.7969,0.7062 15.8756,-35.9176 29.2342,30.0605 15.9425,-13.5407 4.536,-53.8762 z"
       id="path4508"
       inkscape:connector-curvature="0"
       sodipodi:nodetypes="cccccccccccccccccccccccccccc" />
    <path
       style="color:#000000;display:inline;overflow:visible;visibility:visible;fill:#ffffff;fill-opacity:1;fill-rule:nonzero;stroke:none;stroke-width:1px;marker:none;enable-background:accumulate"
       d="m 1490.4164,2866.2226 c 36.6716,-30.7338 78.1642,-56.332 109.2346,-93.0329 l -8.5001,41.4633 c 17.679,-7.3977 29.5108,-24.339 43.3282,-38.0398 l -1.0152,26.2988 c 41.5356,-17.9715 69.9349,-49.3371 104.6834,-74.2288 l -5.4459,45.8738 c -37.8988,21.0955 -78.4597,35.8216 -113.3641,64.0815 l -1.6444,-25.6614 c -13.3358,8.0961 -26.3965,16.7337 -38.2287,27.7896 l 0.8284,-32.5393 z"
       id="path4032"
       inkscape:connector-curvature="0"
       sodipodi:nodetypes="cccccccccccc" />
  </g>
  <g
     inkscape:groupmode="layer"
     id="layer1"
     inkscape:label="txt">
    <text
       xml:space="preserve"
       style="font-style:normal;font-variant:normal;font-weight:normal;font-stretch:normal;font-size:26.74328995px;line-height:1.25;font-family:'Nanum Pen Script OTF';-inkscape-font-specification:'Nanum Pen Script OTF';letter-spacing:0px;word-spacing:0px;fill:#574e2c;fill-opacity:0.73333333;stroke:none;stroke-width:0.66858226"
       x="2647.7146"
       y="1526.2373"
       id="text903"><tspan
         sodipodi:role="line"
         id="tspan901"
         x="2647.7146"
         y="1526.2373"
         style="font-style:normal;font-variant:normal;font-weight:normal;font-stretch:normal;font-family:Lavi;-inkscape-font-specification:Lavi;fill:#574e2c;fill-opacity:0.73333333;stroke-width:0.66858226">ikr</tspan></text>
    <text
       id="text907"
       y="285.18362"
       x="1195.13"
       style="font-style:normal;font-variant:normal;font-weight:normal;font-stretch:normal;font-size:17.34434509px;line-height:100%;font-family:'Nanum Pen Script OTF';-inkscape-font-specification:'Nanum Pen Script OTF';text-align:center;letter-spacing:0px;word-spacing:0px;text-anchor:middle;fill:#000000;fill-opacity:1;stroke:none;stroke-width:1.44536209"
       xml:space="preserve"><tspan
         id="tspan905"
         y="285.18362"
         x="1195.13"
         style="font-style:normal;font-variant:normal;font-weight:normal;font-stretch:normal;font-size:65.04129791px;line-height:100%;font-family:'Nanum Pen Script OTF';-inkscape-font-specification:'Nanum Pen Script OTF';stroke-width:1.44536209"
         sodipodi:role="line">어...</tspan></text>
    <text
       id="text913"
       y="353.2598"
       x="1214.2888"
       style="font-style:normal;font-variant:normal;font-weight:normal;font-stretch:normal;font-size:16.14476967px;line-height:100%;font-family:'Nanum Pen Script OTF';-inkscape-font-specification:'Nanum Pen Script OTF';text-align:center;letter-spacing:0px;word-spacing:0px;text-anchor:middle;fill:#000000;fill-opacity:1;stroke:none;stroke-width:1.34539759"
       xml:space="preserve"><tspan
         id="tspan911"
         y="353.2598"
         x="1214.2888"
         style="font-style:normal;font-variant:normal;font-weight:normal;font-stretch:normal;font-size:60.54288864px;line-height:100%;font-family:'Nanum Pen Script OTF';-inkscape-font-specification:'Nanum Pen Script OTF';stroke-width:1.34539759"
         sodipodi:role="line">아, 물론, 전</tspan><tspan
         y="413.80267"
         x="1214.2888"
         style="font-style:normal;font-variant:normal;font-weight:normal;font-stretch:normal;font-size:60.54288864px;line-height:100%;font-family:'Nanum Pen Script OTF';-inkscape-font-specification:'Nanum Pen Script OTF';stroke-width:1.34539759"
         sodipodi:role="line"
         id="tspan155">전문가는 아니지만...</tspan></text>
    <text
       id="text921"
       y="487.65332"
       x="1448.0735"
       style="font-style:normal;font-variant:normal;font-weight:normal;font-stretch:normal;font-size:15.01954746px;line-height:100%;font-family:'Nanum Pen Script OTF';-inkscape-font-specification:'Nanum Pen Script OTF';text-align:center;letter-spacing:0px;word-spacing:0px;text-anchor:middle;fill:#000000;fill-opacity:1;stroke:none;stroke-width:1.25162899"
       xml:space="preserve"><tspan
         id="tspan919"
         y="487.65332"
         x="1448.0735"
         style="font-style:normal;font-variant:normal;font-weight:normal;font-stretch:normal;font-size:56.32330322px;line-height:100%;font-family:'Nanum Pen Script OTF';-inkscape-font-specification:'Nanum Pen Script OTF';stroke-width:1.25162899"
         sodipodi:role="line">올해 채소 수확물 상태가</tspan><tspan
         y="543.97662"
         x="1448.0735"
         style="font-style:normal;font-variant:normal;font-weight:normal;font-stretch:normal;font-size:56.32330322px;line-height:100%;font-family:'Nanum Pen Script OTF';-inkscape-font-specification:'Nanum Pen Script OTF';stroke-width:1.25162899"
         sodipodi:role="line"
         id="tspan166">엄청 이상해졌어요</tspan></text>
    <text
       id="text929"
       y="626.42383"
       x="1592.1483"
       style="font-style:normal;font-variant:normal;font-weight:normal;font-stretch:normal;font-size:14.91272068px;line-height:100%;font-family:'Nanum Pen Script OTF';-inkscape-font-specification:'Nanum Pen Script OTF';text-align:center;letter-spacing:0px;word-spacing:0px;text-anchor:middle;fill:#000000;fill-opacity:1;stroke:none;stroke-width:1.2427268"
       xml:space="preserve"><tspan
         id="tspan927"
         y="626.42383"
         x="1592.1483"
         style="font-style:normal;font-variant:normal;font-weight:normal;font-stretch:normal;font-size:55.92270279px;line-height:100%;font-family:'Nanum Pen Script OTF';-inkscape-font-specification:'Nanum Pen Script OTF';stroke-width:1.2427268"
         sodipodi:role="line">집 주변에 나는</tspan><tspan
         y="682.34656"
         x="1592.1483"
         style="font-style:normal;font-variant:normal;font-weight:normal;font-stretch:normal;font-size:55.92270279px;line-height:100%;font-family:'Nanum Pen Script OTF';-inkscape-font-specification:'Nanum Pen Script OTF';stroke-width:1.2427268"
         sodipodi:role="line"
         id="tspan172">다른 식물들도</tspan><tspan
         y="738.26923"
         x="1592.1483"
         style="font-style:normal;font-variant:normal;font-weight:normal;font-stretch:normal;font-size:55.92270279px;line-height:100%;font-family:'Nanum Pen Script OTF';-inkscape-font-specification:'Nanum Pen Script OTF';stroke-width:1.2427268"
         sodipodi:role="line"
         id="tspan174">상태가 비슷하고요.</tspan></text>
    <text
       transform="matrix(1.1536939,-0.11269777,-0.0037135,1.3319182,-768.18274,-2617.2537)"
       x="1318.7137"
       y="3129.8394"
       xml:space="preserve"
       style="font-style:normal;font-variant:normal;font-weight:normal;font-stretch:normal;line-height:100%;font-family:'Nanum Pen Script OTF';-inkscape-font-specification:'Nanum Pen Script OTF';text-align:center;letter-spacing:0px;word-spacing:0px;text-anchor:middle;opacity:0.63300003;fill:#ffffff;fill-opacity:1;stroke:none;filter:url(#filter5236-4-16)"
       id="text933"><tspan
         id="tspan931"
         sodipodi:role="line"
         style="font-style:normal;font-variant:normal;font-weight:normal;font-stretch:normal;font-size:40.67671585px;line-height:100%;font-family:'Nanum Pen Script OTF';-inkscape-font-specification:'Nanum Pen Script OTF';fill:#ffffff;fill-opacity:1"
         x="1318.7137"
         y="3129.8394">토마토</tspan></text>
    <text
       transform="matrix(1.1180111,0.17388239,-0.2885574,1.47541,1151.9231,-3477.3377)"
       x="1318.7137"
       y="3129.8394"
       xml:space="preserve"
       style="font-style:normal;font-variant:normal;font-weight:normal;font-stretch:normal;line-height:100%;font-family:'Nanum Pen Script OTF';-inkscape-font-specification:'Nanum Pen Script OTF';text-align:center;letter-spacing:0px;word-spacing:0px;text-anchor:middle;opacity:0.63300003;fill:#ffffff;fill-opacity:1;stroke:none;filter:url(#filter5236-4-16-3)"
       id="text937"><tspan
         id="tspan935"
         sodipodi:role="line"
         style="font-style:normal;font-variant:normal;font-weight:normal;font-stretch:normal;font-size:40.67671585px;line-height:100%;font-family:'Nanum Pen Script OTF';-inkscape-font-specification:'Nanum Pen Script OTF';fill:#ffffff;fill-opacity:1"
         x="1318.7137"
         y="3129.8394">가지</tspan></text>
    <text
       id="text945"
       y="1862.8229"
       x="1627.8181"
       style="font-style:normal;font-variant:normal;font-weight:normal;font-stretch:normal;font-size:15.28207874px;line-height:100%;font-family:'Nanum Pen Script OTF';-inkscape-font-specification:'Nanum Pen Script OTF';text-align:center;letter-spacing:0px;word-spacing:0px;text-anchor:middle;fill:#000000;fill-opacity:1;stroke:none;stroke-width:1.27350652"
       xml:space="preserve"><tspan
         id="tspan943"
         y="1862.8229"
         x="1627.8181"
         style="font-style:normal;font-variant:normal;font-weight:normal;font-stretch:normal;font-size:57.30779648px;line-height:100%;font-family:'Nanum Pen Script OTF';-inkscape-font-specification:'Nanum Pen Script OTF';stroke-width:1.27350652"
         sodipodi:role="line">개미들도 그래요,</tspan><tspan
         y="1920.1306"
         x="1627.8181"
         style="font-style:normal;font-variant:normal;font-weight:normal;font-stretch:normal;font-size:57.30779648px;line-height:100%;font-family:'Nanum Pen Script OTF';-inkscape-font-specification:'Nanum Pen Script OTF';stroke-width:1.27350652"
         sodipodi:role="line"
         id="tspan180">지금 뭔가 이해할 수 없는</tspan><tspan
         y="1977.4385"
         x="1627.8181"
         style="font-style:normal;font-variant:normal;font-weight:normal;font-stretch:normal;font-size:57.30779648px;line-height:100%;font-family:'Nanum Pen Script OTF';-inkscape-font-specification:'Nanum Pen Script OTF';stroke-width:1.27350652"
         sodipodi:role="line"
         id="tspan182">행동을 하고 있어요.</tspan></text>
    <text
       id="text949"
       y="2057.4695"
       x="1922.9895"
       style="font-style:normal;font-variant:normal;font-weight:normal;font-stretch:normal;font-size:16.02907372px;line-height:100%;font-family:'Nanum Pen Script OTF';-inkscape-font-specification:'Nanum Pen Script OTF';text-align:center;letter-spacing:0px;word-spacing:0px;text-anchor:middle;fill:#000000;fill-opacity:1;stroke:none;stroke-width:1.33575618"
       xml:space="preserve"><tspan
         id="tspan947"
         y="2057.4695"
         x="1922.9895"
         style="font-style:normal;font-variant:normal;font-weight:normal;font-stretch:normal;font-size:60.10902405px;line-height:100%;font-family:'Nanum Pen Script OTF';-inkscape-font-specification:'Nanum Pen Script OTF';stroke-width:1.33575618"
         sodipodi:role="line">하여튼, 그러니까...</tspan></text>
    <text
       id="text961"
       y="2137.2427"
       x="2012.9352"
       style="font-style:normal;font-variant:normal;font-weight:normal;font-stretch:normal;font-size:14.98479939px;line-height:100%;font-family:'Nanum Pen Script OTF';-inkscape-font-specification:'Nanum Pen Script OTF';text-align:center;letter-spacing:0px;word-spacing:0px;text-anchor:middle;fill:#000000;fill-opacity:1;stroke:none;stroke-width:1.24873328"
       xml:space="preserve"><tspan
         y="2137.2427"
         x="2012.9352"
         style="font-style:normal;font-variant:normal;font-weight:normal;font-stretch:normal;font-size:56.19300079px;line-height:100%;font-family:'Nanum Pen Script OTF';-inkscape-font-specification:'Nanum Pen Script OTF';stroke-width:1.24873328"
         sodipodi:role="line"
         id="tspan200">제가 생각해봤는데</tspan><tspan
         y="2193.4358"
         x="2012.9352"
         style="font-style:normal;font-variant:normal;font-weight:normal;font-stretch:normal;font-size:56.19300079px;line-height:100%;font-family:'Nanum Pen Script OTF';-inkscape-font-specification:'Nanum Pen Script OTF';stroke-width:1.24873328"
         sodipodi:role="line"
         id="tspan4784">지금 오염 문제가 생겨서</tspan><tspan
         y="2249.6287"
         x="2012.9352"
         style="font-style:normal;font-variant:normal;font-weight:normal;font-stretch:normal;font-size:56.19300079px;line-height:100%;font-family:'Nanum Pen Script OTF';-inkscape-font-specification:'Nanum Pen Script OTF';stroke-width:1.24873328"
         sodipodi:role="line"
         id="tspan4786">정화를 좀 해야 할 필요가</tspan><tspan
         y="2305.8218"
         x="2012.9352"
         style="font-style:normal;font-variant:normal;font-weight:normal;font-stretch:normal;font-size:56.19300079px;line-height:100%;font-family:'Nanum Pen Script OTF';-inkscape-font-specification:'Nanum Pen Script OTF';stroke-width:1.24873328"
         sodipodi:role="line"
         id="tspan4788">있지 않을까...</tspan></text>
    <text
       id="text971"
       y="2699.8569"
       x="419.82486"
       style="font-style:normal;font-variant:normal;font-weight:normal;font-stretch:normal;font-size:14.67093563px;line-height:100%;font-family:'Nanum Pen Script OTF';-inkscape-font-specification:'Nanum Pen Script OTF';text-align:center;letter-spacing:0px;word-spacing:0px;text-anchor:middle;fill:#000000;fill-opacity:1;stroke:none;stroke-width:3.42321825;stroke-miterlimit:4;stroke-dasharray:none"
       xml:space="preserve"><tspan
         id="tspan963"
         y="2699.8569"
         x="419.82486"
         style="font-style:normal;font-variant:normal;font-weight:normal;font-stretch:normal;font-size:55.01600647px;line-height:100%;font-family:'Nanum Pen Script OTF';-inkscape-font-specification:'Nanum Pen Script OTF';stroke-width:3.42321825;stroke-miterlimit:4;stroke-dasharray:none"
         sodipodi:role="line">어이, 잘 들어</tspan><tspan
         id="tspan967"
         y="2754.873"
         x="419.82486"
         style="font-style:normal;font-variant:normal;font-weight:normal;font-stretch:normal;font-size:55.01600647px;line-height:100%;font-family:'Nanum Pen Script OTF';-inkscape-font-specification:'Nanum Pen Script OTF';stroke-width:3.42321825;stroke-miterlimit:4;stroke-dasharray:none"
         sodipodi:role="line">&quot;<tspan
   style="stroke:#000000;stroke-width:2.20127869;stroke-opacity:1"
   id="tspan4763">포션 만들 줄 모르는 아가씨</tspan>&quot;,</tspan><tspan
         id="tspan969"
         y="2809.8889"
         x="427.50775"
         style="font-style:normal;font-variant:normal;font-weight:normal;font-stretch:normal;font-size:55.01600647px;line-height:100%;font-family:'Nanum Pen Script OTF';-inkscape-font-specification:'Nanum Pen Script OTF';stroke-width:3.42321825;stroke-miterlimit:4;stroke-dasharray:none"
         sodipodi:role="line"> </tspan></text>
    <text
       id="text981"
       y="2822.2556"
       x="490.78903"
       style="font-style:normal;font-variant:normal;font-weight:normal;font-stretch:normal;font-size:14.79060173px;line-height:100%;font-family:'Nanum Pen Script OTF';-inkscape-font-specification:'Nanum Pen Script OTF';text-align:center;letter-spacing:0px;word-spacing:0px;text-anchor:middle;fill:#000000;fill-opacity:1;stroke:none;stroke-width:1.23255014"
       xml:space="preserve"><tspan
         id="tspan977"
         y="2822.2556"
         x="490.78903"
         style="font-style:normal;font-variant:normal;font-weight:normal;font-stretch:normal;font-size:55.46475601px;line-height:100%;font-family:'Nanum Pen Script OTF';-inkscape-font-specification:'Nanum Pen Script OTF';stroke-width:1.23255014"
         sodipodi:role="line">히피아 옷을 입으니까</tspan><tspan
         y="2877.7205"
         x="490.78903"
         style="font-style:normal;font-variant:normal;font-weight:normal;font-stretch:normal;font-size:55.46475601px;line-height:100%;font-family:'Nanum Pen Script OTF';-inkscape-font-specification:'Nanum Pen Script OTF';stroke-width:1.23255014"
         sodipodi:role="line"
         id="tspan4757">생각까지 히피아처럼</tspan><tspan
         y="2933.1851"
         x="490.78903"
         style="font-style:normal;font-variant:normal;font-weight:normal;font-stretch:normal;font-size:55.46475601px;line-height:100%;font-family:'Nanum Pen Script OTF';-inkscape-font-specification:'Nanum Pen Script OTF';stroke-width:1.23255014"
         sodipodi:role="line"
         id="tspan4761">되는 모양이지.</tspan><tspan
         id="tspan979"
         y="2988.6499"
         x="498.53461"
         style="font-style:normal;font-variant:normal;font-weight:normal;font-stretch:normal;font-size:55.46475601px;line-height:100%;font-family:'Nanum Pen Script OTF';-inkscape-font-specification:'Nanum Pen Script OTF';stroke-width:1.23255014"
         sodipodi:role="line"> </tspan></text>
    <text
       id="text991"
       y="2727.582"
       x="1882.6666"
       style="font-style:normal;font-variant:normal;font-weight:normal;font-stretch:normal;font-size:15.83854485px;line-height:100%;font-family:'Nanum Pen Script OTF';-inkscape-font-specification:'Nanum Pen Script OTF';text-align:center;letter-spacing:0px;word-spacing:0px;text-anchor:middle;fill:#000000;fill-opacity:1;stroke:none;stroke-width:1.3198787"
       xml:space="preserve"><tspan
         id="tspan987"
         y="2727.582"
         x="1882.6666"
         style="font-style:normal;font-variant:normal;font-weight:normal;font-stretch:normal;font-size:59.39454269px;line-height:100%;font-family:'Nanum Pen Script OTF';-inkscape-font-specification:'Nanum Pen Script OTF';stroke-width:1.3198787"
         sodipodi:role="line">카오사에선</tspan><tspan
         y="2786.9766"
         x="1882.6666"
         style="font-style:normal;font-variant:normal;font-weight:normal;font-stretch:normal;font-size:59.39454269px;line-height:100%;font-family:'Nanum Pen Script OTF';-inkscape-font-specification:'Nanum Pen Script OTF';stroke-width:1.3198787"
         sodipodi:role="line"
         id="tspan4733">실패작은 파묻는</tspan><tspan
         y="2846.3711"
         x="1882.6666"
         style="font-style:normal;font-variant:normal;font-weight:normal;font-stretch:normal;font-size:59.39454269px;line-height:100%;font-family:'Nanum Pen Script OTF';-inkscape-font-specification:'Nanum Pen Script OTF';stroke-width:1.3198787"
         sodipodi:role="line"
         id="tspan4735">것이다!</tspan><tspan
         id="tspan989"
         y="2905.7656"
         x="1890.9609"
         style="font-style:normal;font-variant:normal;font-weight:normal;font-stretch:normal;font-size:59.39454269px;line-height:100%;font-family:'Nanum Pen Script OTF';-inkscape-font-specification:'Nanum Pen Script OTF';stroke-width:1.3198787"
         sodipodi:role="line"> </tspan></text>
    <text
       id="text1005"
       y="2920.5615"
       x="2002.4766"
       style="font-style:normal;font-variant:normal;font-weight:normal;font-stretch:normal;font-size:15.0617857px;line-height:100%;font-family:'Nanum Pen Script OTF';-inkscape-font-specification:'Nanum Pen Script OTF';text-align:center;letter-spacing:0px;word-spacing:0px;text-anchor:middle;fill:#000000;fill-opacity:1;stroke:none;stroke-width:3.51441669;stroke-miterlimit:4;stroke-dasharray:none"
       xml:space="preserve"><tspan
         id="tspan1003"
         y="2920.5615"
         x="2002.4766"
         style="font-style:normal;font-variant:normal;font-weight:normal;font-stretch:normal;font-size:56.48169708px;line-height:100%;font-family:'Nanum Pen Script OTF';-inkscape-font-specification:'Nanum Pen Script OTF';stroke-width:3.51441669;stroke-miterlimit:4;stroke-dasharray:none"
         sodipodi:role="line">이건 태초부터 우리의 전통이었고</tspan><tspan
         y="2977.0432"
         x="2002.4766"
         style="font-style:normal;font-variant:normal;font-weight:normal;font-stretch:normal;font-size:56.48169708px;line-height:100%;font-family:'Nanum Pen Script OTF';-inkscape-font-specification:'Nanum Pen Script OTF';stroke-width:3.51441669;stroke-miterlimit:4;stroke-dasharray:none"
         sodipodi:role="line"
         id="tspan4678">대자연이 불평하건 말건</tspan><tspan
         y="3033.5249"
         x="2002.4766"
         style="font-style:normal;font-variant:normal;font-weight:normal;font-stretch:normal;font-size:56.48169708px;line-height:100%;font-family:'Nanum Pen Script OTF';-inkscape-font-specification:'Nanum Pen Script OTF';stroke-width:3.51441669;stroke-miterlimit:4;stroke-dasharray:none"
         sodipodi:role="line"
         id="tspan4680">나는 <tspan
   style="stroke:#000000;stroke-width:2.27092671;stroke-opacity:1"
   id="tspan4684">눈곱만큼도</tspan> 신경 써 줄</tspan><tspan
         y="3090.0066"
         x="2002.4766"
         style="font-style:normal;font-variant:normal;font-weight:normal;font-stretch:normal;font-size:56.48169708px;line-height:100%;font-family:'Nanum Pen Script OTF';-inkscape-font-specification:'Nanum Pen Script OTF';stroke-width:3.51441669;stroke-miterlimit:4;stroke-dasharray:none"
         sodipodi:role="line"
         id="tspan4682">이유가 없다!</tspan></text>
    <text
       id="text1015"
       y="3160.0691"
       x="2080.9487"
       style="font-style:normal;font-variant:normal;font-weight:normal;font-stretch:normal;font-size:15.26760483px;line-height:100%;font-family:'Nanum Pen Script OTF';-inkscape-font-specification:'Nanum Pen Script OTF';text-align:center;letter-spacing:0px;word-spacing:0px;text-anchor:middle;fill:#000000;fill-opacity:1;stroke:none;stroke-width:3.56244135;stroke-miterlimit:4;stroke-dasharray:none"
       xml:space="preserve"><tspan
         id="tspan1013"
         y="3160.0691"
         x="2080.9487"
         style="font-style:normal;font-variant:normal;font-weight:normal;font-stretch:normal;font-size:57.25352097px;line-height:100%;font-family:'Nanum Pen Script OTF';-inkscape-font-specification:'Nanum Pen Script OTF';stroke-width:3.56244135;stroke-miterlimit:4;stroke-dasharray:none"
         sodipodi:role="line">그니까 입 닫고</tspan><tspan
         y="3217.3225"
         x="2080.9487"
         style="font-style:normal;font-variant:normal;font-weight:normal;font-stretch:normal;font-size:57.25352097px;line-height:100%;font-family:'Nanum Pen Script OTF';-inkscape-font-specification:'Nanum Pen Script OTF';stroke-width:3.56244135;stroke-miterlimit:4;stroke-dasharray:none"
         sodipodi:role="line"
         id="tspan129">얼른 <tspan
   style="stroke:#080504;stroke-width:1.7039046;stroke-opacity:1"
   id="tspan4653">파</tspan>!!</tspan></text>
  </g>
</svg>
