<?xml version="1.0" encoding="UTF-8" standalone="no"?>
<!-- Created with Inkscape (http://www.inkscape.org/) -->

<svg
   xmlns:dc="http://purl.org/dc/elements/1.1/"
   xmlns:cc="http://creativecommons.org/ns#"
   xmlns:rdf="http://www.w3.org/1999/02/22-rdf-syntax-ns#"
   xmlns:svg="http://www.w3.org/2000/svg"
   xmlns="http://www.w3.org/2000/svg"
   xmlns:xlink="http://www.w3.org/1999/xlink"
   xmlns:sodipodi="http://sodipodi.sourceforge.net/DTD/sodipodi-0.dtd"
   xmlns:inkscape="http://www.inkscape.org/namespaces/inkscape"
   id="svg2"
   version="1.1"
   inkscape:version="0.92.4 5da689c313, 2019-01-14"
   width="2481"
   height="3503"
   sodipodi:docname="E28P07.svg">
  <metadata
     id="metadata8">
    <rdf:RDF>
      <cc:Work
         rdf:about="">
        <dc:format>image/svg+xml</dc:format>
        <dc:type
           rdf:resource="http://purl.org/dc/dcmitype/StillImage" />
        <dc:title></dc:title>
      </cc:Work>
    </rdf:RDF>
  </metadata>
  <defs
     id="defs6" />
  <sodipodi:namedview
     pagecolor="#ffffff"
     bordercolor="#666666"
     borderopacity="1"
     objecttolerance="10"
     gridtolerance="10"
     guidetolerance="10"
     inkscape:pageopacity="0"
     inkscape:pageshadow="2"
     inkscape:window-width="1842"
     inkscape:window-height="1051"
     id="namedview4"
     showgrid="false"
     inkscape:zoom="0.51498715"
     inkscape:cx="910.11516"
     inkscape:cy="2494.37"
     inkscape:window-x="69"
     inkscape:window-y="-9"
     inkscape:window-maximized="1"
     inkscape:current-layer="layer1" />
  <g
     inkscape:groupmode="layer"
     id="layer2"
     inkscape:label="artwork"
     sodipodi:insensitive="true">
    <image
       sodipodi:absref="/home/midgard/git/peppercarrot/comics/ep28_The-Festivities/lang/id/../gfx_Pepper-and-Carrot_by-David-Revoy_E28P07.png"
       xlink:href="../gfx_Pepper-and-Carrot_by-David-Revoy_E28P07.png"
       width="2481"
       height="3503"
       id="image10"
       x="0"
       y="0" />
  </g>
  <g
     inkscape:groupmode="layer"
     id="layer3"
     inkscape:label="speechbubbles">
    <path
       style="fill:#ffffff;fill-rule:evenodd;stroke:none;stroke-width:1px;stroke-linecap:butt;stroke-linejoin:miter;stroke-opacity:1"
       d="m 139.4599,119.38529 c 58.20387,-38.453819 160.13208,-38.34134 216.01266,-37.378358 55.88058,0.962982 192.35159,0.0267 224.826,23.602808 32.4744,23.57612 53.81219,25.58786 52.90585,78.18134 -0.90633,52.59349 -14.50788,78.66366 -52.76262,104.30897 -38.25473,25.64532 -189.60263,31.25733 -232.36316,32.16448 -42.76053,0.90715 -149.5344,-4.22094 -182.03715,-26.15351 -32.50273,-21.93255 -61.40681,-61.88749 -59.19681,-94.7301 2.21002,-32.8426 14.2813,-65.51527 32.61523,-79.99563 z"
       id="path1035"
       inkscape:connector-curvature="0" />
    <path
       style="fill:#ffffff;fill-rule:evenodd;stroke:none;stroke-width:1px;stroke-linecap:butt;stroke-linejoin:miter;stroke-opacity:1"
       d="m 196.4271,253.96422 c -32.89449,39.47339 -40.41323,56.39055 -51.69134,74.24756 -11.27811,17.85701 -8.45859,59.21009 6.57889,70.4882 15.03749,11.27811 23.49607,17.857 15.97733,33.83433 -7.51874,15.97732 -7.37083,33.58627 -0.79194,42.9847 6.5789,9.39842 29.92706,24.68396 29.92706,24.68396 0,0 -21.13136,-17.00501 -23.34412,-22.26143 -3.75295,-8.91514 -2.08603,-20.48379 2.61318,-28.94238 4.69922,-8.45858 19.28439,-35.64147 -2.76513,-53.11871 -14.61974,-11.58813 -21.61638,-35.71402 -1.87968,-65.78898 19.73669,-30.07496 90.22489,-81.76631 90.22489,-81.76631 z"
       id="path1037"
       inkscape:connector-curvature="0"
       sodipodi:nodetypes="csssccscsscc" />
    <path
       style="fill:#ffffff;fill-rule:evenodd;stroke:none;stroke-width:1.05869639px;stroke-linecap:butt;stroke-linejoin:miter;stroke-opacity:1"
       d="m 101.61742,973.61378 c 24.18277,-66.32408 64.15727,-72.7056 124.95723,-77.28708 60.79996,-4.58149 280.2241,-12.51684 333.65437,5.12589 53.43026,17.64269 68.33447,40.03691 83.78664,84.50304 13.46661,38.75237 17.37083,120.53487 4.47386,148.25407 -12.89696,27.7195 -35.10719,63.3214 -90.37989,66.1321 -55.27268,2.8107 -326.63871,4.3918 -359.80233,3.8436 -33.16361,-0.5481 -97.74947,-18.4953 -110.646519,-68.9871 -12.896969,-50.4916 -10.226112,-95.2605 13.956639,-161.58452 z"
       id="path1039"
       inkscape:connector-curvature="0"
       sodipodi:nodetypes="zsssccssz" />
    <path
       style="fill:#ffffff;fill-rule:evenodd;stroke:none;stroke-width:1px;stroke-linecap:butt;stroke-linejoin:miter;stroke-opacity:1"
       d="m 229.14865,941.5823 c -17.7664,-36.95411 -18.47706,-61.82707 -3.55328,-69.64429 14.92378,-7.81721 21.31968,-12.7918 12.79181,-21.31968 -8.52787,-8.52787 -16.34509,-27.71558 -9.94919,-39.08608 6.39591,-11.37049 16.34509,-17.05574 26.29428,-18.47705 -15.63444,9.23852 -19.89837,17.05574 -19.18772,25.58361 0.71066,8.52787 2.84263,19.18771 12.79181,25.58362 9.94919,6.3959 23.45165,22.74099 2.13197,39.08608 -21.31968,16.34509 43.35002,66.09101 43.35002,66.09101 z"
       id="path1041"
       inkscape:connector-curvature="0" />
    <path
       style="fill:#ffffff;fill-rule:evenodd;stroke:none;stroke-width:1.10985219px;stroke-linecap:butt;stroke-linejoin:miter;stroke-opacity:1"
       d="m 1747.5875,188.73057 c 13.5341,-30.89516 43.6102,-41.58964 63.1594,-43.96619 19.5494,-2.37655 69.1748,1.18827 97.7469,2.37655 28.5721,1.18827 115.7924,1.18827 123.3113,0 7.5191,-1.18828 132.3342,7.12965 150.3798,4.7531 18.0455,-2.37655 63.3194,-4.4733 84.3726,-2.09675 21.0532,2.37655 55.6406,20.20068 58.6481,29.70689 3.0075,9.5062 10.3667,25.86225 4.3514,41.30983 -6.015,15.44758 -42.1062,32.08343 -78.1974,40.40137 -36.0913,8.31792 -139.8531,1.18827 -154.8912,-1.18829 -15.038,-2.37654 -69.1746,-10.69447 -99.2505,-5.94136 -30.0761,4.75309 -115.7924,11.88274 -162.4102,7.12965 -46.6176,-4.75311 -85.7164,-19.01241 -87.2202,-33.27171 -1.5038,-14.25931 -4.5115,-10.69448 0,-39.21309 z"
       id="path1043"
       inkscape:connector-curvature="0"
       sodipodi:nodetypes="csscssccsccscc" />
    <path
       style="fill:#ffffff;fill-rule:evenodd;stroke:none;stroke-width:1px;stroke-linecap:butt;stroke-linejoin:miter;stroke-opacity:1"
       d="m 1944.3016,233.0595 c -22.8961,17.75617 -71.9593,58.40848 -78.0338,64.01569 -6.0744,5.60722 -9.8126,23.83066 4.2055,19.15798 14.018,-4.67267 32.2414,-13.0835 37.8487,-14.01803 5.6072,-0.93454 9.8126,-1.86907 13.5507,-1.4018 -18.2234,4.20541 -68.2211,21.49432 -96.7244,92.51903 35.5123,-65.4175 80.37,-77.0992 89.2481,-80.37007 8.8781,-3.27088 23.8307,-7.47629 24.298,-14.95257 0.4672,-7.47629 -9.8127,-14.95257 -27.5688,-10.27989 22.4288,-13.08351 59.343,-45.32499 73.8283,-45.32499 14.4853,0 -40.6523,-9.34535 -40.6523,-9.34535 z"
       id="path1045"
       inkscape:connector-curvature="0" />
    <path
       style="fill:#ffffff;fill-rule:evenodd;stroke:none;stroke-width:1.04479074px;stroke-linecap:butt;stroke-linejoin:miter;stroke-opacity:1"
       d="m 212.76423,1359.1384 c 38.14428,-25.0207 51.2564,-23.3527 66.75254,-25.8548 15.4961,-2.5019 133.50504,-5.8381 156.15322,-4.1701 22.64819,1.6682 123.96898,8.3402 156.15325,31.6929 32.18423,23.3527 63.17649,43.3692 59.60047,78.3981 -3.57604,35.029 -2.12766,87.4303 -23.58382,108.2807 -21.45618,20.8506 -78.929,46.0136 -131.37741,53.5198 -52.44842,7.5062 -203.83363,-3.3361 -226.48181,-5.0042 -22.64818,-1.668 -85.71896,-27.1259 -103.59908,-47.9764 -17.88015,-20.8506 -35.86603,-57.9445 -27.52195,-88.8033 8.34406,-30.8588 28.60822,-72.5601 73.90459,-100.0827 z"
       id="path1047"
       inkscape:connector-curvature="0"
       sodipodi:nodetypes="cccsscsccsc" />
    <path
       style="fill:#ffffff;fill-rule:evenodd;stroke:none;stroke-width:1.09086382px;stroke-linecap:butt;stroke-linejoin:miter;stroke-opacity:1"
       d="m 275.73541,1612.6233 c 43.312,-26.285 70.03643,-29.5705 94.91779,-31.7609 24.88137,-2.1905 81.09483,1.0951 107.81926,15.3328 26.72443,14.2377 45.15507,41.6178 51.60579,55.8554 6.45072,14.2376 11.97992,60.2361 1.84307,81.0451 -10.13685,20.8087 -44.23354,51.4744 -64.50725,61.3312 -20.27369,9.8569 -109.66231,13.1425 -146.52359,0 -36.86129,-13.1423 -63.58571,-33.9512 -72.80104,-63.5217 -9.21532,-29.5705 -9.21532,-94.1874 27.64597,-118.2819 z"
       id="path1049"
       inkscape:connector-curvature="0" />
    <path
       style="fill:#ffffff;fill-rule:evenodd;stroke:none;stroke-width:1px;stroke-linecap:butt;stroke-linejoin:miter;stroke-opacity:1"
       d="m 571.51827,1489.8102 c 22.69719,-37.8287 85.61623,-110.0078 124.52571,-129.4625 38.90949,-19.4548 94.88053,-25.0946 113.25446,-22.933 15.70987,1.7353 35.90084,19.0754 55.12176,42.152 -15.13146,-30.263 -47.25978,-48.6478 -52.66387,-49.7286 -18.40862,-4.2887 -108.87383,-25.5751 -222.35983,69.5369 -113.48599,95.1121 -51.38362,121.779 -51.38362,121.779 z"
       id="path1051"
       inkscape:connector-curvature="0"
       sodipodi:nodetypes="cccccscc" />
    <path
       style="fill:#ffffff;fill-rule:evenodd;stroke:none;stroke-width:0.94600838px;stroke-linecap:butt;stroke-linejoin:miter;stroke-opacity:1"
       d="m 191.43408,2224.3251 c -1.31976,-27.4659 25.07545,-36.9734 47.51138,-40.1425 22.43594,-3.1692 100.30182,-3.1692 113.49942,-1.0564 13.1976,2.1127 91.06348,0 106.90061,1.0564 15.83713,1.0563 67.30779,8.451 76.54612,27.4659 9.23832,19.0149 22.43593,24.2968 9.23832,42.2553 -13.19761,17.9586 -29.03473,33.8043 -83.14493,38.0298 -54.11017,4.2256 -170.24911,1.0564 -219.08025,-9.5074 -48.83115,-10.5638 -51.47067,-31.6915 -51.47067,-58.1011 z"
       id="path1053"
       inkscape:connector-curvature="0" />
    <path
       style="fill:#ffffff;fill-rule:evenodd;stroke:none;stroke-width:1px;stroke-linecap:butt;stroke-linejoin:miter;stroke-opacity:1"
       d="m 348.19942,2246.5661 c -29.42116,45.7663 -39.16091,33.6645 -43.24718,61.4512 -4.08627,27.7866 9.73975,53.7817 22.81582,64.406 13.07607,10.6243 34.32468,25.3349 15.52783,41.68 -18.79685,16.3451 -40.04547,26.1521 -35.95919,72.7356 4.08627,46.5835 21.24861,49.0353 27.78665,53.1215 -25.33489,-10.1025 -30.23842,-73.5529 -15.52784,-93.167 14.71058,-19.6141 16.91712,-15.0754 32.69018,-26.1521 13.88076,-9.7478 27.00207,-30.3114 -3.85728,-57.4442 -30.85936,-27.1329 -14.46952,-78.6996 28.77766,-101.4055 85.22691,-44.7462 -29.00665,-15.2255 -29.00665,-15.2255 z"
       id="path1055"
       inkscape:connector-curvature="0"
       sodipodi:nodetypes="csssscsszsc" />
    <path
       style="fill:#ffffff;fill-rule:evenodd;stroke:none;stroke-width:0.99320924px;stroke-linecap:butt;stroke-linejoin:miter;stroke-opacity:1"
       d="m 810.52704,2229.9569 c 27.00458,-49.1969 56.61234,-54.7239 97.0185,-62.5013 87.56333,-9.0337 161.91976,2.9437 245.92996,0.2818 43.4959,-1.447 102.898,18.8106 122.3628,44.8559 19.4651,26.0454 49.5401,104.1815 42.6459,128.78 -6.8943,24.5985 -19.5914,89.712 -48.7796,107.0755 -29.1882,17.3636 -50.7522,33.2804 -100.0567,37.6212 -49.3046,4.3409 -236.35925,7.2349 -258.9426,5.7879 -22.58338,-1.447 -87.57696,-23.1515 -106.10099,-68.0074 -18.52404,-44.856 -20.79235,-150.4846 5.92273,-193.8936 z"
       id="path1057"
       inkscape:connector-curvature="0"
       sodipodi:nodetypes="cccscssssc" />
    <path
       style="fill:#ffffff;fill-rule:evenodd;stroke:none;stroke-width:1px;stroke-linecap:butt;stroke-linejoin:miter;stroke-opacity:1"
       d="m 1078.5698,2470.4285 c 7.4155,31.516 12.9772,52.5267 19.7748,59.9423 6.7976,7.4155 22.8646,14.2131 33.3699,15.449 10.5054,1.236 21.0107,6.1796 6.1796,23.4826 -14.831,17.3029 -1.8538,54.9986 45.1112,57.4704 -46.965,-11.7413 -43.8752,-47.583 -27.8082,-54.3806 16.067,-6.7976 20.3927,-39.5496 -16.685,-50.6729 -32.752,-8.6514 -11.1233,-129.7719 -11.1233,-129.7719 z"
       id="path1059"
       inkscape:connector-curvature="0" />
  </g>
  <g
     inkscape:groupmode="layer"
     id="layer1"
     inkscape:label="txt"
     style="opacity:1">
    <text
       xml:space="preserve"
       style="font-style:normal;font-variant:normal;font-weight:normal;font-stretch:normal;line-height:0%;font-family:Lavi;-inkscape-font-specification:Lavi;text-align:center;letter-spacing:0px;word-spacing:0px;text-anchor:middle;fill:#000000;fill-opacity:1;stroke:none"
       x="371.40958"
       y="165.38466"
       id="text4246"><tspan
         sodipodi:role="line"
         style="font-size:45px;line-height:1.20000005"
         x="371.40958"
         y="165.38466"
         id="tspan825">Aneh rasanya bahwa</tspan><tspan
         sodipodi:role="line"
         style="font-size:45px;line-height:1.20000005"
         x="371.40958"
         y="219.38466"
         id="tspan127">aku harus menyelinap</tspan><tspan
         sodipodi:role="line"
         style="font-size:45px;line-height:1.20000005"
         x="371.40958"
         y="273.38467"
         id="tspan129">hanya untuk makan.</tspan></text>
    <text
       xml:space="preserve"
       style="font-style:normal;font-variant:normal;font-weight:normal;font-stretch:normal;font-size:11.81322479px;line-height:0%;font-family:Lavi;-inkscape-font-specification:Lavi;text-align:center;letter-spacing:0px;word-spacing:0px;text-anchor:middle;fill:#000000;fill-opacity:1;stroke:none;stroke-width:1"
       x="372.48322"
       y="951.71643"
       id="text4246-3"><tspan
         sodipodi:role="line"
         style="font-size:44.29959106px;line-height:1.20000005;stroke-width:1"
         x="372.48322"
         y="951.71643"
         id="tspan868">Tapi guru kami</tspan><tspan
         sodipodi:role="line"
         style="font-size:44.29959106px;line-height:1.20000005;stroke-width:1"
         x="372.48322"
         y="1004.8759"
         id="tspan140">memberi tahu kami bahwa</tspan><tspan
         sodipodi:role="line"
         style="font-size:44.29959106px;line-height:1.20000005;stroke-width:1"
         x="372.48322"
         y="1058.0354"
         id="tspan142">kami harus terlihat seperti</tspan><tspan
         sodipodi:role="line"
         style="font-size:44.29959106px;line-height:1.20000005;stroke-width:1"
         x="372.48322"
         y="1111.1949"
         id="tspan144">roh saja tanpa kebutuhan</tspan><tspan
         sodipodi:role="line"
         style="font-size:44.29959106px;line-height:1.20000005;stroke-width:1"
         x="372.48322"
         y="1164.3545"
         id="tspan146">dasar manusia.</tspan></text>
    <text
       xml:space="preserve"
       style="font-style:normal;font-variant:normal;font-weight:normal;font-stretch:normal;line-height:0%;font-family:Lavi;-inkscape-font-specification:Lavi;text-align:center;letter-spacing:0px;word-spacing:0px;text-anchor:middle;fill:#000000;fill-opacity:1;stroke:none"
       x="2041.2789"
       y="217.40169"
       id="text4246-3-3"><tspan
         sodipodi:role="line"
         style="font-size:45px;line-height:1.20000005"
         x="2041.2789"
         y="217.40169"
         id="tspan868-9">Ha! Di situ rupanya kamu!</tspan></text>
    <text
       xml:space="preserve"
       style="font-style:normal;font-variant:normal;font-weight:normal;font-stretch:normal;line-height:0%;font-family:Lavi;-inkscape-font-specification:Lavi;text-align:center;letter-spacing:0px;word-spacing:0px;text-anchor:middle;fill:#000000;fill-opacity:1;stroke:none"
       x="394.74362"
       y="1397.6433"
       id="text4246-3-3-1"><tspan
         sodipodi:role="line"
         style="font-size:45px;line-height:1.20000005"
         x="394.74362"
         y="1397.6433"
         id="tspan928">Akhirnya!</tspan><tspan
         sodipodi:role="line"
         style="font-size:45px;line-height:1.20000005"
         x="394.74362"
         y="1451.6433"
         id="tspan205">Tempat di mana aku</tspan><tspan
         sodipodi:role="line"
         style="font-size:45px;line-height:1.20000005"
         x="394.74362"
         y="1505.6433"
         id="tspan207">bisa menghindari para</tspan><tspan
         sodipodi:role="line"
         style="font-size:45px;line-height:1.20000005"
         x="394.74362"
         y="1559.6433"
         id="tspan209">fotografer.</tspan></text>
    <text
       xml:space="preserve"
       style="font-style:normal;font-variant:normal;font-weight:normal;font-stretch:normal;line-height:0%;font-family:Lavi;-inkscape-font-specification:Lavi;text-align:center;letter-spacing:0px;word-spacing:0px;text-anchor:middle;fill:#000000;fill-opacity:1;stroke:none"
       x="390.59467"
       y="1656.7388"
       id="text4246-3-3-1-7"><tspan
         sodipodi:role="line"
         style="font-size:45px;line-height:1.20000005"
         x="390.59467"
         y="1656.7388"
         id="tspan966">Mereka</tspan><tspan
         sodipodi:role="line"
         style="font-size:45px;line-height:1.20000005"
         x="390.59467"
         y="1710.7388"
         id="tspan213">membuatku</tspan><tspan
         sodipodi:role="line"
         style="font-size:45px;line-height:1.20000005"
         x="390.59467"
         y="1764.7388"
         id="tspan215">gila.</tspan></text>
    <text
       xml:space="preserve"
       style="font-style:normal;font-variant:normal;font-weight:normal;font-stretch:normal;line-height:0%;font-family:Lavi;-inkscape-font-specification:Lavi;text-align:center;letter-spacing:0px;word-spacing:0px;text-anchor:middle;fill:#000000;fill-opacity:1;stroke:none"
       x="368.95361"
       y="2251.155"
       id="text4246-3-3-1-7-0"><tspan
         sodipodi:role="line"
         style="font-size:45px;line-height:1.20000005"
         x="368.95361"
         y="2251.155"
         id="tspan966-2">Fotografer?</tspan></text>
    <text
       xml:space="preserve"
       style="font-style:normal;font-variant:normal;font-weight:normal;font-stretch:normal;line-height:0%;font-family:Lavi;-inkscape-font-specification:Lavi;text-align:center;letter-spacing:0px;word-spacing:0px;text-anchor:middle;fill:#000000;fill-opacity:1;stroke:none"
       x="1048.7172"
       y="2244.4294"
       id="text4246-3-3-1-7-0-6"><tspan
         sodipodi:role="line"
         style="font-size:45px;line-height:1.20000005"
         x="1048.7172"
         y="2244.4294"
         id="tspan1023">Coba hindari diskusi</tspan><tspan
         sodipodi:role="line"
         style="font-size:45px;line-height:1.20000005"
         x="1048.7172"
         y="2298.4294"
         id="tspan261">membosankan dengan</tspan><tspan
         sodipodi:role="line"
         style="font-size:45px;line-height:1.20000005"
         x="1048.7172"
         y="2352.4294"
         id="tspan263">para politisi dengan</tspan><tspan
         sodipodi:role="line"
         style="font-size:45px;line-height:1.20000005"
         x="1048.7172"
         y="2406.4294"
         id="tspan265">mengenakan ini di</tspan><tspan
         sodipodi:role="line"
         style="font-size:45px;line-height:1.20000005"
         x="1048.7172"
         y="2460.4294"
         id="tspan267">kepalamu.</tspan></text>
    <text
       xml:space="preserve"
       style="font-style:normal;font-variant:normal;font-weight:normal;font-stretch:normal;font-size:13.67166328px;line-height:0%;font-family:Lavi;-inkscape-font-specification:Lavi;text-align:center;letter-spacing:0px;word-spacing:0px;text-anchor:middle;fill:#ffffff;fill-opacity:0.43137255;stroke:#ffffff;stroke-width:0.41015574;stroke-miterlimit:4;stroke-dasharray:none;stroke-opacity:1"
       x="1673.4884"
       y="2527.4509"
       id="text4246-8"
       transform="matrix(0.89761483,-0.24846861,0.02683826,1.1066345,0,0)"><tspan
         sodipodi:role="line"
         style="font-size:35.04694366px;line-height:1.25;fill:#ffffff;fill-opacity:0.43137255;stroke:#ffffff;stroke-width:0.41015574;stroke-miterlimit:4;stroke-dasharray:none;stroke-opacity:1"
         x="1673.4884"
         y="2527.4509"
         id="tspan4150-8">garuk</tspan><tspan
         sodipodi:role="line"
         style="font-size:35.04694366px;line-height:1.25;fill:#ffffff;fill-opacity:0.43137255;stroke:#ffffff;stroke-width:0.41015574;stroke-miterlimit:4;stroke-dasharray:none;stroke-opacity:1"
         x="1673.4884"
         y="2571.2595"
         id="tspan1033">garuk</tspan></text>
    <flowRoot
       xml:space="preserve"
       id="flowRoot269"
       style="fill:black;fill-opacity:1;stroke:none;font-family:sans-serif;font-style:normal;font-weight:normal;font-size:40px;line-height:1.25;letter-spacing:0px;word-spacing:0px"><flowRegion
         id="flowRegion271"><rect
           id="rect273"
           width="481.5654"
           height="2602.0066"
           x="-510.69235"
           y="-33.010559" /></flowRegion><flowPara
         id="flowPara275" /></flowRoot>  </g>
</svg>
