<?xml version="1.0" encoding="UTF-8" standalone="no"?>
<!-- Created with Inkscape (http://www.inkscape.org/) -->

<svg
   xmlns:dc="http://purl.org/dc/elements/1.1/"
   xmlns:cc="http://creativecommons.org/ns#"
   xmlns:rdf="http://www.w3.org/1999/02/22-rdf-syntax-ns#"
   xmlns:svg="http://www.w3.org/2000/svg"
   xmlns="http://www.w3.org/2000/svg"
   xmlns:xlink="http://www.w3.org/1999/xlink"
   xmlns:sodipodi="http://sodipodi.sourceforge.net/DTD/sodipodi-0.dtd"
   xmlns:inkscape="http://www.inkscape.org/namespaces/inkscape"
   id="svg2"
   version="1.1"
   inkscape:version="0.92.4 (5da689c313, 2019-01-14)"
   width="2481"
   height="3503"
   sodipodi:docname="E09P08.svg"
   viewBox="0 0 2481 3503">
  <metadata
     id="metadata8">
    <rdf:RDF>
      <cc:Work
         rdf:about="">
        <dc:format>image/svg+xml</dc:format>
        <dc:type
           rdf:resource="http://purl.org/dc/dcmitype/StillImage" />
        <dc:title />
      </cc:Work>
    </rdf:RDF>
  </metadata>
  <defs
     id="defs6" />
  <sodipodi:namedview
     pagecolor="#ffffff"
     bordercolor="#666666"
     borderopacity="1"
     objecttolerance="10"
     gridtolerance="10"
     guidetolerance="10"
     inkscape:pageopacity="0"
     inkscape:pageshadow="2"
     inkscape:window-width="1920"
     inkscape:window-height="975"
     id="namedview4"
     showgrid="false"
     inkscape:zoom="0.32217553"
     inkscape:cx="368.86623"
     inkscape:cy="1565.4225"
     inkscape:window-x="0"
     inkscape:window-y="64"
     inkscape:window-maximized="1"
     inkscape:current-layer="layer2"
     inkscape:object-nodes="true"
     showguides="true"
     inkscape:guide-bbox="true"
     inkscape:document-units="px">
    <sodipodi:guide
       position="327.75,3395.375"
       orientation="0,1"
       id="guide4214"
       inkscape:locked="false" />
  </sodipodi:namedview>
  <g
     inkscape:groupmode="layer"
     id="layer1"
     inkscape:label="artwork"
     style="display:inline"
     transform="translate(0,1024)"
     sodipodi:insensitive="true">
    <image
       sodipodi:absref="/felles/omsetting/pepper-carrot/webcomics/ep09_The-Remedy/lang/de/../gfx_Pepper-and-Carrot_by-David-Revoy_E09P08.png"
       xlink:href="../gfx_Pepper-and-Carrot_by-David-Revoy_E09P08.png"
       width="2481.4438"
       height="3504.5391"
       preserveAspectRatio="none"
       style="image-rendering:optimizeQuality"
       id="image4223"
       x="0.54707891"
       y="-1023.3771" />
  </g>
  <g
     inkscape:groupmode="layer"
     id="layer3"
     inkscape:label="speechbubbles"
     style="display:none"
     transform="translate(0,1024)">
    <path
       style="fill:#ffffff;stroke:none"
       d="m -2021.8885,646.19917 c 1.0628,-51.0158 26.5707,-103.09442 170.0526,-112.65988 143.4819,-9.56546 203.0004,48.89014 207.2517,90.34047 4.2513,41.45033 -82.9007,96.71744 -162.6129,97.78027 -79.7121,1.06282 -214.6914,-11.69112 -214.6914,-75.46086 z"
       id="path4279"
       inkscape:connector-curvature="0" />
    <path
       style="fill:#ffffff;stroke:none"
       d="m -1788.0661,898.08964 c 70.1467,-44.63882 88.2148,-124.35099 45.7016,-190.24639 -42.5132,-65.8954 -82.9007,-54.20428 -82.9007,-54.20428 l 35.0734,41.45033 c 0,0 97.7803,97.78027 2.1257,203.00034 z"
       id="path4281"
       inkscape:connector-curvature="0"
       sodipodi:nodetypes="csccc" />
  </g>
  <g
     inkscape:groupmode="layer"
     id="layer2"
     inkscape:label="text"
     style="display:inline"
     transform="translate(0,1024)">
    <flowRoot
       xml:space="preserve"
       id="flowRoot3027"
       style="font-style:normal;font-variant:normal;font-weight:normal;font-stretch:normal;line-height:0.01%;font-family:Arial;-inkscape-font-specification:Arial;text-align:center;letter-spacing:0px;word-spacing:0px;text-anchor:middle;display:inline;fill:#000000;fill-opacity:1;stroke:none"
       transform="matrix(1.1196913,0,0,1.1666933,-297.93398,-1109.4595)"><flowRegion
         id="flowRegion3029"><rect
           id="rect3031"
           width="2475.8752"
           height="241.27675"
           x="135.21135"
           y="219.33444"
           style="text-align:center;text-anchor:middle" /></flowRegion><flowPara
         id="flowPara3033"
         style="font-size:12px;line-height:1.25"> </flowPara><flowPara
         style="font-style:normal;font-variant:normal;font-weight:normal;font-stretch:normal;font-size:48px;line-height:1.25;font-family:Lavi;-inkscape-font-specification:Lavi;text-align:center;text-anchor:middle"
         id="flowPara3499">Pepper&amp;Carrot ist komplett frei, Open Source und wird</flowPara><flowPara
         style="font-style:normal;font-variant:normal;font-weight:normal;font-stretch:normal;font-size:48px;line-height:1.25;font-family:Lavi;-inkscape-font-specification:Lavi;text-align:center;text-anchor:middle"
         id="flowPara3488">durch die Leser unterstützt und finanziert.</flowPara><flowPara
         style="font-style:normal;font-variant:normal;font-weight:normal;font-stretch:normal;font-size:48px;line-height:1.25;font-family:Lavi;-inkscape-font-specification:Lavi;text-align:center;text-anchor:middle"
         id="flowPara3497">Für diese Episode geht der Dank an die 406 Förderer:</flowPara></flowRoot>    <flowRoot
       xml:space="preserve"
       id="flowRoot3027-8-8"
       style="font-style:normal;font-variant:normal;font-weight:normal;font-stretch:normal;line-height:0.01%;font-family:Arial;-inkscape-font-specification:Arial;text-align:center;letter-spacing:0px;word-spacing:0px;text-anchor:middle;display:inline;fill:#a72f14;fill-opacity:1;stroke:none"
       transform="matrix(1.2234224,0,0,1.2506407,-289.18878,1729.9526)"><flowRegion
         id="flowRegion3029-9-3"><rect
           id="rect3031-9-1"
           width="2230.314"
           height="376.21677"
           x="135.21135"
           y="219.33444"
           style="text-align:center;text-anchor:middle;fill:#a72f14;fill-opacity:1" /></flowRegion><flowPara
         id="flowPara3033-3-0"
         style="font-size:12px;line-height:1.25"> </flowPara><flowPara
         style="font-style:normal;font-variant:normal;font-weight:normal;font-stretch:normal;font-size:48px;line-height:1.25;font-family:Lavi;-inkscape-font-specification:Lavi;text-align:center;text-anchor:middle;fill:#a72f14;fill-opacity:1"
         id="flowPara3067-4">https://www.patreon.com/davidrevoy</flowPara></flowRoot>    <flowRoot
       xml:space="preserve"
       id="flowRoot3027-8-8-2"
       style="font-style:normal;font-variant:normal;font-weight:normal;font-stretch:normal;line-height:0.01%;font-family:Arial;-inkscape-font-specification:Arial;text-align:center;letter-spacing:0px;word-spacing:0px;text-anchor:middle;display:inline;fill:#000000;fill-opacity:1;stroke:none"
       transform="matrix(1.0085133,0,0,1.0406001,-20.843842,1731.3474)"><flowRegion
         id="flowRegion3029-9-3-5"><rect
           id="rect3031-9-1-6"
           width="2230.314"
           height="376.21677"
           x="135.21135"
           y="219.33444"
           style="text-align:center;text-anchor:middle" /></flowRegion><flowPara
         style="font-style:normal;font-variant:normal;font-weight:normal;font-stretch:normal;font-size:48px;line-height:1.25;font-family:Lavi;-inkscape-font-specification:Lavi;text-align:center;text-anchor:middle"
         id="flowPara3055">Du kannst die nächste Episode von Pepper&amp;Carrot hier unterstützen:</flowPara></flowRoot>    <flowRoot
       xml:space="preserve"
       id="flowRoot3027-8-8-2-8-6"
       style="font-style:normal;font-variant:normal;font-weight:normal;font-stretch:normal;line-height:0.01%;font-family:Arial;-inkscape-font-specification:Arial;text-align:center;letter-spacing:0px;word-spacing:0px;text-anchor:middle;display:inline;fill:#000000;fill-opacity:1;stroke:none"
       transform="matrix(0.78840156,0,0,0.81820527,254.19922,1939.7566)"><flowRegion
         id="flowRegion3029-9-3-5-1-2"><rect
           id="rect3031-9-1-6-8-7"
           width="2230.314"
           height="376.21677"
           x="135.21135"
           y="219.33444"
           style="text-align:center;text-anchor:middle" /></flowRegion><flowPara
         id="flowPara3033-3-0-2-4-3"
         style="font-size:12px;line-height:1.25"> </flowPara><flowPara
         style="font-style:normal;font-variant:normal;font-weight:normal;font-stretch:normal;font-size:48px;line-height:1.25;font-family:Lavi;-inkscape-font-specification:Lavi;text-align:center;text-anchor:middle"
         id="flowPara3233-6-14"> </flowPara></flowRoot>    <flowRoot
       xml:space="preserve"
       id="flowRoot3027-8-8-2-8-6-3"
       style="font-style:normal;font-variant:normal;font-weight:normal;font-stretch:normal;line-height:0.01%;font-family:Arial;-inkscape-font-specification:Arial;text-align:center;letter-spacing:0px;word-spacing:0px;text-anchor:middle;display:inline;fill:#000000;fill-opacity:1;stroke:none"
       transform="matrix(0.78840156,0,0,0.83353067,254.68892,1959.2866)"><flowRegion
         id="flowRegion3029-9-3-5-1-2-8"><rect
           id="rect3031-9-1-6-8-7-4"
           width="2230.314"
           height="376.21677"
           x="135.21135"
           y="219.33444"
           style="text-align:center;text-anchor:middle" /></flowRegion><flowPara
         id="flowPara3033-3-0-2-4-3-2"
         style="font-size:12px;line-height:1.25"> </flowPara><flowPara
         style="font-style:normal;font-variant:normal;font-weight:normal;font-stretch:normal;font-size:48px;line-height:1.25;font-family:Lavi;-inkscape-font-specification:Lavi;text-align:center;text-anchor:middle"
         id="flowPara3278-7">Lizenz : Creative Commons Attribution 4.0</flowPara><flowPara
         style="font-style:normal;font-variant:normal;font-weight:normal;font-stretch:normal;font-size:48px;line-height:1.25;font-family:Lavi;-inkscape-font-specification:Lavi;text-align:center;text-anchor:middle"
         id="flowPara3233-6-14-6">Quelldaten : verfügbar auf www.peppercarrot.com</flowPara><flowPara
         style="font-style:normal;font-variant:normal;font-weight:normal;font-stretch:normal;font-size:48px;line-height:1.25;font-family:Lavi;-inkscape-font-specification:Lavi;text-align:center;text-anchor:middle"
         id="flowPara4904">Software : Diese Episode wurde zu 100% mit freier Software erstellt</flowPara><flowPara
         style="font-style:normal;font-variant:normal;font-weight:normal;font-stretch:normal;font-size:48px;line-height:1.25;font-family:Lavi;-inkscape-font-specification:Lavi;text-align:center;text-anchor:middle"
         id="flowPara4908">Krita 2.9.6, Inkscape 0.91 auf Linux Mint 17</flowPara></flowRoot>    <flowRoot
       xml:space="preserve"
       id="flowRoot4307"
       style="font-style:normal;font-variant:normal;font-weight:normal;font-stretch:normal;line-height:0.01%;font-family:Fondamento;-inkscape-font-specification:Fondamento;letter-spacing:0px;word-spacing:0px;fill:#000000;fill-opacity:1;stroke:none;stroke-width:1px;stroke-linecap:butt;stroke-linejoin:miter;stroke-opacity:1"
       transform="translate(0,-1024)"><flowRegion
         id="flowRegion4309"><rect
           id="rect4311"
           width="680.59155"
           height="277.55969"
           x="-836.48126"
           y="2419.3765"
           style="font-style:normal;font-variant:normal;font-weight:normal;font-stretch:normal;font-family:Fondamento;-inkscape-font-specification:Fondamento" /></flowRegion><flowPara
         id="flowPara4313"
         style="font-size:12px;line-height:1.25"> </flowPara></flowRoot>    <flowRoot
       xml:space="preserve"
       id="flowRoot2987-7"
       style="font-style:normal;font-variant:normal;font-weight:normal;font-stretch:normal;line-height:0.01%;font-family:Arial;-inkscape-font-specification:Arial;text-align:center;letter-spacing:0px;word-spacing:0px;text-anchor:middle;display:inline;fill:#000000;fill-opacity:1;stroke:none"
       transform="matrix(0.67508769,0,0,0.69713023,300.71265,-170.38249)"><flowRegion
         id="flowRegion2989-7"
         style="text-align:center;text-anchor:middle"><rect
           id="rect2991-7"
           width="3066.7446"
           height="1701.9563"
           x="-141.0901"
           y="266.68515"
           style="text-align:center;text-anchor:middle" /></flowRegion><flowPara
         style="font-style:normal;font-variant:normal;font-weight:normal;font-stretch:normal;font-size:44.70226288px;line-height:120.00000477%;font-family:Lavi;-inkscape-font-specification:Lavi;text-align:center;writing-mode:lr-tb;text-anchor:middle"
         id="flowPara3113-6">Глеб Бузало ★ 无名 ★ 獨孤欣 &amp; 獨弧悦 ★ Adam Mathena ★ Addison Lewis</flowPara><flowPara
         style="font-style:normal;font-variant:normal;font-weight:normal;font-stretch:normal;font-size:44.70226288px;line-height:120.00000477%;font-family:Lavi;-inkscape-font-specification:Lavi;text-align:center;writing-mode:lr-tb;text-anchor:middle"
         id="flowPara1081">A Distinguished Robot ★ Aina Reich ★ Alan Hardman ★ Albert Westra ★ Alex ★ AlexanderKennedy</flowPara><flowPara
         style="font-style:normal;font-variant:normal;font-weight:normal;font-stretch:normal;font-size:44.70226288px;line-height:120.00000477%;font-family:Lavi;-inkscape-font-specification:Lavi;text-align:center;writing-mode:lr-tb;text-anchor:middle"
         id="flowPara1083">Alexander Lust ★ Alexander Sopicki ★ Alexandra Jordan ★ Alex Lusco ★ Alex Silver ★ Alex V ★ Alfredo</flowPara><flowPara
         style="font-style:normal;font-variant:normal;font-weight:normal;font-stretch:normal;font-size:44.70226288px;line-height:120.00000477%;font-family:Lavi;-inkscape-font-specification:Lavi;text-align:center;writing-mode:lr-tb;text-anchor:middle"
         id="flowPara1085">Alien Green ★ Allan Zieser ★ Alok Baikadi ★ Amic ★ Andreas Rieger ★ Andreas Ulmer ★ Andrej Kwadrin</flowPara><flowPara
         style="font-style:normal;font-variant:normal;font-weight:normal;font-stretch:normal;font-size:44.70226288px;line-height:120.00000477%;font-family:Lavi;-inkscape-font-specification:Lavi;text-align:center;writing-mode:lr-tb;text-anchor:middle"
         id="flowPara1087">Andrew Godfrey ★ Andrey Alekseenko ★ Anna Orlova ★ Antan Karmola ★ Anthony Edlin ★ Ardash Crowfoot</flowPara><flowPara
         style="font-style:normal;font-variant:normal;font-weight:normal;font-stretch:normal;font-size:44.70226288px;line-height:120.00000477%;font-family:Lavi;-inkscape-font-specification:Lavi;text-align:center;writing-mode:lr-tb;text-anchor:middle"
         id="flowPara1089">Arjun Chennu ★ Arnulf ★ Arturo J. Pérez ★ Austin Knowles ★ Axel Bordelon ★ Bastian Hougaard ★ Ben Evans</flowPara><flowPara
         style="font-style:normal;font-variant:normal;font-weight:normal;font-stretch:normal;font-size:44.70226288px;line-height:120.00000477%;font-family:Lavi;-inkscape-font-specification:Lavi;text-align:center;writing-mode:lr-tb;text-anchor:middle"
         id="flowPara1091">blacksheep33512 ★ Boonsak Watanavisit ★ BoxBoy ★ Brett Smith ★ Brian Behnke ★ Bryan Butler ★ BS</flowPara><flowPara
         style="font-style:normal;font-variant:normal;font-weight:normal;font-stretch:normal;font-size:44.70226288px;line-height:120.00000477%;font-family:Lavi;-inkscape-font-specification:Lavi;text-align:center;writing-mode:lr-tb;text-anchor:middle"
         id="flowPara1093">Bui Dang Hai Trieu ★ carlos levischi ★ carolin der keks ★ Cedric Wohlleber ★ Chance Millar ★ Charles★ Chaz Straney</flowPara><flowPara
         style="font-style:normal;font-variant:normal;font-weight:normal;font-stretch:normal;font-size:44.70226288px;line-height:120.00000477%;font-family:Lavi;-inkscape-font-specification:Lavi;text-align:center;writing-mode:lr-tb;text-anchor:middle"
         id="flowPara1095">Chris ★ Chris Sakkas ★ Christian Howe ★ Christophe Carré ★ Christopher Bates ★ Christopher Rodriguez</flowPara><flowPara
         style="font-style:normal;font-variant:normal;font-weight:normal;font-stretch:normal;font-size:44.70226288px;line-height:120.00000477%;font-family:Lavi;-inkscape-font-specification:Lavi;text-align:center;writing-mode:lr-tb;text-anchor:middle"
         id="flowPara1097">Christopher Vollick ★ Colby Driedger ★ Damien ★ Daniel ★ Daniel Lynn ★ Danijel ★ David Brennan</flowPara><flowPara
         style="font-style:normal;font-variant:normal;font-weight:normal;font-stretch:normal;font-size:44.70226288px;line-height:120.00000477%;font-family:Lavi;-inkscape-font-specification:Lavi;text-align:center;writing-mode:lr-tb;text-anchor:middle"
         id="flowPara1099">David Kerdudo ★ David Tang ★ DecMoon ★ Derek Zan ★ Dio Fantasma ★ Dmitry ★ Doug Moen ★ douze12 ★ Drew Fisher</flowPara><flowPara
         style="font-style:normal;font-variant:normal;font-weight:normal;font-stretch:normal;font-size:44.70226288px;line-height:120.00000477%;font-family:Lavi;-inkscape-font-specification:Lavi;text-align:center;writing-mode:lr-tb;text-anchor:middle"
         id="flowPara1101">Durand D’souza ★ Elijah Brown ★ Elisha Condon ★ -epsilon- ★ Eric Schulz ★ Faolan Grady ★ francisco dario aviltis</flowPara><flowPara
         style="font-style:normal;font-variant:normal;font-weight:normal;font-stretch:normal;font-size:44.70226288px;line-height:120.00000477%;font-family:Lavi;-inkscape-font-specification:Lavi;text-align:center;writing-mode:lr-tb;text-anchor:middle"
         id="flowPara1103">Francois Schnell ★ Francou ★ Garret Patterson ★ Gary Thomas ★ Ginny Hendricks ★ GreenAngel5 ★ Grigory Petrov</flowPara><flowPara
         style="font-style:normal;font-variant:normal;font-weight:normal;font-stretch:normal;font-size:44.70226288px;line-height:120.00000477%;font-family:Lavi;-inkscape-font-specification:Lavi;text-align:center;writing-mode:lr-tb;text-anchor:middle"
         id="flowPara1105">Grzegorz Wozniak ★ G. S. Davis ★ Guillaume ★ Gustav Strömbom ★ happy2ice ★ Happy Mimic ★ Helmar Suschka</flowPara><flowPara
         style="font-style:normal;font-variant:normal;font-weight:normal;font-stretch:normal;font-size:44.70226288px;line-height:120.00000477%;font-family:Lavi;-inkscape-font-specification:Lavi;text-align:center;writing-mode:lr-tb;text-anchor:middle"
         id="flowPara1107">Henning Döscher ★ Henry Ståhle ★ HobbyThor ★ Ilyas ★ Irina Rempt ★ Jacob ★ James Frazier ★ Jamie Sutherland ★ Janusz</flowPara><flowPara
         style="font-style:normal;font-variant:normal;font-weight:normal;font-stretch:normal;font-size:44.70226288px;line-height:120.00000477%;font-family:Lavi;-inkscape-font-specification:Lavi;text-align:center;writing-mode:lr-tb;text-anchor:middle"
         id="flowPara1109">Jason ★ Jeffrey Schneider ★ Jessey Wright ★ Jessica Gadling ★ Joao Luiz ★ John ★ John Gholson ★ John Urquhart Ferguson</flowPara><flowPara
         style="font-style:normal;font-variant:normal;font-weight:normal;font-stretch:normal;font-size:44.70226288px;line-height:120.00000477%;font-family:Lavi;-inkscape-font-specification:Lavi;text-align:center;writing-mode:lr-tb;text-anchor:middle"
         id="flowPara1111">Jonas Peter ★ Jonathan Leroy ★ Jonathan Walsh ★ Justus Kat ★ Kailyce ★ Kai-Ting (Danil) Ko ★ Kari Lehto ★ Kathryn Wuerstl</flowPara><flowPara
         style="font-style:normal;font-variant:normal;font-weight:normal;font-stretch:normal;font-size:44.70226288px;line-height:120.00000477%;font-family:Lavi;-inkscape-font-specification:Lavi;text-align:center;writing-mode:lr-tb;text-anchor:middle"
         id="flowPara1113">kazakirinyancat ★ Ken Mingyuan Xia ★ Kevin Estalella ★ Kevin Trévien ★ Kingsquee ★ Kurain ★ La Plume ★ Lenod ★ Liang</flowPara><flowPara
         style="font-style:normal;font-variant:normal;font-weight:normal;font-stretch:normal;font-size:44.70226288px;line-height:120.00000477%;font-family:Lavi;-inkscape-font-specification:Lavi;text-align:center;writing-mode:lr-tb;text-anchor:middle"
         id="flowPara1115">Lise-Lotte Pesonen ★ Lloyd Ash Pyne ★ Lorentz Grip ★ Lorenzo Leonini ★ Magnus Kronnäs ★ Marc et Rick ★ Marco ★ marcus</flowPara><flowPara
         style="font-style:normal;font-variant:normal;font-weight:normal;font-stretch:normal;font-size:44.70226288px;line-height:120.00000477%;font-family:Lavi;-inkscape-font-specification:Lavi;text-align:center;writing-mode:lr-tb;text-anchor:middle"
         id="flowPara1117">Matt Lichtenwalner ★ Michael F. Schönitzer ★ Michael Gill ★ Michael Polushkin ★ Mike Mosher ★ Mohamed El Banna ★ Nabispace</flowPara><flowPara
         style="font-style:normal;font-variant:normal;font-weight:normal;font-stretch:normal;font-size:44.70226288px;line-height:120.00000477%;font-family:Lavi;-inkscape-font-specification:Lavi;text-align:center;writing-mode:lr-tb;text-anchor:middle"
         id="flowPara1119">Nazhif ★ Nicholas DeLateur ★ Nicola Angel ★ Oleg Schelykalnov ★ Olga Bikmullina ★ Olivier Amrein ★ Olivier Gavrois ★ Omar Willey</flowPara><flowPara
         style="font-style:normal;font-variant:normal;font-weight:normal;font-stretch:normal;font-size:44.70226288px;line-height:120.00000477%;font-family:Lavi;-inkscape-font-specification:Lavi;text-align:center;writing-mode:lr-tb;text-anchor:middle"
         id="flowPara1121">Oscar Moreno ★ Pato Acevedo ★ Patrick Dezothez ★ Patrick Gamblin ★ Paul ★ Pavel Semenov ★ Peter Moonen ★ Petr Vlašic</flowPara><flowPara
         style="font-style:normal;font-variant:normal;font-weight:normal;font-stretch:normal;font-size:44.70226288px;line-height:120.00000477%;font-family:Lavi;-inkscape-font-specification:Lavi;text-align:center;writing-mode:lr-tb;text-anchor:middle"
         id="flowPara1123">Pierre Vuillemin ★ Pranab Shenoy ★ Pummie ★ Raghavendra Kamath ★ Rajul Gupta ★ Ramel Hill ★ Ray Brown ★ Rebecca Morris</flowPara><flowPara
         style="font-style:normal;font-variant:normal;font-weight:normal;font-stretch:normal;font-size:44.70226288px;line-height:120.00000477%;font-family:Lavi;-inkscape-font-specification:Lavi;text-align:center;writing-mode:lr-tb;text-anchor:middle"
         id="flowPara1125">ResidentEvilArtist ★ Reuben Tracey ★ Roberto Zaghis ★ Roman ★ Rumiko Hoshino ★ Rustin Simons ★ Ryan ★ Sally Bridgewater</flowPara><flowPara
         style="font-style:normal;font-variant:normal;font-weight:normal;font-stretch:normal;font-size:44.70226288px;line-height:120.00000477%;font-family:Lavi;-inkscape-font-specification:Lavi;text-align:center;writing-mode:lr-tb;text-anchor:middle"
         id="flowPara1127">Sami T ★ Samuel Mitson ★ Scott Petrovic ★ Scott Smiesko ★ ShadowMist ★ shafak ★ Shawn Meyer ★ Soriac ★ Stanislav ★ Stephan Theelke</flowPara><flowPara
         style="font-style:normal;font-variant:normal;font-weight:normal;font-stretch:normal;font-size:44.70226288px;line-height:120.00000477%;font-family:Lavi;-inkscape-font-specification:Lavi;text-align:center;writing-mode:lr-tb;text-anchor:middle"
         id="flowPara1129">Stephen Bates ★ Steven Bennett ★ Stuart Dickson ★ surt ★ Takao Yamada ★ TamaskanLEM ★ tar8156 ★ TheFaico ★ thibhul ★ Thomas Schwery</flowPara><flowPara
         style="font-style:normal;font-variant:normal;font-weight:normal;font-stretch:normal;font-size:44.70226288px;line-height:120.00000477%;font-family:Lavi;-inkscape-font-specification:Lavi;text-align:center;writing-mode:lr-tb;text-anchor:middle"
         id="flowPara1131">T.H. Porter ★ Tim Burbank ★ Tim J. ★ Tom Savage ★ Travis Humble ★ Tristy ★ Tyson Tan ★ Venus ★ Vera Vukovic ★ Victoria ★ Victoria White</flowPara><flowPara
         style="font-style:normal;font-variant:normal;font-weight:normal;font-stretch:normal;font-size:44.70226288px;line-height:120.00000477%;font-family:Lavi;-inkscape-font-specification:Lavi;text-align:center;writing-mode:lr-tb;text-anchor:middle"
         id="flowPara1133">WakoTabacco ★ Wei-Ching Shyu ★ Westen Curry ★ Xavier Claude ★ Yalyn Vinkindo ★ Yaroslav ★ Yasmin ★ Zeni Pong</flowPara></flowRoot>    <flowRoot
       xml:space="preserve"
       id="flowRoot2987-7-8"
       style="font-style:normal;font-variant:normal;font-weight:normal;font-stretch:normal;line-height:0.01%;font-family:Arial;-inkscape-font-specification:Arial;text-align:justify;letter-spacing:0px;word-spacing:0px;text-anchor:start;display:inline;fill:#000000;fill-opacity:1;stroke:none"
       transform="matrix(0.7498186,0,0,0.77430121,198.02904,1001.6041)"><flowRegion
         id="flowRegion2989-7-8"><rect
           id="rect2991-7-5"
           width="3063.4749"
           height="999.68927"
           x="-141.0901"
           y="266.68515"
           style="text-align:justify;text-anchor:start" /></flowRegion><flowPara
         style="font-style:normal;font-variant:normal;font-weight:normal;font-stretch:normal;font-size:36.74726105px;line-height:120.00000477%;font-family:Lavi;-inkscape-font-specification:Lavi;text-align:center;writing-mode:lr-tb;text-anchor:middle"
         id="flowPara1364">Adrian Lord ★ Ahmad Ali ★ al ★ Alandran ★ Alcide ★ Alexander Bülow Tomassen ★ Alexander Kashev ★ Alex Bradaric ★ Alex Cochrane ★ Alexey Golubev</flowPara><flowPara
         style="font-style:normal;font-variant:normal;font-weight:normal;font-stretch:normal;font-size:36.74726105px;line-height:120.00000477%;font-family:Lavi;-inkscape-font-specification:Lavi;text-align:center;writing-mode:lr-tb;text-anchor:middle"
         id="flowPara1954">Ali Poulton (Aunty Pol) ★ Amy ★ Andrew ★ Andy Gelme ★ Angelica Beltran ★ anonymous ★ Antoine ★ Antonio Mendoza ★ Antonio Parisi ★ Axel Philipsenburg</flowPara><flowPara
         style="font-style:normal;font-variant:normal;font-weight:normal;font-stretch:normal;font-size:36.74726105px;line-height:120.00000477%;font-family:Lavi;-inkscape-font-specification:Lavi;text-align:center;writing-mode:lr-tb;text-anchor:middle"
         id="flowPara1956">barbix ★ BataMoth ★ Bela Bargel ★ Bernd ★ Bernhard Saumweber ★ Betsy Luntao ★ Birger Tuer Thorvaldsen ★ blueswag ★ Boris Fauret ★ Brett</flowPara><flowPara
         style="font-style:normal;font-variant:normal;font-weight:normal;font-stretch:normal;font-size:36.74726105px;line-height:120.00000477%;font-family:Lavi;-inkscape-font-specification:Lavi;text-align:center;writing-mode:lr-tb;text-anchor:middle"
         id="flowPara1958">Bryan Rosander ★ BXS ★ Chris Kastorff ★ Chris Radcliff ★ Christian Gruenwaldner ★ Clara Dexter ★ codl ★ Comics by Shoonyah Studio ★ Conway Scott Smith</flowPara><flowPara
         style="font-style:normal;font-variant:normal;font-weight:normal;font-stretch:normal;font-size:36.74726105px;line-height:120.00000477%;font-family:Lavi;-inkscape-font-specification:Lavi;text-align:center;writing-mode:lr-tb;text-anchor:middle"
         id="flowPara1960">Coppin Olivier ★ Craig Bogun ★ Crystal Bollinger ★ Cuthbert Williams ★ Cyol ★ Cyrille Largillier ★ Cyril Paciullo ★ Daniel Björkman ★ Dan Norder</flowPara><flowPara
         style="font-style:normal;font-variant:normal;font-weight:normal;font-stretch:normal;font-size:36.74726105px;line-height:120.00000477%;font-family:Lavi;-inkscape-font-specification:Lavi;text-align:center;writing-mode:lr-tb;text-anchor:middle"
         id="flowPara1962">Dan Stolyarov ★ David ★ Davi Na ★ Dawn Blair ★ Deanna ★ Denis Bolkovskis ★ Dezponia Veil ★ DiCola Jamn ★ Dmitriy Yakimov ★ Donald Hayward</flowPara><flowPara
         style="font-style:normal;font-variant:normal;font-weight:normal;font-stretch:normal;font-size:36.74726105px;line-height:120.00000477%;font-family:Lavi;-inkscape-font-specification:Lavi;text-align:center;writing-mode:lr-tb;text-anchor:middle"
         id="flowPara1964">Douglas Oliveira Pessoa ★ Duke ★ Eitan Goldshtrom ★ Emery Schulz ★ Enrico Billich ★ Erik Moeller ★ Esteban Manchado Velázquez ★ Fen Yun Fat</flowPara><flowPara
         style="font-style:normal;font-variant:normal;font-weight:normal;font-stretch:normal;font-size:36.74726105px;line-height:120.00000477%;font-family:Lavi;-inkscape-font-specification:Lavi;text-align:center;writing-mode:lr-tb;text-anchor:middle"
         id="flowPara1966">Fernando Nunes ★ ida nilsen ★ Igor ★ Ivan Korotkov ★ Jamie Hunter ★ Jason Baldus ★ Jazyl Homavazir ★ JDB ★ Jean-Baptiste Hebbrecht</flowPara><flowPara
         style="font-style:normal;font-variant:normal;font-weight:normal;font-stretch:normal;font-size:36.74726105px;line-height:120.00000477%;font-family:Lavi;-inkscape-font-specification:Lavi;text-align:center;writing-mode:lr-tb;text-anchor:middle"
         id="flowPara1968">Jean-Gabriel LOQUET ★ Jhonny Rosa ★ Jim ★ Jim Street ★ Joerg Raidt ★ Joern Konopka ★ joe rutledge ★ John ★ Jon Brake ★ Jorge Bernal ★ Joseph Bowman</flowPara><flowPara
         style="font-style:normal;font-variant:normal;font-weight:normal;font-stretch:normal;font-size:36.74726105px;line-height:120.00000477%;font-family:Lavi;-inkscape-font-specification:Lavi;text-align:center;writing-mode:lr-tb;text-anchor:middle"
         id="flowPara1970">Josh ★ Josh Cavalier ★ Juju Mendivil ★ Julian Dauner ★ Julia Velkova ★ Kate ★ Kroet ★ Lars Ivar Igesund ★ Liselle ★ Liska Myers ★ Louis Yung</flowPara><flowPara
         style="font-style:normal;font-variant:normal;font-weight:normal;font-stretch:normal;font-size:36.74726105px;line-height:120.00000477%;font-family:Lavi;-inkscape-font-specification:Lavi;text-align:center;writing-mode:lr-tb;text-anchor:middle"
         id="flowPara1972">Luc Stepniewski ★ Luke Hochrein ★ Mahwiii ★ Mancy S ★ Manu Järvinen ★ Martin Owens ★ Mary Brownlee ★ Masked Admirer ★ Megan Sandiford ★ Michael</flowPara><flowPara
         style="font-style:normal;font-variant:normal;font-weight:normal;font-stretch:normal;font-size:36.74726105px;line-height:120.00000477%;font-family:Lavi;-inkscape-font-specification:Lavi;text-align:center;writing-mode:lr-tb;text-anchor:middle"
         id="flowPara1974">Michael Pureka ★ Michelle Pereira Garcia ★ Miroslav ★ mjkj ★ Moonsia ★ Moritz Fuchs ★ Muriah Summer ★ Mylène Cassen ★ Nicholas Terranova</flowPara><flowPara
         style="font-style:normal;font-variant:normal;font-weight:normal;font-stretch:normal;font-size:36.74726105px;line-height:120.00000477%;font-family:Lavi;-inkscape-font-specification:Lavi;text-align:center;writing-mode:lr-tb;text-anchor:middle"
         id="flowPara1976">Nicole Heersema ★ Nielas Sinclair ★ Nikita Stafeev ★ Noble Hays ★ Noelia Calles Marcos ★ Nora Czaykowski ★ No Reward ★ Nyx ★ Öykü Su Gürler</flowPara><flowPara
         style="font-style:normal;font-variant:normal;font-weight:normal;font-stretch:normal;font-size:36.74726105px;line-height:120.00000477%;font-family:Lavi;-inkscape-font-specification:Lavi;text-align:center;writing-mode:lr-tb;text-anchor:middle"
         id="flowPara1978">Ozone S. ★ Pat David ★ Patrick Kennedy ★ Paul ★ Pet0r ★ Peter ★ Peter ★ Pierre Geier ★ Pyves &amp; Ran ★ Ray Cruz ★ Raymond Fullon ★ Ray Powell</flowPara><flowPara
         style="font-style:normal;font-variant:normal;font-weight:normal;font-stretch:normal;font-size:36.74726105px;line-height:120.00000477%;font-family:Lavi;-inkscape-font-specification:Lavi;text-align:center;writing-mode:lr-tb;text-anchor:middle"
         id="flowPara1980">Rebecca ★ Rebekah Hopper ★ Rei ★ Reorx Meng ★ Ret Samys ★ rictic ★ Robin Moussu ★ Sean Adams ★ Sebastien ★ Sevag Bakalian ★ Shadefalcon</flowPara><flowPara
         style="font-style:normal;font-variant:normal;font-weight:normal;font-stretch:normal;font-size:36.74726105px;line-height:120.00000477%;font-family:Lavi;-inkscape-font-specification:Lavi;text-align:center;writing-mode:lr-tb;text-anchor:middle"
         id="flowPara1982">Simon Isenberg ★ Simon Moffitt ★ Siora ★ Sonja Reimann-Klieber ★ Sonny W. ★ Stanislav German-Evtushenko ★ Stephen Smoogen ★ Surabhi Gaur</flowPara><flowPara
         style="font-style:normal;font-variant:normal;font-weight:normal;font-stretch:normal;font-size:36.74726105px;line-height:120.00000477%;font-family:Lavi;-inkscape-font-specification:Lavi;text-align:center;writing-mode:lr-tb;text-anchor:middle"
         id="flowPara1984">Taedirk ★ Tas Kartas ★ Terry Hancock (Personal) ★ Thomas Citharel ★ Thomas Werner ★ Thor Galle ★ Thornae ★ Timothy Boersma ★ Tomas Hajek</flowPara><flowPara
         style="font-style:normal;font-variant:normal;font-weight:normal;font-stretch:normal;font-size:36.74726105px;line-height:120.00000477%;font-family:Lavi;-inkscape-font-specification:Lavi;text-align:center;writing-mode:lr-tb;text-anchor:middle"
         id="flowPara1986">Tomáš Slapnička ★ Tom Dickson ★ tree ★ uglyheroes ★ Umbra Draconis ★ Vitaly Tokarenko ★ Vladislav Kurdyukov ★ Wander ★ Wilhelmine Faust</flowPara><flowPara
         style="font-style:normal;font-variant:normal;font-weight:normal;font-stretch:normal;font-size:36.74726105px;line-height:120.00000477%;font-family:Lavi;-inkscape-font-specification:Lavi;text-align:center;writing-mode:lr-tb;text-anchor:middle"
         id="flowPara1988">William Crumpler ★ Źmicier Kušnaroŭ ★ zubr kabbi</flowPara></flowRoot>    <flowRoot
       xml:space="preserve"
       id="flowRoot2987-7-7"
       style="font-style:normal;font-variant:normal;font-weight:normal;font-stretch:normal;line-height:0.01%;font-family:Arial;-inkscape-font-specification:Arial;text-align:justify;letter-spacing:0px;word-spacing:0px;text-anchor:start;display:inline;fill:#000000;fill-opacity:1;stroke:none"
       transform="matrix(0.61417137,0,0,0.63422492,711.92904,-518.3553)"><flowRegion
         id="flowRegion2989-7-9"><rect
           id="rect2991-7-2"
           width="2004.6675"
           height="529.34503"
           x="-141.0901"
           y="266.68515"
           style="text-align:justify;text-anchor:start" /></flowRegion><flowPara
         style="font-style:normal;font-variant:normal;font-weight:normal;font-stretch:normal;font-size:57.68143463px;line-height:120.00000477%;font-family:Lavi;-inkscape-font-specification:Lavi;text-align:center;writing-mode:lr-tb;text-anchor:middle"
         id="flowPara4208">Arne Brix ★ Boudewijn Rempt ★ Brent Houghton ★ Casey Tatum</flowPara><flowPara
         style="font-style:normal;font-variant:normal;font-weight:normal;font-stretch:normal;font-size:57.68143463px;line-height:120.00000477%;font-family:Lavi;-inkscape-font-specification:Lavi;text-align:center;writing-mode:lr-tb;text-anchor:middle"
         id="flowPara143">Davis Aites ★ Ejner Fergo ★ Enrique Lopez ★ Francois Didier</flowPara><flowPara
         style="font-style:normal;font-variant:normal;font-weight:normal;font-stretch:normal;font-size:57.68143463px;line-height:120.00000477%;font-family:Lavi;-inkscape-font-specification:Lavi;text-align:center;writing-mode:lr-tb;text-anchor:middle"
         id="flowPara145">freecultureftw ★ Jonathan Ringstad ★ Julio Avila ★ Levi Kornelsen</flowPara><flowPara
         style="font-style:normal;font-variant:normal;font-weight:normal;font-stretch:normal;font-size:57.68143463px;line-height:120.00000477%;font-family:Lavi;-inkscape-font-specification:Lavi;text-align:center;writing-mode:lr-tb;text-anchor:middle"
         id="flowPara147">Matthew Reynolds ★ Mefflin Ross Bullis-bates ★ Michael Oliveira</flowPara><flowPara
         style="font-style:normal;font-variant:normal;font-weight:normal;font-stretch:normal;font-size:57.68143463px;line-height:120.00000477%;font-family:Lavi;-inkscape-font-specification:Lavi;text-align:center;writing-mode:lr-tb;text-anchor:middle"
         id="flowPara149">Nguyen Minh Trung ★ Nicki Aya ★ NinjaKnight Comics ★ Olivier Brun</flowPara><flowPara
         style="font-style:normal;font-variant:normal;font-weight:normal;font-stretch:normal;font-size:57.68143463px;line-height:120.00000477%;font-family:Lavi;-inkscape-font-specification:Lavi;text-align:center;writing-mode:lr-tb;text-anchor:middle"
         id="flowPara151">Praveen Bhamidipati ★ Ricardo Muggli ★ RJ van der Weide</flowPara><flowPara
         style="font-style:normal;font-variant:normal;font-weight:normal;font-stretch:normal;font-size:57.68143463px;line-height:120.00000477%;font-family:Lavi;-inkscape-font-specification:Lavi;text-align:center;writing-mode:lr-tb;text-anchor:middle"
         id="flowPara153">Roman Burdun ★ Urm</flowPara></flowRoot>    <flowRoot
       xml:space="preserve"
       id="flowRoot2987-7-7-3"
       style="font-style:normal;font-variant:normal;font-weight:normal;font-stretch:normal;line-height:0.01%;font-family:Arial;-inkscape-font-specification:Arial;text-align:justify;letter-spacing:0px;word-spacing:0px;text-anchor:start;display:inline;fill:#000000;fill-opacity:1;stroke:none"
       transform="matrix(0.72857232,0,0,0.75236127,584.32456,-803.75769)"><flowRegion
         id="flowRegion2989-7-9-5"><rect
           id="rect2991-7-2-5"
           width="2084.9294"
           height="180.51283"
           x="-141.0901"
           y="266.68515"
           style="text-align:justify;text-anchor:start" /></flowRegion><flowPara
         style="font-style:normal;font-variant:normal;font-weight:normal;font-stretch:normal;font-size:60.27801132px;line-height:120.00000477%;font-family:Lavi;-inkscape-font-specification:Lavi;text-align:center;writing-mode:lr-tb;text-anchor:middle"
         id="flowPara4196">Jónatan Nilsson</flowPara><flowPara
         style="font-style:normal;font-variant:normal;font-weight:normal;font-stretch:normal;font-size:60.27801132px;line-height:120.00000477%;font-family:Lavi;-inkscape-font-specification:Lavi;text-align:center;writing-mode:lr-tb;text-anchor:middle"
         id="flowPara157">Alex Kotenko ★ Philippe Jean Edward Bateman</flowPara></flowRoot>  </g>
</svg>
