<?xml version="1.0" encoding="UTF-8" standalone="no"?>
<!-- Created with Inkscape (http://www.inkscape.org/) -->

<svg
   xmlns:dc="http://purl.org/dc/elements/1.1/"
   xmlns:cc="http://creativecommons.org/ns#"
   xmlns:rdf="http://www.w3.org/1999/02/22-rdf-syntax-ns#"
   xmlns:svg="http://www.w3.org/2000/svg"
   xmlns="http://www.w3.org/2000/svg"
   xmlns:xlink="http://www.w3.org/1999/xlink"
   xmlns:sodipodi="http://sodipodi.sourceforge.net/DTD/sodipodi-0.dtd"
   xmlns:inkscape="http://www.inkscape.org/namespaces/inkscape"
   id="svg2"
   version="1.1"
   inkscape:version="0.92.3 (2405546, 2018-03-11)"
   width="2481"
   height="3503"
   sodipodi:docname="E23P07.svg">
  <metadata
     id="metadata8">
    <rdf:RDF>
      <cc:Work
         rdf:about="">
        <dc:format>image/svg+xml</dc:format>
        <dc:type
           rdf:resource="http://purl.org/dc/dcmitype/StillImage" />
        <dc:title />
      </cc:Work>
    </rdf:RDF>
  </metadata>
  <defs
     id="defs6">
    <filter
       inkscape:collect="always"
       style="color-interpolation-filters:sRGB"
       id="filter4367-7-1"
       x="-0.0043557761"
       width="1.0087116"
       y="-0.020747934"
       height="1.0414959"
       inkscape:label="graphic-blending">
      <feGaussianBlur
         inkscape:collect="always"
         stdDeviation="0.59122338"
         id="feGaussianBlur4369-9-2" />
    </filter>
    <filter
       inkscape:collect="always"
       style="color-interpolation-filters:sRGB"
       id="filter4367-7"
       x="-0.0043557761"
       width="1.0087116"
       y="-0.020747934"
       height="1.0414959"
       inkscape:label="graphic-blending">
      <feGaussianBlur
         inkscape:collect="always"
         stdDeviation="0.59122338"
         id="feGaussianBlur4369-9" />
    </filter>
    <filter
       inkscape:collect="always"
       style="color-interpolation-filters:sRGB"
       id="filter4289"
       x="-0.0076879989"
       width="1.015376"
       y="-0.012777842"
       height="1.0255557">
      <feGaussianBlur
         inkscape:collect="always"
         stdDeviation="0.69527307"
         id="feGaussianBlur4291" />
    </filter>
    <filter
       inkscape:collect="always"
       style="color-interpolation-filters:sRGB"
       id="filter4367"
       x="-0.0043557761"
       width="1.0087116"
       y="-0.020747934"
       height="1.0414959"
       inkscape:label="graphic-blending">
      <feGaussianBlur
         inkscape:collect="always"
         stdDeviation="0.59122338"
         id="feGaussianBlur4369" />
    </filter>
    <filter
       style="color-interpolation-filters:sRGB"
       id="filter4375-4-1-1-1-9"
       inkscape:label="deevad outline effect">
      <feFlood
         id="feFlood4377-7-9-0-8-1"
         flood-opacity="1"
         flood-color="rgb(0,0,0)"
         result="flood" />
      <feComposite
         id="feComposite4379-3-8-8-2-77"
         in2="SourceGraphic"
         in="flood"
         operator="in"
         result="composite1" />
      <feMorphology
         id="feMorphology4393-1-0-49-8-9"
         operator="dilate"
         radius="2.8999999999999999"
         result="result3" />
      <feComposite
         id="feComposite4385-9-5-7-0-8"
         in2="result3"
         in="SourceGraphic"
         operator="over"
         result="composite2" />
    </filter>
    <filter
       inkscape:collect="always"
       style="color-interpolation-filters:sRGB"
       id="filter4367-7-1-7"
       x="-0.0043557761"
       width="1.0087116"
       y="-0.020747934"
       height="1.0414959"
       inkscape:label="graphic-blending">
      <feGaussianBlur
         inkscape:collect="always"
         stdDeviation="0.59122338"
         id="feGaussianBlur4369-9-2-5" />
    </filter>
    <filter
       inkscape:collect="always"
       style="color-interpolation-filters:sRGB"
       id="filter4367-7-6"
       x="-0.0043557761"
       width="1.0087116"
       y="-0.020747934"
       height="1.0414959"
       inkscape:label="graphic-blending">
      <feGaussianBlur
         inkscape:collect="always"
         stdDeviation="0.59122338"
         id="feGaussianBlur4369-9-29" />
    </filter>
    <filter
       inkscape:collect="always"
       style="color-interpolation-filters:sRGB"
       id="filter4367-9"
       x="-0.0043557761"
       width="1.0087116"
       y="-0.020747934"
       height="1.0414959"
       inkscape:label="graphic-blending">
      <feGaussianBlur
         inkscape:collect="always"
         stdDeviation="0.59122338"
         id="feGaussianBlur4369-3" />
    </filter>
    <filter
       style="color-interpolation-filters:sRGB"
       id="filter4375-4-1-1-1-9-3"
       inkscape:label="deevad outline poster">
      <feFlood
         id="feFlood4377-7-9-0-8-1-5"
         flood-opacity="1"
         flood-color="rgb(0,0,0)"
         result="flood" />
      <feComposite
         id="feComposite4379-3-8-8-2-77-6"
         in2="SourceGraphic"
         in="flood"
         operator="in"
         result="composite1" />
      <feMorphology
         id="feMorphology4393-1-0-49-8-9-2"
         operator="dilate"
         radius="3"
         result="result3" />
      <feComposite
         id="feComposite4385-9-5-7-0-8-9"
         in2="result3"
         in="SourceGraphic"
         operator="over"
         result="composite2" />
    </filter>
  </defs>
  <sodipodi:namedview
     pagecolor="#ffffff"
     bordercolor="#666666"
     borderopacity="1"
     objecttolerance="10"
     gridtolerance="10"
     guidetolerance="10"
     inkscape:pageopacity="0"
     inkscape:pageshadow="2"
     inkscape:window-width="1920"
     inkscape:window-height="1017"
     id="namedview4"
     showgrid="false"
     inkscape:zoom="0.46000001"
     inkscape:cx="1232.1606"
     inkscape:cy="753.84306"
     inkscape:window-x="1672"
     inkscape:window-y="-8"
     inkscape:window-maximized="1"
     inkscape:current-layer="layer1"
     inkscape:document-rotation="0" />
  <g
     inkscape:groupmode="layer"
     id="layer2"
     inkscape:label="artwork"
     sodipodi:insensitive="true">
    <image
       sodipodi:absref="C:\Users\ato\OneDrive - Høgskulen i Volda\Vevsida\Teikneseriesida\Pepar &amp; Gulrot\ep23_Take-a-Chance_lang-pack\lang\nn\../gfx_Pepper-and-Carrot_by-David-Revoy_E23P07.png"
       xlink:href="../gfx_Pepper-and-Carrot_by-David-Revoy_E23P07.png"
       width="2481"
       height="3503"
       id="image10"
       x="0"
       y="0" />
  </g>
  <g
     inkscape:groupmode="layer"
     id="layer3"
     inkscape:label="speechbubbles">
    <path
       style="fill:#ffffff;fill-rule:evenodd;stroke:none;stroke-width:0.73545778px;stroke-linecap:butt;stroke-linejoin:miter;stroke-opacity:1"
       d="m 1414.8497,324.50351 c -41.9865,61.54181 -8.4335,153.34018 64.8449,177.13457 52.0825,18.04054 111.5699,22.86149 165.585,10.50751 51.5529,-12.90175 99.6183,-50.44476 105.8228,-103.22962 12.0474,-41.39877 -10.8125,-85.56841 -51.3815,-103.67528 -59.1893,-28.11682 -128.3801,-19.5677 -192.0845,-16.25672 -33.2872,4.26862 -67.1412,14.09063 -92.7867,35.51954 z"
       id="path4347"
       inkscape:connector-curvature="0" />
    <path
       style="fill:#ffffff;fill-rule:evenodd;stroke:none;stroke-width:1px;stroke-linecap:butt;stroke-linejoin:miter;stroke-opacity:1"
       d="m 1765.3654,643.65162 c -95.1268,4.0684 -132.7849,-85.20719 -136.2783,-153.13606 -2.8753,-55.91161 -34.5072,-46.94328 -31.2143,3.23913 3.2928,50.1824 50.0846,172.46208 167.4926,149.89693 z"
       id="path4360"
       inkscape:connector-curvature="0"
       sodipodi:nodetypes="cssc" />
  </g>
  <g
     inkscape:groupmode="layer"
     id="layer1"
     inkscape:label="txt">
    <text
       xml:space="preserve"
       style="font-style:normal;font-variant:normal;font-weight:normal;font-stretch:normal;line-height:0%;font-family:Lavi;-inkscape-font-specification:Lavi;text-align:center;letter-spacing:0px;word-spacing:0px;text-anchor:middle;opacity:0.7;fill:#784421;fill-opacity:1;stroke:#502d16;stroke-width:3.4000001;stroke-miterlimit:4;stroke-dasharray:none;stroke-opacity:1;filter:url(#filter4367)"
       x="405.76248"
       y="265.07324"
       id="text4246-3"><tspan
         sodipodi:role="line"
         style="font-style:normal;font-variant:normal;font-weight:normal;font-stretch:normal;font-size:95.64933777px;line-height:1.25;font-family:Cursivah;-inkscape-font-specification:Cursivah;text-align:start;text-anchor:start;fill:#784421;stroke:#502d16;stroke-width:3.4000001;stroke-miterlimit:4;stroke-dasharray:none;stroke-opacity:1"
         x="405.76248"
         y="265.07324"
         id="tspan4144-7">Kjendis</tspan></text>
    <text
       xml:space="preserve"
       style="font-style:normal;font-variant:normal;font-weight:normal;font-stretch:normal;font-size:45px;line-height:1.25;font-family:Lavi;-inkscape-font-specification:Lavi;font-variant-ligatures:normal;font-variant-position:normal;font-variant-caps:normal;font-variant-numeric:normal;font-variant-alternates:normal;font-variant-east-asian:normal;font-feature-settings:normal;text-indent:0;text-align:start;text-decoration:none;text-decoration-line:none;text-decoration-style:solid;text-decoration-color:#000000;letter-spacing:0px;word-spacing:0px;text-transform:none;writing-mode:lr-tb;direction:ltr;text-orientation:mixed;dominant-baseline:auto;baseline-shift:baseline;text-anchor:start;white-space:normal;shape-padding:0;opacity:0.5;vector-effect:none;fill:#000000;fill-opacity:1;stroke:#966431;stroke-width:3.78753948;stroke-linecap:butt;stroke-linejoin:miter;stroke-miterlimit:4;stroke-dasharray:none;stroke-dashoffset:0;stroke-opacity:1;filter:url(#filter4289)"
       x="-279.06573"
       y="1481.1207"
       id="text4246-36"
       transform="matrix(0.95619058,-0.57667245,0.54136471,1.0214699,-63.904458,-985.80263)"><tspan
         sodipodi:role="line"
         style="font-style:normal;font-variant:normal;font-weight:normal;font-stretch:normal;font-size:45px;line-height:1.25;font-family:Lavi;-inkscape-font-specification:Lavi;font-variant-ligatures:normal;font-variant-position:normal;font-variant-caps:normal;font-variant-numeric:normal;font-variant-alternates:normal;font-variant-east-asian:normal;font-feature-settings:normal;text-indent:0;text-align:start;text-decoration:none;text-decoration-line:none;text-decoration-style:solid;text-decoration-color:#000000;letter-spacing:0px;word-spacing:0px;text-transform:none;writing-mode:lr-tb;direction:ltr;text-orientation:mixed;dominant-baseline:auto;baseline-shift:baseline;text-anchor:start;white-space:normal;shape-padding:0;vector-effect:none;fill:#000000;fill-opacity:1;stroke:#966431;stroke-width:3.78753948;stroke-linecap:butt;stroke-linejoin:miter;stroke-miterlimit:4;stroke-dasharray:none;stroke-dashoffset:0;stroke-opacity:1;filter:url(#filter4289)"
         x="-279.06573"
         y="1481.1207"
         id="tspan4144-5">50 000 Ko</tspan></text>
    <text
       xml:space="preserve"
       style="font-style:normal;font-variant:normal;font-weight:normal;font-stretch:normal;line-height:80.00000119%;font-family:Lavi;-inkscape-font-specification:Lavi;text-align:center;letter-spacing:0px;word-spacing:0px;text-anchor:middle;opacity:0.5;fill:#ffffff;fill-opacity:1;stroke:#ffffff;stroke-width:2.07299328;stroke-miterlimit:4;stroke-dasharray:none;stroke-opacity:1;filter:url(#filter4375-4-1-1-1-9-3)"
       x="1000.265"
       y="1716.373"
       id="text4246-3-3-6-2"
       transform="matrix(0.72899519,0,0,0.71822761,-202.10881,-342.44691)"><tspan
         sodipodi:role="line"
         style="font-style:normal;font-variant:normal;font-weight:normal;font-stretch:normal;font-size:95.64933777px;line-height:80.00000119%;font-family:Cursivah;-inkscape-font-specification:Cursivah;text-align:center;text-anchor:middle;fill:#ffffff;stroke:#ffffff;stroke-width:2.07299328;stroke-miterlimit:4;stroke-dasharray:none;stroke-opacity:1"
         x="1009.6992"
         y="1716.373"
         id="tspan86">Safrans </tspan><tspan
         sodipodi:role="line"
         style="font-style:normal;font-variant:normal;font-weight:normal;font-stretch:normal;font-size:95.64933777px;line-height:80.00000119%;font-family:Cursivah;-inkscape-font-specification:Cursivah;text-align:center;text-anchor:middle;fill:#ffffff;stroke:#ffffff;stroke-width:2.07299328;stroke-miterlimit:4;stroke-dasharray:none;stroke-opacity:1"
         x="1000.265"
         y="1792.8926"
         id="tspan6871">suksess</tspan></text>
    <text
       xml:space="preserve"
       style="font-style:normal;font-variant:normal;font-weight:normal;font-stretch:normal;line-height:0%;font-family:Lavi;-inkscape-font-specification:Lavi;text-align:center;letter-spacing:0px;word-spacing:0px;text-anchor:middle;opacity:0.7;fill:#784421;fill-opacity:1;stroke:#502d16;stroke-width:3.4000001;stroke-miterlimit:4;stroke-dasharray:none;stroke-opacity:1;filter:url(#filter4367-7)"
       x="1142.8044"
       y="264.61389"
       id="text4246-3-3"><tspan
         sodipodi:role="line"
         style="font-style:normal;font-variant:normal;font-weight:normal;font-stretch:normal;font-size:95.64933777px;line-height:1.25;font-family:Cursivah;-inkscape-font-specification:Cursivah;text-align:start;text-anchor:start;fill:#784421;stroke:#502d16;stroke-width:3.4000001;stroke-miterlimit:4;stroke-dasharray:none;stroke-opacity:1"
         x="1142.8044"
         y="264.61389"
         id="tspan4144-7-6">Mote</tspan></text>
    <text
       xml:space="preserve"
       style="font-style:normal;font-variant:normal;font-weight:normal;font-stretch:normal;line-height:80.00000119%;font-family:Lavi;-inkscape-font-specification:Lavi;text-align:center;letter-spacing:0px;word-spacing:0px;text-anchor:middle;opacity:0.5;fill:#ffffff;fill-opacity:1;stroke:#ffffff;stroke-width:2.07299328;stroke-miterlimit:4;stroke-dasharray:none;stroke-opacity:1;filter:url(#filter4375-4-1-1-1-9-3)"
       x="1000.265"
       y="1716.373"
       id="text4246-3-3-6-20"
       transform="matrix(0.72899519,0,0,0.71822761,501.26856,-332.67316)"><tspan
         sodipodi:role="line"
         style="font-style:normal;font-variant:normal;font-weight:normal;font-stretch:normal;font-size:95.64933777px;line-height:80.00000119%;font-family:Cursivah;-inkscape-font-specification:Cursivah;text-align:center;text-anchor:middle;fill:#ffffff;stroke:#ffffff;stroke-width:2.07299328;stroke-miterlimit:4;stroke-dasharray:none;stroke-opacity:1"
         x="1009.6992"
         y="1716.373"
         id="tspan90">Fenomenet </tspan><tspan
         sodipodi:role="line"
         style="font-style:normal;font-variant:normal;font-weight:normal;font-stretch:normal;font-size:95.64933777px;line-height:80.00000119%;font-family:Cursivah;-inkscape-font-specification:Cursivah;text-align:center;text-anchor:middle;fill:#ffffff;stroke:#ffffff;stroke-width:2.07299328;stroke-miterlimit:4;stroke-dasharray:none;stroke-opacity:1"
         x="1000.265"
         y="1792.8926"
         id="tspan6875">Safran</tspan></text>
    <text
       xml:space="preserve"
       style="font-style:normal;font-variant:normal;font-weight:normal;font-stretch:normal;line-height:0%;font-family:Lavi;-inkscape-font-specification:Lavi;text-align:center;letter-spacing:0px;word-spacing:0px;text-anchor:middle;fill:#000000;fill-opacity:1;stroke:none"
       x="1573.6196"
       y="358.10355"
       id="text4246"><tspan
         sodipodi:role="line"
         style="font-size:45px;line-height:1.25"
         x="1580.6509"
         y="358.10355"
         id="tspan119">Ein dag </tspan><tspan
         sodipodi:role="line"
         style="font-size:45px;line-height:1.25"
         x="1580.6509"
         y="414.35355"
         id="tspan6886">vil lukka smila </tspan><tspan
         sodipodi:role="line"
         style="font-size:45px;line-height:1.25"
         x="1573.6196"
         y="470.60355"
         id="tspan6888">til oss òg.</tspan></text>
    <text
       xml:space="preserve"
       style="font-style:normal;font-variant:normal;font-weight:normal;font-stretch:normal;line-height:0%;font-family:Lavi;-inkscape-font-specification:Lavi;text-align:center;letter-spacing:0px;word-spacing:0px;text-anchor:middle;opacity:0.7;fill:#784421;fill-opacity:1;stroke:#502d16;stroke-width:3.4000001;stroke-miterlimit:4;stroke-dasharray:none;stroke-opacity:1;filter:url(#filter4367-7-1)"
       x="1857.8116"
       y="269.07532"
       id="text4246-3-3-5"><tspan
         sodipodi:role="line"
         style="font-style:normal;font-variant:normal;font-weight:normal;font-stretch:normal;font-size:95.64933777px;line-height:1.25;font-family:'Cursivah';-inkscape-font-specification:'Cursivah';text-align:start;text-anchor:start;fill:#784421;stroke:#502d16;stroke-width:3.4000001;stroke-miterlimit:4;stroke-dasharray:none;stroke-opacity:1"
         x="1857.8116"
         y="269.07532"
         id="tspan4144-7-6-3">Chic</tspan></text>
    <text
       xml:space="preserve"
       style="font-style:normal;font-variant:normal;font-weight:normal;font-stretch:normal;line-height:80.00000119%;font-family:Lavi;-inkscape-font-specification:Lavi;text-align:center;letter-spacing:0px;word-spacing:0px;text-anchor:middle;opacity:0.5;fill:#ffffff;fill-opacity:1;stroke:#ffffff;stroke-width:2.07299328;stroke-miterlimit:4;stroke-dasharray:none;stroke-opacity:1;filter:url(#filter4375-4-1-1-1-9-3)"
       x="1000.265"
       y="1716.373"
       id="text4246-3-3-6"
       transform="matrix(0.72899519,0,0,0.71822761,1187.7169,-327.80054)"><tspan
         sodipodi:role="line"
         style="font-style:normal;font-variant:normal;font-weight:normal;font-stretch:normal;font-size:95.64933777px;line-height:80.00000119%;font-family:Cursivah;-inkscape-font-specification:Cursivah;text-align:center;text-anchor:middle;fill:#ffffff;stroke:#ffffff;stroke-width:2.07299328;stroke-miterlimit:4;stroke-dasharray:none;stroke-opacity:1"
         x="1000.265"
         y="1716.373"
         id="tspan94">Safran-</tspan><tspan
         sodipodi:role="line"
         style="font-style:normal;font-variant:normal;font-weight:normal;font-stretch:normal;font-size:95.64933777px;line-height:80.00000119%;font-family:Cursivah;-inkscape-font-specification:Cursivah;text-align:center;text-anchor:middle;fill:#ffffff;stroke:#ffffff;stroke-width:2.07299328;stroke-miterlimit:4;stroke-dasharray:none;stroke-opacity:1"
         x="1000.265"
         y="1792.8926"
         id="tspan6879">spesial</tspan></text>
    <text
       xml:space="preserve"
       style="font-style:normal;font-variant:normal;font-weight:normal;font-stretch:normal;line-height:0%;font-family:Lavi;-inkscape-font-specification:Lavi;letter-spacing:0px;word-spacing:0px;fill:#000000;fill-opacity:1;stroke:#000000;stroke-width:0.78198898;stroke-miterlimit:4;stroke-dasharray:none;stroke-opacity:1;filter:url(#filter4375-4-1-1-1-9)"
       x="787.65729"
       y="1584.5073"
       id="text4580"
       transform="matrix(1.3668824,-0.09080367,-0.09658625,1.5444176,-365.22383,-709.85894)"><tspan
         sodipodi:role="line"
         id="tspan4582"
         x="787.65729"
         y="1584.5073"
         style="font-size:80.40014648px;line-height:1.25;letter-spacing:4.37618589px;fill:#ffffff;stroke-width:0.78198898">Bsooom!</tspan></text>
    <text
       xml:space="preserve"
       style="font-style:normal;font-variant:normal;font-weight:normal;font-stretch:normal;line-height:0%;font-family:Lavi;-inkscape-font-specification:Lavi;text-align:center;letter-spacing:0px;word-spacing:0px;text-anchor:middle;opacity:0.7;fill:#784421;fill-opacity:1;stroke:#502d16;stroke-width:3.4000001;stroke-miterlimit:4;stroke-dasharray:none;stroke-opacity:1;filter:url(#filter4367-9)"
       x="395.47275"
       y="2226.2607"
       id="text4246-3-6"><tspan
         sodipodi:role="line"
         style="font-style:normal;font-variant:normal;font-weight:normal;font-stretch:normal;font-size:95.64933777px;line-height:1.25;font-family:Cursivah;-inkscape-font-specification:Cursivah;text-align:start;text-anchor:start;fill:#784421;stroke:#502d16;stroke-width:3.4000001;stroke-miterlimit:4;stroke-dasharray:none;stroke-opacity:1"
         x="395.47275"
         y="2226.2607"
         id="tspan4144-7-0">Kjendis</tspan></text>
    <text
       xml:space="preserve"
       style="font-style:normal;font-variant:normal;font-weight:normal;font-stretch:normal;line-height:0%;font-family:Lavi;-inkscape-font-specification:Lavi;text-align:center;letter-spacing:0px;word-spacing:0px;text-anchor:middle;opacity:0.5;fill:#ffffff;fill-opacity:1;stroke:#ffffff;stroke-width:2.07299328;stroke-miterlimit:4;stroke-dasharray:none;stroke-opacity:1;filter:url(#filter4375-4-1-1-1-9-3)"
       x="1000.265"
       y="1716.373"
       id="text4246-3-3-6-2-6"
       transform="matrix(0.72899519,0,0,0.71822761,-190.83702,1603.3341)"><tspan
         sodipodi:role="line"
         style="font-style:normal;font-variant:normal;font-weight:normal;font-stretch:normal;font-size:95.64933777px;line-height:80.00000119%;font-family:Cursivah;-inkscape-font-specification:Cursivah;text-align:center;text-anchor:middle;fill:#ffffff;stroke:#ffffff;stroke-width:2.07299328;stroke-miterlimit:4;stroke-dasharray:none;stroke-opacity:1"
         x="1009.6992"
         y="1716.373"
         id="tspan106">Fr. Dues </tspan><tspan
         sodipodi:role="line"
         style="font-style:normal;font-variant:normal;font-weight:normal;font-stretch:normal;font-size:95.64933777px;line-height:80.00000119%;font-family:Cursivah;-inkscape-font-specification:Cursivah;text-align:center;text-anchor:middle;fill:#ffffff;stroke:#ffffff;stroke-width:2.07299328;stroke-miterlimit:4;stroke-dasharray:none;stroke-opacity:1"
         x="1000.265"
         y="1792.8926"
         id="tspan6892">jetsettliv</tspan></text>
    <text
       xml:space="preserve"
       style="font-style:normal;font-variant:normal;font-weight:normal;font-stretch:normal;line-height:0%;font-family:Lavi;-inkscape-font-specification:Lavi;text-align:center;letter-spacing:0px;word-spacing:0px;text-anchor:middle;opacity:0.7;fill:#784421;fill-opacity:1;stroke:#502d16;stroke-width:3.4000001;stroke-miterlimit:4;stroke-dasharray:none;stroke-opacity:1;filter:url(#filter4367-7-6)"
       x="1133.2974"
       y="2221.4534"
       id="text4246-3-3-7"><tspan
         sodipodi:role="line"
         style="font-style:normal;font-variant:normal;font-weight:normal;font-stretch:normal;font-size:95.64933777px;line-height:1.25;font-family:Cursivah;-inkscape-font-specification:Cursivah;text-align:start;text-anchor:start;fill:#784421;stroke:#502d16;stroke-width:3.4000001;stroke-miterlimit:4;stroke-dasharray:none;stroke-opacity:1"
         x="1133.2974"
         y="2221.4534"
         id="tspan4144-7-6-9">Mote</tspan></text>
    <text
       xml:space="preserve"
       style="font-style:normal;font-variant:normal;font-weight:normal;font-stretch:normal;line-height:0%;font-family:Lavi;-inkscape-font-specification:Lavi;text-align:center;letter-spacing:0px;word-spacing:0px;text-anchor:middle;opacity:0.5;fill:#ffffff;fill-opacity:1;stroke:#ffffff;stroke-width:2.07299328;stroke-miterlimit:4;stroke-dasharray:none;stroke-opacity:1;filter:url(#filter4375-4-1-1-1-9-3)"
       x="1000.265"
       y="1716.373"
       id="text4246-3-3-6-20-2"
       transform="matrix(0.72899519,0,0,0.71822761,501.19822,1609.3271)"><tspan
         sodipodi:role="line"
         style="font-style:normal;font-variant:normal;font-weight:normal;font-stretch:normal;font-size:95.64933777px;line-height:80.00000119%;font-family:Cursivah;-inkscape-font-specification:Cursivah;text-align:center;text-anchor:middle;fill:#ffffff;stroke:#ffffff;stroke-width:2.07299328;stroke-miterlimit:4;stroke-dasharray:none;stroke-opacity:1"
         x="1009.6992"
         y="1716.373"
         id="tspan102">Fenomenet </tspan><tspan
         sodipodi:role="line"
         style="font-style:normal;font-variant:normal;font-weight:normal;font-stretch:normal;font-size:95.64933777px;line-height:80.00000119%;font-family:Cursivah;-inkscape-font-specification:Cursivah;text-align:center;text-anchor:middle;fill:#ffffff;stroke:#ffffff;stroke-width:2.07299328;stroke-miterlimit:4;stroke-dasharray:none;stroke-opacity:1"
         x="1000.265"
         y="1792.8926"
         id="tspan6896">fr. Due</tspan></text>
    <text
       xml:space="preserve"
       style="font-style:normal;font-variant:normal;font-weight:normal;font-stretch:normal;line-height:0%;font-family:Lavi;-inkscape-font-specification:Lavi;text-align:center;letter-spacing:0px;word-spacing:0px;text-anchor:middle;opacity:0.7;fill:#784421;fill-opacity:1;stroke:#502d16;stroke-width:3.4000001;stroke-miterlimit:4;stroke-dasharray:none;stroke-opacity:1;filter:url(#filter4367-7-1-7)"
       x="1857.1742"
       y="2230.2627"
       id="text4246-3-3-5-3"><tspan
         sodipodi:role="line"
         style="font-style:normal;font-variant:normal;font-weight:normal;font-stretch:normal;font-size:95.64933777px;line-height:1.25;font-family:'Cursivah';-inkscape-font-specification:'Cursivah';text-align:start;text-anchor:start;fill:#784421;stroke:#502d16;stroke-width:3.4000001;stroke-miterlimit:4;stroke-dasharray:none;stroke-opacity:1"
         x="1857.1742"
         y="2230.2627"
         id="tspan4144-7-6-3-7">Chic</tspan></text>
    <text
       xml:space="preserve"
       style="font-style:normal;font-variant:normal;font-weight:normal;font-stretch:normal;line-height:80.00000119%;font-family:Lavi;-inkscape-font-specification:Lavi;text-align:center;letter-spacing:0px;word-spacing:0px;text-anchor:middle;opacity:0.5;fill:#ffffff;fill-opacity:1;stroke:#ffffff;stroke-width:2.07299328;stroke-miterlimit:4;stroke-dasharray:none;stroke-opacity:1;filter:url(#filter4375-4-1-1-1-9-3)"
       x="1000.265"
       y="1716.373"
       id="text4246-3-3-6-5"
       transform="matrix(0.72899519,0,0,0.71822761,1200.3119,1613.0656)"><tspan
         sodipodi:role="line"
         style="font-style:normal;font-variant:normal;font-weight:normal;font-stretch:normal;font-size:95.64933777px;line-height:80.00000119%;font-family:Cursivah;-inkscape-font-specification:Cursivah;text-align:center;text-anchor:middle;fill:#ffffff;stroke:#ffffff;stroke-width:2.07299328;stroke-miterlimit:4;stroke-dasharray:none;stroke-opacity:1"
         x="1000.265"
         y="1716.373"
         id="tspan98">Fr. Due-</tspan><tspan
         sodipodi:role="line"
         style="font-style:normal;font-variant:normal;font-weight:normal;font-stretch:normal;font-size:95.64933777px;line-height:80.00000119%;font-family:Cursivah;-inkscape-font-specification:Cursivah;text-align:center;text-anchor:middle;fill:#ffffff;stroke:#ffffff;stroke-width:2.07299328;stroke-miterlimit:4;stroke-dasharray:none;stroke-opacity:1"
         x="1000.265"
         y="1792.8926"
         id="tspan6900">spesial</tspan></text>
    <text
       xml:space="preserve"
       style="font-style:normal;font-variant:normal;font-weight:normal;font-stretch:normal;line-height:0%;font-family:Lavi;-inkscape-font-specification:Lavi;text-align:center;letter-spacing:0px;word-spacing:0px;text-anchor:middle;display:inline;opacity:1;fill:#241c1c;fill-opacity:1;stroke:#000000;stroke-width:4.32200003;stroke-miterlimit:4;stroke-dasharray:none;stroke-opacity:1"
       x="2414.1099"
       y="3323.9915"
       id="text4213"
       transform="matrix(0.95719015,0,-0.32603671,1.0447245,0,0)"><tspan
         sodipodi:role="line"
         id="tspan3562"
         x="2414.1099"
         y="3323.9915"
         style="font-size:72.18077087px;line-height:1.25;stroke-width:4.32200003;stroke-miterlimit:4;stroke-dasharray:none">– SLUTT –</tspan></text>
  </g>
</svg>
