<?xml version="1.0" encoding="UTF-8" standalone="no"?>
<!-- Created With Inkscape (http://www.inkscape.org/) -->

<svg
   xmlns:dc="http://purl.org/dc/elements/1.1/"
   xmlns:cc="http://creativecommons.org/ns#"
   xmlns:rdf="http://www.w3.org/1999/02/22-rdf-syntax-ns#"
   xmlns:svg="http://www.w3.org/2000/svg"
   xmlns="http://www.w3.org/2000/svg"
   xmlns:xlink="http://www.w3.org/1999/xlink"
   xmlns:sodipodi="http://sodipodi.sourceforge.net/DTD/sodipodi-0.dtd"
   xmlns:inkscape="http://www.inkscape.org/namespaces/inkscape"
   id="svg2"
   version="1.1"
   inkscape:version="0.92.1 r15371"
   width="2646.3999"
   height="3736.5334"
   sodipodi:docname="E14P01.svg"
   viewBox="0 0 2481 3503">
  <metadata
     id="metadata8">
    <rdf:RDF>
      <cc:Work
         rdf:about="">
        <dc:format>image/svg+xml</dc:format>
        <dc:type
           rdf:resource="http://purl.org/dc/dcmitype/StillImage" />
        <dc:title />
      </cc:Work>
    </rdf:RDF>
  </metadata>
  <defs
     id="defs6">
    <filter
       inkscape:collect="always"
       style="color-interpolation-filters:sRGB"
       id="filter5841"
       x="-0.0028565165"
       width="1.005713"
       y="-0.017347846"
       height="1.0346957">
      <feGaussianBlur
         inkscape:collect="always"
         stdDeviation="0.3401381"
         id="feGaussianBlur5843" />
    </filter>
    <filter
       inkscape:collect="always"
       style="color-interpolation-filters:sRGB"
       id="filter4781"
       x="-0.010545129"
       width="1.0210903"
       y="-0.061422803"
       height="1.1228456">
      <feGaussianBlur
         inkscape:collect="always"
         stdDeviation="0.46603759"
         id="feGaussianBlur4783" />
    </filter>
    <filter
       inkscape:collect="always"
       style="color-interpolation-filters:sRGB"
       id="filter4813"
       x="-0.066799246"
       width="1.1335984"
       y="-0.093713716"
       height="1.1874274">
      <feGaussianBlur
         inkscape:collect="always"
         stdDeviation="0.88793856"
         id="feGaussianBlur4815" />
    </filter>
    <filter
       inkscape:collect="always"
       style="color-interpolation-filters:sRGB"
       id="filter4833"
       x="-0.012663071"
       width="1.0253261"
       y="-0.031112596"
       height="1.0622252">
      <feGaussianBlur
         inkscape:collect="always"
         stdDeviation="0.52769825"
         id="feGaussianBlur4835" />
    </filter>
    <filter
       inkscape:collect="always"
       style="color-interpolation-filters:sRGB"
       id="filter4206"
       x="-0.012391832"
       width="1.0247837"
       y="-0.057763632"
       height="1.1155273">
      <feGaussianBlur
         inkscape:collect="always"
         stdDeviation="0.53741041"
         id="feGaussianBlur4208" />
    </filter>
  </defs>
  <sodipodi:namedview
     pagecolor="#ffffff"
     bordercolor="#666666"
     borderopacity="1"
     objecttolerance="10"
     gridtolerance="10"
     guidetolerance="10"
     inkscape:pageopacity="0"
     inkscape:pageshadow="2"
     inkscape:window-width="1858"
     inkscape:window-height="1057"
     id="namedview4"
     showgrid="false"
     inkscape:zoom="0.43505566"
     inkscape:cx="1360.0468"
     inkscape:cy="654.0683"
     inkscape:window-x="54"
     inkscape:window-y="-8"
     inkscape:window-maximized="1"
     inkscape:current-layer="layer1" />
  <g
     inkscape:groupmode="layer"
     id="layer2"
     inkscape:label="artwork"
     sodipodi:insensitive="true">
    <image
       sodipodi:absref="../gfx_Pepper-and-Carrot_by-David-Revoy_E14P01.png"
       xlink:href="../gfx_Pepper-and-Carrot_by-David-Revoy_E14P01.png"
       y="0"
       x="0"
       id="image10"
       height="3503"
       width="2481" />
  </g>
  <g
     inkscape:groupmode="layer"
     id="layer3"
     inkscape:label="speechbubbles">
    <path
       style="fill:#ffffff;stroke:none;stroke-width:0.85966188"
       d="m 768.7086,1268.7584 c -2.7125,42.4059 -100.59033,67.5662 -147.23053,71.2649 -46.64014,3.6984 -170.41602,16.6435 -217.05614,-33.2873 -46.64012,-49.9309 -30.17055,-74.3518 -4.92652,-100.605 21.52722,-22.3878 75.60781,-34.9681 123.29443,-41.9764 59.21248,-8.7021 133.56379,-2.8123 179.8112,15.1433 46.87683,18.2002 68.82004,47.0547 66.10756,89.4605 z"
       id="path3100"
       inkscape:connector-curvature="0"
       sodipodi:nodetypes="zsssssz" />
    <path
       style="color:#000000;display:inline;overflow:visible;visibility:visible;fill:#ffffff;fill-opacity:1;fill-rule:nonzero;stroke:none;stroke-width:1px;marker:none;enable-background:accumulate"
       d="m 634.76889,1431.7084 c -59.38618,-45.485 -66.62733,-104.1493 -75.31163,-162.4394 -8.6843,-58.2901 36.86172,23.5669 36.86172,23.5669 0,0 -13.89559,45.9588 38.44991,138.8725 z"
       id="path5002"
       inkscape:connector-curvature="0"
       sodipodi:nodetypes="cscc" />
    <path
       style="color:#000000;display:inline;overflow:visible;visibility:visible;fill:#ffffff;fill-opacity:1;fill-rule:nonzero;stroke:none;stroke-width:0.7863636px;marker:none;enable-background:accumulate"
       d="m 720.06251,1928.3037 c 9.23993,-35.5427 45.14867,-57.4134 77.0029,-68.7094 34.08242,-12.0862 228.75529,-11.7293 277.47489,-12.9765 48.7197,-1.2471 169.2142,3.1603 230.534,24.9847 61.3195,21.8246 67.2418,44.0883 68.0818,60.9243 0.8401,16.836 -4.3956,64.9634 -84.9085,75.4503 -74.8823,9.7536 -249.0233,14.2001 -293.54293,11.7059 -44.51974,-2.4942 -195.24138,-0.275 -237.24105,-29.582 -41.99986,-29.3072 -36.56112,-40.5964 -37.40111,-61.7973 z"
       id="path5909"
       inkscape:connector-curvature="0"
       sodipodi:nodetypes="csssssssc" />
    <path
       style="color:#000000;display:inline;overflow:visible;visibility:visible;fill:#ffffff;fill-opacity:1;fill-rule:nonzero;stroke:none;stroke-width:1px;marker:none;enable-background:accumulate"
       d="m 1063.2616,1768.5081 c 21.2693,36.567 26.6107,50.5999 -5.1849,87.5544 -31.7958,36.9545 -16.0406,47.6998 -16.0406,47.6998 l 33.4558,-10.2031 c 0,0 61.6163,-83.2265 -12.2303,-125.0511 z"
       id="path3072"
       inkscape:connector-curvature="0" />
    <path
       style="fill:#ffffff;fill-opacity:1;stroke:none;stroke-width:0.98971808"
       d="m 189.24374,2266.5089 c -11.24178,-105.737 50.78257,-144.4545 218.20619,-149.4824 167.4236,-5.028 210.14502,54.1181 224.01443,90.7823 13.86942,36.6644 -8.01726,131.053 -109.4362,178.1373 -101.41894,47.0841 -277.47046,-0.5791 -300.6056,-29.4432 -23.13515,-28.864 -29.6097,-62.3368 -32.17882,-89.994 z"
       id="path3238"
       inkscape:connector-curvature="0" />
    <path
       style="color:#000000;display:inline;overflow:visible;visibility:visible;fill:#ffffff;fill-opacity:1;fill-rule:nonzero;stroke:none;stroke-width:0.97247529px;marker:none;enable-background:accumulate"
       d="m 364.46725,2430.2168 c 52.27333,-43.0839 93.83605,-64.9205 256.485,-62.7011 162.64901,2.2197 192.8851,9.433 214.78021,19.9757 21.8949,10.5426 66.51459,72.0156 49.83272,113.6313 -16.68209,41.6157 -95.70819,84.4598 -255.22934,81.1305 -159.52115,-3.3293 -164.10532,-8.8762 -189.15591,-17.2824 -66.10506,-22.1827 -128.98601,-91.6701 -76.71268,-134.754 z"
       id="path4530"
       inkscape:connector-curvature="0"
       sodipodi:nodetypes="zsssssz" />
    <path
       style="fill:#ffffff;stroke:none"
       d="m 947.67139,2636.6279 c -44.43447,-12.4907 -47.34979,-26.3292 -49.35169,-42.3711 -2.00197,-16.0417 -2.00846,-30.8376 -10.57278,-37.1096 -8.56436,-6.2721 -22.57173,-9.009 -33.25323,-9.6693 -10.68163,-0.6602 -12.98414,-10.3723 -16.56297,-20.9273 -3.57893,-10.555 -35.92312,-60.8425 -35.92312,-60.8425 0,0 -5.84051,44.8888 -3.13287,59.06 2.70765,14.1713 3.62426,19.3661 6.28648,24.7262 2.66232,5.3602 11.1877,17.6172 21.95365,21.1036 10.76591,3.4865 22.56848,1.611 31.2967,2.4385 8.7282,0.8274 18.23349,10.7377 22.39476,22.581 4.16127,11.843 17.67149,37.2892 35.62764,41.1051 17.95614,3.8158 31.23743,-0.095 31.23743,-0.095 z"
       id="path3023"
       inkscape:connector-curvature="0"
       sodipodi:nodetypes="csssscssssssc" />
  </g>
  <g
     inkscape:groupmode="layer"
     id="layer1"
     inkscape:label="txt"
     style="opacity:1">
    <text
       xml:space="preserve"
       style="font-style:normal;font-variant:normal;font-weight:normal;font-stretch:normal;line-height:0%;font-family:Lavi;-inkscape-font-specification:Lavi;text-align:center;letter-spacing:0px;word-spacing:0px;text-anchor:middle;fill:#000000;fill-opacity:1;stroke:none"
       x="568.60315"
       y="1244.8915"
       id="text4246"><tspan
         sodipodi:role="line"
         style="font-size:45px;line-height:1.25"
         x="568.60315"
         y="1244.8915"
         id="tspan3534">i uo ba'o citsi</tspan><tspan
         sodipodi:role="line"
         style="font-size:45px;line-height:1.25"
         x="568.60315"
         y="1301.1415"
         id="tspan58">le nu surla</tspan></text>
    <text
       xml:space="preserve"
       style="font-style:normal;font-variant:normal;font-weight:normal;font-stretch:normal;line-height:0%;font-family:Lavi;-inkscape-font-specification:Lavi;text-align:center;letter-spacing:0px;word-spacing:0px;text-anchor:middle;fill:#000000;fill-opacity:1;stroke:none"
       x="1039.3318"
       y="1906.1023"
       id="text4246-7"><tspan
         sodipodi:role="line"
         style="font-size:45px;line-height:1.25"
         x="1039.3318"
         y="1906.1023"
         id="tspan3043">i e'e co'a tadni</tspan><tspan
         sodipodi:role="line"
         style="font-size:45px;line-height:1.25"
         x="1039.3318"
         y="1962.3523"
         id="tspan3541">le makfa mixre pe le dzena</tspan></text>
    <text
       xml:space="preserve"
       style="font-style:normal;font-variant:normal;font-weight:normal;font-stretch:normal;line-height:0%;font-family:Lavi;-inkscape-font-specification:Lavi;text-align:center;letter-spacing:0px;word-spacing:0px;text-anchor:middle;fill:#000000;fill-opacity:1;stroke:none"
       x="402.16074"
       y="2191.6047"
       id="text4246-7-9"><tspan
         sodipodi:role="line"
         style="font-size:45px;line-height:1.25"
         x="402.16074"
         y="2191.6047"
         id="tspan3052">i ua .oi pi ro lei</tspan><tspan
         sodipodi:role="line"
         style="font-size:45px;line-height:1.25"
         x="402.16074"
         y="2247.8547"
         id="tspan62">purmo be la denci</tspan><tspan
         sodipodi:role="line"
         style="font-size:45px;line-height:1.25"
         x="402.16074"
         y="2304.1047"
         id="tspan3550">be lo drakono</tspan><tspan
         sodipodi:role="line"
         style="font-size:45px;line-height:1.25"
         x="402.16074"
         y="2360.3547"
         id="tspan64">co'i se xaksu</tspan></text>
    <text
       xml:space="preserve"
       style="font-style:normal;font-variant:normal;font-weight:normal;font-stretch:normal;line-height:0%;font-family:Lavi;-inkscape-font-specification:Lavi;text-align:center;letter-spacing:0px;word-spacing:0px;text-anchor:middle;fill:#000000;fill-opacity:1;stroke:none"
       x="616.15948"
       y="2460.7573"
       id="text4246-7-9-4"><tspan
         sodipodi:role="line"
         style="font-size:45px;line-height:1.25"
         x="616.15948"
         y="2460.7573"
         id="tspan3563">i ca le nu no lei purmo</tspan><tspan
         sodipodi:role="line"
         style="font-size:45px;line-height:1.25"
         x="616.15948"
         y="2517.0073"
         id="tspan3565">cu zvati na ka'e tadni</tspan></text>
    <use
       x="0"
       y="0"
       xlink:href="#use4664"
       id="use4694"
       transform="matrix(0.2413678,0.96175958,-1.2866298,0.18042315,4666.0569,751.999)"
       width="2481"
       height="3503" />
    <use
       x="0"
       y="0"
       xlink:href="#use4664"
       id="use4694-6"
       transform="matrix(0.2413678,0.96175958,-1.2866298,0.18042315,4666.0569,751.999)"
       width="2481"
       height="3503" />
    <use
       x="0"
       y="0"
       xlink:href="#use4664"
       id="use4694-3"
       transform="matrix(0.2413678,0.96175958,-1.2866298,0.18042315,4666.0569,751.999)"
       width="2481"
       height="3503" />
    <text
       id="text4178-6-5-9-0-7"
       style="font-style:normal;font-variant:normal;font-weight:normal;font-stretch:normal;line-height:0%;font-family:Lavi;-inkscape-font-specification:Lavi;text-align:center;letter-spacing:0px;word-spacing:0px;text-anchor:middle;opacity:0.81800022;fill:#412525;fill-opacity:1;stroke:none;filter:url(#filter5841)"
       xml:space="preserve"
       y="3129.8394"
       x="1318.7137"
       transform="matrix(-0.48561898,0.57780873,-1.2237792,0.19411318,6288.9822,1634.4755)"><tspan
         y="3129.8394"
         x="1318.7137"
         style="font-style:normal;font-variant:normal;font-weight:normal;font-stretch:normal;font-size:40.67671585px;line-height:1.25;font-family:Fondamento;-inkscape-font-specification:Fondamento;fill:#412525;fill-opacity:1"
         sodipodi:role="line"
         id="tspan4293-1-6-3-5">za'e la denci</tspan></text>
    <text
       xml:space="preserve"
       style="font-style:normal;font-variant:normal;font-weight:normal;font-stretch:normal;line-height:0%;font-family:Arial;-inkscape-font-specification:Arial;letter-spacing:0px;word-spacing:0px;opacity:0.64499996;fill:#221415;fill-opacity:1;stroke:#000000;stroke-width:0.3171955;stroke-linecap:butt;stroke-linejoin:miter;stroke-miterlimit:4;stroke-dasharray:none;stroke-opacity:1;filter:url(#filter4813)"
       x="568.25775"
       y="1060.067"
       id="text4191"><tspan
         sodipodi:role="line"
         id="tspan4193"
         x="568.25775"
         y="1060.067"
         style="font-style:normal;font-variant:normal;font-weight:normal;font-stretch:normal;font-size:30.86254311px;line-height:1.25;font-family:Fondamento;-inkscape-font-specification:Fondamento">33</tspan></text>
    <text
       xml:space="preserve"
       style="font-style:normal;font-variant:normal;font-weight:normal;font-stretch:normal;line-height:0%;font-family:Arial;-inkscape-font-specification:Arial;letter-spacing:0px;word-spacing:0px;opacity:0.744;fill:#221415;fill-opacity:1;stroke:#502a2a;stroke-width:0.99138767;stroke-linecap:butt;stroke-linejoin:miter;stroke-miterlimit:4;stroke-dasharray:none;stroke-opacity:1;filter:url(#filter4833)"
       x="705.80756"
       y="803.86755"
       id="text4243"
       transform="matrix(1.1833786,0,0,1.563351,-128.39435,-471.4696)"><tspan
         sodipodi:role="line"
         x="708.0368"
         y="803.86755"
         id="tspan4247"
         style="font-style:normal;font-variant:normal;font-weight:normal;font-stretch:normal;font-size:18.26206207px;line-height:1.25;font-family:Fondamento;-inkscape-font-specification:Fondamento;text-align:center;text-anchor:middle;stroke:#502a2a;stroke-width:0.99138767;stroke-miterlimit:4;stroke-dasharray:none;stroke-opacity:1"> </tspan><tspan
         sodipodi:role="line"
         x="705.80756"
         y="826.69513"
         style="font-style:normal;font-variant:normal;font-weight:normal;font-stretch:normal;font-size:18.26206207px;line-height:1.25;font-family:Fondamento;-inkscape-font-specification:Fondamento;text-align:center;text-anchor:middle;stroke:#502a2a;stroke-width:0.99138767;stroke-miterlimit:4;stroke-dasharray:none;stroke-opacity:1"
         id="tspan3069">TI PONSE</tspan></text>
    <text
       xml:space="preserve"
       style="font-style:normal;font-variant:normal;font-weight:normal;font-stretch:normal;line-height:0%;font-family:Arial;-inkscape-font-specification:Arial;text-align:start;letter-spacing:0px;word-spacing:0px;text-anchor:start;opacity:0.744;fill:#241516;fill-opacity:1;stroke:#5a2c2c;stroke-width:0.90251106;stroke-linecap:butt;stroke-linejoin:miter;stroke-miterlimit:4;stroke-dasharray:none;stroke-opacity:1;filter:url(#filter4206)"
       x="632.77014"
       y="779.69183"
       id="text4357"
       transform="matrix(1.0944522,0,0,1.3152093,-46.772409,-232.97148)"><tspan
         sodipodi:role="line"
         id="tspan4359"
         x="632.77014"
         y="779.69183"
         style="font-style:normal;font-variant:normal;font-weight:normal;font-stretch:normal;font-size:29.94702911px;line-height:1.25;font-family:Fondamento;-inkscape-font-specification:Fondamento;text-align:start;text-anchor:start;stroke:#5a2c2c;stroke-width:0.90251106;stroke-miterlimit:4;stroke-dasharray:none;stroke-opacity:1">MAKFA</tspan></text>
    <text
       xml:space="preserve"
       style="font-style:normal;font-variant:normal;font-weight:normal;font-stretch:normal;line-height:0%;font-family:Arial;-inkscape-font-specification:Arial;letter-spacing:0px;word-spacing:0px;opacity:0.58800001;fill:#2d1a1c;fill-opacity:1;stroke:#3e1b1b;stroke-width:0.95986927;stroke-linecap:butt;stroke-linejoin:miter;stroke-miterlimit:4;stroke-dasharray:none;stroke-opacity:1;filter:url(#filter4781)"
       x="653.07074"
       y="748.37018"
       id="text4385"
       transform="matrix(0.94204175,0,0,1.1970137,20.324837,-140.27445)"><tspan
         sodipodi:role="line"
         id="tspan4387"
         x="653.07074"
         y="748.37018"
         style="font-style:normal;font-variant:normal;font-weight:normal;font-stretch:normal;font-size:24.29540443px;line-height:1.25;font-family:Fondamento;-inkscape-font-specification:Fondamento;stroke:#3e1b1b;stroke-width:0.95986927;stroke-miterlimit:4;stroke-dasharray:none;stroke-opacity:1">  .I .O'I LE TE</tspan></text>
  </g>
</svg>
