<?xml version="1.0" encoding="UTF-8" standalone="no"?>
<!-- Created with Inkscape (http://www.inkscape.org/) -->

<svg
   xmlns:dc="http://purl.org/dc/elements/1.1/"
   xmlns:cc="http://creativecommons.org/ns#"
   xmlns:rdf="http://www.w3.org/1999/02/22-rdf-syntax-ns#"
   xmlns:svg="http://www.w3.org/2000/svg"
   xmlns="http://www.w3.org/2000/svg"
   xmlns:xlink="http://www.w3.org/1999/xlink"
   xmlns:sodipodi="http://sodipodi.sourceforge.net/DTD/sodipodi-0.dtd"
   xmlns:inkscape="http://www.inkscape.org/namespaces/inkscape"
   id="svg2"
   version="1.1"
   inkscape:version="0.92.1 r15371"
   width="2481"
   height="3503"
   sodipodi:docname="E29P05.svg"
   inkscape:export-filename="/home/dash/Downloads/pepper carrot EPS/ep29_Destroyer-of-Worlds_lang-pack/lang/ph/E29P05.svg.png"
   inkscape:export-xdpi="90"
   inkscape:export-ydpi="90">
  <metadata
     id="metadata8">
    <rdf:RDF>
      <cc:Work
         rdf:about="">
        <dc:format>image/svg+xml</dc:format>
        <dc:type
           rdf:resource="http://purl.org/dc/dcmitype/StillImage" />
        <dc:title />
      </cc:Work>
    </rdf:RDF>
  </metadata>
  <defs
     id="defs6">
    <filter
       style="color-interpolation-filters:sRGB"
       id="filter4375-4-1-1-1-9"
       inkscape:label="deevad outline effect">
      <feFlood
         id="feFlood4377-7-9-0-8-1"
         flood-opacity="1"
         flood-color="rgb(0,0,0)"
         result="flood" />
      <feComposite
         id="feComposite4379-3-8-8-2-77"
         in2="SourceGraphic"
         in="flood"
         operator="in"
         result="composite1" />
      <feMorphology
         id="feMorphology4393-1-0-49-8-9"
         operator="dilate"
         radius="3.5"
         result="result3" />
      <feComposite
         id="feComposite4385-9-5-7-0-8"
         in2="result3"
         in="SourceGraphic"
         operator="over"
         result="composite2" />
    </filter>
    <filter
       style="color-interpolation-filters:sRGB"
       id="filter4375-4-1-1-1-9-5-8-8-3-3"
       inkscape:label="Drop Shadow">
      <feFlood
         id="feFlood4377-7-9-0-8-1-7-3-1-6-5"
         flood-opacity="1"
         flood-color="rgb(190,113,27)"
         result="flood" />
      <feComposite
         id="feComposite4379-3-8-8-2-77-4-1-0-7-6"
         in2="SourceGraphic"
         in="flood"
         operator="in"
         result="composite1"
         baseFrequency="0.053999999999999999 0.053999999999999999" />
      <feMorphology
         id="feMorphology4393-1-0-49-8-9-3-0-1-5-2"
         operator="dilate"
         radius="6.2000000000000002"
         result="result3" />
      <feComposite
         id="feComposite4385-9-5-7-0-8-8-7-5-3-9"
         in2="result3"
         in="SourceGraphic"
         operator="over"
         result="fbSourceGraphic" />
      <feColorMatrix
         result="fbSourceGraphicAlpha"
         in="fbSourceGraphic"
         values="0 0 0 -1 0 0 0 0 -1 0 0 0 0 -1 0 0 0 0 1 0"
         id="feColorMatrix4544-9-5-1" />
      <feTurbulence
         id="feTurbulence4546-3-6-2"
         type="fractalNoise"
         numOctaves="5"
         seed="174"
         baseFrequency="0.053999999999999999 0.054054054054054057"
         result="turbulence" />
      <feDisplacementMap
         id="feDisplacementMap4548-8-2-7"
         in2="turbulence"
         in="fbSourceGraphic"
         scale="6.6"
         yChannelSelector="G"
         xChannelSelector="R"
         result="fbSourceGraphic" />
      <feColorMatrix
         result="fbSourceGraphicAlpha"
         in="fbSourceGraphic"
         values="0 0 0 -1 0 0 0 0 -1 0 0 0 0 -1 0 0 0 0 1 0"
         id="feColorMatrix4670-7-9-0" />
      <feFlood
         id="feFlood4672-4-1-9"
         flood-opacity="1"
         flood-color="rgb(141,82,22)"
         result="flood"
         in="fbSourceGraphic" />
      <feComposite
         id="feComposite4674-8-2-3"
         in2="fbSourceGraphic"
         in="flood"
         operator="in"
         result="composite1" />
      <feGaussianBlur
         id="feGaussianBlur4676-3-7-6"
         in="composite1"
         stdDeviation="0"
         result="blur" />
      <feOffset
         id="feOffset4678-6-0-0"
         dx="6"
         dy="6"
         result="offset" />
      <feComposite
         id="feComposite4680-4-9-6"
         in2="offset"
         in="fbSourceGraphic"
         operator="over"
         result="composite2" />
    </filter>
  </defs>
  <sodipodi:namedview
     pagecolor="#ffffff"
     bordercolor="#666666"
     borderopacity="1"
     objecttolerance="10"
     gridtolerance="10"
     guidetolerance="10"
     inkscape:pageopacity="0"
     inkscape:pageshadow="2"
     inkscape:window-width="1920"
     inkscape:window-height="997"
     id="namedview4"
     showgrid="false"
     inkscape:zoom="0.31697513"
     inkscape:cx="1261.8"
     inkscape:cy="924.01917"
     inkscape:window-x="0"
     inkscape:window-y="0"
     inkscape:window-maximized="1"
     inkscape:current-layer="g4600-0" />
  <g
     inkscape:groupmode="layer"
     id="layer2"
     inkscape:label="artwork"
     sodipodi:insensitive="true">
    <image
       sodipodi:absref="/home/dash/Downloads/pepper carrot EPS/ep29_Destroyer-of-Worlds_lang-pack/lang/ph/../gfx_Pepper-and-Carrot_by-David-Revoy_E29P05.png"
       xlink:href="../gfx_Pepper-and-Carrot_by-David-Revoy_E29P05.png"
       y="0"
       x="0"
       id="image10"
       height="3503"
       width="2481" />
  </g>
  <g
     inkscape:groupmode="layer"
     id="layer3"
     inkscape:label="speechbubbles" />
  <g
     inkscape:groupmode="layer"
     id="layer1"
     inkscape:label="txt">
    <text
       xml:space="preserve"
       style="font-style:normal;font-variant:normal;font-weight:normal;font-stretch:normal;font-size:10.72754955px;line-height:0%;font-family:Lavi;-inkscape-font-specification:Lavi;text-align:center;letter-spacing:0px;word-spacing:0px;text-anchor:middle;fill:#ffffff;fill-opacity:0.78431373;stroke:none;stroke-width:0.99999988"
       x="271.04828"
       y="-181.09012"
       id="text4246-7-9-2"
       transform="matrix(0.54306109,0.97532738,-1.0672106,-0.07527648,0,0)"><tspan
         sodipodi:role="line"
         style="font-style:normal;font-variant:normal;font-weight:bold;font-stretch:normal;font-size:42.91019821px;line-height:1.20000005;font-family:Lavi;-inkscape-font-specification:'Lavi Bold';fill:#ffffff;fill-opacity:0.78431373;stroke-width:0.82059908"
         x="271.04828"
         y="-181.09012"
         id="tspan4252-5-2-8">Ssss!</tspan></text>
    <text
       xml:space="preserve"
       style="font-style:normal;font-variant:normal;font-weight:normal;font-stretch:normal;font-size:10.03259563px;line-height:0%;font-family:Lavi;-inkscape-font-specification:Lavi;text-align:center;letter-spacing:0px;word-spacing:0px;text-anchor:middle;fill:#ffffff;fill-opacity:0.78431373;stroke:none;stroke-width:0.99999994"
       x="648.52686"
       y="2113.0149"
       id="text4246-7-9-2-3"
       transform="matrix(0.96021882,-0.15106487,-0.04332115,1.0482447,0,0)"><tspan
         sodipodi:role="line"
         style="font-style:normal;font-variant:normal;font-weight:bold;font-stretch:normal;font-size:40.13038254px;line-height:1.20000005;font-family:Lavi;-inkscape-font-specification:'Lavi Bold';fill:#ffffff;fill-opacity:0.78431373;stroke-width:0.82059908"
         x="648.52686"
         y="2113.0149"
         id="tspan4252-5-2-8-6">Tock!</tspan></text>
    <text
       xml:space="preserve"
       style="font-style:normal;font-variant:normal;font-weight:normal;font-stretch:normal;line-height:0%;font-family:Lavi;-inkscape-font-specification:Lavi;letter-spacing:0px;word-spacing:0px;fill:#000000;fill-opacity:1;stroke:none;stroke-width:0;stroke-miterlimit:4;stroke-dasharray:none;stroke-opacity:1;filter:url(#filter4375-4-1-1-1-9)"
       x="787.65729"
       y="1584.5073"
       id="text4580"
       transform="matrix(1.0017297,-0.63749823,0.16868779,1.5037529,56.278037,1103.5637)"><tspan
         sodipodi:role="line"
         id="tspan4582"
         x="787.65729"
         y="1584.5073"
         style="font-size:70px;line-height:1.25;fill:#ffffff;stroke:none;stroke-width:0;stroke-miterlimit:4;stroke-dasharray:none"><tspan
           style="font-size:80.40014648px;stroke:none;stroke-width:0;stroke-miterlimit:4;stroke-dasharray:none"
           id="tspan4617">C<tspan
   style="font-size:58.59268951px;stroke-width:0"
   id="tspan869">RASH</tspan>!</tspan></tspan></text>
    <flowRoot
       xml:space="preserve"
       id="flowRoot861"
       style="fill:black;stroke:none;stroke-opacity:1;stroke-width:1px;stroke-linejoin:miter;stroke-linecap:butt;fill-opacity:1;font-family:Lavi;font-style:normal;font-weight:normal;font-size:0.66666667px;line-height:0%;letter-spacing:0px;word-spacing:-79.63999939px;-inkscape-font-specification:Lavi;font-stretch:normal;font-variant:normal;text-anchor:middle;text-align:center;writing-mode:lr"><flowRegion
         id="flowRegion863"><rect
           id="rect865"
           width="184.78261"
           height="36.95652"
           x="1336.9565"
           y="2781.261" /></flowRegion><flowPara
         id="flowPara867" /></flowRoot>    <text
       xml:space="preserve"
       style="font-style:normal;font-variant:normal;font-weight:normal;font-stretch:normal;line-height:0%;font-family:Lavi;-inkscape-font-specification:Lavi;letter-spacing:0px;word-spacing:0px;fill:#fff4bf;fill-opacity:1;stroke:#98b9ca;stroke-width:1.08608389;stroke-miterlimit:4;stroke-dasharray:none;stroke-opacity:1;filter:url(#filter4375-4-1-1-1-9-5-8-8-3-3)"
       x="787.65729"
       y="1584.5073"
       id="text4580-6-0-0-3-2"
       transform="matrix(0.58578418,-0.1699252,-0.1360915,0.71361262,1817.1085,1938.4882)"><tspan
         sodipodi:role="line"
         id="tspan4582-1-1-0-6-6"
         x="787.65729"
         y="1584.5073"
         style="font-size:70px;line-height:1.25;fill:#fff4bf;fill-opacity:1;stroke:#98b9ca;stroke-width:1.08608389;stroke-opacity:1"><tspan
           style="font-size:93.14950562px;fill:#fff4bf;fill-opacity:1;stroke:#98b9ca;stroke-width:1.08608389;stroke-opacity:1"
           id="tspan4315-8-9-0-1">Shrr<tspan
   style="font-size:120.16034698px;fill:#fff4bf;fill-opacity:1;stroke-width:1.08608389"
   id="tspan4176-6-8">oof…</tspan></tspan></tspan></text>
    <text
       xml:space="preserve"
       style="font-style:normal;font-variant:normal;font-weight:normal;font-stretch:normal;font-size:14.62346077px;line-height:0%;font-family:Lavi;-inkscape-font-specification:Lavi;text-align:center;letter-spacing:0px;word-spacing:0px;text-anchor:middle;fill:#ffffff;fill-opacity:0.78431373;stroke:none;stroke-width:0.99999994"
       x="834.9455"
       y="1246.5569"
       id="text4246-7-3"
       transform="matrix(0.69038925,-0.65410523,0.54802049,0.92923945,0,0)"><tspan
         sodipodi:role="line"
         style="font-style:normal;font-variant:normal;font-weight:bold;font-stretch:normal;font-size:58.49384308px;line-height:1.20000005;font-family:Lavi;-inkscape-font-specification:'Lavi Bold';fill:#ffffff;fill-opacity:0.78431373;stroke-width:0.82059908"
         x="834.9455"
         y="1246.5569"
         id="tspan4252-5-6">Poof!</tspan></text>
    <g
       id="g4600">
      <text
         transform="matrix(0.92528292,-0.21986925,0.00833824,1.0787692,0,0)"
         id="text4246-7"
         y="912.25958"
         x="2463.2031"
         style="font-style:normal;font-variant:normal;font-weight:normal;font-stretch:normal;font-size:16.43387222px;line-height:0%;font-family:Lavi;-inkscape-font-specification:Lavi;text-align:center;letter-spacing:0px;word-spacing:0px;text-anchor:middle;fill:#ffffff;fill-opacity:0.78431373;stroke:none;stroke-width:1.12380183"
         xml:space="preserve"><tspan
           id="tspan4252-5"
           y="912.25958"
           x="2474.7583"
           style="font-style:normal;font-variant:normal;font-weight:normal;font-stretch:normal;font-size:65.73548889px;line-height:1.20000005;font-family:Lavi;-inkscape-font-specification:'Lavi Bold';fill:#ffffff;fill-opacity:0.78431373;stroke-width:0.92219079"
           sodipodi:role="line">WAK </tspan></text>
      <text
         transform="matrix(0.9252829,-0.21986925,0.00833824,1.0787692,0,0)"
         id="text4246-7-7"
         y="953.9668"
         x="2405.9568"
         style="font-style:normal;font-variant:normal;font-weight:normal;font-stretch:normal;font-size:16.43387222px;line-height:0%;font-family:Lavi;-inkscape-font-specification:Lavi;text-align:center;letter-spacing:0px;word-spacing:0px;text-anchor:middle;fill:#ffffff;fill-opacity:0.78431373;stroke:none;stroke-width:1.12380183"
         xml:space="preserve"><tspan
           id="tspan4252-5-5"
           y="953.9668"
           x="2417.512"
           style="font-style:normal;font-variant:normal;font-weight:normal;font-stretch:normal;font-size:65.73548889px;line-height:1.20000005;font-family:Lavi;-inkscape-font-specification:'Lavi Bold';fill:#ffffff;fill-opacity:0.78431373;stroke-width:0.92219079"
           sodipodi:role="line">WAK </tspan></text>
      <text
         transform="matrix(1.0515066,0.1283415,-0.44426809,0.89679131,0,0)"
         id="text4246-7-35"
         y="-27.777212"
         x="1845.0057"
         style="font-style:normal;font-variant:normal;font-weight:normal;font-stretch:normal;font-size:22.60725975px;line-height:0%;font-family:Lavi;-inkscape-font-specification:Lavi;text-align:center;letter-spacing:0px;word-spacing:0px;text-anchor:middle;fill:#ffffff;fill-opacity:0.78431373;stroke:none;stroke-width:1.54595816"
         xml:space="preserve"><tspan
           id="tspan4252-5-62"
           y="-27.777212"
           x="1860.9015"
           style="font-style:normal;font-variant:normal;font-weight:normal;font-stretch:normal;font-size:90.429039px;line-height:1.20000005;font-family:Lavi;-inkscape-font-specification:'Lavi Bold';fill:#ffffff;fill-opacity:0.78431373;stroke-width:1.26861191"
           sodipodi:role="line">WAK </tspan></text>
      <text
         transform="matrix(1.0515066,0.1283415,-0.44426809,0.89679131,0,0)"
         id="text4246-7-35-2"
         y="22.718878"
         x="1909.8507"
         style="font-style:normal;font-variant:normal;font-weight:normal;font-stretch:normal;font-size:22.60725975px;line-height:0%;font-family:Lavi;-inkscape-font-specification:Lavi;text-align:center;letter-spacing:0px;word-spacing:0px;text-anchor:middle;fill:#ffffff;fill-opacity:0.78431373;stroke:none;stroke-width:1.54595816"
         xml:space="preserve"><tspan
           id="tspan4252-5-62-7"
           y="22.718878"
           x="1925.7465"
           style="font-style:normal;font-variant:normal;font-weight:normal;font-stretch:normal;font-size:90.429039px;line-height:1.20000005;font-family:Lavi;-inkscape-font-specification:'Lavi Bold';fill:#ffffff;fill-opacity:0.78431373;stroke-width:1.26861191"
           sodipodi:role="line">WAK </tspan></text>
    </g>
    <g
       transform="translate(-1943.0397,1063.0069)"
       id="g4600-0">
      <text
         transform="matrix(0.92528292,-0.21986925,0.00833824,1.0787692,0,0)"
         id="text4246-7-9"
         y="912.25958"
         x="2463.2031"
         style="font-style:normal;font-variant:normal;font-weight:normal;font-stretch:normal;font-size:16.43387222px;line-height:0%;font-family:Lavi;-inkscape-font-specification:Lavi;text-align:center;letter-spacing:0px;word-spacing:0px;text-anchor:middle;fill:#ffffff;fill-opacity:0.78431373;stroke:none;stroke-width:1.12380183"
         xml:space="preserve"><tspan
           id="tspan4252-5-3"
           y="912.25958"
           x="2474.7583"
           style="font-style:normal;font-variant:normal;font-weight:normal;font-stretch:normal;font-size:65.73548889px;line-height:1.20000005;font-family:Lavi;-inkscape-font-specification:'Lavi Bold';fill:#ffffff;fill-opacity:0.78431373;stroke-width:0.92219079"
           sodipodi:role="line">WAK </tspan></text>
      <text
         transform="matrix(0.9252829,-0.21986925,0.00833824,1.0787692,0,0)"
         id="text4246-7-7-6"
         y="953.9668"
         x="2405.9568"
         style="font-style:normal;font-variant:normal;font-weight:normal;font-stretch:normal;font-size:16.43387222px;line-height:0%;font-family:Lavi;-inkscape-font-specification:Lavi;text-align:center;letter-spacing:0px;word-spacing:0px;text-anchor:middle;fill:#ffffff;fill-opacity:0.78431373;stroke:none;stroke-width:1.12380183"
         xml:space="preserve"><tspan
           id="tspan4252-5-5-0"
           y="953.9668"
           x="2417.512"
           style="font-style:normal;font-variant:normal;font-weight:normal;font-stretch:normal;font-size:65.73548889px;line-height:1.20000005;font-family:Lavi;-inkscape-font-specification:'Lavi Bold';fill:#ffffff;fill-opacity:0.78431373;stroke-width:0.92219079"
           sodipodi:role="line">WAK </tspan></text>
      <text
         transform="matrix(1.0515066,0.1283415,-0.44426809,0.8967913,0,0)"
         id="text4246-7-35-6"
         y="-20.272625"
         x="2261.8735"
         style="font-style:normal;font-variant:normal;font-weight:normal;font-stretch:normal;font-size:22.60725975px;line-height:0%;font-family:Lavi;-inkscape-font-specification:Lavi;text-align:center;letter-spacing:0px;word-spacing:0px;text-anchor:middle;fill:#ffffff;fill-opacity:0.78431373;stroke:none;stroke-width:1.54595816"
         xml:space="preserve"><tspan
           id="tspan4252-5-62-2"
           y="-20.272625"
           x="2277.7693"
           style="font-style:normal;font-variant:normal;font-weight:normal;font-stretch:normal;font-size:90.429039px;line-height:1.20000005;font-family:Lavi;-inkscape-font-specification:'Lavi Bold';fill:#ffffff;fill-opacity:0.78431373;stroke-width:1.26861191"
           sodipodi:role="line">WAK </tspan></text>
      <text
         transform="matrix(1.0515066,0.1283415,-0.44426809,0.8967913,0,0)"
         id="text4246-7-35-2-6"
         y="143.36307"
         x="2057.1523"
         style="font-style:normal;font-variant:normal;font-weight:normal;font-stretch:normal;font-size:12.33190823px;line-height:0%;font-family:Lavi;-inkscape-font-specification:Lavi;text-align:center;letter-spacing:0px;word-spacing:0px;text-anchor:middle;fill:#ffffff;fill-opacity:0.78431373;stroke:none;stroke-width:0.84329611"
         xml:space="preserve"><tspan
           id="tspan4252-5-62-7-1"
           y="143.36307"
           x="2065.8232"
           style="font-style:normal;font-variant:normal;font-weight:normal;font-stretch:normal;font-size:49.3276329px;line-height:1.20000005;font-family:Lavi;-inkscape-font-specification:'Lavi Bold';fill:#ffffff;fill-opacity:0.78431373;stroke-width:0.69200808"
           sodipodi:role="line">WAK </tspan></text>
      <text
         transform="matrix(0.92528289,-0.21986925,0.00833824,1.0787692,0,0)"
         id="text4246-7-7-6-8"
         y="972.25922"
         x="3235.4849"
         style="font-style:normal;font-variant:normal;font-weight:normal;font-stretch:normal;font-size:16.43387222px;line-height:0%;font-family:Lavi;-inkscape-font-specification:Lavi;text-align:center;letter-spacing:0px;word-spacing:0px;text-anchor:middle;fill:#ffffff;fill-opacity:0.78431373;stroke:none;stroke-width:1.12380183"
         xml:space="preserve"><tspan
           id="tspan4252-5-5-0-7"
           y="972.25922"
           x="3247.04"
           style="font-style:normal;font-variant:normal;font-weight:normal;font-stretch:normal;font-size:65.73548889px;line-height:1.20000005;font-family:Lavi;-inkscape-font-specification:'Lavi Bold';fill:#ffffff;fill-opacity:0.78431373;stroke-width:0.92219079"
           sodipodi:role="line">HOY! </tspan><tspan
           y="1051.1417"
           x="3247.04"
           style="font-style:normal;font-variant:normal;font-weight:normal;font-stretch:normal;font-size:65.73548889px;line-height:1.20000005;font-family:Lavi;-inkscape-font-specification:'Lavi Bold';fill:#ffffff;fill-opacity:0.78431373;stroke-width:0.92219079"
           sodipodi:role="line"
           id="tspan4659">BWISIT </tspan><tspan
           y="1130.0243"
           x="3247.04"
           style="font-style:normal;font-variant:normal;font-weight:normal;font-stretch:normal;font-size:65.73548889px;line-height:1.20000005;font-family:Lavi;-inkscape-font-specification:'Lavi Bold';fill:#ffffff;fill-opacity:0.78431373;stroke-width:0.92219079"
           sodipodi:role="line"
           id="tspan4661">NA UWAK! </tspan></text>
      <text
         transform="matrix(0.92528289,-0.21986925,0.00833824,1.0787692,0,0)"
         id="text4246-7-7-6-8-9"
         y="1178.344"
         x="4166.8643"
         style="font-style:normal;font-variant:normal;font-weight:normal;font-stretch:normal;font-size:16.43387222px;line-height:0%;font-family:Lavi;-inkscape-font-specification:Lavi;text-align:center;letter-spacing:0px;word-spacing:0px;text-anchor:middle;fill:#ffffff;fill-opacity:0.78431373;stroke:none;stroke-width:1.12380183"
         xml:space="preserve"><tspan
           y="1178.344"
           x="4166.8643"
           style="font-style:normal;font-variant:normal;font-weight:normal;font-stretch:normal;font-size:65.73548889px;line-height:1.20000005;font-family:Lavi;-inkscape-font-specification:'Lavi Bold';fill:#ffffff;fill-opacity:0.78431373;stroke-width:0.92219079"
           sodipodi:role="line"
           id="tspan4661-2">mAGPATU-</tspan></text>
      <text
         transform="matrix(0.92528289,-0.21986925,0.00833824,1.0787692,0,0)"
         id="text4246-7-7-6-8-9-3"
         y="1875.6664"
         x="2699.1191"
         style="font-style:normal;font-variant:normal;font-weight:normal;font-stretch:normal;font-size:16.43387222px;line-height:0%;font-family:Lavi;-inkscape-font-specification:Lavi;text-align:center;letter-spacing:0px;word-spacing:0px;text-anchor:middle;fill:#ffffff;fill-opacity:0.78431373;stroke:none;stroke-width:1.12380183"
         xml:space="preserve"><tspan
           y="1875.6664"
           x="2699.1191"
           style="font-style:normal;font-variant:normal;font-weight:normal;font-stretch:normal;font-size:65.73548889px;line-height:1.20000005;font-family:Lavi;-inkscape-font-specification:'Lavi Bold';fill:#ffffff;fill-opacity:0.78431373;stroke-width:0.92219079"
           sodipodi:role="line"
           id="tspan4661-2-7">ARAY!!!</tspan></text>
    </g>
  </g>
</svg>
